{
    "hashes": {
        "appinfo\/info.xml": "591d0425279921b45ec14d627e7bb105fc79b42183098332b5865d7a93ca50836c7fae6afec5b9131a2c25bb55e9261d5e8cd97ddb9a91389cf8820bcfabfec0",
        "appinfo\/routes.php": "90f87e553e10faa0f7f46438f4ac345ae1d7694b62426559178c0961cb70c76c3a096aa8d6c9dd2ca40bf32c80f51bbd35d8bc9c3193581aa7dcea6ef38d68f6",
        "composer\/autoload.php": "51b358570d600f3fff8739295fe199eb6cb1bd0ca6a9c99d93a375fe529bec964b3ea486579cbc35cce20607e021aaad4bf3afb88d14f9b87398f4e80680c573",
        "composer\/composer.json": "d8c892e13caf7801c4929d726c1ad072b391bd1824607decee4b597300e3d38a1b7ea738646b1ee06f43c2a7df76633a08db1a19181a788fff658ebb31b93507",
        "composer\/composer.lock": "aba0413aa705be0d0570c496a43249c551836824e7a2b4673b51838fe0d9f425ddd07b6c4b95aa74ca549f58e90f2a7d78b51a2a3080749a5dc2e4a46d04fd1e",
        "composer\/composer\/ClassLoader.php": "a6884d84d11c4bcc2a53f86929ad8f519d5e1cda93724a3069df108b91a71345e59f2598cb0361ac0f88576fc03315a4158215b33e9609d8f07dbd3819754d61",
        "composer\/composer\/InstalledVersions.php": "733e68c171cb9e44868bb0f105850fbd0e4f225c67235bf30fb2ac5c3443c6edfb722d4b33aa91c82bb600e937cb6392eb1883694d41616e66969d7d42e23b4f",
        "composer\/composer\/LICENSE": "f3bb64009f41a425df5a9bbab53490f0eb9b74fa8d6aaa2f57efb928edc4ffff330260666edeaa04a91fed708c3663371cf01b284f3a08d6698aaef7a23f355a",
        "composer\/composer\/autoload_classmap.php": "2af476e3d23e5cfaabf482decf4c992d789c27ff40f12a49c517b2042d0f44f795032a30f754a36bd142c8b083090b14dc3df5f3ad59e95b3050e6379068ce38",
        "composer\/composer\/autoload_namespaces.php": "5b2571f3b573a778d362b8c7412787b4084c7f27d3f5bba1585243f3ccbb0b9054e68522a22a1ad59ec11097b03a0e343865c0188c65b25f0a97e24e120339d1",
        "composer\/composer\/autoload_psr4.php": "7a522a6792f59dbfdbae807ed7a3123ed5139cedcedd3b3b83999d62cc5b02ad6964bba39a34e4334b9dc6bb433f1009294cc4c7b9ae0bfc3dc5154f4723220a",
        "composer\/composer\/autoload_real.php": "a24a38189d7efe0c46b902816f07acb08b432118bd30605687ed80c63eb7c03d37d439f3ab87e7605e025bbd0c5fa510099af7e79ac5857b29db4bf0e42c0947",
        "composer\/composer\/autoload_static.php": "a45c9298a1d3fa268904b186043cf9e4d8af44cc1a639c8b013b5c26790b3eb3a94cfdb79f6021fc499c9e84c7a467c49909e184233038f058d1ede7574c2b51",
        "composer\/composer\/installed.json": "0a3ed51f953eb945b970a8eb21957ca2beee4669c7d0d9be97b8259c391b60688f8abb78d4b1fae5e4e2ea5e3d8747f4d35f066a2605e9a76f5b45ec3f1da357",
        "composer\/composer\/installed.php": "e6858a3fc8f40144ee72d1ab87b5431a4f3246ac64d53bf639efeb6636392372bd10ba18a0b1cbaa483b8c05a1e35af769c457447ddb10af2cf00270767adb22",
        "img\/app-dark.svg": "fb7c343b3fd988453e03403c8b9e26a7f702a17b088ccbd4728a16444fccefb574939ee00d2700080dcdee6c32a9a5ae0e2808e1b8e2699dbfe8fb144af3d858",
        "img\/app.svg": "7d62a4f8322f744a494335d38769cba2805a2bfce7d80a64221391d5f5ac662c3864fcbf07f56b336add6d1c808355bdc558568feccbba08b79cd9f059dbcf01",
        "l10n\/ast.js": "7e4ac4823a898c12e9a96b4722faafdadd2c3d7624a0d849b629b0a9b67c316eec73f354862ff3576d5fc08ca2cb4fe248f37e94c999ff154b2936a64b6d76ec",
        "l10n\/ast.json": "78cb076817d8d46bb472c77d356069c6e4005014cfc3e9541855d081bd2c46fcce3516c02deaecaa9dae447de13972c09b322878bd2661d14d74bd974857eb00",
        "l10n\/bg.js": "c35bce8da0e2c5faa286b4a4693939eacffce0f22ac161d55ab719674328f01b23f0bd05d27909c99315af1711b0f9368410ce632a99c4033c88c2641e1e0496",
        "l10n\/bg.json": "c4691e5d520dd7e966d4e2d7f2711bb84a5ee521e8a59f4e64aca5ed175d3e592261d712882f5a20c0ac77191fe2a830feef172323a2164eaa7d405880bb2127",
        "l10n\/ca.js": "98218981e98a2d41e932ebd906ba967b945465a7f8e3f4e9d32c23a40dc57c0249171c418be517f6b9f38e11aa7d2f6e86142031c65bd9d63e2500a8170e2c45",
        "l10n\/ca.json": "b6ae417b4e2029e9c4085ffc8de2cfa694bcb647f9f380e03c6a0bde19108c45d550e14c9e818dfe79d37ee9e110eaa99bcaf1d82888a8d9717c9e0aa098a26b",
        "l10n\/cs.js": "cb3f04891bc13c3707d0ea491a8b1227dad577977a88121f43a85e06b75caf9599cc44dddb7d33ddc94b3c52c12652872ddafaa930cb7d194b705ece9911bf4a",
        "l10n\/cs.json": "2cffc840b82acb2a62013de827d720f357c4fa87055d093a4d240c6a0dc7eaa353f6de507acbf758859999c0b7393000a37244a3f4c11e7c14301ba000841849",
        "l10n\/da.js": "a7a3f0d050c0a9b1a622474ed0eebf9a45b64bffb6bd630ab9786a5b6a0c0e120cd5bcdfeca5e9967ff42534b8ba2138611cf295d63f3049c9d6854ab4df9754",
        "l10n\/da.json": "b70cec47a738e234ed3d43a225ebbcbaf5d49a38f646d2a672bdba798cc1a1f3d40235573c12a2960493f73023e43fa0085763938a1a16c3df09f32dee7d87e1",
        "l10n\/de.js": "aca130e36388e3f7f783532c2d914bb0116a85da1b291037dd4556b30bc0363ebace48f1d2118b947d0a5c5e03375d2c897174bb9f16bca67c3ee17e141a2cf6",
        "l10n\/de.json": "c755da75bdc96f80ca20d2a8d0a6a9594ea6d143a8951f68c62e26f38602dfd1ec7d0c3b0f76b6b74edde7f9f0a335044402af632a7b135d8bec01b31c864528",
        "l10n\/de_DE.js": "10d4365930c4341f6c57f390b935d60f92a785ac8c9bacf45741a37a33180be1db469d867bd02a00a5a79d837f8f83982c8d1c25652d8706131cbc78919e4e9b",
        "l10n\/de_DE.json": "2772ed18dd7ccf51ef5dbb5fdf4cac1970c7f8919011479f878963bdbe0ed6b2db15d3f9444acd664250076778a2c8a413b96ea94641e59683bd9bdb14680061",
        "l10n\/el.js": "d42a0595292c24db6e8cfcc4a71a96e2c104b80c62fb2e536e9500ec4e4fbf43ec15c73462aa3390dd27175d0c12a7b40d23fd59eb92a6d84b51fbd6da8411cb",
        "l10n\/el.json": "9bf4cca73279c5a4af1e65cd6a43ab3023bab357903dfe11836cc59fc75cb8ad282b379531f89fd3ab9a90f63c6474c70ffd23bdac8217f98ed81029e3c4488e",
        "l10n\/en_GB.js": "5958a68c2ee57cef2b9ad4c3185f9a5000b4485a88c5a804e5e59e5159934797d048a0a3155a7ebd5dac8f66bb906a8de639729f9ccc17f9ee40168023f4626d",
        "l10n\/en_GB.json": "3851df23feb819cc3c6707fe6badd6f6a6c32d5608f4b9e23aa483bbf5f1daa808fe8a79c0cd40d060a3a013f0ecc62456ea4eab31d85edb2632fd4b185cd1fd",
        "l10n\/eo.js": "d957eacef5e5fe8b22ef32f0d823c81a78d38ec51ff8aeaec6c2ef50d2f9865ff694d13a959a447754cc343139d82b1db89a6cf692c7cbc461d636f21fe9536b",
        "l10n\/eo.json": "f13b87f4c2a1f4c905e3a6c1532e071dbd15b7359eafff33fadc4d7ff406dc0bf96458567b487ae5ddf9a3f9b82b7c4cef0e2ce5e94ec014ddad0d05819a9193",
        "l10n\/es.js": "22cea2f16ef9195e49d67e8b83e87e5cb5c89dfa137bc129b945e0f580ce2eef06e42ebfc7fd5dd74ceb768527ce2d9bfdf8fc03e38c3dc3a8b1f717e28e6bb4",
        "l10n\/es.json": "43fa6e0466771fab61f9653bada41731ad7d2616dd4f83dfb996882e779b7c740315d2581920a36745443fc72e65308b3868a73d548084691b2711e2cfdf560b",
        "l10n\/es_419.js": "974520889c3bbe1d8a00d053577de83d4908b00523d15fe32c90a1f6befb26e3043d18eaf80cf13abaf15379d695fe485154ac7744e135aa4e120126b77f9638",
        "l10n\/es_419.json": "690d5553b273386e0a7ee2dd3acbc46152634490ed6f08e0424b261c097cf4c0f4661cfc38669c71be68a39d55244426516ef9638e462df54df035763811068c",
        "l10n\/es_AR.js": "cf157e919ca853bff816dd3a7be7a9aa035597ddffeb9c97acc6873ae942e2c56a93d76ad5702ac80fdec958a64858f16fb74ef6faadd5025f12d4cc37f6f0ce",
        "l10n\/es_AR.json": "dda4ab8fbed5d240a1f570a538da3320fe2bb820d4110832f33af9e552010ad2d4b6a78a786b253acda38acb73c7d8b0d7ce0cc57c53186e142af64f00609d0e",
        "l10n\/es_CL.js": "974520889c3bbe1d8a00d053577de83d4908b00523d15fe32c90a1f6befb26e3043d18eaf80cf13abaf15379d695fe485154ac7744e135aa4e120126b77f9638",
        "l10n\/es_CL.json": "690d5553b273386e0a7ee2dd3acbc46152634490ed6f08e0424b261c097cf4c0f4661cfc38669c71be68a39d55244426516ef9638e462df54df035763811068c",
        "l10n\/es_CO.js": "974520889c3bbe1d8a00d053577de83d4908b00523d15fe32c90a1f6befb26e3043d18eaf80cf13abaf15379d695fe485154ac7744e135aa4e120126b77f9638",
        "l10n\/es_CO.json": "690d5553b273386e0a7ee2dd3acbc46152634490ed6f08e0424b261c097cf4c0f4661cfc38669c71be68a39d55244426516ef9638e462df54df035763811068c",
        "l10n\/es_CR.js": "974520889c3bbe1d8a00d053577de83d4908b00523d15fe32c90a1f6befb26e3043d18eaf80cf13abaf15379d695fe485154ac7744e135aa4e120126b77f9638",
        "l10n\/es_CR.json": "690d5553b273386e0a7ee2dd3acbc46152634490ed6f08e0424b261c097cf4c0f4661cfc38669c71be68a39d55244426516ef9638e462df54df035763811068c",
        "l10n\/es_DO.js": "974520889c3bbe1d8a00d053577de83d4908b00523d15fe32c90a1f6befb26e3043d18eaf80cf13abaf15379d695fe485154ac7744e135aa4e120126b77f9638",
        "l10n\/es_DO.json": "690d5553b273386e0a7ee2dd3acbc46152634490ed6f08e0424b261c097cf4c0f4661cfc38669c71be68a39d55244426516ef9638e462df54df035763811068c",
        "l10n\/es_EC.js": "974520889c3bbe1d8a00d053577de83d4908b00523d15fe32c90a1f6befb26e3043d18eaf80cf13abaf15379d695fe485154ac7744e135aa4e120126b77f9638",
        "l10n\/es_EC.json": "690d5553b273386e0a7ee2dd3acbc46152634490ed6f08e0424b261c097cf4c0f4661cfc38669c71be68a39d55244426516ef9638e462df54df035763811068c",
        "l10n\/es_GT.js": "974520889c3bbe1d8a00d053577de83d4908b00523d15fe32c90a1f6befb26e3043d18eaf80cf13abaf15379d695fe485154ac7744e135aa4e120126b77f9638",
        "l10n\/es_GT.json": "690d5553b273386e0a7ee2dd3acbc46152634490ed6f08e0424b261c097cf4c0f4661cfc38669c71be68a39d55244426516ef9638e462df54df035763811068c",
        "l10n\/es_HN.js": "974520889c3bbe1d8a00d053577de83d4908b00523d15fe32c90a1f6befb26e3043d18eaf80cf13abaf15379d695fe485154ac7744e135aa4e120126b77f9638",
        "l10n\/es_HN.json": "690d5553b273386e0a7ee2dd3acbc46152634490ed6f08e0424b261c097cf4c0f4661cfc38669c71be68a39d55244426516ef9638e462df54df035763811068c",
        "l10n\/es_MX.js": "5bcce78589dd762b49edc64d8890d4edc4d6bf302fcdcb2cce2427b628a6f1aed4543f460cfa77c95bb59b27da6825bb8858490d2a98aed5c8cecd8f3c4b70d7",
        "l10n\/es_MX.json": "d48c3a953fc66c00c96c5888e9f20bd64b064ea534c09f024f239399b4c8d39367222c527d46372bb9ea2c6ef970bff88e08fe5d4b23a4d0ec826d4edd205482",
        "l10n\/es_NI.js": "974520889c3bbe1d8a00d053577de83d4908b00523d15fe32c90a1f6befb26e3043d18eaf80cf13abaf15379d695fe485154ac7744e135aa4e120126b77f9638",
        "l10n\/es_NI.json": "690d5553b273386e0a7ee2dd3acbc46152634490ed6f08e0424b261c097cf4c0f4661cfc38669c71be68a39d55244426516ef9638e462df54df035763811068c",
        "l10n\/es_PA.js": "974520889c3bbe1d8a00d053577de83d4908b00523d15fe32c90a1f6befb26e3043d18eaf80cf13abaf15379d695fe485154ac7744e135aa4e120126b77f9638",
        "l10n\/es_PA.json": "690d5553b273386e0a7ee2dd3acbc46152634490ed6f08e0424b261c097cf4c0f4661cfc38669c71be68a39d55244426516ef9638e462df54df035763811068c",
        "l10n\/es_PE.js": "974520889c3bbe1d8a00d053577de83d4908b00523d15fe32c90a1f6befb26e3043d18eaf80cf13abaf15379d695fe485154ac7744e135aa4e120126b77f9638",
        "l10n\/es_PE.json": "690d5553b273386e0a7ee2dd3acbc46152634490ed6f08e0424b261c097cf4c0f4661cfc38669c71be68a39d55244426516ef9638e462df54df035763811068c",
        "l10n\/es_PR.js": "974520889c3bbe1d8a00d053577de83d4908b00523d15fe32c90a1f6befb26e3043d18eaf80cf13abaf15379d695fe485154ac7744e135aa4e120126b77f9638",
        "l10n\/es_PR.json": "690d5553b273386e0a7ee2dd3acbc46152634490ed6f08e0424b261c097cf4c0f4661cfc38669c71be68a39d55244426516ef9638e462df54df035763811068c",
        "l10n\/es_PY.js": "974520889c3bbe1d8a00d053577de83d4908b00523d15fe32c90a1f6befb26e3043d18eaf80cf13abaf15379d695fe485154ac7744e135aa4e120126b77f9638",
        "l10n\/es_PY.json": "690d5553b273386e0a7ee2dd3acbc46152634490ed6f08e0424b261c097cf4c0f4661cfc38669c71be68a39d55244426516ef9638e462df54df035763811068c",
        "l10n\/es_SV.js": "974520889c3bbe1d8a00d053577de83d4908b00523d15fe32c90a1f6befb26e3043d18eaf80cf13abaf15379d695fe485154ac7744e135aa4e120126b77f9638",
        "l10n\/es_SV.json": "690d5553b273386e0a7ee2dd3acbc46152634490ed6f08e0424b261c097cf4c0f4661cfc38669c71be68a39d55244426516ef9638e462df54df035763811068c",
        "l10n\/es_UY.js": "974520889c3bbe1d8a00d053577de83d4908b00523d15fe32c90a1f6befb26e3043d18eaf80cf13abaf15379d695fe485154ac7744e135aa4e120126b77f9638",
        "l10n\/es_UY.json": "690d5553b273386e0a7ee2dd3acbc46152634490ed6f08e0424b261c097cf4c0f4661cfc38669c71be68a39d55244426516ef9638e462df54df035763811068c",
        "l10n\/et_EE.js": "3b62f0955d25af6ed7039cd9bd1483784faf1ba4dbd9e0add0314495337fb80f3c92356fbaf3489b7497497c9d72a573a688a0b8f71d2ecfcc6d24e07e5b68e4",
        "l10n\/et_EE.json": "4d4d8054996943b06474ab2e5003c86e43a40963a21611caf76351d438d02919154f2704d089f61f81f8a7992a822fb9da250d4a3a0e3fe192be338133397f45",
        "l10n\/eu.js": "cf5afd6ecb3f25fc34ed53285917e51e640d4694af4fe117043cb433671fc9188744c4a1f36bfb9879603137a3b37efdd523af2ff05f2259d26150a61f328f62",
        "l10n\/eu.json": "a9b037b9d9855169f6170f3e622593cd7495304b01ebfeac5ed4a9f68aa6561151381bbf117faa6950ec76b5c5b3bf82c4f49419ac96d0f7bd34b17ebe829e4f",
        "l10n\/fa.js": "9df47f9187486aeba75013489a4524af5f0ca3f38afe107dd53d051e20fd44486b22412e2c5bc962e94a1589f01df3301ff8d82160533678712148a5bcdcecc9",
        "l10n\/fa.json": "42c901c605bb9cb92da57f82b82b20c8f4d69aca2f72958d4c736801e17066b93512c3e284bf866c6cb65709c4364fb6672273d158444c32eb0db497a30025f9",
        "l10n\/fi.js": "fb88cfe92e4b4ca72e76c259eae9495623c5a8289f8008de5864ee363990d77a6ef60f41a0b53328ef182a51a3658fa599e31c97c461dd41938a82abd0bfd6f5",
        "l10n\/fi.json": "9405c476bbc28cbab59fb11d0a994a1c91dcc2a34fefd2ff019573a0e5dde06a7c2418ac9835d772eb5ace56dc93f99462a9e040e025303b86a09d84836bee72",
        "l10n\/fr.js": "5f891b5f8e65aba7d4335de3560ed64091a4cf2cd8593cadb1ad743fc6debd097d19044975c7def5f57bd263070aec9e8482b83c592066afe58b3e830cf45f6e",
        "l10n\/fr.json": "b5a7c267683b36aec4519f188c2621395aa2aeaa083a0f71e85e2b2abe983e7ed431bd886e8c719a48495e6fa2a8b2648c2943a8727af1644a237d88be51485c",
        "l10n\/gl.js": "f9db67e51734e3e862e88c65b12806820d5a3e42c6b33bba5432df6ed3e9d61d8aac8c56785b6f2f505dabe600b8cedcb70a7248a84635e280dcc23ad87d38fc",
        "l10n\/gl.json": "d851ce4e01310c73201d19b2b2805d4923d05430a964ff257d7511228f503019d1584b9ff27c7156ed47da079278e5a4085d7ac51040049df9ac198d424fd14e",
        "l10n\/he.js": "aecb02151269144996ba7e435fe0cd09ed6533c614c103e2d6b6e97c32017a3f8fefebe98f01d2d9d805f1513fe32ad9c9004a078b6940b33b6c0709b51f1d11",
        "l10n\/he.json": "ad2b4e211085e21306578297abf1b38210945a717b423e7227699fe374a88660659ad8562dd47aa960c86e84a9280ec92c5e0cacb90f13f0950567957487c73f",
        "l10n\/hr.js": "b93d7ad5f489329d7a20a5100ff72bd838ae43d3c80eb286f4f558bcd0cbb51f8f7c66fe0beb6a5fc2a9d4e62c4dc32161f131d67615f84c12526393048e90ef",
        "l10n\/hr.json": "aa36a7dd20809261d6ffc57d7a95492d25713920c58cf9085e70ace083d6c97b5557acf56494d1cd46e9f80396c08d94da95d63b28e4df408650e04eaa7fa543",
        "l10n\/hu.js": "e47b087ef5888e23074f03b6ed8ee38a4146c60761ab6467eeabbc33b9cc6a66a82ccdefde545ae26efdb54fd42828d96c518a711bf606c2f2e78696a15341c7",
        "l10n\/hu.json": "166f78424b58ff097a68f9ce155c8d1c135ff37b432e61b280d005569907e60f17bf345866658e33e8b05f6e5e321a2dcaac74bf7e479a12743cb3955b2ba1c3",
        "l10n\/ia.js": "1c518123bb113b951a57f58c95a288fac67d3454cb66bded2a9c572f58b193344a8dd6fa7680497cfbbc801ad0c1700acaa870e1d6feb5a7d5725cd304dfc3b3",
        "l10n\/ia.json": "ab0aaba76f1fff769bca4251f4fa019acd1686d0e3b8964fa0cc6b102b4e8cf242f56367f3ca0d32502ae03fce5aa0d87f2470a121edcae002e2f3f46d64a497",
        "l10n\/id.js": "cc33789b37917727a258b818a7144854ca408bd59914822db84edcbcd6589acaac9f2dbf70652110325b3aa582b14412570efd947c22b467b779991e82d43060",
        "l10n\/id.json": "f1492b6690f9de727654b1b0c8d67f670ea4c114465b4ddf3b80658ed53ad7522698fa91be1f55df8ac2779eeca36d990fc9fdf6bb3d5b8b32b60b44e61f18b0",
        "l10n\/is.js": "07999623735a1d252fd89895e27493030e64c21e5f8fbf40408022cd182287bc6e0315e025477e3d009089698ff576488fc08533bd8baa44832ffe41f1018f0c",
        "l10n\/is.json": "246c1593cf2c7ab9b2e4e46e587c0db5e3fd54907b038e3a677e316fb632d780978743a58511814624e785e59f568c92a98c7690e573aa6be1105c1be0d57e15",
        "l10n\/it.js": "8bfb2d7ec8597e67f6c033849e827607b6d8ac5852c054424a7b773aaac1106462d639d944caadca51328d9946ab77de41a8d80952e77fb9907b95456607a436",
        "l10n\/it.json": "f8d6384c8245d6a7cd672baaf30f7df65029e0a5fa20b74bea07489d6188974e39612a7bf6787ea0c40ca49b44209142edc8bcdb3f33bb3d2e9d29fc0c235806",
        "l10n\/ja.js": "9d28d302f1675900b30aea7a17d4de0aaa21e9ce7c3bc9a98595b9719f26b74c9c83f0fda2880f07cb5154dca82154a37f3d7aa9728ead47cb56b851420486c2",
        "l10n\/ja.json": "276720dcf6d73cbc155a123b83b044371fbf1739daf396ed7a6228c2ac5b7bcb4164e7a94d8824fac1fb42bdc6adc213bec59b7a95dbe51124973c2758142a8d",
        "l10n\/ka_GE.js": "8cf345c33b8df43b2beaf97894cd09cc0be419f1401c955888f8af985f18a91d1b6765c274759be6bdfcf58143c1fd278ae6e643efe2d6654f1f3b33369600a6",
        "l10n\/ka_GE.json": "fb0a7f43e7969d389d48f4c5f0ee4b834b860dfaebd0c9e8083e64228db83061dc266eb76ccd97c6b31025f11e107ecb0b628e8250e0be17df297ba8e1fd5410",
        "l10n\/ko.js": "52b67ab40d2eb1158ad7b0fbb6de3445641cf2dc96ba89c9fbd5c95e059009619e143d69ea33e0a962388ac256c28dd8f27a3e387100a3773fe106cf6020b283",
        "l10n\/ko.json": "41d2612d31dc2f7984ebd29c6472341186bc7407a57cd34550620746d1036139aef7378d52f9ffb1b53df44abb64004845fc03025bce766f4b6f54426f964bb0",
        "l10n\/lt_LT.js": "e96ab749d84d24a938267edd278ba142bc45fc8dab6f86aaf1351c0c76ab1c982a056a645c5eea7a9cb06bc5ca6d81e5f85ab6e3e59b54706f4f0164700ab0c8",
        "l10n\/lt_LT.json": "50c1c8c505ed73a594c424713c28124c328ff45dff4d2b6832ba8b76a7fddb4c6180117c87982ac20c5b4214c4f4993611b5b74be021bf365f543b8f14883b07",
        "l10n\/lv.js": "b8f28429a19708e81bbabec5b9299e31ade780bdacdf0fe680839a4ccecb146e66cd446d27cf41de0fe4a23cb0f0aba6a7965b9772ac1ab788ffeafbd62c6590",
        "l10n\/lv.json": "5968cb7ed77037ead3909d036f064368dd080826b8ea53e5a076eb87e33b979fe2ae6fc4aac8dc7f7b9689b2d422800299bcaae41edf446a6044d2542ed7bda4",
        "l10n\/mk.js": "087cf57c9cf56b3c95e8db2c7622df6cfceac07c091163180849dbf5cba3ba313ce3bf0b70b74b29bb9a26618338e8c669af03221219e7be5d6c27493fdddaed",
        "l10n\/mk.json": "009b0c6188c3485112c518c03f4f763a61a3162a144ca48053f27e58a66f66433c3b1cff89145cc4cbff7ba95cc210bae05668233036310383a8f8c86717e364",
        "l10n\/mn.js": "548fb87297cca8e5932fedebd2cbb392d45fe2e75258cb74c137e8d953985c1ff92e13d50792195806465a619182f10694e161926d23b6ac97dd37ea33d8bc20",
        "l10n\/mn.json": "1375f9f4109643b901d6a79c75c87f0e8b4c5e2549b1a71bb388f48a782e3f7527a30d6c903bbef363e3008ae25ffb834a57dce2da3707b20cbfa17b0f6dc127",
        "l10n\/nb.js": "306212c9c0aa8f3594c26b6405a49369248da26e0e512b37a0c643951602b67532be2c4f706396160f58edac958f7db6b4d0e1205ce9fe4380801060de923f8e",
        "l10n\/nb.json": "6505466ff7f2df3f85ea8739126226307ce70ce70dae118893399888e8780258e7f85a36a7f3073cb1dc0ce8f3bac78ec55ee96cf174eccce4167dfe8a753918",
        "l10n\/nl.js": "d2a9b4a640d79aa32cd102b00da22e31d004825de65eed937d2b87042045158bc5cb235f77983dd7e6b7673dd3fa59fa8b7c9c266d8e49680f50b1310289a1f2",
        "l10n\/nl.json": "073e533204670d9f5666cb9e7f9375318e863560f58811c34d58a51db08bdbaa4fd510b1aa566f912ad9fdc17c7a6eed41e38b30c4ae8f4140dbd53f4142a0f3",
        "l10n\/pl.js": "3f1be3c365c68673a73d2857e3f18979ce21d9a6534d35aeb2f81aa1558419ccb22efaeef1cf5458274df947fb3faf3f8d971547fb534aa217a5aa50b7196b55",
        "l10n\/pl.json": "70df123af3a05a2f05791f6246f4eb4bb58c6d35c73cebfb4185d5f9fded967c436fff6842b9dbe279712d8f02d19d9573fd29772483eb8a565f1e4642cae586",
        "l10n\/pt_BR.js": "0a463efbdda64b419cdbf2ae8a328143635b730cccf335d75fccaa71e43bc6a4656d7f813a83ecdcd8f01d61a60abf0944029ed32a8b9c9c9c9567e06d844b8d",
        "l10n\/pt_BR.json": "f615cdc171d860976dd1a275b9511ab1dcebcd72bc17849b92dd244c10d23afd952cfa74846745f03df3a545359678076f3e154303df5b69c2cdba58795eaa0e",
        "l10n\/pt_PT.js": "3a3653302f89a18e1f18b68771f9229f767f95a9d4136f58f5ef0d1f57a3a5f4cf75a5b176dbaf79ddcebd1ced888bc320194f775c475a23483b940947fca0ff",
        "l10n\/pt_PT.json": "b7aed25df893b0e6270bf79996b0c1f5371f83b8d6511938d9e9592bef56ea23cd1623793c3eff7668d184d97ba464933790a49e71b9b44519288760986b2c5c",
        "l10n\/ru.js": "a451c95b775cbbc108d3298b5560e41d3f120d5ac3e87be79aac59df2d8e5c8c713fa1ffd29e1a438ade40a054480566abc3eb7088f7a509d20610c8c7af40a1",
        "l10n\/ru.json": "73970b7bf8a0334e860d6d48ff827a93967b08b6890e11d1bf5240bd11d3e968b0c6a15bbe7a2eb693db2fe658f3b835f1fcb0715bb1c714aba008f10981784f",
        "l10n\/sc.js": "49ef511d85939eed0f04c66ac0d510b04a64f0a2792112b1d8007a0f7a180a88c0a9920950bd8689a5061733ff5a1370ca204eec13a5c4ffae93e047c2466155",
        "l10n\/sc.json": "8c66f0f3bb896d5d6a6eb0cfe090010854069dc0cf762d90de90b7286f5b0587d39617b2f487afa4e0369915666e01d3dc61e7d7c7a11013cb181319a69323d6",
        "l10n\/sk.js": "268e24cfe32b25021a9a16bb082e696ee4ed6b48533ce39c32afcb1b0fdd9da67b4399f4fa7ce58c112a6889a52bda2b2cb43bd9269643cb6956bb493c0cdd29",
        "l10n\/sk.json": "b79af29f2cecc0d1a501d13d7d7066c5e7e95c161d8279dd0dbed0b2fc926463f139a6dbc8fa667945291cfac2668cc62f1ac95ac675f4bee43c35929ab4734f",
        "l10n\/sl.js": "627fa637a73f15ae2767216f638eeb339b699d66b00b8486b06e9a33b53c70f3c3e6359b4aaafacbf1ad6972df0e13dfd15c2ed4443c87527b9840c8395b49bd",
        "l10n\/sl.json": "819a472fbd17729ef8e506964153a7eb37fa9461a7cc3786f8a734dae322863e5bb6d2a46d45488a4f9bbd297193082cf6185cb6629c54f80e9cab7583582586",
        "l10n\/sq.js": "a17a6316b24c06e22440fecda83bb044c95be87d918dc8e2a58eb458f2cb6aea4c2698c6e3b388d508f759a1948a29f24cdc991038bf5ca17e1dd3c80b1ead97",
        "l10n\/sq.json": "8b6f01eaa035bd93900cd22f332bf819f4bf845014815fb023171b38505e0de086f059a93e08cc79c2de5edeaa4545822fe6a0f42c0ccb040b3455b45e27e027",
        "l10n\/sr.js": "b190f2aa72579be5c9183dae78a0ab1b15b0386e55c55c15fde7c1d22d79224e5421ece79cb40baeb80335ae3bde80841ab53b333df5c4f8bd08f91b2ac9bce6",
        "l10n\/sr.json": "2bc3277137f548beff51a5d4f3210364c4f084c35abad75ec1c3bc9a897ada59b41cdbbe79703d654ec754793bda8280bbd159ea5d4202b9dc0c48615d82870d",
        "l10n\/sv.js": "74ad8bd8734936db2bf8b0c485a6653ad5d7e988f0a3d509c7a5b5be58ff1dfbbf499349e48aa0e6e4d736699a1497ed1395c7ba434799249b3d18088953017b",
        "l10n\/sv.json": "f2c5a2b70635a6806d8b0ae3e0e44cd78a59a6dce1203998426f3e50c6eebf4fb3596dcaa66099d8cf2ab874766ef5b1067cf19e294d737066700abda35d7053",
        "l10n\/tr.js": "8bb168e722bad36ea30d3a3d133fa09bcba15c598193e3cd09f0cfa959c3874b892a58f936970f359912dfa35feb5f2ff05979a27a54f4da328bcfdbbe9cc40f",
        "l10n\/tr.json": "56da0787b81e501735d9c1523e66f04def6e6ed37a96de0e78cb824ba842d7bcc56896cd771f5dea9aa075465caa51dfe7ef274d3bb7a056b64382fa28ca6477",
        "l10n\/uk.js": "94372734037f42b7774902287f4028ffdca984186f5a342db7d8f6a8f10614b82c118ec7377da82a123835aef0cd0cb9d81599c621f34cf31de3855dbc090abf",
        "l10n\/uk.json": "eb2616f0b6d692e885b1a35e5c82cf3833b344ca19008b31e7cc2f86216eceb478757271919e2c868cb2a0b48ec1d9749be1378a5980ab2a6f90e6975e2a1d14",
        "l10n\/zh_CN.js": "f1d87252dc9b730e09fb73bf3c8e479b276215ca4130e7bed37a3af263bd487a60b47d5030e0234ddcc189fbcb08e9748ed0471887171acf450f4a38cc43e14b",
        "l10n\/zh_CN.json": "d886629517b091ab9a40dc32392352722866de906883b121e0dc74d5859553239227f364f55922468908b9306398dd5ffc5f7951019a64b62011249be67052ab",
        "l10n\/zh_HK.js": "2290c74f7aae5b7669d10d7a2870a3e7aa2bc99c86572cbef7f4b9d91fecc3487a10efeecd411d3250f3f76e9d2425c93c9d115d1ef49f5a393470ea9a58f172",
        "l10n\/zh_HK.json": "9eeb65cb398884c423a08706fe530ca95bc23051a77e91c64bd0f6c548b2ad39ac9e00e7a6e688c2ce331ed4a91911eb3ea09258212ba599499e34b2a302bb3c",
        "l10n\/zh_TW.js": "7cfa10a65d16f480f996734dfdf0b4bdc661c1fdd7785f158149897ead6905d999f1a9287f21a5ab79a7378cd51452930a89d82254311eacf5da66e803fb27bc",
        "l10n\/zh_TW.json": "a3ae229fdac97ed6a939cfaafd0e5d8daeaa0ca295145a5c2218b5f208595e4514a21f9d842d69e2186c860f8db1af998e1a52e46440c480478cef01f677cc40",
        "lib\/AppInfo\/Application.php": "16429e29ec0a08680f29174a925dc34656cdebb27182e587b285177bdf80a8eef1a9611ca4f70d65b2b55c3c34c77fb81f9d95b9718e2bb8f8f6d90c25a27ae1",
        "lib\/BackgroundJobs\/Rotate.php": "eae8eab0daa78f2afbc62a6389662a1319704b6f37c05e5f5fa7bc26fd7fa166c5f690674ede20317efae9ea4ae39a72a13ffd5ebb0d396142cbc7ae07c0731a",
        "lib\/Check\/AbstractStringCheck.php": "6484de455dbd31b460dcc822d4da1731687f4a2a1f5731e21ea131d0be2549d666f5a4c178ec7d9115b3e59d7d81857dc9d2b496cc9975a3545a83efcdc95bb9",
        "lib\/Check\/FileMimeType.php": "cc09c3020290871466eff0e40f9faabd7000e9c0a8fa7bbb10513ef40b7319ae36de79bfa7cd4a75f820aa948b21c369f28c8367480dd8884e91d9d94feb6b31",
        "lib\/Check\/FileName.php": "139634934f0ba4b46e096f5ca6a9453d487bc742ca0e3159466b9dd6cd7490513a7bf1c5d0f85d98387bd492c0993506ff852f87ab3028bd5e03d4789514169e",
        "lib\/Check\/FileSize.php": "a2fd435323e5953490160c943a69a2a31e9bdda150d01f5d3cde89c04caae86bb44c8b577358bfae4eca3361a238a43638b2cc3c32d8bf39f6ad0ea4bcfa4da2",
        "lib\/Check\/FileSystemTags.php": "2ffcbf281b888a43404fbdb33dbec71ce0d7f5edfacd0fe08ea2aab755d59ab9676f0543429183bf042fba0444ab8b3e14d29896f0f7f5be43c36009b2cfae97",
        "lib\/Check\/RequestRemoteAddress.php": "8f31bf4a7cd6201eea12d3c93a0dea743778db93caccf381e31abeb8a9986415a7e490d683818a3d97fca75c1b044adbfa1987ddad0d82517dfe04591ce5c4cd",
        "lib\/Check\/RequestTime.php": "9ecd6dfd5a83b0c0f35fe180abc6af94655f77cbbbef5b8444e20757928e364cbe620cb6c901d7a6f239dfa25effd6780a6aa6ede3b4910e2bf2e9b4bb6beeb1",
        "lib\/Check\/RequestURL.php": "e53ddb44e2322eb07f185d23b109d0f0ef0e81c4ccc9c97f79c9d189a5145bb56f2cb8425fc7622ce3d03193982444ea8eefdaa7bce4067c0c7675a381e36a54",
        "lib\/Check\/RequestUserAgent.php": "41d2fff686fa21200fdd5e2f28fdd3f7c1d0cd9ed61a45bb0be76a09a043f03df5299ba3d2ae3cbde2f8593c5d24d0a12d774d178e6a4cb2093aa003ad697235",
        "lib\/Check\/TFileCheck.php": "d8376a898bdda37098977c0e92665f32aa4b770848b2926b3bf4ad18754707b978269e6d87752d551d773d27178894907adcec70c459a845a3eec7196c5f34d7",
        "lib\/Check\/UserGroupMembership.php": "2768706dc0ec8e722694049872caef30330ce1851aa601e48b0ad26750d05d86f341231879fe89be98dff513490e75b7c43d983aaced6487d4fd0ce76e7d99a7",
        "lib\/Command\/Index.php": "896ac35a57ae728c005bd18e74da0b795f74e14af93a425e4b2027c6f99224ebb95ebf612799aa61c5bbe4157e04a51944a809da5db492974f617d0f79c2149d",
        "lib\/Controller\/AWorkflowController.php": "9a7f1f10776ec11614245d9d74da9d8bbc1613ced7ad06e989935b818c61b815148d685b95702d62f170c426c3de6a2fdad4fb162ed88323f5cee73434fb434b",
        "lib\/Controller\/GlobalWorkflowsController.php": "e0c59acdaa40949fc89a41011ffc790eca7bcf30ac2063e854382f3105b4d2458db407b01c303187581f9e41c7a2647113a0136486f7474cb533d907885a750b",
        "lib\/Controller\/RequestTime.php": "e059a8554f4084a9c2bad68f50a5010871235a4550a82618e07a7def235bb7d9bc196d3e8ac477a9528e75de220e0f5a66254bd7e568ca10645c2c8f589be51e",
        "lib\/Controller\/UserWorkflowsController.php": "06a8708ca45baa88f6804f6efa08649ab9274a45f1d6da14ec2b826a46e68aa956864b79b8dc5644fc7f0b88cf57116115810dd42267efe332b277dea226269a",
        "lib\/Entity\/File.php": "ed352c99c297b7a37c623a8b951e8c69ee214f0b216f557b10e300e6370a40805de505777c0037812f0986b4ceb287a17413362c9db4d62b9f5337a610e03ffa",
        "lib\/Helper\/LogContext.php": "a4e5565b7ba9080fc70ce40b50ade2a5b70a3622738a5af8c0386560b6f36b85fe636b3b8036df05864809c13c8f2b0e6777bdd2ba67b07fcb6283f8b869f61c",
        "lib\/Helper\/ScopeContext.php": "dc62d477a34b70021fbaf1c222e2aea20a82cf5656cfd9473d765b0976e3252f191847b0f0de8bb07bb8876e7582f3018633448ed578abb76877588c3b859f30",
        "lib\/Listener\/LoadAdditionalSettingsScriptsListener.php": "8ec99aa35984af84406c40074698dc34cadf9d61fc6443eb074bbd8ee3d43652d64268b0e206618440a1add1387853eaac35a952b6553ddb7ec6b4920dd54a5f",
        "lib\/Manager.php": "a0f4a0a198820710243f3009684dee8fc0189e0a0d0aa9bb5256a4b9ce433d82fa3a9105b83fcbd834cac7967183d4fd1763cf4876576305cb7d937684a4a019",
        "lib\/Migration\/PopulateNewlyIntroducedDatabaseFields.php": "f4280707b1a0cae80dbcc0acfe3d4ddef744144a4acd1e3252c7d6fc01951406e716eb88462244fc2e464a4e7b95875c46fba6e9d7c80edb4a619bde91a81901",
        "lib\/Migration\/Version2000Date20190808074233.php": "2fffa57b082939a03ceef0b6e83a0eea7278e5815281529ee368e9a554b74d302c8c6361d1d94126455c07b8958d946868484a9a44abbfd15564d97f0c71194f",
        "lib\/Migration\/Version2200Date20210805101925.php": "e0821b4e3c8ac62a2f863cbdfead2dffea805a513c706ed6417f58b8b86a23af1911b519c4af1c6e9f1309d0595dff1f51d9d912cc55e9b4f16830e25015e1f3",
        "lib\/Service\/Logger.php": "c003d3a7bb2a4f1ce74bdebe66bc54b4242b0535bcee8e71f039cac439d7049f3162ad9578166937508289321a5cfed2705b27fa2a55c4e12142e2309cbcc723",
        "lib\/Service\/RuleMatcher.php": "6d2f9e59688b844fe962a050d76c7f29efdaa86ded56a0210c4e4cf89875b559f0bf9113e24c76a348961f64ef1ad660b92a5dd16e78bc702737174c9480437a",
        "lib\/Settings\/ASettings.php": "45bb3a820bc354bf186bb1ea624d06c063a901d4a3960df2173aaaf060d90a1df517ae0aa28b0996155fc513bd66b3f666748cb58584388b9178cada487a4959",
        "lib\/Settings\/Admin.php": "eb50cfb33b1b330472de285b5bd8ace921cf1821119fe7fc47ff6bc8f124449e35fb3e884b3ef87eb259eba8d27539cb06b93756125dedf24a329733934ab44d",
        "lib\/Settings\/Personal.php": "af732e07dcbc61a1ae41ac394c3e0b5debc4a7abb5b73d4d07caa068bd9fa50d593238f8039ba73af3ad94524bcb28bcee7485fb5a496dd43830887d1647d3c8",
        "lib\/Settings\/Section.php": "39c0d05f697892f647cd7fc3aa10573590fcad147a9ed1820fa2cc1ced085ad18faefd3ec3db850dbfdde26dfb103e45f005877dadf703b7e65b72faa4fedaa7",
        "templates\/settings.php": "2a208e9344776fa22604f06bc429e87f3d476c57cd3d02eace9a7cafdc8c75021ab439a628838a79171024b1742c30f9f4b4cecd27b0e4f9b9093f1efbdb5d2b"
    },
    "signature": "ixFpsLdRMusRTOD7Rp5kl57Fat9OHwPlpkvWQ+VVMNrCqE7no\/jKLDYjB2uDC+GHT8T35MUugL8787L6Aw75WNJJID5C2GdzEc0DZNRN5cpzBH6jCyX2v0qNuA69UslSny1yBnVyFm2D\/HFpaEfpnBwF7GL+jW4GJGyiEOMqRm3pbaMjDnTAdLGf7qqRdC6N13RUT3shy\/uFjHtRRc4iyRoDJg5no\/cWm+xmNvpj+b9ax2fzrjc3EgzX65++C0XPJ\/LrKT7zLJm6BoT86uMnoSHWrISqswzjadwJNRLisok5K1kUk2JJqQyYjbLNUSq2Tdq7sFi8Wsgykzq+wOurWA==",
    "certificate": "-----BEGIN CERTIFICATE-----\r\nMIIEojCCA4qgAwIBAgICEAAwDQYJKoZIhvcNAQELBQAwezELMAkGA1UEBhMCREUx\r\nGzAZBgNVBAgMEkJhZGVuLVd1ZXJ0dGVtYmVyZzEXMBUGA1UECgwOTmV4dGNsb3Vk\r\nIEdtYkgxNjA0BgNVBAMMLU5leHRjbG91ZCBDb2RlIFNpZ25pbmcgSW50ZXJtZWRp\r\nYXRlIEF1dGhvcml0eTAeFw0xNjA2MTIyMTA1MDZaFw00MTA2MDYyMTA1MDZaMGYx\r\nCzAJBgNVBAYTAkRFMRswGQYDVQQIDBJCYWRlbi1XdWVydHRlbWJlcmcxEjAQBgNV\r\nBAcMCVN0dXR0Z2FydDEXMBUGA1UECgwOTmV4dGNsb3VkIEdtYkgxDTALBgNVBAMM\r\nBGNvcmUwggEiMA0GCSqGSIb3DQEBAQUAA4IBDwAwggEKAoIBAQDUxcrn2DC892IX\r\n8+dJjZVh9YeHF65n2ha886oeAizOuHBdWBfzqt+GoUYTOjqZF93HZMcwy0P+xyCf\r\nQqak5Ke9dybN06RXUuGP45k9UYBp03qzlUzCDalrkj+Jd30LqcSC1sjRTsfuhc+u\r\nvH1IBuBnf7SMUJUcoEffbmmpAPlEcLHxlUGlGnz0q1e8UFzjbEFj3JucMO4ys35F\r\nqZS4dhvCngQhRW3DaMlQLXEUL9k3kFV+BzlkPzVZEtSmk4HJujFCnZj1vMcjQBg\/\r\nBqq1HCmUB6tulnGcxUzt\/Z\/oSIgnuGyENeke077W3EyryINL7EIyD4Xp7sxLizTM\r\nFCFCjjH1AgMBAAGjggFDMIIBPzAJBgNVHRMEAjAAMBEGCWCGSAGG+EIBAQQEAwIG\r\nQDAzBglghkgBhvhCAQ0EJhYkT3BlblNTTCBHZW5lcmF0ZWQgU2VydmVyIENlcnRp\r\nZmljYXRlMB0GA1UdDgQWBBQwc1H9AL8pRlW2e5SLCfPPqtqc0DCBpQYDVR0jBIGd\r\nMIGagBRt6m6qqTcsPIktFz79Ru7DnnjtdKF+pHwwejELMAkGA1UEBhMCREUxGzAZ\r\nBgNVBAgMEkJhZGVuLVd1ZXJ0dGVtYmVyZzESMBAGA1UEBwwJU3R1dHRnYXJ0MRcw\r\nFQYDVQQKDA5OZXh0Y2xvdWQgR21iSDEhMB8GA1UEAwwYTmV4dGNsb3VkIFJvb3Qg\r\nQXV0aG9yaXR5ggIQADAOBgNVHQ8BAf8EBAMCBaAwEwYDVR0lBAwwCgYIKwYBBQUH\r\nAwEwDQYJKoZIhvcNAQELBQADggEBADZ6+HV\/+0NEH3nahTBFxO6nKyR\/VWigACH0\r\nnaV0ecTcoQwDjKDNNFr+4S1WlHdwITlnNabC7v9rZ\/6QvbkrOTuO9fOR6azp1EwW\r\n2pixWqj0Sb9\/dSIVRpSq+jpBE6JAiX44dSR7zoBxRB8DgVO2Afy0s80xEpr5JAzb\r\nNYuPS7M5UHdAv2dr16fDcDIvn+vk92KpNh1NTeZFjBbRVQ9DXrgkRGW34TK8uSLI\r\nYG6jnfJ6eJgTaO431ywWPXNg1mUMaT\/+QBOgB299QVCKQU+lcZWptQt+RdsJUm46\r\nNY\/nARy4Oi4uOe88SuWITj9KhrFmEvrUlgM8FvoXA1ldrR7KiEg=\r\n-----END CERTIFICATE-----"
}