{
    "hashes": {
        "COPYING": "a0a86214ea153fb07ff35ceec0848dd1703eae22de036a825efc8394e50f65e3044832f3b49cf7e45a39edc470bdf738abc36a3a78ca7df3a6e73c14eaef94a8",
        "appinfo\/info.xml": "dd7cad369da83f834dcb08bb3f19d5fc0cb5927714c67d5c686d630d4d197d4a856bb2f1afdf30ce08bef5be7335dc1e1206193d4aaf0cb4e1c06ed4fc69f9e2",
        "appinfo\/routes.php": "fbb31148b2663e922c559855b7810d14f359616b5b48d3a9ff15ea80b537ded630e80407948980d23f037292f1c0da447ca3e058537eef0f4cb6fc6814a51116",
        "composer.json": "f9a8ec6cb06636fbee862d466354e6863fe1574c8a7b123ad0a41ca10db17e99ce432de387d717611f5a0455f565b04b48bd86b12c3c179ddeadca196c591f75",
        "composer.lock": "81e7e3ccbe7df10004e35e943062c37d8828588e4adbb33779def936924f1c32af57bf17d7b8515fa8c340eaeaa638ab885128bd2c620eb46d533a6e84263f7e",
        "composer\/autoload.php": "f5f863597199cc9d685732fabef861c91a3031d5737cdfe6aa9023baf5df0abf5fc6544c99dbfe1115c210f515e20400b4ceb853c984beeff5869f255b832cb3",
        "cypress.config.ts": "91d403854ada4d5a5ebf2cd5a1966688abb031fdc8704d1a82489a610981fe85ebbb60ed0c7699d56ec11d470c46dabeff5fb162fc0a93631e05f338b6586834",
        "img\/app.svg": "6b1e6cdccd2ec9775b8183db1acabe1739a467b13a4c1556c1fa16faf170ad3bf767928197d7b22d75aaaaa533389cc0bf98e43b0c8975a65c017170709166a9",
        "img\/photos.svg": "6b1e6cdccd2ec9775b8183db1acabe1739a467b13a4c1556c1fa16faf170ad3bf767928197d7b22d75aaaaa533389cc0bf98e43b0c8975a65c017170709166a9",
        "img\/yourphotos.svg": "839865abef820d849f5ba102a3d7ecc2affbccc3b90a9a781e80cda6e7ef22fec96e3df25bb3de5c826afb3068daed33e3f07ce132fa1cd27a772d5bba002247",
        "jest.config.js": "4365a8b304979ba10685869467d48df4ccca0e48653c42ef6ff90c32f62d116e965b0ff978a442be95f3d4de1f100cd56474b5a8939dd6031095121bb16d4822",
        "js\/photos-main.js": "6e376fb71654086a4391b21d981a122888171b0f65d3b0cee0df6b60a1da24a0bd4533b1cf318086a9012b4fc520907eeafdf6ecc5aabe8f648d624d847c99c0",
        "js\/photos-main.js.LICENSE.txt": "707619359d511b9bdcd7c0cc27a918578a9992b77235653699ec171c68240149c71157ddfaef35440ee3ff0264441fb774fff4b4c2c6f42038d02c2248cebcf0",
        "js\/photos-main.js.map": "cfc142844c2cdf0f5bff5e4229567d7ed76d93afe4085e4824aca6e930de4937014f17f1fb1134e3e144f62e214f50f2578ebc89f577558ece332cc613d01b01",
        "js\/photos-node_modules_nextcloud_sharing_dist_index_js-node_modules_vue-material-design-icons_AccountGr-bcaf35.js": "2e1a4f37b3366f2523fb26c8d4ff12c9835ed9ebd6f516d92d93d9d162f8671d3eadadd11f23a4a0212f922d1dcb272d7f5bea42c286317eaa1972e95a13c5f7",
        "js\/photos-node_modules_nextcloud_sharing_dist_index_js-node_modules_vue-material-design-icons_AccountGr-bcaf35.js.map": "5375ad091e833be6aead735d9d41ad955f3009b335f99213d1cfeb259c98953622609c5f051c2ed425a06dfa5d7af79ffd0e7d7762a5a2e2f969100a82d7b2d7",
        "js\/photos-node_modules_vue-material-design-icons_AccountBoxMultipleOutline_vue-src_components_FaceCover_vue.js": "e9fc29343e1cab616e8f7828d7841cb32197abcd1d89e38ccbb94f8786daf847d72453d9b7ecd3ae5c844a80bfee607f400fe628e9db999be2167ad3a45caa5a",
        "js\/photos-node_modules_vue-material-design-icons_AccountBoxMultipleOutline_vue-src_components_FaceCover_vue.js.LICENSE.txt": "c518ecb02ce6e665ec88eabe901937ffe4f2ff263c13b178fbcde4e24252afaea84c8f00d38006088bd4b3bd086243f3fcc372f6411ebb190806959c9a7c9069",
        "js\/photos-node_modules_vue-material-design-icons_AccountBoxMultipleOutline_vue-src_components_FaceCover_vue.js.map": "5d9b4d7cea9d480731e28c7a8cb54db0b4841308eaa98d706b6913721f9c9019638aecb4ab96721acff346feacac876e6b95d33979248d1cf3888d1b79f3d728",
        "js\/photos-node_modules_vue-material-design-icons_AlertCircle_vue-node_modules_vue-material-design-icons-38dc5f.js": "ca4a1bc0bd7ce49a0f4fa44a164c3584d8d2b7e1f6a00d7ea4f33712e7b06861a862833b2b1a93da5ab5944ac02de9463321c79c7c4e691367a56af466963103",
        "js\/photos-node_modules_vue-material-design-icons_AlertCircle_vue-node_modules_vue-material-design-icons-38dc5f.js.LICENSE.txt": "b017093b13755edf6f675653da4a3151820927eb712118fe924e2536534df0975443b944bca3b223510166a2c2839957be2304c14bb135097e22a0c602e713f1",
        "js\/photos-node_modules_vue-material-design-icons_AlertCircle_vue-node_modules_vue-material-design-icons-38dc5f.js.map": "67c9a4cd19b0f1d53c02eb68d1d80a69e6321df0b1ca82ed3b9b162b885df2a8c97c0287104fe4efa0ad1ff37cde6537dc3e21ba7459f5e726325082647160d6",
        "js\/photos-node_modules_vue-material-design-icons_AlertCircle_vue-node_modules_vue-material-design-icons-ba58b8.js": "2e0e9cd9f7e98bbe7d71bb665622683bafafd4b386f080fe20725ad13da68e6ba5de35b2e2493dadc0de6b632fb61523979e40eb9f9e2512a693deb30ba7ff2e",
        "js\/photos-node_modules_vue-material-design-icons_AlertCircle_vue-node_modules_vue-material-design-icons-ba58b8.js.LICENSE.txt": "34cfd4e1b9257bd2adbf6e2f49cf1df429eab573dbd970ea89885724342f5dad6117a337ad237613421c4dbcad3b53a098696a592eea9564eeef36ad4d8cdb30",
        "js\/photos-node_modules_vue-material-design-icons_AlertCircle_vue-node_modules_vue-material-design-icons-ba58b8.js.map": "e39444e33a76612867cda2cd0ce4f07385aa71e611b18b4300801f82face0d53c18b0eab6844122af428fdc8b6fe7301add781eb0d7d469b2b90fe96624a12a9",
        "js\/photos-node_modules_vue-material-design-icons_AlertCircle_vue-node_modules_vue-material-design-icons-ea65fb.js": "103ac1a9433de59075fb30a51821165a7fad2df2503747f0b0977a403d59ee3f4d0383397f9aa79a4c22b4c9727065d9e4e53445f0c7ba9307f9a66c97b02e61",
        "js\/photos-node_modules_vue-material-design-icons_AlertCircle_vue-node_modules_vue-material-design-icons-ea65fb.js.LICENSE.txt": "b017093b13755edf6f675653da4a3151820927eb712118fe924e2536534df0975443b944bca3b223510166a2c2839957be2304c14bb135097e22a0c602e713f1",
        "js\/photos-node_modules_vue-material-design-icons_AlertCircle_vue-node_modules_vue-material-design-icons-ea65fb.js.map": "ba60f981c6aa1ab94b01c4bc3ef457b1801084dc309eb401eefd7953ef981aed4d8820bf0cbff174971426780430f6c81867382536ee618d198a6f665b3d73e2",
        "js\/photos-node_modules_vue-material-design-icons_PackageVariant_vue-node_modules_vue-material-design-ic-4e283b.js": "1410f5599ea678e8a674769598e7046c5cee5aa2ff3e0ff4e58c6997a5edf3eab7fd1de05715afa2489420c9ba7d787c405f0f775d905217a4feb6920cbcd69e",
        "js\/photos-node_modules_vue-material-design-icons_PackageVariant_vue-node_modules_vue-material-design-ic-4e283b.js.LICENSE.txt": "34cfd4e1b9257bd2adbf6e2f49cf1df429eab573dbd970ea89885724342f5dad6117a337ad237613421c4dbcad3b53a098696a592eea9564eeef36ad4d8cdb30",
        "js\/photos-node_modules_vue-material-design-icons_PackageVariant_vue-node_modules_vue-material-design-ic-4e283b.js.map": "ef70dcd91613970bbcc6d45a317c26c8bcddbc19302c2be4f96be9fabbfd54f1b5ee33716bc40582b0d2bb80ee78482b9398398de12df0b992b4dbf46c32d787",
        "js\/photos-node_modules_vue-material-design-icons_PackageVariant_vue-node_modules_vue-material-design-ic-c67b29.js": "5ffaae3d0f5a19638528a73df55e6913cea9905846974f7eed4af1bd188c9fe3bb2fb7d1dbf74be5d6fe283ea15700acac2e5ec95c36e02714b70e19f6da05bd",
        "js\/photos-node_modules_vue-material-design-icons_PackageVariant_vue-node_modules_vue-material-design-ic-c67b29.js.LICENSE.txt": "34cfd4e1b9257bd2adbf6e2f49cf1df429eab573dbd970ea89885724342f5dad6117a337ad237613421c4dbcad3b53a098696a592eea9564eeef36ad4d8cdb30",
        "js\/photos-node_modules_vue-material-design-icons_PackageVariant_vue-node_modules_vue-material-design-ic-c67b29.js.map": "3de2d6b3e6ac25ed0a36c85daf90648241e10c87fe6b5a6cb2decb004b709611c3472882ec995ca04649ad5a431690b50eb8e322e0a38e681239252c619f3d38",
        "js\/photos-public.js": "94af65f8c73d6765d3e3247a094bb8ddfb14085127f82264af47110c27dcc2486ec3adde00308579b7298f9f3358132df37d2f64540c1a053b336bb3ad63935c",
        "js\/photos-public.js.LICENSE.txt": "707619359d511b9bdcd7c0cc27a918578a9992b77235653699ec171c68240149c71157ddfaef35440ee3ff0264441fb774fff4b4c2c6f42038d02c2248cebcf0",
        "js\/photos-public.js.map": "54294e541aea65d4b2c2a2513aee8dcca6c3953a76388aae57d390de771c790dd6f6a4b578373a9301662c1cafbc03a98243a1ccf81782042498f0159cbef508",
        "js\/photos-service-worker.js": "42d5bafa4c3b2ae4b57f9049a3ecbcb4f7954d50570a23927e816881d23fe89781bdff644f18207398170fddcf35c9ee86c2801865250d89d3e5976171c48650",
        "js\/photos-src_components_Collection_CollectionContent_vue.js": "801ae96766a862b456bcc31eae9c6220ad26d3f856b355cb1f692c3428c59771dac6c288f4c24ea70871c27bff37e70800983d160e4c0ad2a384e12ef0a62171",
        "js\/photos-src_components_Collection_CollectionContent_vue.js.LICENSE.txt": "34cfd4e1b9257bd2adbf6e2f49cf1df429eab573dbd970ea89885724342f5dad6117a337ad237613421c4dbcad3b53a098696a592eea9564eeef36ad4d8cdb30",
        "js\/photos-src_components_Collection_CollectionContent_vue.js.map": "488beab395a31f9bf7278307dfb696925544f0e9c8d6a461422b5a690799d2b39cc940fd05d72c563dc6391533e77041d201586a20dbbb87b136ed913e33f9e1",
        "js\/photos-src_mixins_AbortControllerMixin_js-node_modules_vue-material-design-icons_FolderMultipleImage-67cc20.js": "2b49615a755954c1d12a27158b3f30e1ae256e8712c05945f0c5ac115229024fbac50cd38385e1234221bb34236ad0a984381cc3144ae9891b8b4075dfe2fe3d",
        "js\/photos-src_mixins_AbortControllerMixin_js-node_modules_vue-material-design-icons_FolderMultipleImage-67cc20.js.LICENSE.txt": "411329d95bb34ec3d243fb72091b5a06e2265dfe6ab4ede3ba21fd1be3c40500ea8b6d41c9c3f6d59891ddc6b69eb38d77a362b10bc1c8047b1e784489047319",
        "js\/photos-src_mixins_AbortControllerMixin_js-node_modules_vue-material-design-icons_FolderMultipleImage-67cc20.js.map": "80380b501e9279e885134e8a49654e6fba65ef8f38c5056b0fb4d7810c7c36359620e89b6e5a515f98071068c341d9a08f7f65da08bb9eba511683ff72acd6ca",
        "js\/photos-src_mixins_AbortControllerMixin_js-src_mixins_FilesSelectionMixin_js-src_components_File_vue--80ca54.js": "02157e7ddf59ac61b0248260ef75182e27ce88a7fc63d8f7bebf61039641c0ae6e9f7fb62d9537c53e439087cb0130912b9239ace69fa200c16b87c30749101b",
        "js\/photos-src_mixins_AbortControllerMixin_js-src_mixins_FilesSelectionMixin_js-src_components_File_vue--80ca54.js.LICENSE.txt": "c10bbda78d322fcfd28129de8a544cd52ed049fac4cc64dc7dea0a857551d3b3968b5b4db056388399dfd16c5d841a1e6797d27a19e3711b1dd478485497edc9",
        "js\/photos-src_mixins_AbortControllerMixin_js-src_mixins_FilesSelectionMixin_js-src_components_File_vue--80ca54.js.map": "58d885c6f3db0d59086636b6f0a2b71026ab6d2955fbe193b9d79bb2294f386ed6ef929971f3376ad3bf0a3b70e4f87dd32d402ad245a9327aa895af345d571f",
        "js\/photos-src_mixins_AbortControllerMixin_js-src_views_Faces_vue.js": "ce7859be8e34172a47eaaf4422e019005f961af453bf3db87ffd7c626889c43264a67aa2046b2a13783ac7c1d3a16e1a4ea91369d67f8bb17bdc3daf603e3854",
        "js\/photos-src_mixins_AbortControllerMixin_js-src_views_Faces_vue.js.LICENSE.txt": "411329d95bb34ec3d243fb72091b5a06e2265dfe6ab4ede3ba21fd1be3c40500ea8b6d41c9c3f6d59891ddc6b69eb38d77a362b10bc1c8047b1e784489047319",
        "js\/photos-src_mixins_AbortControllerMixin_js-src_views_Faces_vue.js.map": "320b4c2b3b808615edcdc5428297c9d76ed1b27b6b247628a0d4107726f3cfc0131fa92cccf0e458e0c51fd88a3327fd1f5b08904887cd4e0bad1a76dee933d3",
        "js\/photos-src_mixins_FetchAlbumsMixin_js-src_components_Albums_AlbumForm_vue.js": "41747a5e766903187865031f8bbf4551d785330ba9817db1103e1cfcbe89f7abe4d56926dc9c88301b37494e9179a67a0e19382ced69f6659c1ec76bd36e8245",
        "js\/photos-src_mixins_FetchAlbumsMixin_js-src_components_Albums_AlbumForm_vue.js.LICENSE.txt": "b017093b13755edf6f675653da4a3151820927eb712118fe924e2536534df0975443b944bca3b223510166a2c2839957be2304c14bb135097e22a0c602e713f1",
        "js\/photos-src_mixins_FetchAlbumsMixin_js-src_components_Albums_AlbumForm_vue.js.map": "1d996ac88759d43faa639523304098610e651bf89bc95dc34e0d6ac675e44fd9dbefe1fb3492789e9690ebcd697903fe6850b44a84d7dceb8dcc2a1f5dd07b40",
        "js\/photos-src_mixins_FetchFilesMixin_js.js": "5a4641e2cd04ed7c82735e70fd51d1e794fc128327f3c4534bfefe489c92813f9eeca38d70dd1308dfc343c764efb5ca524a156bfc442922aed00f47636dffa6",
        "js\/photos-src_mixins_FetchFilesMixin_js.js.LICENSE.txt": "61b05a1975fabc5048e15fc8bd64a5aed8ab74f9c71cf47ede0acaf032ae34870392b5a4c04e55123a418ab26291e5421c19661a5ffa0c30077c3c717cd744ed",
        "js\/photos-src_mixins_FetchFilesMixin_js.js.map": "15324b052be790d5d86a0c977aebbf4ef2fd0298d18fae0a5530dbdf441c453924a534f8aac824a785d5df0615af8515c84306bad8b42457d070546394f25027",
        "js\/photos-src_mixins_FilesByMonthMixin_js-src_components_Actions_ActionFavorite_vue.js": "b84a87e26c40a0907ea8e75416da25ed411fcadde68a594e1361a892537e2f6792fb8a0987c1ceb96d26d0a5eef3b4564b12af29918cece4ea0c2102199528c9",
        "js\/photos-src_mixins_FilesByMonthMixin_js-src_components_Actions_ActionFavorite_vue.js.LICENSE.txt": "b017093b13755edf6f675653da4a3151820927eb712118fe924e2536534df0975443b944bca3b223510166a2c2839957be2304c14bb135097e22a0c602e713f1",
        "js\/photos-src_mixins_FilesByMonthMixin_js-src_components_Actions_ActionFavorite_vue.js.map": "4169903c6331c3f69e5e055488f6b2123a80ea186fdcbdac8a92f9d35789fe91c407d18aca44f8d23617e6e49f726d8e255cef29ceb250f352bace56d7bccdd2",
        "js\/photos-src_services_Albums_js-src_components_HeaderNavigation_vue.js": "ea041c51a4b72a459c2944856fcc7a72baccec38969605882796b6c40d5d3155ded378c357fb8435c0747015738b16536f38346cf43bf82df18170e6a7bf0f53",
        "js\/photos-src_services_Albums_js-src_components_HeaderNavigation_vue.js.LICENSE.txt": "b017093b13755edf6f675653da4a3151820927eb712118fe924e2536534df0975443b944bca3b223510166a2c2839957be2304c14bb135097e22a0c602e713f1",
        "js\/photos-src_services_Albums_js-src_components_HeaderNavigation_vue.js.map": "9fd6ce31f248ab19874d526138b073d4241e73d8947c6f9273fbf7085b2a112a62dfe9eb7a3d648e49b9033c83439bcc5003153fad3a10a11c3681a6a0b61798",
        "js\/photos-src_services_collectionFetcher_js-src_components_HeaderNavigation_vue.js": "2d98e1d41a9852ac5d26303b207ff3cd52765816e42bd4c8890852f4d49be9937f71e79a4f094016052aa220ba2c588ee828d50c080162fdbdcb742aa82548fa",
        "js\/photos-src_services_collectionFetcher_js-src_components_HeaderNavigation_vue.js.LICENSE.txt": "b017093b13755edf6f675653da4a3151820927eb712118fe924e2536534df0975443b944bca3b223510166a2c2839957be2304c14bb135097e22a0c602e713f1",
        "js\/photos-src_services_collectionFetcher_js-src_components_HeaderNavigation_vue.js.map": "4b0de11e9965ddf5f588d8a9282dd754b6b16a7720f30e760bc484282c0509d7682d3ddcab1c12dbf100b9db3f0a253a2a0e159b7cdcad797a4e58990263a8ea",
        "js\/photos-src_views_AlbumContent_vue.js": "180229e31e2fb353259de036e9693b93ffda0f107260bf9c929e8da56fab47d632d7e81b788df43d6c78b34057b583a8d9f9bb2d4d8db9fd1ab552502af52167",
        "js\/photos-src_views_AlbumContent_vue.js.LICENSE.txt": "34cfd4e1b9257bd2adbf6e2f49cf1df429eab573dbd970ea89885724342f5dad6117a337ad237613421c4dbcad3b53a098696a592eea9564eeef36ad4d8cdb30",
        "js\/photos-src_views_AlbumContent_vue.js.map": "056e9e77f7e6b47ca1822a7cbb122993d7593a17155e3e1e157e1caec966a88b339d6217ffe9e0e9cdc50fe4012ae3f60321983c9f412fe15dee346f834a62e0",
        "js\/photos-src_views_Folders_vue.js": "5d1ed48b9ecfbf80fe81cfed4953a9cdca9518b65f469dae2193f865429ce49a4ce448f97548a40dd58b2fd78667bf944e4969232baaf48ccc6978dd545cb80a",
        "js\/photos-src_views_Folders_vue.js.LICENSE.txt": "9e671a84244c8580471a26c7745934ce6bae2f0bcfca0f59916f5e837db85e7529a648727bed8266f9bdfa1ef4669244774e4a393b4f27b272ab990303abafe3",
        "js\/photos-src_views_Folders_vue.js.map": "b487950bc08065175f94d527c8de04974bac3c343a7c4eef3d56ab8a4cb02c80ff6f387782b3f251023c3c57f18cfc3417997f4a720cdb4313cf308dc8e77b3d",
        "js\/photos-src_views_Places_vue.js": "219e580cf3950fa3976f2150e405e61d64864ab1c79e6aa91eef006003f82a27448bd1114085a8861ac9b090022fd48dd5292e0194fa7b6aed4a7f56726c1e36",
        "js\/photos-src_views_Places_vue.js.LICENSE.txt": "b017093b13755edf6f675653da4a3151820927eb712118fe924e2536534df0975443b944bca3b223510166a2c2839957be2304c14bb135097e22a0c602e713f1",
        "js\/photos-src_views_Places_vue.js.map": "1a68eb91887174d91dddeb75f6b72b6ff04e01823b4ca58f04ceb967ac7d3b6955cb168c28528aa4d976a2987d5466b13b379c1e5381a1a72a4f3a15954bdbdf",
        "js\/photos-src_views_SharedAlbums_vue.js": "48f688aa1e31b1ea302bbd5c722bf7c03d0536547a58b7168f7a4742e3c086a50ea779b481241e05015076aa3105273e848b2c8766539e7cedc6374a779d0cdc",
        "js\/photos-src_views_SharedAlbums_vue.js.LICENSE.txt": "b017093b13755edf6f675653da4a3151820927eb712118fe924e2536534df0975443b944bca3b223510166a2c2839957be2304c14bb135097e22a0c602e713f1",
        "js\/photos-src_views_SharedAlbums_vue.js.map": "5ad7f0d25307e4a212e56a6b45b3beb85c779ad4f3a601ed2886362e54be77e9abeb2f48b52bfa35797bdab8cf67c340e1b36dc047bf7885548cf7c8058779ab",
        "js\/photos-src_views_Tags_vue.js": "cb4cad5722a7dc2997ebf3d96cd7b65aad96af9509e5e23a94ad92fc155ad41ae5062a94b8f660ae024cb46501f71cef06699da298aef6c3eb1a291c2dfa345f",
        "js\/photos-src_views_Tags_vue.js.LICENSE.txt": "b017093b13755edf6f675653da4a3151820927eb712118fe924e2536534df0975443b944bca3b223510166a2c2839957be2304c14bb135097e22a0c602e713f1",
        "js\/photos-src_views_Tags_vue.js.map": "dfc8bfd20108abc0d9fa699e3c4f3908c0d28e3504bbdbd70f4a4b8bfe86fe8d4617486cbd4505c9ca1ed2f460a1f222aa11568db84e39c2219e99ba45bef671",
        "js\/photos-src_views_Timeline_vue.js": "041ac0d968d67bdbc08944a72bfc106b3abdf5973e5df1aa271c0c69ef0de1169f23bbebb544d59a476d6d4a22bbf2d97185697fbddb8017e1773045ebffa1c6",
        "js\/photos-src_views_Timeline_vue.js.LICENSE.txt": "34cfd4e1b9257bd2adbf6e2f49cf1df429eab573dbd970ea89885724342f5dad6117a337ad237613421c4dbcad3b53a098696a592eea9564eeef36ad4d8cdb30",
        "js\/photos-src_views_Timeline_vue.js.map": "d51c8b813bbd38442d5e8458b9d44aa34ce52d780fefba1b61598ec664b75a4db730e22d92adb3afa236b865d48be2591cd92a5b7984671a9982e3c5d4c1c6fc",
        "js\/photos-vendors-node_modules_nextcloud_sharing_dist_index_js-node_modules_vue-material-design-icons_A-551b93.js": "e562c279d5ce17e57d7d7733165b8032055285b92cb68b84c8ef5e681450dc5878048bb5edf4948a9c23a81323310d971197b6838c0b765886f405cd1d1c02cf",
        "js\/photos-vendors-node_modules_nextcloud_sharing_dist_index_js-node_modules_vue-material-design-icons_A-551b93.js.map": "8c4a47754a77040c649df92a0294bfadf7d2ea2e7e6a134b001355072456dbcd839b3db6cedde19f9d5d053dcf383ff1e4f1c2e47b5b1fc168dceeb31bbc25f8",
        "js\/photos-vendors-node_modules_nextcloud_sharing_dist_index_js-node_modules_vue-material-design-icons_A-dc4bae.js": "96ffb0105efdb51ccd255978c6040f7d894f00a63b0435df7b78dc2c2b0a8cfd08532ab3c4f460dab59efc1ecb8134ad0c02f131fd3cc6401747d8331d25cd0e",
        "js\/photos-vendors-node_modules_nextcloud_sharing_dist_index_js-node_modules_vue-material-design-icons_A-dc4bae.js.map": "981da01848a3048de657ebf58fbdd787af0eeafcd51b0df0d848b3049853590718bcea6867c9863d4343e60b880f8638f39e728802ca2ad3a85740b66deb9afe",
        "js\/photos-vendors-node_modules_nextcloud_upload_dist_index_esm_js.js": "f745d37338061ccd05f11bc266fc4353c02bd6de5537bf1442649053ec6f6174be9ebc3b195cbe779f985be15ab329016c61ddd4e1ed10609dc1a3a8b9b6185e",
        "js\/photos-vendors-node_modules_nextcloud_upload_dist_index_esm_js.js.LICENSE.txt": "c4692f6101ca25fefd2bb20e15c82fd7d08dbccf964cffae1f502f937e20df3dbd6d9d641b30020f481ccf77934e423fd44ec19da04627ed3012e7d09e2e8304",
        "js\/photos-vendors-node_modules_nextcloud_upload_dist_index_esm_js.js.map": "256141d718df4de51dfbca339f78b705f6d880a0405e465ea1d1dda2c2fe01c94fb4b9a7f8093d59ca53f1a7cd66ff4aafbf35d0eb997e644033b8284b95ba5f",
        "js\/photos-vendors-node_modules_vue-virtual-grid_dist_vue-virtual-grid_es_js.js": "1f2c34de90a446e63cd420db842b4b4b022d34149cb015a838c04a19030dd7873736d2b064623d07d7f0669299cf4f9f88dca880b77785e9ef9ef9652af632af",
        "js\/photos-vendors-node_modules_vue-virtual-grid_dist_vue-virtual-grid_es_js.js.LICENSE.txt": "d98c8f746293482a68595d1fe50bd64d440aa9a09fde9ab96133babc77f33815e9af11249284d3a9a4f5025cb5492acb357b66e98314f13bfde3075c89d0555c",
        "js\/photos-vendors-node_modules_vue-virtual-grid_dist_vue-virtual-grid_es_js.js.map": "ca130307c1372286991a953ed3aced6b46e40545ce3cc6391953ca5b89d43092f7e7ba0ac2de5219d1405e8250e6cebba6378f9a4948db3dbe60a94102ea6a14",
        "l10n\/af.js": "28a8af426cdfa74638622debd64bb48cf583823a803e91328dde923d347cc796ebef5d4a30698e496b85edd9526e218d890bfb3400864f6880ded23f26eccb00",
        "l10n\/af.json": "eb02b795b2ca18893feac80f80a5a7b0dc6a79d8132742a841d89425c39dba5e595b0e52ad3347ea50474918c7de6056ce522a88b47d3d64722a042cc301f296",
        "l10n\/ar.js": "4fc275c9fde6739c062ff480914ef79e6403539f36b68a1c3e5d88db5c1f8535d97e8c236b4fe9f37cb6c2c6dad5ee0382b14658b7c7bcd8571c8650a5f3ffea",
        "l10n\/ar.json": "78d465bf5116c16b59e5b152acdfc34e280ddb8c31b9c92c401ae0bbc97ab91e4a54d3caf89a1afe168de36dc45f2896e5f6f5ef608b9b2aedfa43f0f6d3bb06",
        "l10n\/ast.js": "e5ed63b9114a0703583cc0d956fa8616e03491796d52530aa0a9c91947e969080f2f0b0e28cadfc0da8e68a19614d474b6c82966332c0064bdb0b03212419813",
        "l10n\/ast.json": "996af8423f57585fc8ec6c03b4888d378af630a447d05a928bd04911729e1a461cda46ed6d2a72a9cf5d2bc128b4054dc2a00c70e26cb2ff9aa1a0da494fb91b",
        "l10n\/az.js": "be61b799b441b6273c37723aed540c3c3741aefe16656628137c2f60c0b8c8cfce18f5e0ba3b7f6ad43433ba28ec85007743c3238fc7697f0a7c0a60442198b1",
        "l10n\/az.json": "5844b6267be787cbc8d49302541a79e0dcf143233946b2309d47092ea1eeb74bf20528b03b987f26974578318994fd04ecad590f60b5328766fa1821df77bdf3",
        "l10n\/bg.js": "ab2ec0fd745c807ff094d3f36b7a67b33e08de6c77a4f6a98e7277667be4da5029e8280bdb68105fb2eec719a47ac3c537358b914f605a63f960abc0e567687b",
        "l10n\/bg.json": "9d014c268f29156a3f5487df6920e48f939be23f02b6e3045231b90c4dfc14da83d04cd9f111f434ce399c07479e9dfd20992b62dbbaa6a7bf6d47fc8cdcea98",
        "l10n\/bn_BD.js": "16d785cbbe342d990d30554f5e737dbcb87ff20d79ed4fbae5f0f9fef04b1796f283aefaeecb809aa5f44ead7dfabcd09a917dfd412524b0b5e25e1a148774a2",
        "l10n\/bn_BD.json": "ba725aacdce624f0ce60bfc49f92fa41ebfb401e48e309589d7a47b822a677ea9198c741ccc6e632bbdbf632871df6b8785f9896c2813db2fed9d887365f9055",
        "l10n\/br.js": "53ffc61096ce21657b14bdc824ee6202c2c2f574c64c175e7e47b8c35285ed7807de2b2edd418dc7abc21dddec0bbc7447d31d6c731258d5315545eed45afd7a",
        "l10n\/br.json": "bd863c0b661d516a31e8c54ae4d497a3166dc8d2edd6fae7d1de0fbf716bb8c89ac8da00b0b5f9b45fc31c235c6907da0e5fc3a9c898a96c647a4c5291e440b3",
        "l10n\/bs.js": "5e56aa68a67eae82c23171c84aa39bfd64a749533d395677b55a76f5b411d3b3ed171864a92564fe952cb212f5ed802d23eb146536afd3cd5b930371bfd258ca",
        "l10n\/bs.json": "d80041547c1ce41a7169e56e3289fd58a77f7dc06dd1d3ed815f0775cc8e0cee50372a8f1b4bd8581b6cca6c52baa805677af0b765221cfba67dd89bef099696",
        "l10n\/ca.js": "fa2134f94545261cb69120d256a3b94613e655a35fff91897c88b411081d273f0bb9639615962f783726109b5f9867d5e0faf0cb276e6d9ead7a31b6c8af547c",
        "l10n\/ca.json": "2b43e2f537664a00b2a354e5b9cd1b2d8cb854b6e3130981ccd674b2ed40d7ff444f8978bd6c9e7081fd2a9dc7f36f99e231bbeaa591cc64d8a3453f337a87a4",
        "l10n\/cs.js": "ab3897218063187d0f698c2075c2ec7f0ad17fc185e9d8fef3c041bfee7eae406e75504443bfbc47093c42e7ed0f995dafe501d4973d99b4da15cbdce311411f",
        "l10n\/cs.json": "a4465ef5094f1106c2395574258562eeabe366c14b0c124782de9fbe3246f179703a99c4b4f72ba48dfbc1040b56710d6c79b8dd088ad222f79f90de446933cd",
        "l10n\/cy_GB.js": "512b02b3ce8b1b29ffb30b808539d7a95d8e2a0562237f93d7362ccf5010e0fb57345cf244aa9d65a7c5877a9e2358e3b85bf3e438c44b5374b744c46270393b",
        "l10n\/cy_GB.json": "95eb3a88119f0011df8d9ffab4000e01bc96a34a72d619678a2f3a1aa77cb89449a3f129c43e56a0b008d35a25519ae2db22a1f7d2654721d1705937e497e05a",
        "l10n\/da.js": "0565bb588f5ca31e9eb3a2b6db1d1b5f111f97307163b7e7475f2ed2e559942412b926cda3c10f2b9870c544b3292ba1c7a3098fe5ff9ec46207a32082a323a3",
        "l10n\/da.json": "251444c325a7286f84332df1c2ff32010d7476d210a04544c712144a067a5c46fb38fe03b839639c85a1ea21215b8158e13a00dc46fb1a88a1a3e112638f5e51",
        "l10n\/de.js": "4ae74e62b00404739a5017560011c4328e7a7e44beb37e9f314c5e3e80a0069ad13bddc559fe5a28f4d1dbc0d95fd19f4b89aa4c9a549de114f87b3e2d1a0fc6",
        "l10n\/de.json": "8467f2bfadf67fda4542a17da58328a5fde4f760200c7909a60c3f3cac36f82e6b7a63e3dd124d33fa93eccfc2710af40470f903f7ecc812ef46bc3f3c34f9ad",
        "l10n\/de_DE.js": "212585d7d33f580f87ee57d01429c3a0baedc80f01958d1dc15d74b93c7f4fb814abe3ce486d86196db7899d712137f94ccbe59363a14be71c4ff03a594e36da",
        "l10n\/de_DE.json": "a7daa9118a7f48dcda6c4e13a291469cc5d0c87bc4e3bc08626bc68a527f146bb73f481ccaf6d84fdf581e8d9084c4f7d33f697cfa7c34588d771ddd2f436647",
        "l10n\/el.js": "ababb33baeae158b20bc577c8f7814a35f68207335c429cabebcdc858f74b297b9947c7f46ed527ff6f42363740b23a804a8ec98e5bc0bf74f0b860ea8464f07",
        "l10n\/el.json": "62447e72d93f4af0802be93fe4fef2f11dcd30ab9db72b8eb89f2dd9bfb5c00a9c38262c2d7bf5f1b2f1133862dfb0b437ae5a11f9e0e41bb8d227a1b9733917",
        "l10n\/en_GB.js": "2c08042f0896964909258e8a097f6652824cb2f7ccfa1c8c1339680deda3e681511deff0e555d8f1c06ea3763aa95a2c3590558668f3f4ec7c1d3a68fb593862",
        "l10n\/en_GB.json": "d431aee3c97433500d232ee8442bb5aa05ae6131a3fd261bfd782611e7f2aa311806aa720f443bb71eb096eb815aa13b6391a752bf61bc1440d7fa1c64af0fbb",
        "l10n\/eo.js": "980a1a5db24b195c84656b1cb4e6460aa25bf0fb87960f0b932dc17f7ca6b842291c7a09cb54f30f48f8df82889f19b5996a5cf6eed00fa67f690f587acb905f",
        "l10n\/eo.json": "b17637d2dce8739702250ef27df7decbdd20d819f9c1703c13fb0d0e27ae630ce7b1511f557cc064787014ea1cde9ef58c21c8cbca440577b2c948605fd9850e",
        "l10n\/es.js": "98d0bcf0a7b0238ece07f96d92aa1d1f3f45e4c407e2db3f606f73701ec63133f8b4a5448db53bede4fe31381034827dc991512e8ea9e83bf12d1fef2eccd329",
        "l10n\/es.json": "ea16f5db66622ff02570bb82d38d719911fd6afbe2d2e5e25b385b9ec005c47198a0fad3d7048e9857b84b00693dace80ddc2327acd194e4aed21f122dc0d488",
        "l10n\/es_419.js": "a29d84da4937c54f82b5a793abbdf71a519c882c4a4d732c8455312dd1ea52eadba9a71b8c2920f8d7f356d09348ef7a62479f4ebc320764c0054d2eb646fb21",
        "l10n\/es_419.json": "19d65a0c073c24b6fcc479b2e5f0d6b071581290697087e21ad74cbb84bd53da79791dc74b228a429fdd42ed3b57d8391ca73544a33de784e8da4bba1e7b5362",
        "l10n\/es_AR.js": "85e17fdbfe7e2e1131b74dcbc5eddfa84996de7bbb02b6c1f25cbe19173bab3c254f1ed0f95fce29c3e5a5f370fa16240c796b34dd9dc2a1e47c8aecb2aef4f2",
        "l10n\/es_AR.json": "2323c00c46dab0bf2a21e51dd148b3e916f0c4f91a694d7c3e87d53db89eea8ec4253157b6769c1c5f009ae9ffdb601330a64747112f8fa8417872c9b0c847da",
        "l10n\/es_CL.js": "c5928f21a87dc8c04b839f33c31e715ea283a44d4fa7ec020edc71b7d2fbdcc8be6ac2f908b56969002e004d4010497c7edacc4f0bb3363176aa9c833cf0f5e6",
        "l10n\/es_CL.json": "b1f9cf94d87597e90759ec62e54d074e69516332973213bea1ebfb728ba8fa935ac0ce35e13377e6cfb9e46ecd1532bbde5121e8cae873efa64607ace5d68e46",
        "l10n\/es_CO.js": "a438c7293ec091560d8db2f6c2825b1b8c6747ed8c7775433188e822cf40d3b452c83a1fdfd584cd6530a5d89939f5ca675b2a70e82725123e4fbb6f4b886d87",
        "l10n\/es_CO.json": "dbc3ed6d77a6fc65197a717b5f257e561c45721c7b54dfb5889802b0fd12c2439423b2446d98e2863bfdf3912a33b0a9f4c62e4c6c5a41cc1881fb345091d48d",
        "l10n\/es_CR.js": "c5928f21a87dc8c04b839f33c31e715ea283a44d4fa7ec020edc71b7d2fbdcc8be6ac2f908b56969002e004d4010497c7edacc4f0bb3363176aa9c833cf0f5e6",
        "l10n\/es_CR.json": "b1f9cf94d87597e90759ec62e54d074e69516332973213bea1ebfb728ba8fa935ac0ce35e13377e6cfb9e46ecd1532bbde5121e8cae873efa64607ace5d68e46",
        "l10n\/es_DO.js": "c5928f21a87dc8c04b839f33c31e715ea283a44d4fa7ec020edc71b7d2fbdcc8be6ac2f908b56969002e004d4010497c7edacc4f0bb3363176aa9c833cf0f5e6",
        "l10n\/es_DO.json": "b1f9cf94d87597e90759ec62e54d074e69516332973213bea1ebfb728ba8fa935ac0ce35e13377e6cfb9e46ecd1532bbde5121e8cae873efa64607ace5d68e46",
        "l10n\/es_EC.js": "a438c7293ec091560d8db2f6c2825b1b8c6747ed8c7775433188e822cf40d3b452c83a1fdfd584cd6530a5d89939f5ca675b2a70e82725123e4fbb6f4b886d87",
        "l10n\/es_EC.json": "dbc3ed6d77a6fc65197a717b5f257e561c45721c7b54dfb5889802b0fd12c2439423b2446d98e2863bfdf3912a33b0a9f4c62e4c6c5a41cc1881fb345091d48d",
        "l10n\/es_GT.js": "c72d2acaa0cd57cee466920eb3e771bde8096d993f23581bb2f57ca026f082f9495175c1c33ea55e55e9171f4583a2fcc419da15f43e5b4ebd33d1ab5cbf15fc",
        "l10n\/es_GT.json": "f43efcc153cbb55fd644e1900573f45ddd6739d1e4ac1f542042067645d60fdcdc3188a150e10eaac9cde23ceff7cf49de2956c6b95d14e6cb5f47f7b1523039",
        "l10n\/es_HN.js": "c5928f21a87dc8c04b839f33c31e715ea283a44d4fa7ec020edc71b7d2fbdcc8be6ac2f908b56969002e004d4010497c7edacc4f0bb3363176aa9c833cf0f5e6",
        "l10n\/es_HN.json": "b1f9cf94d87597e90759ec62e54d074e69516332973213bea1ebfb728ba8fa935ac0ce35e13377e6cfb9e46ecd1532bbde5121e8cae873efa64607ace5d68e46",
        "l10n\/es_MX.js": "8e048f8f139573eb19ae927d097f92736c9e3c28d708ce9119794d6f9102682dd1122a5c6186c1b174222cb2ce164692c8a1a8b2e04e18b8b987b779520900dd",
        "l10n\/es_MX.json": "fe2d73fad283e06145d6f0b80dcba9c9b1dc882bc52684d8ded736444ad214d30b48e353df9376da45640ac286d82a4719103456e0727a66f1682584f2955de1",
        "l10n\/es_NI.js": "06184b70509d79b7a73f600c942b2629e6997812696011f18748afff41d3215816e821f4f8133c2ecc1b265ac6e4d1cd718c7dd6a73b2015ee6199691c9676f4",
        "l10n\/es_NI.json": "6fd101eb7b6063cddea19cb0b2df094f9b96642880a5052bef73f3e0206ac0b0a4f442dec319c6d71e09b27d6ca601bebab1c4d504e5e8ce7836ce65f6799fe9",
        "l10n\/es_PA.js": "06184b70509d79b7a73f600c942b2629e6997812696011f18748afff41d3215816e821f4f8133c2ecc1b265ac6e4d1cd718c7dd6a73b2015ee6199691c9676f4",
        "l10n\/es_PA.json": "6fd101eb7b6063cddea19cb0b2df094f9b96642880a5052bef73f3e0206ac0b0a4f442dec319c6d71e09b27d6ca601bebab1c4d504e5e8ce7836ce65f6799fe9",
        "l10n\/es_PE.js": "06184b70509d79b7a73f600c942b2629e6997812696011f18748afff41d3215816e821f4f8133c2ecc1b265ac6e4d1cd718c7dd6a73b2015ee6199691c9676f4",
        "l10n\/es_PE.json": "6fd101eb7b6063cddea19cb0b2df094f9b96642880a5052bef73f3e0206ac0b0a4f442dec319c6d71e09b27d6ca601bebab1c4d504e5e8ce7836ce65f6799fe9",
        "l10n\/es_PR.js": "06184b70509d79b7a73f600c942b2629e6997812696011f18748afff41d3215816e821f4f8133c2ecc1b265ac6e4d1cd718c7dd6a73b2015ee6199691c9676f4",
        "l10n\/es_PR.json": "6fd101eb7b6063cddea19cb0b2df094f9b96642880a5052bef73f3e0206ac0b0a4f442dec319c6d71e09b27d6ca601bebab1c4d504e5e8ce7836ce65f6799fe9",
        "l10n\/es_PY.js": "29244c11659e94c74c3a72d578c7636e4217d2509acee58fb88db31fc15cbf09b1de3544bc004d03c20ca4654522cfab8cf98c34385bceb78fc198b62e03b52f",
        "l10n\/es_PY.json": "8b447e57b42cf25b79ae2c35ea7c51161048d24125f92706468ccfb1c5bec30a04449b7533a701b04121fa1dc8d4dd67a9e19b243a278b9b367c5d7fb5bb4b86",
        "l10n\/es_SV.js": "a438c7293ec091560d8db2f6c2825b1b8c6747ed8c7775433188e822cf40d3b452c83a1fdfd584cd6530a5d89939f5ca675b2a70e82725123e4fbb6f4b886d87",
        "l10n\/es_SV.json": "dbc3ed6d77a6fc65197a717b5f257e561c45721c7b54dfb5889802b0fd12c2439423b2446d98e2863bfdf3912a33b0a9f4c62e4c6c5a41cc1881fb345091d48d",
        "l10n\/es_UY.js": "06184b70509d79b7a73f600c942b2629e6997812696011f18748afff41d3215816e821f4f8133c2ecc1b265ac6e4d1cd718c7dd6a73b2015ee6199691c9676f4",
        "l10n\/es_UY.json": "6fd101eb7b6063cddea19cb0b2df094f9b96642880a5052bef73f3e0206ac0b0a4f442dec319c6d71e09b27d6ca601bebab1c4d504e5e8ce7836ce65f6799fe9",
        "l10n\/et_EE.js": "416530c63fde7231b2775020e342417f1f650fa5d9de5b3ca583506118ea7992287c3fdf2200a2a1ef4048cc07ac9f5f6c3c149f77b2794c3dd336f440bea30f",
        "l10n\/et_EE.json": "313b5a7dab3e4e3a738b72fdcdab727b172a0daa8e3c8c8479b8fcbac822a8b3324f6ad1bb58d1093f7f0db72b3b267e025e9fe6dbe40d720ce7431a09e0c24a",
        "l10n\/eu.js": "b4f3000a0e7d41786c388a8ae5702d33e699da254bd43d890f5819cdb7796495a1795ba35cceedff8ef862921b39fb18e275afd40534c8ed5da2e7db70b01ecd",
        "l10n\/eu.json": "76dff626ed70e15df0aeae6c407a89413eecdea294750d0cae8fd0bec704817832d387492877018c297c3084527980c92acb4cfbaf0a2e777189805efa7f1763",
        "l10n\/fa.js": "1a9410c71ee820be1ec6b6f4af798ae3991019b70873574d282b0773c8753c9fcc237da479128ac4eb796c64bb496ae3846ed1d7461101a155cfcb504ba56029",
        "l10n\/fa.json": "9c6bc838c6499d20416460ca585a20a19b1ea3a9c4e0448b0f8d943e41aef5ae5f58a501667d509c60ef8aee025329a285a15ddbf9eeb303d75e715b67c60f63",
        "l10n\/fi.js": "a188e25276dc897b3ef6f2acdbfd25ec77a6a17e7a4311692dab28cdc5f46f6567e68fdf326470c308fc4c42ebb16bc254b346cd6b19e89045b0fafff6db5b08",
        "l10n\/fi.json": "3b333d74191b98103d61e5b38c65143eaa30d59aa6058f62cf2b4d83c460119327910f3156d3208e225b30e1e434035c52931267aa0a0ba3f1dbb6ab06161615",
        "l10n\/fr.js": "895edb73676618f5ed8892f18a8178422f064d3d78da7c76ae9d41ac1c1f96c45697b3d1a3ef3068ca3e2ff3c9c8e918647928d5f1f2fcf5d85a3c6daac80035",
        "l10n\/fr.json": "e48474877bf9086ef3d619a0cc37d45d0537f016eceec9af694651d981dfd61db71505fc78a1992cbefd2b3eff2552a4d4b2b072755af57712b43476a23e23e9",
        "l10n\/gl.js": "cf0996d6d90c4c7a94c0b82b7a0af2403748af61afe1b88f0642e36ee2a51eb601f24f8233dfdb1dcdaf42808fe84dc1565a88d97adcdc70576fecb0f70298ba",
        "l10n\/gl.json": "ab8a55afff52063fb40ce43cdc8e168d2279b8dbaf3e5804c419df82ede1b14fa512ff59dac731a9575a19a8c7a0e6cdd3aeebb4d6fb0cca23204b49082deaf4",
        "l10n\/he.js": "0c23f9784917c55534a2b7a42b0552579ee57e6f3b9a50e248a1ea4602760d8289841008587b76f749736718b83a1286aa609f0d11d57b859d8a1aaed4183bc5",
        "l10n\/he.json": "1f58884f528e5525e3e249936020a452eea83b7df25d047f1389f5df1305145f5894eb0fd89a41453c0410232712cce6a2d68beb1e16aa8fbcbc317a0b07d533",
        "l10n\/hr.js": "0bdf9fb4c37baf0ac265ad7ebc85ba1e9fc576c52467f65f5eb9f2eed283603611189cab814b52569dc50fdd8030e05d70b6ce5784770f96e90df8cbb2ceae09",
        "l10n\/hr.json": "84bfb5ce65980e120649c8a6f948983bb6fb48237334596315b001e27923a12903a6b2c9fe348417327222294714012cc726874b001b2ec2a1ae4383561c8833",
        "l10n\/hu.js": "0d1d3ab0f8a4bb8b724d13ac9d956ad9cf5e6dc381bbb3540d52b4ea6e60a147a64a5bd9378f9bd179a64adac946b39342d26c42faa30c66059b8110b7a6bda0",
        "l10n\/hu.json": "e5c9c596541a7a78e01ef95a352147869279c610668ed016f5cc90d8857261e7a0331c0e33d5746e979712ae6b1e0b554cb5a6b534dde68bd5732093fdabbbe4",
        "l10n\/ia.js": "ab6fbf19ffdf351bb8f0c71391c5be2e0113b6c631438ace8c6e0e45ef29d7e9ed5f42929c864ceee5328c478c3345d9c7b4abeb6f426a54dfc7ee3560055801",
        "l10n\/ia.json": "044537380bb1c98f9ce18cf57012242b7cf4047b2279678d1dac2cf1cba35dfc2aab2e6df53125f99756ccea2f33270f6c019c353be1fc70e64f1ea1b3d42beb",
        "l10n\/id.js": "8a0735b45381d2939f78173d10620e695825ab38df49e2d9499373280676dd2f7a015066201ca5147c6dadc812f3dd34daa2e041eaee0563948bcf3eca73ed0d",
        "l10n\/id.json": "35d6347f294c3cdb19195297d20ae3039eef1df010c1dfe9a7a4a6f9e29b01efa99c7bf0d99ea7ba0b3a008941064be05c9b7cd429c3acce3a7d4e0c99a293e2",
        "l10n\/is.js": "49d27f4862be7eacf16d905894e65ec04d98c63701acf07e49011fb848f06c69fcfe96b9fd51b0455a1bb22226bf8fa9c7168a29afec7d984c50d46a5bfb115d",
        "l10n\/is.json": "33a74c16806f169d4bc1a45afa8d2c677e8dd5538ac7c0b537eaba5d7baa7540549ae5b33b838c22d2b8ab73595aee35387c7bf1a52970e0d70111da32b7aaa0",
        "l10n\/it.js": "f6dc012bcfc662f412a70e2f19ba07eab672b01ea0e74044cb60e0e060216af02dfc4ce80d1496fa03f1df9e732ac22d74a94590c800d7b71077965c765bc5fe",
        "l10n\/it.json": "3e23a8d65ee6bc08f31ac668b82d3e88ea0637da8c9e32870ce0e5de24763980be358ac050ea92f10e73fe9733b7cd3ffeb75c2574ea1a8cba25ec1aab26e171",
        "l10n\/ja.js": "73474539758ef420b09b04f8aa37163ef20d7ec94a85b0c5071d021adc3ac6804f5d9b2bcf9d7d6cea45f34ecc0ffd59c336922b3720be814b1a169fba27ac00",
        "l10n\/ja.json": "53c1661d4d6b8578823b741eb8f625163e99d1023a12039ebb19eaf37820d0bdd4f9ef11b8a58cdda630d97045502f61b5b5eab10814d256f03f52546d6c75d2",
        "l10n\/ka_GE.js": "c03d79862ba2120fe2f5484b248c949c13736aba040de90f299235946d2df04d3095caabe81e9f774c6dd7bec8b9735cdd22ed9a0e124661ea9302199fa8583e",
        "l10n\/ka_GE.json": "5d1b63dcb243008c21b88dd70892fa2f03ec79e9d5a713ae6881bc8eec76399280c169833fb21a37e01e72d360f3c1121d0aa7b4a24bdeee928afb693dedfc5a",
        "l10n\/kab.js": "8d26198a72cc68e0eb960f0effa0d7d23b25f138911ff9f48fa04d324780e1074f3620540367ab442e5a5e8927347719fc2f09073da1764c59d2cb1a391c043b",
        "l10n\/kab.json": "6f7b4711cfdd625edd71c628cc2256b67ede3b9934d6d93b8860f8c0fb548b8a6c27f16777b0d7af8e2fd6a885b49330538900ed1b845c069a05554210803459",
        "l10n\/km.js": "30429e4896d3d17f98570fcfc8de82138ec30e82e2596ebdffef58367b3910b19988b51898e1d9785af42ea2c3089c2ff961d7cd80b99b959b0fff9adbb8d115",
        "l10n\/km.json": "cf6c7ae30e65095748037fe11cf0c4cbb06cd0afee6e65ad2b88d7a9f08019f722c89fd2f5c7bb47163edba777d9214f3ab3fce9f6a1daa025364ec796e2fe9c",
        "l10n\/kn.js": "96d21e068999d6278665a954947531d946b37024f6a4b7364d068e288f2c89718821dc4450edd306f83dabcabfa339435bc4930a864fd24206048a1620b94588",
        "l10n\/kn.json": "f2240e2044295fa23d161105775c68e6bdd2025890057c6bf26d74b8e096ef2e3d460d5f18cb442fb20fe8aab1e10d19db44d24fe3cdac6a99b011f603a1b6b8",
        "l10n\/ko.js": "aa381b5a95e2b01765edca2d7172e60fe69ddfffc5d06f0fe1449b10e04cb6283fcdc371dee65efe21592373dec311af3226d3472bd3d626ebe65cd0384bd9fd",
        "l10n\/ko.json": "4204a85a751ff52aeedbcf7cddb5d572f5f0cdcf7d8b660c7a16f261ac4caa76974f63c47b031b00faaee59f47c2ec0a32dd92a74f91c91339475bf1d3ce23ad",
        "l10n\/lb.js": "a5f58a39faed9b6a56e7b1e7cd859018d7d3511d65ea323147fe9e6d270ad8264c72692bc9c76f3b47297f801edacca33456708c8b4e5f2a08d1b46df3e64e29",
        "l10n\/lb.json": "c855b5b190552986d545ca96765e2fdce4dba549acfdd756d38914c8713aefcef32dd5f3ce70c749e40d7ec626085a9ac1dfe16d50ca5fbf378dea2668c5f65d",
        "l10n\/lo.js": "8ebdcedc7da65d18aeaebeced03d989d473c393185cc0d2fadd72274f79dfd7923a8399cc4540a88963fdaca60a7844284fdc720b7d2b6c0dc6d3c7c6e5598b4",
        "l10n\/lo.json": "ba2acb937c27e438dcc759fc9b3f55263da69ea82029f468f6f33d9604fc78b785254677f941626e3d2413a57b921aa18d497fb77a39b786308606c15169b2d4",
        "l10n\/lt_LT.js": "cbfda6b6fb8d315c2aac76fc55076a65bf54a20e6eb22df52be69659e8df3e5bde39e250b12d3f068615345324c7a31b96bdd4a6341b0be118fc685abcb4e169",
        "l10n\/lt_LT.json": "68e0ddc4e49946c672e791acd0361d4fd3f1434491b31447d2071025126c893ef1f11055a71897a29f1a19e958acdf495ee7e11ee73b6e8de42dd7059cfa5a90",
        "l10n\/lv.js": "882fdfa915e6569645dbe4512f1fa22a29a291f2c99428a0c3a993f971a53fbb0055e5ff1d1712b2216025daf70ec31ad029c4e02d8b0d57b7a8dd3110f2cafd",
        "l10n\/lv.json": "7ddb18bdcd06a0e80fa6759bf87e8d2a780a45f36db5ca2b4b588f8012037c1688e43334cd7e3a2ac422c0d4122db18a964fb7dc1e137561ab6b99e9d0582581",
        "l10n\/mk.js": "c1d0847d1ad82da030f0b6cf008a156874b8cdf1738163a56d37d60d8204d244f5225f6247959e4be4ba20c92d1077a25e76d258d23954d5f30f54a19c409009",
        "l10n\/mk.json": "909bc8552f2334cf43e03be5bfe4039640762aaa8b8f4cc8d62c058709c78861f429ab49c46a2a5059b66b1feaa7f4cf4ac5e0b990fd28789a0033dab6a9b35c",
        "l10n\/mn.js": "7fe70326178886bffac299b22ef6c31d45d13886463054a38bf4174e6b182c5b7bdc49867c0fbec92312c778113a761d8a69f02570d9f2a021e98c9510973f59",
        "l10n\/mn.json": "d311f0bb52dafdf59a3ee1a3b04d2bc3547403885fa90dc802d6db86fad3eb58ad59bd7e690d41ec9974fc55ab2e49a7c310cff217d3fd2eed3bb70ab0d00411",
        "l10n\/ms_MY.js": "12bce1e5cb7d0293b6d20ba80f658dfa7cb396778f5a2ca6b4d87c61214da8d41db184f1ac88f52423b6dc992d6b8d832e1c308959c67bfb0ab4d05f375f670d",
        "l10n\/ms_MY.json": "1c62457b79102a82e3a0a30ace75c71e6762d0ca92cd87401385d1e54f769d828a982a5134685025e53bf2c19b3ea03618820490089359cd876071925eff306a",
        "l10n\/nb.js": "5c8dd51555d1242a4c92d87cc62fade1bd709889e09a0fb2ce052f78552fc43eac737242bfa345e283298ddb4ec9b0b1dc2d03326432a16c6c7ba450a40e63b1",
        "l10n\/nb.json": "99491430c2399fdb839b2e5d26da783d2513f373561859dc619fdde0351c6f21ad5b0eb10bade9cd21f62097be63a479e0bf5257483661f7887e65b654b483ce",
        "l10n\/nl.js": "028cc341357c55b1d1ac018355131739bfb69b44fd0ead3e16b96823104c866852b90d1a4efdbb4507706a4f35d28714be5c69cefcece882baf4e708df99580a",
        "l10n\/nl.json": "24be6545d503c6cb055c9b9fab1e2bf59fad53adff77ce20049dd8cd8358619387fe33e711fdc91cf08137ecdf30cc2cc27cd7b0da9f4cb50f1d221b2b5a77f8",
        "l10n\/nn_NO.js": "ee6c93927c99854eb0778e10d5722c2e0a602e513d5f7163a3828f240253e2192500e655304705e5a369e062de46d721fca4c7f9da1d1e0b6fcc2f2dde23c4a2",
        "l10n\/nn_NO.json": "93db81716370b9d976f32d39be5e79a4f870e7b6b9c7cee74055806f4b17f75a18ef4d4a37c0f717a1b70189c8e31ae00ae2c99616dc177a0ee6982eed9e4e5d",
        "l10n\/oc.js": "2d29b1831619279ed7ec9f8324af1b415d8f13739bd082b8ac4aaa82403faca2635b0a3fa307acb6f080bcc7132fec7530d632ab2f2a171ddce5140566301494",
        "l10n\/oc.json": "392b74a1bae031f5b8728f8b6a4628ab4e7e592c9a513ae0aecadbd4e7c2eb3fa51df0af6f284e301a5d8764875aa5b391ee5f2bbfc7f011ce66c3c474a17e0e",
        "l10n\/pl.js": "721a9b033f967de4b1a0860d7c19f3e30a23456612b2ad4aa2b9c918d6a63ee5b17bcd0d8446f49262395b8ac03ab06a44639dce1f93c8eda98a0e161e5ae253",
        "l10n\/pl.json": "759d8d36a2f28214ade10348847ee805977014faca9666a097231259bfb04d31f9d34e51f05aa6c4cf6ca10f9603f3f9ed05128f1002edc36c7803a41965a4e1",
        "l10n\/pt_BR.js": "ed88a2986c02b8f99ac213be85769d2452f49d9339ca0f63390eecb391a22346584db5c52a3b972f64948a362b75358994f441b4a694e78d0ef529bb8dc3c4bb",
        "l10n\/pt_BR.json": "b1aaec286bc7ace8426bf3ac71d6039ad28d1de42cda35af259a9f36d27e13fa40a121aff675a0dd0b96443c5a9c602bb1490c78a6ebfe52abf8f27d186c46be",
        "l10n\/pt_PT.js": "697e5c2c53ce931365d388821b05fa0bd554ea8b8f4f78306ac6867a182792a47110f17e48345b7bd4e0db9d96d33e2190a541e40d5790effd9da9f244b8fdb8",
        "l10n\/pt_PT.json": "f9217a6515d73f420d548368feb259790300b579aa02a1d790de1e260592329133533b18ef1506c06d45009888716f1cf507c966b344b9f20f0a55911e4c4264",
        "l10n\/ro.js": "7512dabd1d36e39618d6303d0d52897f1c057e56eca1ef7f573c17a9b726a62db98bc781cbceb1cd30f8ebbb696faad3637cf629f8208961e5ad851151f16d9b",
        "l10n\/ro.json": "3486d11df3aec91ad5531ed5746828df3d164f12d6e4893c7776361612b6cc8bc5acd3b7dd05346dc43fa0ae038c4f91d4cbbe3266318df29590595b7a9ba181",
        "l10n\/ru.js": "4c417bb7794240f66f314e12e7fdf2fa9a194e1e061b138f71128987af3b768eec6b357df7cd5c7a4a7f36e3c3e7719d322b860ab0aa916bbacdebc4202ad331",
        "l10n\/ru.json": "9b52b6a56a2a122b2578cd386cb2ac48dc1eacfa4b05adc86d1259ae8f0d70d974056375d08c557f102ab8e703d0b825eb2f2e088bf709b9f656e26d7a24465e",
        "l10n\/sc.js": "85e1a4c3f09851474194228aa3b8c3e2ed7dc3c4b28e4079323bb1ca50d888fdf8b9a9ec691e6146af77853ddd6317383a2c3aa0f6d80d02ed57bcbd0821224d",
        "l10n\/sc.json": "460c7fcaeaffcc1c2d14019f0430b46c41c1e6b99649efa40310d767542ecc977e183141b59d5ee86315edcab3ee77d37e6e98705caf8021d4a008a9ff0bd499",
        "l10n\/sk.js": "ea0594c49134a5fd4b8a38eda837c643db5512cfcf678a85e1ad809c1e5665f523817b8de4bcd0f696a3ae07bce846f9a97107a05e2b3bb9d3445b01874d00a9",
        "l10n\/sk.json": "ae7504bf85c08b62e1df4c77f1781a1f3ad9d7cd524b9b79f31b908bb2f0ec50a8fd325e1a7386259e68dc0c1fd6320760138f087b00250e6e0dbec7013e44b6",
        "l10n\/sl.js": "acd795659d2c8f3230c7b8390ff7c225d23acb6d166afb56ace14f9c84d43da0e666b503c46b61500b3eccece6d782a01e31a52d55cca3ac04c8c5f5efff120d",
        "l10n\/sl.json": "a67a1d8fcb93016be8df81054bf96fa558bee7ae31b75f64b1cd879eca4d7ebba614fa505b166b5975f93f7a6eddf25d1e29116db584004e29fc9deeddf1e3c9",
        "l10n\/sq.js": "9c3d78acea5861b3560079481d3bcf57f59a443cb7ffbfc48f2f9ef56a65bfddaa2b63a60831841ebd2885fa252cd3636806bee5bccb38b7e0d67ce3cc230b65",
        "l10n\/sq.json": "7c2efe98f1d39dd10c2f67b1c8943d0c7865f62ac677f73e801e28381bf3402c20d58be574ac80349cc20f1ce53c76d588f86bb01e332a2490721107bb523dd7",
        "l10n\/sr.js": "368942fc634e819153af4e726a69f4896a71ce5dfe4e433ac17ed4a7294d93a0996b8920a295dd5468a254f4b22bf7328fdc3ba0ebcc607766e4b233a1e21e3a",
        "l10n\/sr.json": "87d7a382aae21c3c378c5374e86772661afad880ab4c7ea48f2fd964264e4f49464aff7cf69ba1b931b5e2ec4ed4150520672a45cc569849a9fda1dfa01aa7ee",
        "l10n\/sr@latin.js": "c5d950c202b4ec24ac7ffa1ce2095132a02218b73cf2d0ec9508cf5170c17dc54940eeaa1078d7c5b52509aa2fa7f9c9d65d4317ee266f6fd35496c9e817a55a",
        "l10n\/sr@latin.json": "ec424369a10edd387e2e20d68840ad945d04e1d4a12391251851901ae1a901be95d4d79b5c5553dd0cc1593d95c35081fbd35c5bebe4331dfccbfca367bbb438",
        "l10n\/sv.js": "13bfbe0f11aa95780aa33e319c298e70ee8da4b4d25f1b159560192ea580206264cf3133d921a02be3b858ee500142ad17fb372d054a63bcfa6bfb323a25767d",
        "l10n\/sv.json": "7963be2cd32ad8f5c1b8dac9fade799f15ed3a51d159d654f9d62c14e6f0ea544c776fb4173564b7c425354e1eccd58fc27b541eb35580567f3cfccc456dafe5",
        "l10n\/ta.js": "af30e8637b9d403b04b494116cd29cc3bc5bc04da4e480f38a08d77444b4f66c8fa853a94aa03030f6f08b5cbbb09b3a315b4d7d575aec9abd9545e599d4e5af",
        "l10n\/ta.json": "ad3411e487b96482f9ff67a261f42703adbc883a98532e20bd06cf8209a2c1c2241097c2430058176904b7284a59fc23653b7a5aa184d70a28a899287615439d",
        "l10n\/th.js": "6a63b9dbe83f835af57d6759fabb70bf58829777d1e24faba741e11caf7ce8bfd15edaabfd3888be004c096df0ff1ecb22abe92f82dd738dbd3c26a8b0ad1c68",
        "l10n\/th.json": "253643833fcb4cbe0f1144472d04af6940cabd9e88059c5edc0296a2b82d5c04a473c1b3decc14a59a93afb61615e1f069cf51648816c05b033f308f12cb4279",
        "l10n\/tr.js": "5d8bab9552da26732abc2f68820528da62442a99ed6b8f0272f97c9b7ef558bbbf7a78e34126832979422f2ea58c16fd2fc4740615c10a0358111df88018dad4",
        "l10n\/tr.json": "aba550fc5cf3d319df0d58a07edcc7f86b9d09f2b4944219b8010008d3b7a0694be9c444aef6f80420155f3db13bfacf93f5e383b5a431bf390c4fa20e3f85be",
        "l10n\/ug.js": "3e128080f17a2bbf842c58611ddeedf43d7c7e6c0a03ce008948440de4fa0067ef6af86e82b94b48f8f2872b96d990cd56dd296573293fb96d0d20ded842e194",
        "l10n\/ug.json": "6ff59633c6451fd929d5e50f20ddae93c7299dc22ff1ef9bfe703777fda09c5c90e13acab7bab53d4ed19345724837c244409d4a2e215b29474b7b9216fa4d29",
        "l10n\/uk.js": "ccf8942d364609bbfa9421e24f9d1dc438b1f624b15f16239efa7617962636a664ce8ff6657de422449e3472a208b3e045e44746795c2bea4c2db0fb822520be",
        "l10n\/uk.json": "d40175a92577d00517939e501b10c354cf40c110c72f98b11031f9d576a881a379df412d175bbc25ab1c945c835fe3df08a8465dab1807eac59bfdb431e229e4",
        "l10n\/uz.js": "5f896638afec1b02ced4cd35625fb2324ea9054c901cb8e410f4cac9684886d0a7b8e28a60d1e5ed0ca139bd9c1c70523946a02623d3fcdf0ca61d429bd071a0",
        "l10n\/uz.json": "850d1f3829ec967e391858633a9dc4b30627716e89fe879be3aab7aefa6f212698a34638eef76654946f6904be793233cda2d1bda8cb1906855f2a1275952c4b",
        "l10n\/vi.js": "a675d17c6c1320fa163a6b9b5f38e37da9454313f0a1d19df6860d6f8f799799006c94b41f6dce8720988fe2034746772c9d5f0f7df2343af282db0f8b26ef07",
        "l10n\/vi.json": "7fb8fdae8fb60cce52183c102759fd9be6e6d207f4b0b9ec5bdd412f2da53983dd83be4e8429f152d7fbcaac852fcfaf9e306b414de770b23c5aef4e4c2ebf30",
        "l10n\/zh_CN.js": "605b6029cd9f86c966f056c39ab4f1352be880df47c953d2d8976fde8344ce01fbe87ea0fac435047ffa1bec3d775cd2ac664fffd7e704a78ba450660dad2079",
        "l10n\/zh_CN.json": "173c8130ca4afbdbeb75295db853bb5578bbe7d716fd9b422b21f6d771e07239fea9c58ab87f47ff6e680d1d3135953543649e133977de900fb90ea6bb341e1c",
        "l10n\/zh_HK.js": "c497c2224cfc6738c4b940d766fd23707543766e6aef2bee4ce7ee3210641c9649e3abe560242f05b262115a897108c0284ed2654f695150b2c400d7781798be",
        "l10n\/zh_HK.json": "d6eb7a67abf43156425cb5c541d2e76c98120cb789d369feecdac052a097f6ece5c69dc1bea15170fc31fd17151aec9d20ae1f117f14f730b6b6e76136672a1b",
        "l10n\/zh_TW.js": "3ba7c9f99d241490c972368a133a09f4a1697e63cb8b3af78b383869835d6a583a785c952251bc4f3d29db8ae3ac3fb1a6dd064391485482318a6d8eaab08673",
        "l10n\/zh_TW.json": "bb8377067603d1c87794a49b81e0b42e2efeac86ae1738fe807cf0f6a8d6de8cac64f967dd490c2d8813bd42f443480b922cc37db573a2b28b3e8008d644b81f",
        "lib\/Album\/AlbumFile.php": "b0fb1a2772dafdc05683e5b8fe1b6c4dbb7a4c72ea07a883b22767c550c84ba581e36cfd68e83841df0b93f5167fcffa0ee5d65be028f13543e8aa87e61e3967",
        "lib\/Album\/AlbumInfo.php": "356b57fcde0e42d77d4958196c6c364e0ebbe66dbbe8228b21af218c5b4072b6182ca6c0372c82b5a9d6d2872db8546f8c097cee3c40d90cc0f4dfb4856a8c4a",
        "lib\/Album\/AlbumMapper.php": "8cbcedaa584a5e7857d8ac54367cc0ac1cfcf27dd3a0f06ba03c71729937bf375dc1c3cc65bbe7b20cf909c81aeddb4a040c425139fbdc2f06a8d36685adb989",
        "lib\/Album\/AlbumWithFiles.php": "2c558111c5896d137b51af5c4510c48a2cb1fccc73bd5e0367980619ad2ff446bbee823db2ead35394d7788b268e49ba2b5daeaa268a5f86943dc4a1f5148412",
        "lib\/AppInfo\/Application.php": "c1c9880ee591ebcf6e5568f618ae17c50dc1bfa2f5ba9cfe626026a95e85d4ab7f55d0d7045735c80e1479ef93fc5881a39721d054f63debd918c65faf08f39f",
        "lib\/Command\/MapMediaToPlaceCommand.php": "7624638f5979119c57a065b1ef6404ac5af7889535cdf1b04e6424443b5bae0d51503383354a696994a873e3ecb944f035a51f555f18df0d8f1bba2b3cdb9a29",
        "lib\/Command\/UpdateReverseGeocodingFilesCommand.php": "0a1885d9252304e196cf9c5a086e7174b28bf1871ee749c1cbaba4f29c15c83d0a33d6c5cb30013927c5da2bd8dd93070b116ec1ce7dd2beb1f30e9a2783d632",
        "lib\/Controller\/AlbumsController.php": "3ed27f72aaf526ff801b2b24ff7f837527d384b3b2f1ad311153e8a0b46d1aaae52ca8145d916df40102a7e7b7434d1f5e537971b6759f4b545b133fb0b8334a",
        "lib\/Controller\/ApiController.php": "907f449978f0adccb59e1d256aea612d906d5bebe8f658615516ae0c0e09f2c36bd79382a11ee09ca935ebc680d5d79b02f486c17da71f8f51aa0b0dfea682ba",
        "lib\/Controller\/PageController.php": "a99875b894fc738f57b4c4c481748b2c1d4f4df053cb2a088ddf3212062e3fe49ba420acbfaedb67cc566be6432786bbaeefeb243d7abf3017a7eda2eb530aa8",
        "lib\/Controller\/PreviewController.php": "5691633a6c75e918b9644d9c5864bf3fbbe49ae2226747d57e750c342d4307baeb36f6dbbae7d6ee9fd09b3b41913192eb75a51c28cb66e9b9cc5b88669b4b24",
        "lib\/Controller\/PublicAlbumController.php": "08ed891bd2b5384f9647dd9532497e93f9d641653b7f1ef8147f8c7557ffc10ee3b32e1877c59f3720589dbdb6f81fa69becf7d45a203ff4aed906fe847e16cd",
        "lib\/Controller\/PublicPreviewController.php": "e8bc79f8bbd0602dc148bd1891ae1a43795e02971364ea086fd5c63fbd62df323927092aea5e298bdbcd0371206d04dc3d79453953dc81cc77880e2f7e4174df",
        "lib\/DB\/PhotosFile.php": "cf0913e4cd2c4ee21041595152964117c61e193e9c4eb268ffb512edfc1fbf1a1fa27d6eab7ea1629c309ac933149da368cfb076ee7b1a84f7c1057780ae5b11",
        "lib\/DB\/Place\/PlaceFile.php": "bdfe1dafe72faa377caaa90409d34b8cb8288be7df547319c6ceb84af5d96c45b7e19ecb1b1ff24417446ae7c72ccf8fa8bdad1df9cf7267fe95fbb41db2c482",
        "lib\/DB\/Place\/PlaceInfo.php": "8d1ac46fa34e1ed50a9dcf305c05d9c3fd1376c731afcf13b0e4da57a264eb21fb2b718384e8c6372939c5c566c560778dd2deb1fdfdcc18e9adf147c6e03c16",
        "lib\/DB\/Place\/PlaceMapper.php": "c28b1378312565ced00ff9cb3d539284995022fab06f2267e57765b586c16074b1f83bd542444868debe6ffe06982c09d2033e39361a7b0c273af0aec5faabf6",
        "lib\/Exception\/AlreadyInAlbumException.php": "87cf692592fb297e05ca5e6c3533bfb6097b6fd7d0a01f4050ff8f8dde80a11c8c500ae87748f0d20a21ed18c5e709f95c38baabdcb7dc43e6465ca4cdb1c11d",
        "lib\/Jobs\/AutomaticPlaceMapperJob.php": "535d1b728d6e0b6a09e6f616984609bfdf44a838361339579aa461dea17cc6ea778f71c8ef04fb660aa9391c272d41bcaf2d0a4ba34dd521bdcca48705775b42",
        "lib\/Jobs\/MapMediaToPlaceJob.php": "9b72db7bf88dbc6b7b69eefbb5196082ab4cbe73860fca6c529045844028f71154e3c08cb8d6ab2787f82592d46a773a73a65fe10baac9af6ce48f0d11a3f648",
        "lib\/Listener\/AlbumsManagementEventListener.php": "9c40aece9b064cb40b961d58310c7d2478b0fd7a5207db8c4f37b088499811aeb27b0a034ba33e01f29da30cc51bfa1e035279f1252ba4625880132530e4f7ba",
        "lib\/Listener\/PlaceManagerEventListener.php": "1570058caf4a873aa205e62e68ede2573b471ac1541973ab709e4fae46557dc8d5f70d5b06f909e13742879b8d5c4f867d95eb37984ae8c0ab4244033e6385f3",
        "lib\/Listener\/SabrePluginAuthInitListener.php": "d78377e38bbac11d7c919901d93400c214b9b3bd10297dc9c2bb58dd0e442cd0b8e066333efc6a0906b1d1d1d02b5b0456f4c91b5463d9eb29a016d9ce52f42e",
        "lib\/Listener\/TagListener.php": "71b501a3b67366ab5894df21215638653b44277e7d552f69a3b22557b5be421e17b6d303c20814893d69eaed29549cd30445250f1ac13fa4d8449d4cc57deb55",
        "lib\/Migration\/Version20000Date20220727125801.php": "b294c1d67afc0761b9dfeecac839b771fcd9aa0363c1f697b2588d0d112ecba2f5a4ca801b432ead8eeb4adfeecfcd55003154f16d246b81ff6a689dbb3b7bb6",
        "lib\/Migration\/Version20001Date20220830131446.php": "436ad54c20fb963ca455473db64b621ede0a8da987bd7a480e3217229d6c43dd05b2079e4348d22498207733e0555f909ac87c822df670b544fdf2f391a68dab",
        "lib\/Migration\/Version20003Date20221102170153.php": "a68db125761c793843a1c78931cf7f86a08dc7d179ccd68732ac89f8798849651c4efec74cb5bf15fa77892418f8c4aba453d491303dd5f49acaee3469cc4955",
        "lib\/Migration\/Version20003Date20221103094628.php": "9acfd0762a30d21a5126e8bf2ff772c1652a0ebfb03a3b9646b04a1ef96bfa1234a9222e3f1dfc314d707b4a9468d393bedf2d40d3e3668743904aa783270474",
        "lib\/Sabre\/Album\/AlbumPhoto.php": "78b7032995cd56bbfa4f5ef6d6e2b43aa0e355b623bddd72ca75cdf3647fec8291f06c022ac9c8683e7524071ad3d09e3f0d449ccb8a38dd0411072c72a7ebe4",
        "lib\/Sabre\/Album\/AlbumRoot.php": "f0ae521aa1f97ffa187e852007a714e630b972c8b6c7f3a74c6d3ae3ad89c2432abc2a2b04b98cc72f78e181a2ca1df0744f98216626f69ab97051f2bfbbcfdb",
        "lib\/Sabre\/Album\/AlbumsHome.php": "aee1c0b0131e1cc52d2e1f641a8c7518e94d626265f48b5933cbb4d00314ebe301f7b79744175b24626a4d0790c132ae9244d066cce42f947f4ff4c418cae829",
        "lib\/Sabre\/Album\/PublicAlbumPhoto.php": "f96a79121877f732cad3ae8cab41488bc3360923dab9e471084063705340a6f3824b67982e9c3a816dab4bce0c5e031274350f5015fc91601322e59faa18176d",
        "lib\/Sabre\/Album\/PublicAlbumRoot.php": "add385a0ac0717f7af23812d8461869b1d73493f07d39722af562e650008041533440c6b2007e179f7241323809d6f6bc115162688149cd243d2ea8b43e5513d",
        "lib\/Sabre\/Album\/SharedAlbumRoot.php": "3e0a85c841b7fbe07ec727845e4c947e49bb1f55d652156df867ae8750e2eff8a3f72de748a8a00f1c89d05be7203736652e353fa5f6634e88041af1fb229e44",
        "lib\/Sabre\/Album\/SharedAlbumsHome.php": "22e9fb52b8678d6736c4cb703d9d1849db56f7f8ef4c3ea33dbf5762e9e1d31e6af9fdd68d47acb3e2d44efce1c8a6972f05b4a1ae48b1e87d07325541f40c90",
        "lib\/Sabre\/CollectionPhoto.php": "edceda6ed533ea66708ef036357471ab32d8ba556a66742b5256d42da70829ccdc02819435bdc3b7e82fac588192a37053025781ab20314c0d43d0513a151775",
        "lib\/Sabre\/PhotosHome.php": "e811759f21a9430f5393666e9e1e65e350590051a5ad9d9062017224c3dddf8c4708dbfeaf35a22dd6cb0b828c7a04e36d4153db574a1ba0d234f27b4f0c230b",
        "lib\/Sabre\/Place\/PlacePhoto.php": "4d6dd27f6dacc199820615e801bb18a785fb0a6b1b21565bfcf0a9aa8a67567132ce34e906ebdef674f6758645cf8a656ed48d01f9a2da245e178377866afd09",
        "lib\/Sabre\/Place\/PlaceRoot.php": "94506230d3b1b41915de89d019a148d3e907b3df87b64e137a6ff25c688991065898f3e71a830aceaa4f0b1183e70f95d3f2e6c14448cb8b4ae965504a072016",
        "lib\/Sabre\/Place\/PlacesHome.php": "3fa716f40a2abbe9960fb9ea543192898b0c1678b125e549b2222928e514a2da1ea612a7ac4226fb9097c9940140a22e59805f896d2921dfc2d1c0b3f774f600",
        "lib\/Sabre\/PropFindPlugin.php": "133958dcf8584d4ca9b52964e3ccf71220f04e073e6cf2ec20a2e8dd26d4098bd5636673bcb2708b7c889751f53a9577b9f104e8a54aa9b9433b64d6bd19f816",
        "lib\/Sabre\/PublicAlbumAuthBackend.php": "5f2c83a62ced5a1f30c008c3824cdec1163425bbc3fdb787c9e97998f8be7fb8bd37d6c0d0fe57b28459325c3c71c4bca493b9c74764a9bb5d6cf358489e1fc4",
        "lib\/Sabre\/PublicRootCollection.php": "9975a236cd9220089c8413442a42d5bb1d7b6c4dd88eccd32475d85a3293f7918fc18a1ccf31b78cff8c5d24b2dedabcc9feb5507322c8ae0e1341472a0eb9bc",
        "lib\/Sabre\/RootCollection.php": "b767112b01d1ebcf238fad0a6e42b6afbf2261cdf0d008a8d635e0e89dd3833d7f80f3f1465bbd7d2d0be6f609ca59464ca7c6a12c4c1aaf44342ec738f7bfe3",
        "lib\/Service\/MediaPlaceManager.php": "4d2aa8201781ef00c97176ee0894defefbe65ede4aea8ade6c2feccb12c190c3866b10f1ce449c4b9abc58dd1aad4ebb3d0d1034265f88a926d732bcf53f0d13",
        "lib\/Service\/ReverseGeoCoderService.php": "a5aa4d17e915252eeb7f6cdc2ba0975a493f970d101a759e07ed6fd3f92fe29fbbdf8c814e6aecdee6a2b7ff28ff52eeb8d341ec4963e2fac70727565b02fc2d",
        "lib\/Service\/UserConfigService.php": "ccb5486cd67e231dfae926179555991de4cbcbd6134f93425cb86905ff46646ca0bc27872526a16eb340f3978ad220dff108f16e72ac7a2c46177e1f0d2b6ea7",
        "postcss.config.js": "c1d3364289ae6f38883b4fd2d6d0c5d276627c0f49c0ebd776e9915f12a7d0aa62e29fc1c6f3612e68e519791b4461f7eaedcc848cd782ff23d09f666264d5a7",
        "screenshots\/screenshot1.png": "d16b213df877f5b9912b6816d1052f814985a8f9564b2820be2c0b8fee733598ce63bb6d49ec81c60fc3f7f281ef6400d7fff2ded711a86b6ff8c503a4f0666b",
        "templates\/main.php": "1f18fb196bf16b3b0191b6103388dcab8153359fa8851ba8909aee9ebc17d5eb5b4ac5cd9bc60943d9736dbd042638e0e7ce1c6d1eb3ca8fb3a3923334506b51",
        "templates\/public.php": "8b31984ce2e6396ae1f2cf11906ca94e91d43ec007fcc13f2feee58f9b28cb591894a06a506d1b6cb45a1ef8901e9910fab2e2c83ed748f3a449181bd0ce7506",
        "tsconfig.json": "a7ede5db311e868f7206e454dda3a063ebe432aebc3f9da43ea40b4b6d2a49b4f6068f6cfd40938e997a8afdd490641ce22c60414301b6b806b0f6e57a4ae809",
        "vendor\/autoload.php": "60ebe4c5130dfad1084fbf24a2c45e491af591bf4dee1ec1812ea43a5ec3b1ce8ea964804e034b9916260dfb3b3e7ed71a89852c401581430bdbb1764175993a",
        "vendor\/composer\/ClassLoader.php": "9acadbf32ca0ee18c534f508f20041bcb7629cb8c7c51ef7b3b967ecd93734ecee3afac65d8fc05116c0894ed39bce85cc3eb6bc65a573955291352d84d779fd",
        "vendor\/composer\/LICENSE": "a705b3c006c074ab5e64fafe01c539053b4600d1b7649397383d17daef49554d0ebb0ac5184280fb8e6f0bdbc1a4184cfcbdf812f932816f724d6b84e4e632f6",
        "vendor\/composer\/autoload_classmap.php": "d31b650f15370e3d6368f437dcda7e5150fafdff3210e14dd409f3b68aa5f0b76fd77598581096b967108e40eeff31422dab1b461bfeb7e58feb411a424ce548",
        "vendor\/composer\/autoload_namespaces.php": "0ac6bde683c053d62b7024686ecced083ca1a326d5346a248b1a058ac74a5af71d515d311ce76df799a518027f734b80b9e7f6e8022a9556c0f24ce90240d822",
        "vendor\/composer\/autoload_psr4.php": "1d8d5feb6ba0e95215ce1bbc3b57f0f361b13baf45d194a88907ee29a871e94b1161408dd3555d5c55d34f2dcecee0d08b20b8fb014409687118146e2e88dd79",
        "vendor\/composer\/autoload_real.php": "3e107c43ae95173eac0b2c5f700c9f56a8594fd1c4fb6ced79f2d423be3fc7d7377b309f5eb77ed58f9cddfc3b86079e5124b07df37bd44b99ac6155a3369f1c",
        "vendor\/composer\/autoload_static.php": "fa84d1f105a091e1f48c3a2035d060dcf28b9ff881e0933fbc816422f91fa251ef802c8a70f35566bc9c25a1d4bd1631bdeda9a5d0b43e1663740ccdec8ee763",
        "vendor\/composer\/installed.json": "4b138bf9245b82c561eb7a346c5ce777d1e2b931d92013c520f449fc514a1177d3d2b78bf5cdc9cbf332e93c4d67fed1ac6ea18f57821cdc8752ea761923c467",
        "vendor\/hexogen\/kdtree\/.editorconfig": "e6ee1b7c133251d9fffa2f50ed7fdb49893b6da26032812b7d1863a212a1fdc5e1cbc02bbbf4299cc396ddf8656e2a27ddccdaf4b76008773ae460a95caa726a",
        "vendor\/hexogen\/kdtree\/.github\/CODE_OF_CONDUCT.md": "675ac49eafd0373721a390268fd6fdb92ee0f63944fffdbbde32fd1a523d755f784831f4aae8ea19a581fb64894348f6989aceabbb1566f4158b924040ca7397",
        "vendor\/hexogen\/kdtree\/.github\/CONTRIBUTING.md": "f7d71f6f320b0b4ce1f90899e3c71cb13db13ccaacfee29397736db8a04d51d580df4317d2057e2152d7d342cf881437671e13b9ef63591595e2cfcc9089741d",
        "vendor\/hexogen\/kdtree\/.github\/ISSUE_TEMPLATE\/bug_report.md": "45c2bccf15892919049ef9cdf66ae6395d00ad22489a588981b4e9d5765ba0d57ba3d3d3b775537247b3687bbbe8edc214b65d3abd921bea44513992ad799c0a",
        "vendor\/hexogen\/kdtree\/.github\/ISSUE_TEMPLATE\/feature_request.md": "331c27322e929757e033f5b9b33ad595e75a7c39bdd76a36d90fd7e288d272bccf5fac6e9b0f3bb8ea1c62391798300b4b33404999de32771132d2eb397380cc",
        "vendor\/hexogen\/kdtree\/.github\/workflows\/tests.yml": "0988718fe9254ceb4184dcdd8f5122282d4ed956ff32903dcdba036ea1d772a1864a536fa19dab26674184a73d710c904c9b6b8e0b387e629c5a7158621b9464",
        "vendor\/hexogen\/kdtree\/.styleci.yml": "57e7aca66f5f23e6a1c8a44918dee50685d31a2501b2bf1ce8980d5e36b3f2b19b3f4336fc26b92a0179a2ab8f203f8c06ef11266c000d2e596766de6426d485",
        "vendor\/hexogen\/kdtree\/CHANGELOG.md": "506628846e46bc386a1332f1c1a3564630436835aaa2d9edfa87d4c97c5b1785e7eadc735e2eaf80685331446e09aaea761363faa7e94cb3bf5b79874a8f25b1",
        "vendor\/hexogen\/kdtree\/LICENSE.md": "beecf6a8944b91e113079cbc0bcabd40a3213c8160a6c5e565ff761cac7f596072aa47b71c8f4e4de28b1e72de3483bf779144bad69059b130755cd31297dcb2",
        "vendor\/hexogen\/kdtree\/README.md": "5f88955c8881bacd431c5c74105d5ba8a49a0111d6373ffe2a66acc40022eb6d7b1c3f01493eb33773dd3ebf22eaa0f02ea77ece56e39906c78b40fcf74560af",
        "vendor\/hexogen\/kdtree\/composer.json": "630e3e2fa1b3ca6485c8a195926761b3b0bf5c1ae3dae687a4ac44a263531bdf7c6be7426013c5a3f83a522d0e2879b90966c5e5e274664030712d5b5170df3c",
        "vendor\/hexogen\/kdtree\/src\/Exception\/ValidationException.php": "1186cfcb1eb6d2fdeea73ab0bee4d5de826f80835b9ad8172bfbb5f11271b4f77daaeafb0bb823d81b16fc5f1312f0348313f3a20be61ea4fa75f25d71b6eb88",
        "vendor\/hexogen\/kdtree\/src\/FSKDTree.php": "d7703a56dcc117437b2d56d0a6ab1f4d903c6a6ac3866f2203dc89f584b48fd508522bd7b89cf20180f36cd2a8e6d9bd74156d7e2b15d44a50ae89620c741fd1",
        "vendor\/hexogen\/kdtree\/src\/FSNode.php": "8577d74447254993b5da84de4222aa28fdd19721764401d92043913f1118d2e5636ef295d136786620e809135bef529f987af51e31750c0f8b062287dd1df03c",
        "vendor\/hexogen\/kdtree\/src\/FSTreePersister.php": "a603914fbbbbbe6186aee76984e3766f06f0984939ec9685a328d973a4d9f922a3b07f244775943073f207b2e806f8a326ab1da6d3033226a5de274d23ed9e5f",
        "vendor\/hexogen\/kdtree\/src\/Interfaces\/ItemFactoryInterface.php": "c19549d224958a189df7163165d9306313323759d7cfa2c7849dceba715434c9c4c1271ee06eb71ba571873faf777842bd79ac23ea73e4d5d6348e8e99e35d56",
        "vendor\/hexogen\/kdtree\/src\/Interfaces\/ItemInterface.php": "b40ccc4617e36b981e70c1e913806bd158eea9ad333068e942189a4c8a778c245e7ee9cc4cfbc2f7ff6103f8ff1427079c219a933381ba32d2af13ec2518a90b",
        "vendor\/hexogen\/kdtree\/src\/Interfaces\/ItemListInterface.php": "66792965f35abd6886f0497c87b622dbdb9dee4733c636c4d5de48b5e19ee10c9fbb84fb41cda8261c0274f60621f32560eaf10bda3b7fa0a1c4379d06e6ee65",
        "vendor\/hexogen\/kdtree\/src\/Interfaces\/KDTreeInterface.php": "ac6e2f3722b19bd297d9e55d259f0e741fdaea6014d3b64fa91d6492d5c113d3727cb4161c740e9dc7a8e09be8a43cecdb5bbc0477b8efcd7c84f451b0042c08",
        "vendor\/hexogen\/kdtree\/src\/Interfaces\/NodeInterface.php": "fca7b7b58bb5fe9fd6f1fbae078a318001db7cf026ac11a3a2695625d069d591e26b6ab656369b588fd576cf0d87f0ac692a0a4c31affa6d77bdf608162fe009",
        "vendor\/hexogen\/kdtree\/src\/Interfaces\/PointInterface.php": "7675a31a92f535c2e95ba95e1f115851c8afc643a809cc1027a5ef02e7ba305a84f4dd5736007431f03ff1db4c2c053f24922010728d38f220a878ce66f51f81",
        "vendor\/hexogen\/kdtree\/src\/Interfaces\/SearchAbstract.php": "2e15deb53f6ff11eb556b92a6038a98515a1a07cfb8b1ee169e08fe1f3955d376b91157071643135bb123130ac60fab68ffffd5d8b81fa8f703fbd93864aae70",
        "vendor\/hexogen\/kdtree\/src\/Interfaces\/TreePersisterInterface.php": "a59594ff702a466582b6b0cc308ae0b15773df2b7a1956fe2ac157f823693d438040d6dd044a80271853c3570c04a0d028e67ba79041302baeb8eea5383ec3d2",
        "vendor\/hexogen\/kdtree\/src\/Item.php": "ca1874cf699938e750dc391576cf8ba7d54ebf2260c68d297f6393e7d16938c59ccceba0915158c4fae07064fea3fcaf8a446dedfae5ac25fc917196474cf835",
        "vendor\/hexogen\/kdtree\/src\/ItemFactory.php": "c1d6531861b02eadf2305ae2f22a4a0e8a3a1c164c1cfd7c1c733ad3c92974f609708a7385f20e8a255272ef0715cd620203d4b36473b9f70c409d9ad2220db4",
        "vendor\/hexogen\/kdtree\/src\/ItemList.php": "932d46094faac409112aaa533d2ce26c0b687b1ff3924a8a8e316bbbde1a92b0d9459606078b24a13115ddb179f6c49702e7997f0389b7fd95645622886f1663",
        "vendor\/hexogen\/kdtree\/src\/KDTree.php": "e245db66a8c48262285579144440438f0f6f4be3c69c57a4592e4e0566ba7b8a6b2cd530316d5c469c4dff10b298602e51db1c6b0c45d319b85b48b0e43897fd",
        "vendor\/hexogen\/kdtree\/src\/NearestSearch.php": "ba686db4efb5ba446d8f30d1526dc50c1132f03fddbe9510d63eab3fe0a53f87459f263bcf94f318184e94dbc89505976e13a80dd8ec38bb41d79e9d1870ec92",
        "vendor\/hexogen\/kdtree\/src\/Node.php": "cb79030fb501acf8f0b18a4e4bd222c3a4cfbd48d2ab8450284d2923f8d3333e5f2d49b3664663f7c21dff8bf63eb6d45d8afb367e62d1156f10a1e621c8109e",
        "vendor\/hexogen\/kdtree\/src\/Point.php": "9773842a9944f448b12dc2c55fcbedbce02932c7dbd5f55fa8389fd88164f478957cb03d3ced862ddd1e362cdc10df408c92a9f25c19c800ea0b7134c31d94b1"
    },
    "signature": "eqIFWjSQCkqsKtrLxlyoaoKSktnO77PVz6MPGgiU4+gbJFMZsy\/I3aWCiU8Wsj6GkyHFjz1mhKtH2QLq5\/ERVhtWQ83x2JFeHQn37wS\/ISGBHatf2WU+mxamuFO5AhNuzd++uhJL2q6g\/ZsXir6F1wKMOYTph+511a3J6E2\/6LOyqA4avac5S1rK2YA5Tz7fkaQTHK2KLKV2fPA7itaWixXhHALjD+qsD6OMMae\/Dh9Vb160fqdzLCGEGUv296Ch\/MPdqjbcKlKO6xTyx8gywOmgomiMp\/v4mXqMzOk4vDa9vcw71HG0roN07vcVvTYkyPmInc20mgxJw84H1OG\/\/Q==",
    "certificate": "-----BEGIN CERTIFICATE-----\r\nMIIEojCCA4qgAwIBAgICEAAwDQYJKoZIhvcNAQELBQAwezELMAkGA1UEBhMCREUx\r\nGzAZBgNVBAgMEkJhZGVuLVd1ZXJ0dGVtYmVyZzEXMBUGA1UECgwOTmV4dGNsb3Vk\r\nIEdtYkgxNjA0BgNVBAMMLU5leHRjbG91ZCBDb2RlIFNpZ25pbmcgSW50ZXJtZWRp\r\nYXRlIEF1dGhvcml0eTAeFw0xNjA2MTIyMTA1MDZaFw00MTA2MDYyMTA1MDZaMGYx\r\nCzAJBgNVBAYTAkRFMRswGQYDVQQIDBJCYWRlbi1XdWVydHRlbWJlcmcxEjAQBgNV\r\nBAcMCVN0dXR0Z2FydDEXMBUGA1UECgwOTmV4dGNsb3VkIEdtYkgxDTALBgNVBAMM\r\nBGNvcmUwggEiMA0GCSqGSIb3DQEBAQUAA4IBDwAwggEKAoIBAQDUxcrn2DC892IX\r\n8+dJjZVh9YeHF65n2ha886oeAizOuHBdWBfzqt+GoUYTOjqZF93HZMcwy0P+xyCf\r\nQqak5Ke9dybN06RXUuGP45k9UYBp03qzlUzCDalrkj+Jd30LqcSC1sjRTsfuhc+u\r\nvH1IBuBnf7SMUJUcoEffbmmpAPlEcLHxlUGlGnz0q1e8UFzjbEFj3JucMO4ys35F\r\nqZS4dhvCngQhRW3DaMlQLXEUL9k3kFV+BzlkPzVZEtSmk4HJujFCnZj1vMcjQBg\/\r\nBqq1HCmUB6tulnGcxUzt\/Z\/oSIgnuGyENeke077W3EyryINL7EIyD4Xp7sxLizTM\r\nFCFCjjH1AgMBAAGjggFDMIIBPzAJBgNVHRMEAjAAMBEGCWCGSAGG+EIBAQQEAwIG\r\nQDAzBglghkgBhvhCAQ0EJhYkT3BlblNTTCBHZW5lcmF0ZWQgU2VydmVyIENlcnRp\r\nZmljYXRlMB0GA1UdDgQWBBQwc1H9AL8pRlW2e5SLCfPPqtqc0DCBpQYDVR0jBIGd\r\nMIGagBRt6m6qqTcsPIktFz79Ru7DnnjtdKF+pHwwejELMAkGA1UEBhMCREUxGzAZ\r\nBgNVBAgMEkJhZGVuLVd1ZXJ0dGVtYmVyZzESMBAGA1UEBwwJU3R1dHRnYXJ0MRcw\r\nFQYDVQQKDA5OZXh0Y2xvdWQgR21iSDEhMB8GA1UEAwwYTmV4dGNsb3VkIFJvb3Qg\r\nQXV0aG9yaXR5ggIQADAOBgNVHQ8BAf8EBAMCBaAwEwYDVR0lBAwwCgYIKwYBBQUH\r\nAwEwDQYJKoZIhvcNAQELBQADggEBADZ6+HV\/+0NEH3nahTBFxO6nKyR\/VWigACH0\r\nnaV0ecTcoQwDjKDNNFr+4S1WlHdwITlnNabC7v9rZ\/6QvbkrOTuO9fOR6azp1EwW\r\n2pixWqj0Sb9\/dSIVRpSq+jpBE6JAiX44dSR7zoBxRB8DgVO2Afy0s80xEpr5JAzb\r\nNYuPS7M5UHdAv2dr16fDcDIvn+vk92KpNh1NTeZFjBbRVQ9DXrgkRGW34TK8uSLI\r\nYG6jnfJ6eJgTaO431ywWPXNg1mUMaT\/+QBOgB299QVCKQU+lcZWptQt+RdsJUm46\r\nNY\/nARy4Oi4uOe88SuWITj9KhrFmEvrUlgM8FvoXA1ldrR7KiEg=\r\n-----END CERTIFICATE-----"
}