{
    "hashes": {
        "__mocks__\/@nextcloud\/activity_ws.json": "8c1308546387cb11bc1e64bf01dae432b2cc82cc7a0dae7aa0a125210d32166dc1c338c68bdf716860b500d24b08925711d8b6c5b27388f66143394a66893fda",
        "__mocks__\/@nextcloud\/axios.js": "8c837ec5bd80d5fdc139219de6bc6df16711ccdfac40c574ce27e06202a3dac06af577eceb3aacfd612c326198dc0a79f487e57b5a1c9778533325624ce43a8c",
        "appinfo\/info.xml": "bdac9a5964ebaf3f42a82607af24b44424930a83131da45d7306aed82111981b0a3f4612223d3d3b2331508ecc196aab1b52781017a7c66f519495ff056352e6",
        "appinfo\/routes.php": "bc1ac2ed924c530ca4bd0bb52eb45010d549e980d601d8c45aaab05ce5be81ba49c96cc691b6d54f92256802b222b0e7b89039d2929fb6b6ad876e8e944d5331",
        "check-handlebars-templates.sh": "fd8e1cd2a4696213ce9b1b607e637aa2d65ff7425cb25f586b87a6052f774f785542310a12b0db8ab0f502dd45f1c2da6a3efecab30bd91dcfd47331efe29a14",
        "compile-handlebars-templates.sh": "448294a19fe80a398f6a3bb795a1551e3ba4ac0b781d72e646ba0dc71cc9bbab4dc9de5f46d4ccc2b88a2716b9ff2e5dc2b324159a4ca1ae8719ea1bd9166fcc",
        "composer.json": "e06b86065f7fddc64e9497667c5df8c34eb414473779611e43cdcd1de0c9bf6a5544b02303b4551c6ce062aedbe05fd1e88a2b539f0cd526ac39113d4b80be4e",
        "composer.lock": "69354d225bf5faa62dd346ca67b24cd6568c4a21e38e95d603995db2e9cc4304f682e9acf69ad5968327743279b7a05a289da659e6bf2eb58906e16dca99d275",
        "css\/style.css": "4d3197b051121b4275e0568cd7c33f74de7dfdbcb92ad6ed81481675025561684b3580c9736b307f326e662912ac4cc78f61c5b9b7a91cea0bda7fef5f913f4b",
        "docs\/create.md": "803f8d0fac55d70302cbdf8f98a845b92e047da7a6a59775465a37f5ea877cc8eed46d17e8fc1cf1c25e148a59052e5bcf6f8366a1fd059b2279fe48e9774ca7",
        "docs\/endpoint-v2.md": "f517377a1700df0d30dc21f9a681259fcda5dcfe1d2a6904dd9608d56ce764e30ce12eefad1e5bc0f254d33a87ba661e091629544415771085b2cfb9b528af9a",
        "docs\/filter.md": "7e88206824881508b737ffc923d811eb9ef3d6995b2b796d86fd64ee314e4a71aa3d2283813e7219bef76fe91c31f221db2798cb0070beee64b264f489722433",
        "docs\/provider.md": "dbaa0b37afbe96959c259a610e8a1451ad34d81782453010205550845217e00f0d8d501e2327a6a4b2fee5a032bf77411e2b8859a55352c4ea34c09b564272e4",
        "docs\/setting.md": "13430e16b5c9b1100c91741cfc44fbb2e46f73a5802be9defd11b66666a0a811c1b738f614fe69146a7100147776c96ca4402502c6531c07ca4f0594816acbc3",
        "img\/activity-dark.svg": "b45bee527d870fb0383eaf70ba9865d831082fd591ceb3ceb571460dfbba60b2fabe87207aa9374ad3b39643ad9e9bf7257f46d30d13e13eb045031be1511314",
        "img\/activity.svg": "38d74c9d11ebdc6692623401119631969b2db6461b4d56928ebcccf4c867d8b53d8e3b589bd1856872c2cb65dce7b877adf8b6c53565aa0a5061cd9921a025e5",
        "img\/add-color.svg": "095cc57f91fe023ee8ec5566fa47d97fba3911911c9aacfa436fcd2ae6f3cb64cd885c06f00cc18c2bfefed4bceaba3b6100c4403bd742ed1166e944de395594",
        "img\/change.svg": "99a36e4b601680aa236e2dab7238c66cd6e61d078c329279fc4a645d9bec77b81c02e246b3a206c08bfb250e83d8ab1718238abcd3fa83b23decd6645b5ccc9a",
        "img\/delete-color.svg": "14c1bc703034446d95bbcaafbcedfc8c9701ce6e5a10fd03cd82e8447546d32a18a1a2db37713e7ebb398ccca53a08e2d0b593c5fdc3e1592f67b3ce14c6a618",
        "img\/notifications-dark.svg": "79876280ff7924418efec7cdceab2b70468e610faa1082c98a7c95268aa4b5a7e531554e69911093f5b401f3a46945caf525d4198568e68ea103c2d2e805269e",
        "js\/activity-323.js": "6b7d3c397f8a9c8e59de133bb199e3705caad86e00ef38f00ece3c30609f49702b23f01e07a337e76151ba05c50b3b8873fa583fe048fe5c2d87c8ee1c6b3422",
        "js\/activity-323.js.LICENSE.txt": "2e6270642ff0e1e69c16ea8129c96b840dc49c09e27c6b0ab318d35ed371404c308edd3f90090f972d13f6468375098a7be70f5fea11139ebe1b8df2f3925956",
        "js\/activity-323.js.map": "116653230e40c739075239930c97abdfc5b43809c84b4ae56cc4e1a2e888c2ce03b81e5b6e801d75ec9114cd3e091401a67ad9d6965af8351d87408756dc4f4b",
        "js\/activity-398.js": "0352506fefbb6fee27e5c3250d8bb80876eb87e62131965293909812b49ed1eab239dfef12956c5c99ef004c9dec73dfdeda85cd82ca581e09d64c494fad3abe",
        "js\/activity-398.js.LICENSE.txt": "f1f27aa42a1a7834bb7da2460e3946d426adf54c07a346c4f90a11784b34a35d60e1d95c9c75716a7f186e8545b40b547ec4ae27b4ff6ab015f46bddac330112",
        "js\/activity-398.js.map": "57a7edec3f7cae9af3e3017266d53b83f7c7af305c937fc2e6f43c6993de392b96047636755c08bbc52d6d9c7d78f5af1fdc3376784dc7c68e1ed8eed1f92d2d",
        "js\/activity-554.js": "b92dac56c12b481197e96be39160caf172e4c4fb1451c9f84b46db7c274d4a53b17585d1ca1085c0ead4e9bb94d52051f3c3bb0c631f75b14653304e7df45f05",
        "js\/activity-554.js.LICENSE.txt": "f1f27aa42a1a7834bb7da2460e3946d426adf54c07a346c4f90a11784b34a35d60e1d95c9c75716a7f186e8545b40b547ec4ae27b4ff6ab015f46bddac330112",
        "js\/activity-554.js.map": "c967c2b05a0623c1124dbb544bf686755eda6fec4154050738b8604fb35c8e8133af33eb99d709a8801687d80c4387e6621c5f2fd20c78b0b62b38081e6ca50d",
        "js\/activity-783.js": "852728c311c34788bce8ff3d13c6435ccb5c2588aa530517c55cd37807fb8648d60bf38f997881213f1b5e5ee3d8756f94c6b95f5cfff63c552746e739c3290e",
        "js\/activity-783.js.LICENSE.txt": "f1f27aa42a1a7834bb7da2460e3946d426adf54c07a346c4f90a11784b34a35d60e1d95c9c75716a7f186e8545b40b547ec4ae27b4ff6ab015f46bddac330112",
        "js\/activity-783.js.map": "8860ff780d8d11d5a98568b5e62843287f297de159bcf5826361840c5e93345fb578bd0742025659482535abd5675b8d3007e0075fcdcfce89a085d341fcd759",
        "js\/activity-adminSettings.js": "af120b8b5be4a2ef8acc61fc0a018df3de2d5267234b7bcea6dcfb79e54a8bef1a4dd523f0298bd09c767cdd54658b5fa4b3bd60dc0f306db541bd932af20b7f",
        "js\/activity-adminSettings.js.LICENSE.txt": "056109091051bd55b5eb10dc79f5fbac5dd640543df82c0f1dca4ef4f86c9755c7d7bad3514978cb78be5cef1d1073e54ae9c039e8b3ab960914d43035ed45e4",
        "js\/activity-adminSettings.js.map": "ea0cf0aca12a0754edc5d3ee42a4f3dec97737a6e7d4935082bcb0d348c3c226b2d8faf0b88ce78260f2e2a3aa1a49bf9b47b2b0cdb4f9f5c235499017e61513",
        "js\/activity-dashboard-lazy.js": "c73863e3686a9b89d2a49ae426e5640d9afdbf1510c9b411e2cbaf79fd3d85044bf136bc7566b1f1364780829e291f09b668d7cdd417d9ec95ea5e991b77dc4c",
        "js\/activity-dashboard-lazy.js.LICENSE.txt": "a6b9ee5c00418d30cca09516c3132ab210a1fb31348442ac89af784f5444c3cfc76154c7afec6663fdaddd2e1a8a623bedc278415e44b2ac3ee0820578da6d55",
        "js\/activity-dashboard-lazy.js.map": "e8da4bc81309dc56958a90f73aa88e14f2f0439383884e2ed3dea111e70bfb8f4a086c14d1fb26ec22a488a0e27a13bbf1ae54c515945e984f4aa1dd8fe2b05b",
        "js\/activity-dashboard.js": "da588d1bfebe4322d4eaf7ab10e39460a4c8b2992c24b5cc90f9517e0e758fcb23e03e7a53493aea64855d1e099e1bff93dda5333ae357f25c32e03cb98bbcf3",
        "js\/activity-dashboard.js.LICENSE.txt": "547d87268f2074108b52de0a8139f2bee0b3ec564442057e19813ba0678c2a4cb929b8060d4b9eaa72e02f472d49accd21b3696c10b24d7693f62103bc5cc1b8",
        "js\/activity-dashboard.js.map": "077cd65ece079278b6b76eb95ba71f9f62a7b9e16c8449cee46f09eab45fa6d2dca375ad585513459e747a8a2a50fc5f7d6933420940533e030a58492d839db8",
        "js\/activity-node_modules_nextcloud_auth_dist_index_esm_js-src_views_ActivityTab_vue.js": "25de39dd205e665e25b0c70703984f5b431b0cdd4ea78dc2c2e5487cee477218543e679a8791551380675460aecb93489294f0d941770fd7ad652cb5672271f7",
        "js\/activity-node_modules_nextcloud_auth_dist_index_esm_js-src_views_ActivityTab_vue.js.map": "666b67b3bde4434d40d948139830e9e1b6f06061f7d54cb4e6f1d8a0208556b9b063989e6364e75fe1454d4c50f3cae32b3e496a31fcd303f14d397ca3e2e5c8",
        "js\/activity-node_modules_nextcloud_axios_dist_index_esm_js-node_modules_nextcloud_capabilities_dist_index-0e7ea0.js": "ad906f60f9bc013de1eedd4ffeb5dabce0e313f5b660906aec1371445b05d2d75d508a67682b490dd215a0ee8f92b47d0299e2caf487d26aed2730c382823777",
        "js\/activity-node_modules_nextcloud_axios_dist_index_esm_js-node_modules_nextcloud_capabilities_dist_index-0e7ea0.js.map": "3ef4f04bbbcc2cddd0bd7c3ce62b4cc74b1fbda947fee7134bdd740863dc11b91f2691df1f401c57c8c3e9c41a34d9b047834787ba27c49c9d941d0595943d72",
        "js\/activity-personalSettings.js": "73003c5978e801c5c066f7fd720ea91f91b8db2dd6777f51c75fc076415ccfcc18d4cc64a64a9e4bfab32ff2d0ffe98643f8f39b58727b0fa2f1a9ee4b578b79",
        "js\/activity-personalSettings.js.LICENSE.txt": "056109091051bd55b5eb10dc79f5fbac5dd640543df82c0f1dca4ef4f86c9755c7d7bad3514978cb78be5cef1d1073e54ae9c039e8b3ab960914d43035ed45e4",
        "js\/activity-personalSettings.js.map": "374d4d6017a4c33baf85e12af615ff6490a957f26fa2545fda172be0dc06c55cf64340c529d3750da4da2e9866be1d341da21e4b021b239984170011e62f98fb",
        "js\/activity-settings.js": "733da66f316e91688abd24e4122b7f88d553f93d4c83a6870df7fc1f1ec6484dc1bf057a97f6018c2cf5c8c0a61b373dbe4fce3445bc3ab75150271eaf07bb73",
        "js\/activity-settings.js.map": "2eacd7cf39ac16b2c3044615d7f46c28514507ff58e38685d3f5f468a7b8fce76926fcfeea27e60fc9a793a58c473e428e8081cb2da1f1e9eba7eaa8850aa667",
        "js\/activity-sidebar.js": "b59566ca5c19603c455b73886a32b7bfe43116e3e3c93f00190cb5e852bac2a2d94ef0d7fef8a56c7e5d7a274f21193f4e489398cbf6d6455ba2f28b0a3aa074",
        "js\/activity-sidebar.js.LICENSE.txt": "8e5c288b16b95fb7dc75700dcd243ab211fcf2ec9645aecf5c47f12f58446b0966c0dd594a3e1a1b4b75ae3fba6d01be8d22de7500fb4d67ed00fcf25d845827",
        "js\/activity-sidebar.js.map": "d8ed7334123ed4a47ffecd4fe1ad9b57d41267a044ab355a41876b564d7433d1ad79234f66caf30eaddb710d3bc8df46228e1d24786f8cc4f4adabb8cdafb96a",
        "js\/activity-sidebar.json": "a67a98257d4fa99dd431ee7302a4f911cae88492df11289e484615dc5b38c9e68d6f92a34eefddd539b02b412ce4638f7588d539d4633fbb621f1cc2eda5ba61",
        "js\/activitycollection.js": "32ce96195590e4f09a3a9332cc60be3462709f81189df17c4026b58946d54d5e19d98ca9ff9521c9cd6835de617543eb53c58a882579a554ee32992a09d9b9d4",
        "js\/activitymodel.js": "7ad301968ea178cc186c486fbfaf5e349763b1f058a83fdc438749497f3f75dbf1c0ceabf9da469fa9e1d8989336eafce19a110d179ac969932cac77b107e189",
        "js\/admin.js": "4c4fd51db818233077477896f101600daf07fff0aa572f31c4772ba2391d15f919e2af44e7b0cb59e23596d3345e322ed6fb05b69e6c07cdd6153d49d7a0a6be",
        "js\/feedSettings.js": "e50ec3e01ff9f612ee5b374b65139c7c0a858f9e7987f878a12ccc357ae9d2753b987b13304fc8c6694169f0a07df0c13f15957edbf112a625156e2b10bbcff8",
        "js\/richObjectStringParser.js": "d33b6a29d7596544307e3eb9386abe9ecedd3c996d3a78e1b906386b0ac878657064d8c96a5b05461a7e102d264e4a08523799aea1860388f5540223b491f2f2",
        "js\/script.js": "196f358cb9ff6545ca8e1a6bbd017bf8245d8868f772f98e461d9f0b37596406ab37ad37ac68e7c131aec77a95441e39074e46fce8a2ed4787fe8ff09699d912",
        "js\/settings.js": "8b9c3b1ba64048a1fbb741b979c5181a7875c12dac84f33b38f0ba131f62e951f1184d6767e55b5290a4fbe42b0729d4fa0d2151d69714ba21319e076b3c61d5",
        "js\/templates.js": "c4e46a2efb9e7c48ba97cb999c79d036f519bfc5fbf063965861ec80587a28c190110b9e4fa3f90ad69e909f00914ed2c24ddf6a7addf0c1513c73db8e4f12a9",
        "js\/templates\/calendarEvent.handlebars": "92a32eacf6aa3a4d9deb39b94ca2ba2506818061601e25e4bb6fa287189a290b8f3cfeebda29839371ea5f9c3f1a475aae00d1b9f1aad00527aca987e11eed48",
        "js\/templates\/email.handlebars": "e80e79473b7338091baf74d6d6e33ad211687801a1acb6551b6a79dcaba43be3b6567998c130e5a1f7d3ce26ee4fd96ecc966317b9807582c3351d635ad4ea1e",
        "js\/templates\/file.handlebars": "0a231cb38097460a4d64ac7571d1d8db74d7979e68d54aeee30503478096d3e61f3e75d46af9820a7e7302326ed178d77d4bbf301a4e434f6435174f1c9e91f7",
        "js\/templates\/fileNoPath.handlebars": "8ef759d0763cbb3de8df09af1bf23ae45038c94416f5db24923d6095288a1f9be35b55ffe1422b1c5e514001ec656c438b45203668b4302003a234daa9d0b608",
        "js\/templates\/fileRoot.handlebars": "453f0a5ed686bfbe8b99ab2e1c05ce2a2b5af8d09dade8bb5a3c56750dc0c3a44641ea799e36de0d84559af956875537b5b00af0cf9895f14ae70ceeb647389b",
        "js\/templates\/openGraph.handlebars": "98f3849dd7600a2344c895e4c162fbdd131da03722d68ae91f758f4956c8d5393e730ff57b5e84a620b5a102b9bbfb131d59b269a8ca13ff181a4b671d97374e",
        "js\/templates\/systemTag.handlebars": "1098fc662a13aee74d6e0f5c639aa5845dadb2b555a3ce763ec6484815d9ed9497e6a94188112b4e3f19bd2e410fa964db13583dd65c6542d1919b0dbb0df8b3",
        "js\/templates\/unknown.handlebars": "793061b08003e23bd0c2dfa89a96a5335eb73bea0b4446358844c2570b726a26d6b8806f56f1fe514919662a32da800088922b6848370e8058c62a0e07b4238e",
        "js\/templates\/unkownLink.handlebars": "c5775b820ef4fd6b02a83a8ef5a2651216790468fa42155655b549750220fbacca7491a5553326c66ae40cdd214c119a7901e01b1478f2308a3d714e0fc64464",
        "js\/templates\/userLocal.handlebars": "b28c3d01f877213c4ca9acaf78402383719b3030dd776098b5f10528c7b9979cf3d6812b37565182d3ab36f16233fe3e53402abc37ab05a343bc8e77328dea5d",
        "js\/templates\/userRemote.handlebars": "793061b08003e23bd0c2dfa89a96a5335eb73bea0b4446358844c2570b726a26d6b8806f56f1fe514919662a32da800088922b6848370e8058c62a0e07b4238e",
        "l10n\/af.js": "c02dd6ce197b31584eff1ebe981a8b99d6ecc3cd25ff1212a4969aa572faf1aca7aefb51fe1a07ac811f40d9822d7829293ce689dc89aa0d7d59e637d423e9cf",
        "l10n\/af.json": "0fd557e91bd01e914ba4a1d219dc71b69290ec3925f5484991cbd674e83a97fbe5a08e5f0c03d2c1ebd6eded97fd067e456c9d9c289217baa98014ebc675cd44",
        "l10n\/an.js": "1d6bb8dd49577fe182738462a1b791baeb2aa723e00e5b13ea5b20e6417f04092a4a28cffb294644f24a7ebf7fbcc6b31d3ea10f74dfe334421136c018ff735a",
        "l10n\/an.json": "539941cf2ad2b43cceeff6258a6ad88725dea021777547da53cbf848ae0f1c99b3a97c357fb06154ed06979b0b0bad6c173c7be88150602b3bebd57a61cdbd27",
        "l10n\/ar.js": "770ba12aefb6c35f492b5cbdc94a0e332800f5e302b5349491bcdcc490dbb10e7606c1e111f393e0286a2d98b6c5e7b8590dfdf3c2b73c2e6e7d116d74a8c553",
        "l10n\/ar.json": "f14551229bc9b5313c73d50dacdd494a992bd075174bb05d3cffd45439c77f92567aed8158918b13dcb8481aa23daa54f3de1443672e9a55cca7139ede974a0c",
        "l10n\/ast.js": "f649d04a91b5c71fa2d48220eef4a29d66e906b0662a4423132e1eaaaba38e5f375a15084cc0b64130c1c650051703b4be3a34a9d4790dc5e06eb824f1e12d36",
        "l10n\/ast.json": "e520700cd05329f3c8fc81b5b94d057a520503b308e8055ba9f9f4dc01c477cea347b1d7ee4da95aa5f2b0169057c9dc0c8a3a0a3aa08e773a65fda0e40899d4",
        "l10n\/az.js": "5c7945ce9dc77f7aa9b8868faa5f2066fe4ab36a085e304618c8d5ae3928b0ce07c465b7430e27ac5341c1247d2351b667fdc72d17aaf734bb5d92be59296c90",
        "l10n\/az.json": "f22a64dce8046f1c461e592ba6600be55ca8810c2cec6bc1aaeabc80f2317de5ba1a62c9037c9529505edf22b335038347831f464e93caa62dd04b95bb1dd2c9",
        "l10n\/be.js": "ee0e12fd065146eb6f15c67b76488efb1c20b030a717cbb24d052e4a2914c93946de401c610d119bb7d7643e7bbc0803f81626838af4d128919e1533115137e8",
        "l10n\/be.json": "5e907460b613a83bf93a2e6cb18bb1d6cac835b49454e39138e17a005a03440566d26aa1bf498f08cfa3033857b39fddb122119d349429d0177b73513d64c940",
        "l10n\/bg.js": "7a6c82f4dce218dea0ef29a92f56b56a71d87678bbe60f8497912929d8b4f8b32f6bc5e89381d864ee8b349daa47c521013e8d03b689dd39d09fd7bc7fd6027a",
        "l10n\/bg.json": "0abb98f22c600a417205b6ede52e13a432757209cbb60e175adeba652b3da000ac52e042bf8af93234860f028780b6f1f737ef1ba27d73078af42c2de3eef2be",
        "l10n\/bn_BD.js": "b9c01d6b670302a469d4d17a889fb00fb3ad9ea23945d28366c605252a6d6299fba56a8b7c241b625176d4577d62aaf9d90959a4ba4ad0da159699c9fe6756b7",
        "l10n\/bn_BD.json": "2b375819bddc812cf651004c9b8ba4cee0638062548598141147136c0dd10f200b9ce238e9d9cde6dbf4a288c4c5b61ece95b5af8fe1a4d49dc0ea5d7c001b61",
        "l10n\/br.js": "b558eccb971d8d84419f1cb9a1e1a3210a3a93030ee57a8ae4d39e339e9b44567f40ab213ac46df246d84d1114529d23538696f02bf26a1108ebffb00a24e2b9",
        "l10n\/br.json": "e68b336f971c708ea275f39fccc547c10faea62872f0b3ce32e5d5e9a5f5699f87316531ed632a56df2acb9e4b9951f0ef7a097ffd1dde6f7583040033b89b2d",
        "l10n\/bs.js": "f01c6413f2d52c47b385d9135f7607c15562bb8f5deb739ff3c120d3e6211300e386c86bed33c250fd6a7722a89f5b36250458c386e26e95dd7e9f97633b784d",
        "l10n\/bs.json": "9bda8a0cd3dad936236c9782231dc9fa9cf61961b695648ec0c9c1ea1921188810307cf7ad9b6dde324538e5ff9ebca3bea98ca5b6c32f5423f091b626032ccc",
        "l10n\/ca.js": "a5ebf5245f73854acb7fa7297c7ef05ab693e1eadc632e3b5bb1281ce7e0f5a338e35546bbb251774d3205a5241c4d169aa405f053c3f820766cdfa3ddecd6d0",
        "l10n\/ca.json": "51cbfaefb8d69998d87b645c7ac12a68c0e3d86e47748ddaca269b413864d9de1177e10814cd23bad014d0a5edac55827c2ea8a0603cdf2716b71259bcc88b67",
        "l10n\/cs.js": "6d2ca3ea122719a3df41c987cbefc5a1a8226d0b04d71e874d398e8d10acc3aef3ae358e641c5f847524007ccbdfd1da6f482162f321fb16e2d58dd2e18b2aed",
        "l10n\/cs.json": "ab4a2cd0536bb23c761e184561c3fae4f36ab4b0b07c055840aa0ac3ac11cdebceb6b1406dd57bb42aadf844da80ba4d0d91206d95a7757868314bcf7a1e75e6",
        "l10n\/cy_GB.js": "4be6c4bc10e386c376b24655c05956fa0571d647f5d582901a9a3a4a2cf0b7a4b8a44c31d09d6396e64383681a7b7c0457b91c335658ccbfea5d8d073d88b3b7",
        "l10n\/cy_GB.json": "8bc2f21f4c867c9b138efe8c12462624ab711de2854fce443ecd0ca7658c35d32ab10d5dd8690b4a61eda99f364535b29aa1872275da39fc8b664972d9a56977",
        "l10n\/da.js": "8714d7b400007876eba93d39680d3b766eddb6c0a8893a6f8124ae8fd4dbb13d18aa026ca3ed46a36323b9c6a16c09b1e7d9e030cf46dae88fd5c44d5d52e80a",
        "l10n\/da.json": "dabe4c377a76f52d2e0bdede66b3d2a0680196604b59aeb44fa165d32839ecc7cb85e6c4f8fe9fd34e314eecd24b621c8162c10b2e075e53021baf4693bbd4f6",
        "l10n\/de.js": "51d81e2a0ee4f3a15cc96cf421aad9a2a4970cae53f9c808f2130b82275eb943818e104d12ccc6fc132082f26a6aa075f7da832dd6bfb77b64c3c934973e9d69",
        "l10n\/de.json": "92de2bef0914c65a006aeade2802fe273686c8c060f4a3e04d7f2e6d9ef1cfc82adda09cafa1c4079f2d7b69d57060170c0de6a7c33bb9394a6465b1b3003039",
        "l10n\/de_DE.js": "91596ab418cdabca6b98a6ad065a4c3540c3f5cdcd9bbf5e663630653018db5bb1b76155706f696e14446f99c15eedb2690386287ca93c7d50970b00add008fa",
        "l10n\/de_DE.json": "39dbf3f09658b718db05671cdccf6ca1d047b8726c9a0d7a65a2f578e0f86a13dce2db304d53a4989eb4bbf5ef6cc7f63334fc45f35e5efbfe2601078ee1da82",
        "l10n\/el.js": "d293eca1cc6d99af6b9fb4c0d14261b9878f7f7e978128e1f74f4241a18f5f267bdfc8183f337e2e45791f331134b6517409322c42a95fe1fae1df989f40fbba",
        "l10n\/el.json": "36c7ebee7cdda52d19149427ea5a860d0f195cb6acb9e05c556fb3950154941fad8005b407c007041f9e88bce059cda87e83440f3224d0c2422bb57b3695d278",
        "l10n\/en_GB.js": "affb932b0e93e4a5d4f5df2910c42b5a5ce78b1c0c1f8018a78d37f3fad7738e9d4f6902fd0960866b7800f122a34ee8f98c44d06bdb3456ed29dec53e15f63b",
        "l10n\/en_GB.json": "2c98ef658c6f7dcbeb0c82425394e5590d10e512a31bf2b1835b7ef55b2d782379b3e83dbbcf4af5d15afd24e48b81cf1896653c8c8187321019e2f8f6ca0725",
        "l10n\/eo.js": "cd5e18f5def5ba9ca1509e19f6b1dde1d766f57a2ee2ca222e06f0fc7b058ffab27cd79ce6ff56fc6311c32c7bf6dcf935a30e62741deb26f7333681af41e86d",
        "l10n\/eo.json": "56f4fd7a07cc0d5cb92fff63e096e49e1ff5fe9f5461923b0e7122680ef014ec38b213aa7329585eef5952b169eece02deca6bd991df0e2fd9bf3ef1985d7bc3",
        "l10n\/es.js": "b557239ecac78b64500879383f965fe0e61066aab02c769157a35de996091dcdeeba1e34f2a78470647f4af900974ecc658b763cbdba6634f7916c3e8df612a9",
        "l10n\/es.json": "43e150693575bbe43c85c28746937f23d601c6fc58ee233095c809d28a0855ea26c9b564a2da6954ab9b3347ec840001c03e53968299684574a2360a277f476a",
        "l10n\/es_419.js": "a735f8cdf006c8c8217aef4b34593f8b613c3e51130c20e562523345d75368c0d64b9d0876168ade0435688bfac9a4a635d1c3ff6c5554500fffb504ff441ddb",
        "l10n\/es_419.json": "8a083ed0c9ce15b168b13428fdc1e41bedf6ccd55a05c2752485761e30fbc184a9bc695714d913f675488b4b92f2aee907f1950716e9e365725bbd926f024235",
        "l10n\/es_AR.js": "9a4c0870c851f37869737ddd0de22f712e994d14a81140c0ab3c8f84e697e8ae28a6eabf0692ad5120a47095eea43cab741c779a076d02d9c26d4f4eafa9966a",
        "l10n\/es_AR.json": "6d76a29c511a6906be2f3079ae63fe2c80deb394c95a67d3fe0a129db9bc237b2bb5b103d72b366d6150c60ad0715e6120ce11c169f1a15b0fba0adac5f3ff92",
        "l10n\/es_CL.js": "f8c7663cc4d09703b3cbbe27360f876b12ed33df470fbfd8314d191b83ade23751b81bdc4544be519e697af5215b60bb7167c81b9204f6183addc8b1954273b3",
        "l10n\/es_CL.json": "8c3d1838a76e4417fee2ecb360be5c04251841a1778021d41de1c066508436eae4b005141ec6ebe039fb5b86c14bec4d045b20f6cb8fca6e22aec70cfbd0fea6",
        "l10n\/es_CO.js": "67576b85ab70f950653922a9178be5f77bb10d4065879e9c118760840d82873a8a66f3257ac5a2528d47bf7dd9d751da04415298094a0ac4be8bcbaa61432a26",
        "l10n\/es_CO.json": "0104773fa48a9d3ccbb9ccfcc5dba2d5223aec9a33297ebaa742bd0659493b7d0c8716d809f1f0dac5f25b0a7564e048ae573ee98a6850ed9612205315ca8b97",
        "l10n\/es_CR.js": "7d9365582bc02ebfbaac5ee45e903b6772a3d7f98dc14179b0ff66c54912b44c6b8b1a6a729ec368ecb66f2caca2a145e017d4f62b438eaa94daead65308069a",
        "l10n\/es_CR.json": "7eb0f913653d74072b98547b7a9749ed867bda034325861fce2bc6ab9a6c0d5719cf7d85b510ec7d2f076ef4985164357d743c0fe8c0ef95502c226d42982368",
        "l10n\/es_DO.js": "0eda9c9cd07093fcb3e39363dfb062d109cfdfb6d3f827e2f6190fc37083393cb89d2bbf12d8a5a434d8ecf00f35d1692b1c36b6f7fe0c5e7af98d47bad95ea4",
        "l10n\/es_DO.json": "6f62f7b4bc6e5e02a9412474c85359e184b09c42e2d7927fa31f9acb884b28c875d4e83054d9c50a29c76bf941a2c5fbc6267edda7f250e3f4ce958b9f29e60a",
        "l10n\/es_EC.js": "7aaf7a8cc25b993e8811cc4373d22e92703b1df8c42730b20bf97229485a280aa1ffbcf4aed012adb0c0abb381ce7904afc4341a14e2d142ebdafcd3efadf56f",
        "l10n\/es_EC.json": "2a105fc4763b798d14d4f8942cb5666275f9acf408c950c85768d91e0499f18ef4310a7dbb4a2d8d26f1b0c1ade0b48ee336116ecff7d17b70f977094e4bf63d",
        "l10n\/es_GT.js": "546986ad13ebb947e4dbd4f83d13c6e564bab83dfbc989e225ab29116f32da4e2f46e58fa63cf3271c1ec018e37f11b960d85d5f93ed76a031fdb27f7958d6b3",
        "l10n\/es_GT.json": "62681d4e06aaeb3d498c76270632b706f39a886aa40f70927c36b6488d2e05a7b8fa7e9a705f11086be819116292aa5557688e5ff90c263618b41bb2512f917e",
        "l10n\/es_HN.js": "a735f8cdf006c8c8217aef4b34593f8b613c3e51130c20e562523345d75368c0d64b9d0876168ade0435688bfac9a4a635d1c3ff6c5554500fffb504ff441ddb",
        "l10n\/es_HN.json": "8a083ed0c9ce15b168b13428fdc1e41bedf6ccd55a05c2752485761e30fbc184a9bc695714d913f675488b4b92f2aee907f1950716e9e365725bbd926f024235",
        "l10n\/es_MX.js": "ad4e65a5c55ad3cda845960bc1702f8f003e5413e88b712d70a9c82bd9488b30a813ca56a863da7c15277ec0f444e939232a3b08c38fb31e82c614bb549dbfc3",
        "l10n\/es_MX.json": "ff1373f66491347f903ca13c987803b59a53b23d5cfd5cffede88ea38de1cdf3d1ef8ab076f296e49ed013cb0ca900cb9f5b16ec83fbe1bcb0cf013c1878c759",
        "l10n\/es_NI.js": "a735f8cdf006c8c8217aef4b34593f8b613c3e51130c20e562523345d75368c0d64b9d0876168ade0435688bfac9a4a635d1c3ff6c5554500fffb504ff441ddb",
        "l10n\/es_NI.json": "8a083ed0c9ce15b168b13428fdc1e41bedf6ccd55a05c2752485761e30fbc184a9bc695714d913f675488b4b92f2aee907f1950716e9e365725bbd926f024235",
        "l10n\/es_PA.js": "a735f8cdf006c8c8217aef4b34593f8b613c3e51130c20e562523345d75368c0d64b9d0876168ade0435688bfac9a4a635d1c3ff6c5554500fffb504ff441ddb",
        "l10n\/es_PA.json": "8a083ed0c9ce15b168b13428fdc1e41bedf6ccd55a05c2752485761e30fbc184a9bc695714d913f675488b4b92f2aee907f1950716e9e365725bbd926f024235",
        "l10n\/es_PE.js": "a735f8cdf006c8c8217aef4b34593f8b613c3e51130c20e562523345d75368c0d64b9d0876168ade0435688bfac9a4a635d1c3ff6c5554500fffb504ff441ddb",
        "l10n\/es_PE.json": "8a083ed0c9ce15b168b13428fdc1e41bedf6ccd55a05c2752485761e30fbc184a9bc695714d913f675488b4b92f2aee907f1950716e9e365725bbd926f024235",
        "l10n\/es_PR.js": "a735f8cdf006c8c8217aef4b34593f8b613c3e51130c20e562523345d75368c0d64b9d0876168ade0435688bfac9a4a635d1c3ff6c5554500fffb504ff441ddb",
        "l10n\/es_PR.json": "8a083ed0c9ce15b168b13428fdc1e41bedf6ccd55a05c2752485761e30fbc184a9bc695714d913f675488b4b92f2aee907f1950716e9e365725bbd926f024235",
        "l10n\/es_PY.js": "a735f8cdf006c8c8217aef4b34593f8b613c3e51130c20e562523345d75368c0d64b9d0876168ade0435688bfac9a4a635d1c3ff6c5554500fffb504ff441ddb",
        "l10n\/es_PY.json": "8a083ed0c9ce15b168b13428fdc1e41bedf6ccd55a05c2752485761e30fbc184a9bc695714d913f675488b4b92f2aee907f1950716e9e365725bbd926f024235",
        "l10n\/es_SV.js": "a735f8cdf006c8c8217aef4b34593f8b613c3e51130c20e562523345d75368c0d64b9d0876168ade0435688bfac9a4a635d1c3ff6c5554500fffb504ff441ddb",
        "l10n\/es_SV.json": "8a083ed0c9ce15b168b13428fdc1e41bedf6ccd55a05c2752485761e30fbc184a9bc695714d913f675488b4b92f2aee907f1950716e9e365725bbd926f024235",
        "l10n\/es_UY.js": "a735f8cdf006c8c8217aef4b34593f8b613c3e51130c20e562523345d75368c0d64b9d0876168ade0435688bfac9a4a635d1c3ff6c5554500fffb504ff441ddb",
        "l10n\/es_UY.json": "8a083ed0c9ce15b168b13428fdc1e41bedf6ccd55a05c2752485761e30fbc184a9bc695714d913f675488b4b92f2aee907f1950716e9e365725bbd926f024235",
        "l10n\/et_EE.js": "5ad0efeb8edff7b6f205a5a0187a6ddb633ac56030a3a75f64cbd3002ce664fc1fab1a66f50c502a758d562c44ab4d35af1df1fd0eae0221bb336db412c4df1e",
        "l10n\/et_EE.json": "c6a38bd8c8238853c4a5516a426e7668562d68ba69cb88931450fbf878228604e2f1fc85886e2de2984d2e4fd71a8fff606321f41deaac31302600b4f4115f34",
        "l10n\/eu.js": "ac1dc3731f9fcb0c9e6787ba8c789af9bf7f23528d082a4596888e404c88fcd557f3c92eb12619e5de7997e611e7fed4969fd1e76027a63369dcbddf540e15d2",
        "l10n\/eu.json": "cd28ef0579dab673454533892c50b301c92b303dc2edf387e6dae82df6a1d70c124fce5666ed8d812120445c4e8f8a0bdeec300bca1db80c01eb605965a76741",
        "l10n\/fa.js": "a6cf16343e62186cf2c75d053d656ed58b48abf3c3ea9f31c1c73c22fd69a9db4b90e110d64036ef573b958869a9502321437a52d33984636a032663a1cd85ef",
        "l10n\/fa.json": "595b6c364bef0ae4a78030fc378f85e9ae39411061d3e6bca802b5653780c5c2a92ce971209a000abeebf5ef0836364e51a8458cfb66558b210a92b531a68152",
        "l10n\/fi.js": "11b99e61e3d1917e8d045ad67decae6219c55e1d74b561e5b1dd50a0cbdb8b21bf27c52dfbd51834cfc6848cc36813603ee073ef1386246e7975824dbef4b37e",
        "l10n\/fi.json": "66c3b5dbc5ea672a0aa58926eb34d4671663889990b4d318937a994a6dd5a0190091ec20b9b5dc671b1230c95638d73559d903d0a1fd41d7755817ee1be8b5c4",
        "l10n\/fo.js": "cd2866ab35c038d42a0472aa553d00abdfffbaf290e3aa4f8faa12f599e4963b37f3a64f42faa18bf2994e929d38242072e15720e72cc9d4223d58103631d067",
        "l10n\/fo.json": "40c3b5a427dfd772bffcdaea21e5fad0b8c46c761f87d01b0274926b32c9ae43cc6e1b8aa7511a00998d32927e68b6720da1ce68503feccae1d6b92fb181fc82",
        "l10n\/fr.js": "38663186b67b5beddf9f34b2119f1e9ff959f3fee37bb886d93b8c04cbc3e219bef00cdac9ae33bdc8b16a2bd7cdeda57d549ce07d9fc34f03b1ebc29d9ca98a",
        "l10n\/fr.json": "93557794800364883207aa968960aa799686b36a94b9ce9d411857a0990198d39c9fb358fcd3a4b266f14563a84e8a642a9aad86859250ed5d1ccae4deec9e34",
        "l10n\/gd.js": "252061253ee6f50e763a1cf1cf060d9178511cb8d2be323bf795dff8495d7cafc3b3927c52147a8bdb5a94019b16101e05311110e9d5e5b99956e45e92779b1e",
        "l10n\/gd.json": "c9c681833d14bc9297960477c77e4aca0ba78a23c7a92194b9df808a0c4179283edf98b9a820d799e66b075c94cd43484492f64260642bb7bef7bd1c4001137d",
        "l10n\/gl.js": "1a6ae4897d3b290ebf0e18a58840d63072a6e23576da8251c08725253cf770830752703b0252ecc277abbac13e40b14669cf97bf8f50499ed0f9da95d12afdf5",
        "l10n\/gl.json": "c0f023c6a7c1b252061a87ca9477acf795be7a435aaeb956ed995e68fdfa742e716abab01786e742af0fea4dc6a39534e2f4c7473ee7ca044735640f1aeb86c0",
        "l10n\/he.js": "42ce6d5a4a2260bf3a8ec3dfbe7b516f247785a52f3dbd62ddab070115c6c028db4ec48d52f3cdc12b57ca63cc7d33f966f61c4438dec1d7f3ec002ec0fee38e",
        "l10n\/he.json": "0c507425028a78b9e049b2e0eee3c4cac13c5e3be1f4da59e07b9d4070b28903defe6ef1e5e0bf1c41334d0822665cf36f9ef3c53a3ed94910106d036cfcb97a",
        "l10n\/hr.js": "4d13bfe7f3d99ab17b488ee37c9e76f43030828749730fbcbf7c6b9c854f348fe53dc5e630edafdfa3998aa7ba14c1dc88b78af1fc28a046965f198605329c46",
        "l10n\/hr.json": "594a85dcbc5a88085d9196653f550b81f319a65c3db5a76509f6d8f392faca4e1fbc39cc1c022c5246a2cac90c85f7109c659ffceef3cbd110d7a0321c9e70ee",
        "l10n\/hu.js": "0945813ae57a5d4057aec98cb3bfc48232085a9d9ce23e1673d7c517a4094cbdc1c6095a5fed70c34e32030e5f3dec0d04d9173355c1919c3712fce5417fc6c3",
        "l10n\/hu.json": "75b54b504d8d08cfd783000e9423c9ee0852efc94c8709e2cc1382a65a80b18c377fbacd999edca476c82b6e841063da18ce63fead436069dd60d833849f7244",
        "l10n\/hy.js": "fd04ddadaf4dfcf31ab1842bde6f7bbde0b449599c4c0237fc9f7a2c6e9aa17e41db6c3e1027bb81fb56b884aea8381c267a0418d4248584836262c2cc8ad94c",
        "l10n\/hy.json": "2ab9ed5643151f4d7bb2f51ed3d1b27aa1113370ce7ad1a97a68fa54cc8728b94de3f6035dd1968207dde0abc80238bc3ab68defcbba2c6fd01757dcaddf33cc",
        "l10n\/ia.js": "2b7813a4404ffb5f2345a6b7f1a9e8708fb3bff121921cabfc6712310e106b7c0a3c29ce3bb5bf9c84f3416016cbe5faa984ed368f2319abd0bfadbf42f817ce",
        "l10n\/ia.json": "d37511f1e936c8b5982f0e39023bd79ff7d470cb0ffe17b3a04fe2652544120aeaf769a255e03637c3cd94a84507e4a247e489780f6510aa89b9ec1b3887fe4c",
        "l10n\/id.js": "c864c060188d0c747c92ce4a8dc2a0ff559605b9dad53834cc021897c73d432248be41fb0f6da2f0dfeb7483272c9459f7a519efdf0a309702baeb82f4f3143f",
        "l10n\/id.json": "2baa4d7aeb48b76d61f93c35e46aa1149c53785fa6ed58b7dedafee107a95618267c8d8eea4d5eea86f3284b3ee2b7397701fd7350577d565728976a2ddb3781",
        "l10n\/is.js": "8222b60806e73156e1e67274001304b3866dd2deee8d60f9abca5c8b1a3f92beb5f1f3b272d3dc5a46de65aebbdb6bbe2ea8bc37e3c4dade2fed215daba82628",
        "l10n\/is.json": "ec33d38577457b27a0ee73f5949e0e3a5d710f3905174bfeb7b8b86f85eb4cd0a4df6b7c3b3061ed8afa158f18486aadba9421b63202d574330513dd7fb57ab7",
        "l10n\/it.js": "eb6d89c4ccf8ad51056b3061a83b01366479d88e7919327652bc8a9970f90ce51e5f685872a9d4dcad8c8de65c071cbfa107fd28fd0fd998a9f93e8af1f5eaa3",
        "l10n\/it.json": "333e44282a3b5c64bcc34dccf03915b9be1909e8d1dedf53c7752d6f4f25e5d51fbe9615bdd100ddfdd7cb349a5f548f033538ace81c37fb0376fd4cea6f1aad",
        "l10n\/ja.js": "dc7f07cb1da80a1543b4937fff5cfbc3f2b6286c35eaae46db3d14485c56d36284d82c3d2d473ec373aad74f7c47b1a3051c442f7f16325949705d0ca88bf9a4",
        "l10n\/ja.json": "11877ac8fa2cd529dabff001cb8b97c1a84ef99b057c6d0ff6a973bd6dd60a4be7bce9f3d17f3350a609397ca0ae7d9d21b516878787d397d5e586c0ca7e5c47",
        "l10n\/ka_GE.js": "bda43428aee95c1956b2c7aec666928a7a90ecf3286bc876fccceb12007e82ff248e97b4452f2f0abd16bcf7d639f27524d9816968cc4a4e2c13e47860e861bc",
        "l10n\/ka_GE.json": "de605735b4e013ed39f62847c6220c72955dd0bb5287181b7ada7be33bba86b0ae9c099afc6a243a99059beced7ef5da619cf2e58c85309b576906e052a84769",
        "l10n\/kab.js": "ec98cb2bcac88eefdbce2c2cfc563629d391514d821284111f45e9e86ee83ca4d8cccf8db97e697b7850f6b307d66cdfb7b3e0dfdfcc633111a7119810a09187",
        "l10n\/kab.json": "df0bcf3c8eaca07edf957f51f7560848f04281f2b35e0d49d228240139a3246498ac6e0f56c35f4d067a3496698874c400a93a0cfe91a65b813baf9dbffd4f39",
        "l10n\/km.js": "5fa99da20352844dde7f8250ecea28653543387380c27d6a6ecc01cb23f99bf6ee3d8deb88a204635e714f9e8258b04e704963408a93d8be521efd9967a9d137",
        "l10n\/km.json": "485ade855781d39cdff077cd32861aed12bad6437c44dd0f3f62056d466b44606aa532e264a37777b203dd0beed7cf481bca96c9fa9f2b8284fe41546bdf979d",
        "l10n\/kn.js": "7ba25dc8cbcc6c611c3ce92b7d90b8cb08ba98d57a4d74a1a23d7e296eaa159d90c99204629e299489bcdd5fdbd0b1453bbf04af2a392efc3f6dddf762e6ed71",
        "l10n\/kn.json": "300c446b9df3529a0a48f46df14e8c945296a035abe6085c602159e0c8593092dccde0a246297cd613237c64c9b61109babd68c0463e61cbfdb53e48ba859e18",
        "l10n\/ko.js": "6cbb55e09bf6b06aa8cf4ea83553237a371d23031f746f5f097c09d0fd9f2588b8794206380c69f2bf3ea943ccf329beae6b16b025175952230900740dfca6ff",
        "l10n\/ko.json": "5214f68ab5f45b048ecbe2ca7eb8e92d98eb0b3097fc53b9c3459756643d40145fa3bb03de5837db5e4d1b930b2514102b3dd73018998c730caed092088530b9",
        "l10n\/lb.js": "a721416ef9d6a540db5fc43905c65a29006e054262d1d24499e61766e8e187d316370c81f9982bc542835ada5fb74f33f3fe93164895c3adaf61d80c556558c6",
        "l10n\/lb.json": "66d5fbbeb7d97fe5d4436ac56205f60c23c993d7679356b002f063c7ac4794787b6c3fb24f5523fe3a464965dfa612b019566a9cb01c64704679087f7d654a58",
        "l10n\/lo.js": "757b0f29394c2eea58caaca4c86ca8df06a1b21bab7961401648e3cf40877604855050233f8dcf3dde6ca1880fd46423284ccd61ad03cc7d4d81ee5faa24a1ba",
        "l10n\/lo.json": "f6c090b86b90ad0b45a0c2f539e88c5d14e5e6ba105f85e779b8cc8ed42c474ce721a30d2913a3343a8b56993f25c3b2113fe616ae0e8da321959237e78e7e3d",
        "l10n\/lt_LT.js": "31ed9ca9b5c737177153ad7a37030554a9af6b5045bdc922437dbe5a0ec2cd67675cbb0a34ac39f8a9304b084e9864472fdea90202bc717d5662e997e4ed3ba5",
        "l10n\/lt_LT.json": "76086bfc729b7fb55ce8f3629a7c8c8e5ce47f94ba389a090f22c7aff8dbf7dc0a834dbb39567e76726f756b5538e16ea71a6d18f6748334976c5a23ce9236e6",
        "l10n\/lv.js": "436de2a658a7a5e2fdc329ad0a4997e12a044fc78e7f48498f160c6db8c200b5b8667d4f801ff56343a993c593bb645053ac00294628dea7f5f108ed278d1b8d",
        "l10n\/lv.json": "5541399e65ba637cd63b071a155a1d3fa02a80ada441f3722b73c6fd1d497267f43ac33257bee6aed08c94c2c966e0eb24feb35c48dfadcd53bb1d2069038b53",
        "l10n\/mk.js": "c385d3ba5877b5e4b557da4d79dba171f24e200289f7b08480070610bff61555aea658264cf3555782cb4de7d6f8085bc9381e6b8b054589f2e42c23726d607d",
        "l10n\/mk.json": "4a2dff4cf9a5b64cfb14048b0c945042054731f5e88f4b43badcd4b076abb7497c265ff4ac4f8c0b5c034196be60c2888f93d32b11b103be006a79cf6f665269",
        "l10n\/mn.js": "5541962406a01140b068731f357bab67ded130dfe819dc53b9f234facdd8386f3c437e94b016e5d38cb6f0733edc4773dc1908af520f47ffd09da5a2764d75ea",
        "l10n\/mn.json": "c97ff63e02300936340e3b98fa8d97c57a74e302b7cf7a8654eeb1af9e987a56561a0a0b8d63ebe3a42ca5cca703fe19a735999f80e8feff3829e56e68b81ab1",
        "l10n\/mr.js": "ba2b8fdcc1db8174b1634edefc872a661a835208d84e59eb2b21371e84341ce45fa20e6e9aa08b0c11c1519d2beee60c112334fc5792f5ac148bfaa56270d09f",
        "l10n\/mr.json": "34dd6a1c4df97e1396df2e528bdbafa88c223da1d67e94476173b84437587cb97fc983edbdda1fba726aefadc18e8e8265dffcc91e4652b5ca83aaf91800dca2",
        "l10n\/ms_MY.js": "091b9d3bb949827a177e305e288ca49e6cee5f600d0b6d01d56098755ebaa4e8427186f62f40d96f6ead629bdb63151c2bd28711695442e1b14d6ee46f76ee14",
        "l10n\/ms_MY.json": "5999a4f91c75de5ad2fdc7765a5e9cfc1399518be9c5ea8dd5ba8b9b9baf4f81bc5f6f31d03ff3404a2aabe1cedff19089a40a384571c640f4811e2c19302650",
        "l10n\/my.js": "f6ce8e864eb6350f4da96cdcef84f406125626eb5d97ed49967ec9df231abc29fd6f4a6a4347e7923ff1a0b0edf7bc1c9922a7f84c41af21870bdbf56080ba7b",
        "l10n\/my.json": "cbbb55541bcd324ce0ad9ad24593ad1eb30ef501145fe3abb9d9461062ffba3f035132390bf7a1a9c4ffd874079a0c9305e2030a165a72e82da4c32dead7241a",
        "l10n\/nb.js": "297b4a965ba35bbb195dad296326d9f72c306c2beec6658c822cc66d640ab7d99d953827076153692c14834cd876cb7721891c170cb7b99b9ca2acd83f8694ef",
        "l10n\/nb.json": "bc3e243d1013d085606308ee07666fb58992f83bdcdc26d774aa880b7a26b9cb4e8733dd305b997d20ba4b516911cf20ca6bc603a33e1cbe1ede93d615033061",
        "l10n\/ne.js": "b7d370ab73ec419e9496d8be80f53b7da810135646d79a1ddbb2c8f2ee46ea0527d915e19a4382b7551b181f98a25ec10c7f616590d25b1cefcd69b18bb0e757",
        "l10n\/ne.json": "bdfa35010f645a4778621c9740cf8022e50a7168b2e041622c5dc2882d29355ac86fc0b897b33fb7a9f673753677acb7b33ca82eb8c58eba2fe3f8c92e2b38b1",
        "l10n\/nl.js": "0b78c1fa9995d964c5e9c4adbdc2905fb914d9c7d41af312227de3462722e78968af8e09b821b15c5d4aeb2ff63d15cf6805053bc7de7bdbe64803413f44e17c",
        "l10n\/nl.json": "6a1abf1ea38f3ca5d35e5e1ccb3a0dea51b98a89f2fae6a9286b1583b18d35c29819a3dd920472f8df1a81d7e4cb8914e1d8e0498a9c35abeeea1fbf3e491704",
        "l10n\/nn_NO.js": "ee6b8846272b2cd2990654ad9b97e5f38fb8ebacff6fbb872dd336457fbfe04c30b7748286257d807f8b0ed5e2886044faebb521f16fbba4d3e6abc74e7ba023",
        "l10n\/nn_NO.json": "30083486a4dc771e563e87d88a52c85a43f5457ebb5ef87d4c3d31866514bf958032bb5690f2c788c94d246abb0ba05335114b794318e6df4a38585c0980827b",
        "l10n\/no-php": "cf83e1357eefb8bdf1542850d66d8007d620e4050b5715dc83f4a921d36ce9ce47d0d13c5d85f2b0ff8318d2877eec2f63b931bd47417a81a538327af927da3e",
        "l10n\/oc.js": "101e115109df3839190dca8df37b99c14e7dc1dfabf1e4d0aeaaa598709156f301c6890258d02457b5b21addb2353ab0389c3270e4a02e8ce821f25014b407f4",
        "l10n\/oc.json": "dd1d57d3b9cb6e909cd5bbe58290e0f8c631350b725b351faaa0339d4e51bd4c84741d4b1aaecddf6d04b8199376ccc916a2e7587b081f49d714fc36e8407ce3",
        "l10n\/pl.js": "6dfb87930e5388f8b9b9f789268eb4d86a2d8ac3aba94b472b34c1a9b17dc764c6918ed7c30108c369fdc76a19dc9e6ce4b6296367a317b253db7fb2dd05d379",
        "l10n\/pl.json": "c6ff5500d8374d57f431fcc4ad2fefa01102293b2c6606a448787fdf525b1da2bb0c3bd668fbc4745122d66d40a370fb2e9632b4d8719c229c0310a9a5830a9f",
        "l10n\/ps.js": "786bf0a1eda628a481556ed6135858a48dab01b677d091f7dccb76647ee91b3e41a006439bb0f2d1d34182d83d062fd62daa7d5d4962a09d741cd5ec2d7dada7",
        "l10n\/ps.json": "298ec274491606fd494f8841b5e077a4d946e464c6fc978c1edb9bcb8c93b79136b9b69d624850f4cfab2c5385767ee784ec8e82c28c7aa9800c785e521d021a",
        "l10n\/pt_BR.js": "798ae6024045b88edee2e44c6585edad505e7a3d4f0983d8df929df6820bc0fd08e75eed8354e73704e4d059f402b9367790ad2862345e5e0e07a8c301f41a17",
        "l10n\/pt_BR.json": "103ab1b48424c7d9c514327841e2bc9cedf2eea83a86df87cab2b4b5697c9a880567a710a8f5e68e73d125cbd632207012a98f0ffe791a3cc8e49f7f85bbfe73",
        "l10n\/pt_PT.js": "17e879ab67c250c02755996f63724e5ccdbff290e57da72ef9ef06fdcb6f804076ea6cfd1a560d4c0c388db0bf86b96bae9f4541d5cb71ff7ee80e70f69b706e",
        "l10n\/pt_PT.json": "61120ad59f49cbd33010d65de4db45aeaeb9f116dfe106f0bfca842fefda884b7851ed95705ab9c62a5b0e45a09abccac23d86b4689d9eb84a36075383d7ee41",
        "l10n\/ro.js": "6cb74baaaaed8e00dad9429d3eed9d60b4a2b8fc62420a677d856d8c2f02d03a9f0b4949cb8fb70a3f1ca55f3be7b09ca957747e17169587319b605e2d5dca5f",
        "l10n\/ro.json": "f7b482ff86162d695f983628f61c77cc1008ba977765c43803db8db3a67a82e8b3751b1001b0ba029812fc4714ed30df19e6b4c8eb362262bd641cddc7ea1532",
        "l10n\/ru.js": "797d700b9f332904d2c29b408aecc481c2e1145df81e98a35e1eed6867816bf0533ef44f8604e398b1664d9595069bb26002aa46c71a0f273a4d5adb1a0b478d",
        "l10n\/ru.json": "a9c55faf1a940caed96c806898be53cd915a85972e4ec0a0a1959aa67a748841e1456e8daa32b6069598f58b6ae9393fafb55d799e6f18d508cc034250ef2e7d",
        "l10n\/sc.js": "3cfa60325a9c1705495c83aaee4cc0a09a23a405a1674214b72476e3d70e0f3c443e98d48133812cc53ac7827bbf982ae696703dad08972429db0a236f976248",
        "l10n\/sc.json": "23b9baca8c1f6920d8cf40cf89e16ff64bfa3ca53c3408db1e7d5dc7dcba154c317edccb3c78515c257ae4f47c673e20ed3c1fc16e9a07d7fa89797307ef8bce",
        "l10n\/si.js": "f3091af5b3a38183a82f50214f3752a25b8c929103047443120d4aa7c0a07a7937aaf7e71a2fc3382cd72b9836fcaff8b08b947ccc3aaa7eef91dbc7fab2f5bc",
        "l10n\/si.json": "a651e622c21b081a3164ed8957c7ccfc797d9c82d369768b113b7090cc9d7a4c13ac92f82d66040c13ba89c47098ba51575a5f95c8c244256495365e3c3aba02",
        "l10n\/sk.js": "f25097f988e3951ed2082f454890e8e6477a14e68aec1ea06943c4b46b61617f2fdfaaeced0467a40b4540ac7af9d4134365e3982f5bffac261cd3dc3af555da",
        "l10n\/sk.json": "febd4c17fd4764cf8ec3a9b3c32b18afcef990a1180064b9f439a4c94f0e7d3ac439fabaef50d82e46e8bda3d10436040e6b35d278ac09556e35befe3a6cfa42",
        "l10n\/sl.js": "291dcf2df0c753f09b17c28409f94588a121650a20af2d2ca191dcf2ecd583d53c82ace8708fcc98550415d56f28b986467e81e7cad5698c73ad83521f81a1ef",
        "l10n\/sl.json": "a958b88f2c852556781cb95e959edda8d85238edcc5c26ab0f410f6f96075c10015d5962fda25cfec00aa4686c8b4eca4c656701667964f5809477774484d90d",
        "l10n\/sq.js": "ee754241aa5488ebb0bf4839b881988e9e1b47ee3c74be06269bbddfa6f0e2e4a4d7d96d30f8a0471bc538941d486e01f0cc54e58fd2146224b7c6c94237f213",
        "l10n\/sq.json": "0db9a3e468a71b06ee8eb325216d37f0681e0ff397387ae98ef52a42c2d2dc30dd547860dd7098f03c8071bc0fac26de95f0f8099b594bbfabf6f59b709fa654",
        "l10n\/sr.js": "010f4b662e8bcea493ee14aad1581be63a04b685387c5a16188bbf896091f12873104a97607168d2a88e588b4ab06c7293de30ed52e079905751481c0cada09f",
        "l10n\/sr.json": "44942dec553d1995926e52ad3254ab82307ffc926013cd10006635c43216a69c9c5698c375aabab27460fea065875b96ac91e77b29c591189545da94c42ef073",
        "l10n\/sr@latin.js": "6f975b78a49a2f8bb8db0aa8ed3ea0eb6a6e0f75ae844bbb531c0f5aadc1cb9395d187f11f9629ddd666091bb78be1d0805f1130b36dbdf8df610b387d569620",
        "l10n\/sr@latin.json": "9a39b20b3dd8e17c7c858892d2b0b89f5d7a384428ef5631937981a477389ecbb4d81aa0c4b8baf303550d8be900df34fb8e82dc56deacddf65eb795af87c4c9",
        "l10n\/sv.js": "769007f0fccb754b4aac6acca604f343cf26ff35c21ad93547abfab7dc81506fad1b0344d057acb7202370729104e653bd821a63515978de0690de7e6953d0c1",
        "l10n\/sv.json": "1a022c475baf36f35bc3f3e583892e6f67b2164ca22eeeb0867f6d8c7bb5d775931623540889e068d7f1e6f3c45eee4a8ea6ea61067cb9f5797b9a6419a53ffe",
        "l10n\/ta.js": "324bf7f11edaf288ef8d52531bbd6ba79af569d597ea0dab06628c9262dde3bb98160878226faa3ebe4205037b2759710e68a70db317786169c111b5a495883a",
        "l10n\/ta.json": "a2252182df64dfb6a02809b1a2e5e728b72b340e6ce756c638c2ea7f7a362ac6ef82040fde10ab89c5981352772f39f24db09e59b90c0da0eee6ed37942d44b0",
        "l10n\/th.js": "601e6b1f040dd74c2f61dad3a3a29320b6d5651320f5ca166dbfba7b3616709dcf9cd0c98916a8514dbe7497d3462ebc56ba92112010c37af38e3cba0d44c8d2",
        "l10n\/th.json": "57baa1d96a18fa2de040e006d3afb92f5b587c41eaf8451371241ccb0dbab2624e57646af603f245e107d7646b63d16b8081940520115dffd3f98f150a4991d5",
        "l10n\/tk.js": "7408e56a51793e0e70bcba08470007da092ba2aa698c0754f610332698815b685a8efdd4b386841cc858003fea0c19ee9ffd2ead5a266cbecf70aa92ec841f90",
        "l10n\/tk.json": "3afaea86ef96f21c5c605a505d01b693f859b5dc8297d84ce6935b849dd7ef49c7ed7f6d30c5c85623902710eb684acf3d61d00f3838fbd697f78624f1509ac5",
        "l10n\/tr.js": "46c968b8ff62ec72e38c77af47144de675b1021926bd238b96b3a8b1fba97f141a7cbc26775a7c226c0b3c732447baedb01c82306e7429d0d5ea8fd90b1c9e5d",
        "l10n\/tr.json": "8dfa339900a83729cd2981ec00cabf8d9eda0b41f8c281c52803c8a9a77bffeecdb9a73e5066636b6502331cf4f471c520d68b8b8dcd4081d8a855886a84d856",
        "l10n\/uk.js": "3ea9bb53bf54dbb721101b47736b5d0e0082e1d51114dc146c6ccd1bb7f3519c3c077a483bc8135a2a44e0420e1eed236bc67525209fd65b399fd0ebc0d1eaa3",
        "l10n\/uk.json": "54571b0df78cec9ab65529820ff78cb41a96770eb43524e52a883ab85846159d914be5627fc82d27009fb40256997ff9dc674815396fb4d343c54369064bc7df",
        "l10n\/uz.js": "433b1db6b7bcb7dfa86a7c18576a5dad36452bb7c35c5c046fcd8cd0697d9f10ac45c838bce645b5faf3a9b5e2a22fb5d2dc95d7fcd40ea5ac943d604b26fbb5",
        "l10n\/uz.json": "746c44d5c4408c32d548d05c3d0da704a4ca9787f2fc044340d9accaadca61b294f8264a8dea75fe0c090273b525c23c009d794eeb94803de07639c9c9815775",
        "l10n\/vi.js": "b1731048cafbbb6b128386e202cf23e3e86e72e2a98dd3d8e4f1a06b32bb1d934d413ad1a1636af4ba14d175562bfc3caa44ceb7c50b61e26b8b791aa351814d",
        "l10n\/vi.json": "34c9530db513dcbad9155640d9f4799d045fa90c0543624e98aafaf12fac8b60a94e20c02922dbaa927e2daf38e5fcf5649c92dd7b01425eac8763f827518f37",
        "l10n\/zh_CN.js": "d0fa736d32562de2801ac8d75539c0f5b30e5d2e8370771fd81f5ad433e34e205155ac817ec03478e4f1237e07a058849ef1bfadab3127199c4ea073096b1ee9",
        "l10n\/zh_CN.json": "61242487f385e4dbc2f60df007445fd9a9d9f7ed209b70a901e818b881b25019e1d6ea1629b2cdaf19bce97f45ac7c884320beaa3ce338d96c9e1f31a05b5481",
        "l10n\/zh_HK.js": "8919ab0e68d8d9c610bbb4710eb4f5f234626647b8df2543546a47b98009879d7829b455b23c6df6ac96c27b2dc5636ddf9e134a1bf5e9f853418d3ca5e701d9",
        "l10n\/zh_HK.json": "87a327b1a5f47f8decff51a65554211aaeac994b24ba1f150c3dcc5ca0ae3c50515ac4418c17eb20ca27a2e9f42ebfe9ebba051fc964a5e947bdf4fe663079a0",
        "l10n\/zh_TW.js": "6bf852b9454100815908c47cf42a0c9fcaed3790ae563145ea63f5d3521b99007ca2fdd1cbfd5395efbea577e514c1ba2df8179813469a055dee1640749152ca",
        "l10n\/zh_TW.json": "a2ebc0be79671af144ec87b525c80397054f239178d0edc8c65e20b85a2a48276c52f799d355aa3b789f5f60ee84ba6c53aa91cba94b75775719c11a461b731d",
        "lib\/AppInfo\/Application.php": "5b80fb3ff8a305d1e3327934f701aaa9017e9ed8b760a9072c6e1aa5555d6ed1b7aafe04575ff0bed0555f532f00d9cb6ebb345a948d207c71e8eaa47dfbba44",
        "lib\/BackgroundJob\/DigestMail.php": "62479fd115c6fd8bfc4ee6ae48adca5d3791f5f72ae638ff9fd325016952238d36307e2eb680cdabdc6795f94cda0f59c4674143861ecf104d54bbb8dd42c43e",
        "lib\/BackgroundJob\/EmailNotification.php": "7581dc1b615e06d26f19185c5c374f9f71516d30197d5890dbd2b5d29b813c860cc4192629223e6b88e16cb2595e0c5c0f8a55865f820e451025479249316c26",
        "lib\/BackgroundJob\/ExpireActivities.php": "f4e001a4547a00f95a34a164fe06ce236fbc3ea2cdf2eea097c38a56b59e0c62f2676a2764172d1c804705dc20d4b42e60cf944932f5b21b953117c30ea59563",
        "lib\/BackgroundJob\/RemoteActivity.php": "1c701d8e702914fc702fcf867685d17fa76b1683d5f4bdb7f1744d974d405bcf625250b059e4a1de830878e4674d7caddc957168c59359a4a1a31de496f3887e",
        "lib\/Capabilities.php": "ca7dba0a2f0099f7fa218fe6adb6160a43b4a478ab81e373388d38abcafdc8fe0ba48344dd82e694e2c8a8c7cd16e01d14cbf2aaa0c5d3499933fff01becfa7d",
        "lib\/Command\/SendEmails.php": "43e2481e4883f1c4aa659f815bab21d211fb31db3c471418d25f83e237716e4f631bb309b20f97321cf7ca76893c08232512b7207b1e85ca6dfaa1685a75acb6",
        "lib\/Consumer.php": "56d18fed0a6e7e26c5e6f018986d41955eb4d6092e875d5cdc993c23871971b1c022bc7942fa197f7dc121b6e1cf1321f0a854222fd9d5958f33de598c2ad387",
        "lib\/Controller\/APIv1Controller.php": "7a5e78a75a1ae18a7ffa2c13b846b1c92192bfc8e4d64a818ea2a5754e64f215b6562e16d116b2dacdcbf54cd6ad9c4ed9bdba5309ff978f2eb216f7037c3717",
        "lib\/Controller\/APIv2Controller.php": "1158e576047c160b45bb8084bba638234f244f7e82187622287b6d74973447d851391c85f11d567b8ca84b183cbce95ce62211f3ad9d7abd95cb18fd333644d8",
        "lib\/Controller\/ActivitiesController.php": "196f141bbc666d8c20a0f55780aad341d6b6b234f4f706d8dbc01dc5f50a7bc12a7cb2bc25ff2875c741ac5b344443b98ee6411a5f5f645879d092b4ab87d9cd",
        "lib\/Controller\/FeedController.php": "094acab13a897aa392783149a7c9d8581eff72e33b37784b3cba35760b91146aeca00b457adea24d97e83b307182ce4fa2f59451e5ffb2d5a5823773f54ffbbe",
        "lib\/Controller\/RemoteActivityController.php": "9e27a73470bd42f29c57bd9388bebd6924988db20831b5ce51578bb34436af4f7f7e928561538bca2929e4539ff38b00816ce6291e92c26c944ab746f46b0aac",
        "lib\/Controller\/SettingsController.php": "f8e39696115d06dafe1074f97530d8eeaaa895b965b8067714c0e974458a519326a02807bea1d00193a4b65f79595e95add772538c19652c260376f7f7dbb9fb",
        "lib\/CurrentUser.php": "bb704141209397f226a803beba1cb73f740f6ec9ea09107d64aed5e49e45b8c6d9b0de2533f9447a34acf2aa681f86c61553bdecbd0fecce3b755d174aa074bb",
        "lib\/Dashboard\/ActivityWidget.php": "7aac2a53305d7fb67ce2126f85d8121a765b71a3e8df7bfc78a203e818d1dda252af806af46e74a9bb84ce0c2b3ae3ee5af4f18119885bb6c95032122cbb9424",
        "lib\/Data.php": "ab46e5e3598c9daa1a7a5ee9ca6273380ccd5212eed52f9d3c713ac8b32d69c568abcab0081d724cd565d0a047016568d84904d5a8bdc81ee6f15fd7fcffde2e",
        "lib\/DigestSender.php": "31fe5c05ae93920989142801ddc95f38101fd0abecec48fda6f7138948b77c35953c344a42d8e268e6002ceb597e079737d1a92e5d72e92289b922706db6730d",
        "lib\/Exception\/InvalidFilterException.php": "c3a61278bde915cc9ef25b06fd61f58265b23035f9633832601519b0b0450dd67bbd6f3562c7764769c0849f73e8f669fcd7020dbf1ae73b2ee846bc0a9ded12",
        "lib\/Extension\/Files.php": "ac97c3fe85a8742677645437aa317b7efcd6ddf6a9fc8cfdbd49e5884a057f4804c788ed380dec16cb230c94bb6708eb9307c431397fd6a5fc326ea561a6a326",
        "lib\/Extension\/Files_Sharing.php": "c1305d55035da0b7e5108edc8fba1f374ae0aaa37753684f80602822a36db674f39665488cf13223a50071a463d7147c45acde96b6d5bbd07beeb2928c28bd3e",
        "lib\/FilesHooks.php": "99f77eb5569298922b7b3dfa6b867a77102f5b90202e0cfe77b76c957353b8b0231f6cfa7a385008af16d40322850afd11f5028c800ff34756a64d0b7a164db5",
        "lib\/FilesHooksStatic.php": "877f86b0baa35827b18b32b8835b1e026bc565be9efbd39d93131fc4ea106ee2405b3d44aa87a992bd7ca72db9ef02eb97531bd81be095925387e359ff1b4638",
        "lib\/Filter\/AllFilter.php": "59e78bc7f93e03c2a6a644af278a16de94c8e314f777f57fb5ffe1c93367e0cc37c7a94049a6d4ced06fa62a2b7087e090c9ddef17408486bc3de29165a6ea3f",
        "lib\/Filter\/ByFilter.php": "40b5a2a06652d963c3bbdff3cd48f6a0ce9a79d8d53a914eb5510c1c2ea58ebbb55753fb53e052b7b687f9de1c97680a595251e7c054f85d99a388577656b539",
        "lib\/Filter\/SelfFilter.php": "b9626f5f187cc812b549a6adb32f3f67057bacfc27b0a88d56c9545997d8dda765eaa37fed2295411836db0182328dd59dc897f1bd317b48ce7abd69c9ffdf69",
        "lib\/GroupHelper.php": "892519decf1e322845600e0fe7ac7c5e30dee27f3b63e755d92a95442c035ed2550fa298f1b228f8a1f455350fdfcd4a831ac0ea87290c6fa58a47cc19b66055",
        "lib\/GroupHelperDisabled.php": "4f9ab925a97636b6eb898c0e80883f54d2e964e5e1ee6581d7f4e26e01b7de1caa6efdac955ca08b7a7a2d0401dd54d50176c1ce721dd5597f447cdb23e4150f",
        "lib\/Listener\/LoadSidebarScripts.php": "6dab9806e2deb6376097c4dd21ffa32acbf30eba114a56c59ba4997ad68396f6fe5fd00daf04a8f0e6604f7c403aa4d1f1ab0eef9090f0fc31211e83c29e9ad2",
        "lib\/Listener\/SetUserDefaults.php": "ee1667fda1fea1f7f40e8c6c035d081ee2988b9b8935f1584694d198015053937ceca9d4f2ecca3f8e62a57a81920dcc030760df21cd4d11c5bf88bd745d4e1c",
        "lib\/Listener\/UserDeleted.php": "6983d45ae9db7e78722ddba01f3f4ac06a05a67499f4a11aba189f64de2717f90dc7db5fb680abced1ec37d0634e3d649779759c36f65ebb3b451187ede5815a",
        "lib\/MailQueueHandler.php": "a20bbb38669d949657b715b05419594c45b6030ba31ae881c870c7d7d7c10d9f098497521f4c4c7ea93dd2cab97afb1a5eb4fbbe1f76e46a88a10f063294e3fc",
        "lib\/Migration\/Version2006Date20170808154933.php": "fb507aa3e207d38a54726cfa40c325a7e028bedf96ea6dabaae6d3bfb86248b74db3c5f812cc3557dd14c8418ba90075dc8f20272d7b21df9e617ddb6f3dac6f",
        "lib\/Migration\/Version2006Date20170808155040.php": "baad8c04285b18a4bc52aca9025b5a345eabdb3ffec2682c4a9d1a590bfb712927e1a838f881ddf00c69f98b6e365e49e24994a5a316bfa352847fbb8eab3d0c",
        "lib\/Migration\/Version2006Date20170919095939.php": "9efd69922dc0d1f770661ce75dca164d251bf4e5b35a964595c9ae8cd06dcca48a0dcebf2d0b6c0ae00f23feee8499852af49475cc84e836f13898f3dc8e77b9",
        "lib\/Migration\/Version2007Date20181107114613.php": "9abf11bfb8033f462c66ac39bfd5a53d589f96928decfcfdcf32c4d7715e84adc48bbe003416f799d7010ddd01e337d401e27b7daa00503fe4e2d6d99da61a1e",
        "lib\/Migration\/Version2008Date20181011095117.php": "e93867eefa441bf33f16420c9b07d257d363ee7a5d035affc0837929f98390295df5c8611ad275a71ae2b2d97c3b81d7a983fac23e6469de64e8576120a583be",
        "lib\/Migration\/Version2010Date20190416112817.php": "7045027f46d11da6e7fe07dccd1408c010c10f59cebb00d6efa12fbbf06bbfc6ef3e9201ab74ba1025aa8915ce58f8369062b7580b717f8e8cd65cbd70975df1",
        "lib\/Migration\/Version2011Date20201006132544.php": "5b7e4bde3e8b667e1352a141dead33e31953b440934f2ca50dee0b9270ba696232c9ff87425effdc1d37c54355ad215d95dd63fa4f1844a4fc652b3705df3e8b",
        "lib\/Migration\/Version2011Date20201006132545.php": "776156b22641a4fd89e6aad7e7ea4bc11f5394614de8d47b399bbcbdf1cb44a1f837372b2d094632a1dbb63cb537418fb2cf67f2f6c7bc8c6800291cc3501640",
        "lib\/Migration\/Version2011Date20201006132546.php": "cd96c8002493de546c67e6832d62736050e392296264ddfac2c0b08931e95521080d7ab36b9ec692f4ebd3e04044baa1c2520c8b0271a7f67dd70f017f44b773",
        "lib\/Migration\/Version2011Date20201006132547.php": "463a37fa5ec55130bf792386b0366846dec3c5b2595f052e662318c84f3534f9a2f7e88d2ef54ec071a2326acd35d6ad39661df1a531052f03a7b77e0497b748",
        "lib\/Migration\/Version2011Date20201207091915.php": "cfb399fe0caf3eba76a05cadabbce65ea221bd1ac8e8196718bea7b2929ccbafb55f9e843a72658d7eadacbc462c5e02d3744a64629c2615b2215f7d5a6c0469",
        "lib\/Navigation.php": "3e5e5711f42dfc0cbf31c40258293a9c810928c196c4ad1f979ee9a183fb009096746de1488433df06eccfbbd06b5c0be6e96dab3e97c032ef48fa7337669149",
        "lib\/NotificationGenerator.php": "d5a7ed35b2d4398326fd2156b6f24716018016a3a425b27bfc88bc002b9b53c5fa344bcb8581dfc4072b942f8bdad24b46124e3c31c5cb5afb4db490055b9245",
        "lib\/Settings\/Admin.php": "2cda85a39022eded521ddc207f66a558de3df9efb8c6f3de86dbb08540ec49bb4cce00b50464f682cd315155127a46b12beb5ae127d2f539d97e08d99654c2d5",
        "lib\/Settings\/AdminSection.php": "a0f1099f58b7bac4b67f24aa78c35a62d0442c023cbaab9f3eef1ccb2864c289593b5458963d8641b60b6a17a8bb361e057ddd3829911a6f1eb73654907b463d",
        "lib\/Settings\/Personal.php": "376115a1cc29f217213ac8bafe7645488db87ac8700181359933c82e2b698051efcce9f817a1e53f382e0d8e9a1a310da36bef1f53d7fb97ddc1ed55991c89ce",
        "lib\/Settings\/PersonalSection.php": "28f8a55e22dc9470d6f60e13232d67b1837c2fba14cf20d6f17baa1d751e74ff62fa8cda7eb2f9038215bbc023f075d766e492c99591cfa2b31ba033df6aedb1",
        "lib\/UserSettings.php": "921a0f211a9c63967b2fb082ed827744cc1f6b346c190d4041a752e0bd9b0fbe4a558cbb4b0b507738e0629ecfdf192e82f1f97ee697744691dc216fd4f5e0d0",
        "lib\/ViewInfoCache.php": "724452722dec23dabbca3bba6a1c671ed05edb81dbc8a5dcc824ea87c231ef3bf7b33690ece439156772969f8d39c9f4bd92ea4abbf763c3b95bc3220306035d",
        "templates\/rss.php": "f15c4193cf5fbf949b374c400e17759e7550bdbc5e43536d9ca81e98f7bcb0abb1e3ac386ae520e4e86102406de4247baf2623c281b5db35e27c68b373e1bcbf",
        "templates\/settings\/admin.php": "10bf79f77b7141e79c2a13db6d7e8b75dd675f7c8743fe605a144c6da70ff22f38e9c13612d62e868dbce34af289081ebb95ae5970776b605963a2c02f109516",
        "templates\/settings\/personal.php": "6092273e624e9eaed6cd36a9319be850c7acaf377d0f230ccacfd9eb209be94b8bd8022deefaaa611d7d7921b535021d73757388338bd0642b90695c9439d86c",
        "templates\/stream.app.navigation.php": "ac6932f91ed81ef5d3bfcdda48436f062714553bdd3af29575ac1675519485e2c837244525d35c2206eb0c718978b80e345172a7efbfa4c9ea9005f15f19f3b0",
        "templates\/stream.body.php": "74a54cce0f046d45a810bd57f2f9841f388856f50bbb238b689f82b2c3feb7b4dca31736d9ff50e61b299343de1898ff1e83f5cb8bb2a4708098f188eb62b377"
    },
    "signature": "JgNLvchYwvjOlPIaXJl7gX9KBiLg01LqWtGYZHR78MOaIYZxhB9F9R6XU3QqNoMmsiDiY6TWvZd9Cgp5Vq9v\/yvmrqromzLuULWojf3VFLWCDIj9b4CBE\/+4q5kPHpXj1xhc6JcMbijY5SOAhLaA5P9ONV5qb1yI4mKOmussyhrwUJIX+65+ANVKtwVZtmTelT0uTCGS01aq3eqhhW9n+ei\/k9dngon43teG7HipszSJq8VpSzbyjdSKwT3eeYSgxsO8Oti9Wsxf50WbbFwUB+0aS15ZIHZStyf6u7DeCHWGZ7enUHaORLLuBkEqBPIQ7kmwbQc5V201c2btJGnxpg==",
    "certificate": "-----BEGIN CERTIFICATE-----\r\nMIIEojCCA4qgAwIBAgICEAAwDQYJKoZIhvcNAQELBQAwezELMAkGA1UEBhMCREUx\r\nGzAZBgNVBAgMEkJhZGVuLVd1ZXJ0dGVtYmVyZzEXMBUGA1UECgwOTmV4dGNsb3Vk\r\nIEdtYkgxNjA0BgNVBAMMLU5leHRjbG91ZCBDb2RlIFNpZ25pbmcgSW50ZXJtZWRp\r\nYXRlIEF1dGhvcml0eTAeFw0xNjA2MTIyMTA1MDZaFw00MTA2MDYyMTA1MDZaMGYx\r\nCzAJBgNVBAYTAkRFMRswGQYDVQQIDBJCYWRlbi1XdWVydHRlbWJlcmcxEjAQBgNV\r\nBAcMCVN0dXR0Z2FydDEXMBUGA1UECgwOTmV4dGNsb3VkIEdtYkgxDTALBgNVBAMM\r\nBGNvcmUwggEiMA0GCSqGSIb3DQEBAQUAA4IBDwAwggEKAoIBAQDUxcrn2DC892IX\r\n8+dJjZVh9YeHF65n2ha886oeAizOuHBdWBfzqt+GoUYTOjqZF93HZMcwy0P+xyCf\r\nQqak5Ke9dybN06RXUuGP45k9UYBp03qzlUzCDalrkj+Jd30LqcSC1sjRTsfuhc+u\r\nvH1IBuBnf7SMUJUcoEffbmmpAPlEcLHxlUGlGnz0q1e8UFzjbEFj3JucMO4ys35F\r\nqZS4dhvCngQhRW3DaMlQLXEUL9k3kFV+BzlkPzVZEtSmk4HJujFCnZj1vMcjQBg\/\r\nBqq1HCmUB6tulnGcxUzt\/Z\/oSIgnuGyENeke077W3EyryINL7EIyD4Xp7sxLizTM\r\nFCFCjjH1AgMBAAGjggFDMIIBPzAJBgNVHRMEAjAAMBEGCWCGSAGG+EIBAQQEAwIG\r\nQDAzBglghkgBhvhCAQ0EJhYkT3BlblNTTCBHZW5lcmF0ZWQgU2VydmVyIENlcnRp\r\nZmljYXRlMB0GA1UdDgQWBBQwc1H9AL8pRlW2e5SLCfPPqtqc0DCBpQYDVR0jBIGd\r\nMIGagBRt6m6qqTcsPIktFz79Ru7DnnjtdKF+pHwwejELMAkGA1UEBhMCREUxGzAZ\r\nBgNVBAgMEkJhZGVuLVd1ZXJ0dGVtYmVyZzESMBAGA1UEBwwJU3R1dHRnYXJ0MRcw\r\nFQYDVQQKDA5OZXh0Y2xvdWQgR21iSDEhMB8GA1UEAwwYTmV4dGNsb3VkIFJvb3Qg\r\nQXV0aG9yaXR5ggIQADAOBgNVHQ8BAf8EBAMCBaAwEwYDVR0lBAwwCgYIKwYBBQUH\r\nAwEwDQYJKoZIhvcNAQELBQADggEBADZ6+HV\/+0NEH3nahTBFxO6nKyR\/VWigACH0\r\nnaV0ecTcoQwDjKDNNFr+4S1WlHdwITlnNabC7v9rZ\/6QvbkrOTuO9fOR6azp1EwW\r\n2pixWqj0Sb9\/dSIVRpSq+jpBE6JAiX44dSR7zoBxRB8DgVO2Afy0s80xEpr5JAzb\r\nNYuPS7M5UHdAv2dr16fDcDIvn+vk92KpNh1NTeZFjBbRVQ9DXrgkRGW34TK8uSLI\r\nYG6jnfJ6eJgTaO431ywWPXNg1mUMaT\/+QBOgB299QVCKQU+lcZWptQt+RdsJUm46\r\nNY\/nARy4Oi4uOe88SuWITj9KhrFmEvrUlgM8FvoXA1ldrR7KiEg=\r\n-----END CERTIFICATE-----"
}