{
    "hashes": {
        "appinfo\/info.xml": "2318720918fe728024313d723ffe99b2d7c1cd33168ba3b99c1b1c399b4b67a59e420fa5795b8f9cbf0667c546fdcea1966518016566e6c06c0fe251006a36d5",
        "appinfo\/routes.php": "e2c6f6d3809c31d636ba6a3228054858aa68a2a206bd2c84cdceaef8673a4ac19b7a9f1044625e94e1f0010c580a40ccfc3fdeb5bf7d57081805dec6a4250edf",
        "composer\/autoload.php": "715cd8e365b89f04420ea32c652f1811070e78451e3e2fd641fe7f56e80c5e6145b86e483de8430d074ff047e53ecf140772fe42dd1ea4fa49e5e42325c9acce",
        "composer\/composer.json": "66b0e5b361e56a850f438c0d0b748dd57afe1c1117a4a349dd5fe4d83d99c908c10d4fc2eec0e982a4785fdda34a5a03bf2c61f736629ab69233c60cca3de708",
        "composer\/composer.lock": "aba0413aa705be0d0570c496a43249c551836824e7a2b4673b51838fe0d9f425ddd07b6c4b95aa74ca549f58e90f2a7d78b51a2a3080749a5dc2e4a46d04fd1e",
        "composer\/composer\/ClassLoader.php": "a6884d84d11c4bcc2a53f86929ad8f519d5e1cda93724a3069df108b91a71345e59f2598cb0361ac0f88576fc03315a4158215b33e9609d8f07dbd3819754d61",
        "composer\/composer\/InstalledVersions.php": "733e68c171cb9e44868bb0f105850fbd0e4f225c67235bf30fb2ac5c3443c6edfb722d4b33aa91c82bb600e937cb6392eb1883694d41616e66969d7d42e23b4f",
        "composer\/composer\/LICENSE": "f3bb64009f41a425df5a9bbab53490f0eb9b74fa8d6aaa2f57efb928edc4ffff330260666edeaa04a91fed708c3663371cf01b284f3a08d6698aaef7a23f355a",
        "composer\/composer\/autoload_classmap.php": "53cd33b7587d69f0b68619b3cd6e91a42f2f249a8068d27c4e145c81c2d0ac60f41969321ab2f15b66cba66cd80408cad0fb46b16eedc1cbf20b86dfaf898a31",
        "composer\/composer\/autoload_namespaces.php": "5b2571f3b573a778d362b8c7412787b4084c7f27d3f5bba1585243f3ccbb0b9054e68522a22a1ad59ec11097b03a0e343865c0188c65b25f0a97e24e120339d1",
        "composer\/composer\/autoload_psr4.php": "f15ab5a34bc16ba7a26fc27215f537a569c42252a1a6998ba9037826427b442c411bf4843f687b91e3ad0219b50cc34708fba2df54290c5cd8b1031f28bc43fe",
        "composer\/composer\/autoload_real.php": "ef40b4224ac1ee27aa97f1d5943b9ff7b7f6dec3ca62b4564ea2777a1a177ffca6602776e6ddd7244be58b6adaeca9f3eb8b6553f9b850db95d5352ac1d3a341",
        "composer\/composer\/autoload_static.php": "a2b73c4bae6abf933e0d5cd8037a9055e7a355cb6f55be831bf13810218f435fdf826cf7ca9436e34dace72bca5317e22e9094c8dba0a10822bc0296e3ebcde5",
        "composer\/composer\/installed.json": "0a3ed51f953eb945b970a8eb21957ca2beee4669c7d0d9be97b8259c391b60688f8abb78d4b1fae5e4e2ea5e3d8747f4d35f066a2605e9a76f5b45ec3f1da357",
        "composer\/composer\/installed.php": "e6858a3fc8f40144ee72d1ab87b5431a4f3246ac64d53bf639efeb6636392372bd10ba18a0b1cbaa483b8c05a1e35af769c457447ddb10af2cf00270767adb22",
        "img\/app.svg": "22a56ef7ace2dcbaa11c2a663950f74fe8515022c2c6e08a3e12851bce2297b443d986f70016e5bcbe7cf45ac5d19e6711b6c08ca66833d591554f543ae06d7e",
        "l10n\/af.js": "8320d9ec1584058d760f381a3887ae1908572a86622f08f5b252372b02cb7488367615d882e6c841f41ac587764c2bbe08806e3b8499c9a3522b45c3f137a3e1",
        "l10n\/af.json": "1bcb520f34b8e11739e2da01189d6aa7a0fc3188632f326767175b5360326aa70335b635cee5d1fef14d2a0b1940efbd81d24d41aa505016d3a193551738b842",
        "l10n\/ar.js": "3f429e5b94aeb7c211ef850c0a70df26e59fc0a2c9293bf4ac4432e5781154e43108c6f43c3e17041fe37bf5b54a3bd075cf8bc6eb52ada184896b86d36da77c",
        "l10n\/ar.json": "6547183e55b798f67312ba92530386035488599ca67c6bcc56b4a147cc3c5d9f754a4be7e03beaf9d44774d889e01d85d7c4db10fa6e23422e2101d863dacc67",
        "l10n\/ast.js": "21bc1295d1e1cc345a6921b316b7593fa1e2c48b9325b3bfe3b9f7c6b2ad91fe126b72b8a881da4e313a63bd40c96cf4e029e9b7c66fa9e45335a3d0f314b650",
        "l10n\/ast.json": "58f085e9904ce79f9b652f0d0ee3a6de195dffedd1229c4f05e566d9c110c6dca0de459f02e30168b27f7f66bb2d29a026adceb72010dad7177d74a8f20a4f17",
        "l10n\/az.js": "c7dd807391b478076ff6203bdf4ff77376205ee6b10ab3e35e4e896cbc407c95473f5a0831b98cfca409f014ce3eaa489b866aaccf25b4e0592728f4ce775990",
        "l10n\/az.json": "1e51dc9c26f3691a267411e955a3d5d771a964255bcd87ea12b504525e43fb6648b0dd3cdcf07465f47198ad94e68f087ec95faafdd14122a55571b1fc906d3c",
        "l10n\/be.js": "517f25feb8837c658b1636aa8d4c3aed76d1a406b52bcbd821dd3ea6658d343f73e830c7d2deca588fd7cbf25bf5862cf0ba8d017c3f00aae07bb5a9794eb591",
        "l10n\/be.json": "66259ccb62b1d1a29add35fcd06fec8ebab8df3fcbd0e20f7db0b8757795f3c6c180131a340f0f8851a71dad0a5ca5582cc853c5195f42bdac1d940f6fa2295d",
        "l10n\/bg.js": "6e2e0b9d84a0d62bc534246020a0bdffc9a4d53786a8c48816cdfee3edd95bba155194aed7eab3d0290242293bbef4943f6969f7c0c64ce048ad5f9f1ec259c0",
        "l10n\/bg.json": "89c06252e23ff56eaddddfbf33df590a00c8e25b08401d43442c3ed4c3efc8a494f798319b311198fd6a6e1c1fe90a00586c6f042a6fabab3fc055473ad1fa0e",
        "l10n\/bn_BD.js": "d49a48ee1a3aa3a9b967ec43ce927bd415c5c559984fb5b2c7ffd4da5bd2c58bd522d42c0fe9bc31276b1ba1f8d8506a53c6d963ed64e089400af7b69f3a2c2a",
        "l10n\/bn_BD.json": "f262b63c8a770be26fe7cc9c28d1cacdcaa7b05f3d34d3697ff9d9effd9cb488f5fbc08fcf2cd7aad1af0df1514f639ba0c61e487add4ab1e7cdb087d4843f10",
        "l10n\/br.js": "d8ebd9470d348ae4baa6062dc9731e8246b59ace01145ac9759f6bbe592dd7eae03299576dd251c18698afa58d1c60d83df03c8876a85b82ce6df36f6661e789",
        "l10n\/br.json": "769505b01f5203a2ca8ee2f223447f616b321c4fac9bd2fcb6676a328ebbec2373a82acef80216399f1a678a8bb9e26e35887b41b82c3555aec31fb8a08ec6a6",
        "l10n\/bs.js": "aacc759a682c3207c3a9beb4c6073130db0953967f743080855843a958ed14d5c5c8a0b295244b9017383c26017aa8f583882fc9d3e5d9c75497a098dc6200dd",
        "l10n\/bs.json": "87ffeacc42d666cd5c2465df8cc01800566a699eb1c50dfc3572beea85c7bcea53943206719c386c9085634a361f34b5db8a94a6820bd891c50afebabe0497a3",
        "l10n\/ca.js": "dfa0e084e77650cab2c0bc924b9361f1e2010b42da5d3ca9767a83c0b7e00def094e151cba4284a8e0bd2853d64eea82a772c9f6926712c4572427329a370939",
        "l10n\/ca.json": "4a32ac979dfc51d451c253ba432607fe01ed86e82dcade37d4a8a4d3bba4e5d232f25c4a64f16ef2d8063e41152b8a511c0eb832d072a09695e8d40c6de44c4d",
        "l10n\/cs.js": "ec92b561339bb4f3d484b7ad42f9ede947c35c473fdaa5ab3c0064a534ad781c943402e54a2f6a9c0c0b8ff7fc2323e21f3f78616464077e412d0618cb88bd13",
        "l10n\/cs.json": "c1edc4cc7429afbbd3d3ebfdb56d98c5b69715805c2b138736792203b6cbeed3abe210fc6da1f44ba191fe3b032e2e12e12540061341c36df87a6e5925ebb221",
        "l10n\/cy_GB.js": "25958ce3579bbdfc8a7dad5ecdaa1cf20b192481b881e6efd19c16e30ad2d06d2dc9d84f8ffe76cec9cd4e86776fc2b8e252d8d60993cb7a1c54ae162fc53a86",
        "l10n\/cy_GB.json": "7a1a7b96a0668189921cde31c87392d07d6bc4cdc24d46368d6021e3160a2f64cf6f1994ccfaf220474d35a8bffe3028e8aa71de0ee3f111d79fcb08c38cbc56",
        "l10n\/da.js": "23b94def3abfbf9340f41c0db796ca702e48aff4e91718fe786dbfb5c6e051698a1ee16b4f46b505ce1f5ff5de3b7b32f1910e20daefb0fa61b60bcb73637ddd",
        "l10n\/da.json": "f3ade3e79866cb88662dc83280a49ec65162965403468cd3197e5ca193b92e0e6d4f8427e8113b45d3df1ea830671c615f5d2d88574287e9020b984d32470b9d",
        "l10n\/de.js": "7e02a05bbacc4b4425350d08db9bc808fd3e00f7536eb435dfdb373e9304c31cde1e25c0fda0b9e46ae4ffcf58b36b5978aef39982ad0e24d54c388b226bb6ea",
        "l10n\/de.json": "45e38eed7aca3b90410f04ffee1a814dacc3fa7b9438487f463b2cb993ce7afc457f209248dad1eb47e58596b38156a2ecfd2486443e2cf472e17e16f927e46c",
        "l10n\/de_DE.js": "e397bba3fdae0f2c25bb90e74175fe8f299d11143ccfa42bcdfa1910af5bc3ceff9204880f68c0445d50fb528d5ccdaaf729aea6c1eda71b83c97852af12ffe2",
        "l10n\/de_DE.json": "3ddfb15c8bec984a4db3956fe751f06ec7083ea9cda0b0861878a59e0d4b463d8a621cdf19691e6cd9c5f06caf17248cf1be3b9c0761a1e19ec8e35f03e72385",
        "l10n\/el.js": "3d88aef9a1aefd5f7c0a747cea42787d20ac8a28d97da16fdaac65c76bdca905a83162d66c1050f36b3978665cca3d855b714106e8827dc1cb3f78b2e0cf4775",
        "l10n\/el.json": "5cb1035005b9ea55524909e5b610848fe041b3392c15bd2f85f6c13861a33ef92c7476959876b03e3ae276612e3cf222281e47819fdd1a744e0839fd7d1f3f5b",
        "l10n\/en_GB.js": "e87c3c64a1d1f4cb02192a53c0408dfd706e92ab806297740f9466617802782332b510df22d84619f5c05b851ff2a04837d4ee576b2b75cbd76a32833ea1ebb1",
        "l10n\/en_GB.json": "3c3b777d7ae269a7617f4bb893451342afaa92845e93cee8f9180207255f4455db3f3676011f72b6586f8dcccee66f407a4f1b2091387ad76af1faab15f30e9a",
        "l10n\/eo.js": "b6f7486331d2ec67918ed5413396bd0369daf925648c498c8f6d495197c7fb3ec02decb97fc3cf565701fccc4d252e8b4be494fd1d61460d8fc0a916679ab897",
        "l10n\/eo.json": "ce94433e07a7b3151444be35f09c2f1367d53c2ccbc9f6fdb0c7233d55fa9b5d87e9b7979c0dfe7ff24f291384c84de9e1167e9c03632ca8c595d5758b088fdd",
        "l10n\/es.js": "aaaec4ffebb4ad2fb1b5e9f37e642eca23e3e90410492bc7756aa1db9eb1dca2693ec529b8757525a24ec8459ec8616f61dace96671499af4f451d88fa0facde",
        "l10n\/es.json": "0d01ceb366af7b7e6c8747685cb02affe1e9cee925bd9619970b7acfe00228e3cc1ec250b91f964f24d7ed7476d95e12a07685487321f1b107fb8cab0ad95b88",
        "l10n\/es_419.js": "e6596f70ec1a7f6e2c1e351c462859ef4930ee4cec479d47aac2a42aad6e90dc1c601ebd45e50e6d496df499b68bc0a54247f867c480d82ca65e5f08656d51b7",
        "l10n\/es_419.json": "d226092173cab3a1153efbf210b174a706f3ef599916e7700e49f7353d269e17c585aa1e8b799543b0d793cea07fbb857787e798d98908f1acaba87f98069de7",
        "l10n\/es_AR.js": "d4b3deeb3a34f5fbcac54393442ce00d617635b737ab99bfdbc2f6f545c03dc364ab55e1723819e9e169ac76f638acac87cdf50c7d3bafec66c39f62f8ad7a0c",
        "l10n\/es_AR.json": "a8a1eaf478b5a0c46c4c5fcd075c5ad9ded0dfdf8cd287ee169cb14b10b750bc6ff200fe451d5c0fbe2e3ed201fe19064e6f240a853ac6a6434e48802918577e",
        "l10n\/es_CL.js": "e6596f70ec1a7f6e2c1e351c462859ef4930ee4cec479d47aac2a42aad6e90dc1c601ebd45e50e6d496df499b68bc0a54247f867c480d82ca65e5f08656d51b7",
        "l10n\/es_CL.json": "d226092173cab3a1153efbf210b174a706f3ef599916e7700e49f7353d269e17c585aa1e8b799543b0d793cea07fbb857787e798d98908f1acaba87f98069de7",
        "l10n\/es_CO.js": "e6596f70ec1a7f6e2c1e351c462859ef4930ee4cec479d47aac2a42aad6e90dc1c601ebd45e50e6d496df499b68bc0a54247f867c480d82ca65e5f08656d51b7",
        "l10n\/es_CO.json": "d226092173cab3a1153efbf210b174a706f3ef599916e7700e49f7353d269e17c585aa1e8b799543b0d793cea07fbb857787e798d98908f1acaba87f98069de7",
        "l10n\/es_CR.js": "e6596f70ec1a7f6e2c1e351c462859ef4930ee4cec479d47aac2a42aad6e90dc1c601ebd45e50e6d496df499b68bc0a54247f867c480d82ca65e5f08656d51b7",
        "l10n\/es_CR.json": "d226092173cab3a1153efbf210b174a706f3ef599916e7700e49f7353d269e17c585aa1e8b799543b0d793cea07fbb857787e798d98908f1acaba87f98069de7",
        "l10n\/es_DO.js": "e6596f70ec1a7f6e2c1e351c462859ef4930ee4cec479d47aac2a42aad6e90dc1c601ebd45e50e6d496df499b68bc0a54247f867c480d82ca65e5f08656d51b7",
        "l10n\/es_DO.json": "d226092173cab3a1153efbf210b174a706f3ef599916e7700e49f7353d269e17c585aa1e8b799543b0d793cea07fbb857787e798d98908f1acaba87f98069de7",
        "l10n\/es_EC.js": "e6596f70ec1a7f6e2c1e351c462859ef4930ee4cec479d47aac2a42aad6e90dc1c601ebd45e50e6d496df499b68bc0a54247f867c480d82ca65e5f08656d51b7",
        "l10n\/es_EC.json": "d226092173cab3a1153efbf210b174a706f3ef599916e7700e49f7353d269e17c585aa1e8b799543b0d793cea07fbb857787e798d98908f1acaba87f98069de7",
        "l10n\/es_GT.js": "e6596f70ec1a7f6e2c1e351c462859ef4930ee4cec479d47aac2a42aad6e90dc1c601ebd45e50e6d496df499b68bc0a54247f867c480d82ca65e5f08656d51b7",
        "l10n\/es_GT.json": "d226092173cab3a1153efbf210b174a706f3ef599916e7700e49f7353d269e17c585aa1e8b799543b0d793cea07fbb857787e798d98908f1acaba87f98069de7",
        "l10n\/es_HN.js": "e6596f70ec1a7f6e2c1e351c462859ef4930ee4cec479d47aac2a42aad6e90dc1c601ebd45e50e6d496df499b68bc0a54247f867c480d82ca65e5f08656d51b7",
        "l10n\/es_HN.json": "d226092173cab3a1153efbf210b174a706f3ef599916e7700e49f7353d269e17c585aa1e8b799543b0d793cea07fbb857787e798d98908f1acaba87f98069de7",
        "l10n\/es_MX.js": "1d5a38020214813733e73bf9db8ddb8ce93c228865ec05dfa5450e6ba63d9a01b8f66003038d4be1f372b20c56661f4d3a14fbc518d73229a38adffe3b056a4f",
        "l10n\/es_MX.json": "a8dae48201fc6e920aa687def6c1d64ace7d726037a0398711112f9e4410fca8e07a190991f4b84b5029b10218dc6328833a1aff25d1c00ea5a09b0f7d8991dd",
        "l10n\/es_NI.js": "e6596f70ec1a7f6e2c1e351c462859ef4930ee4cec479d47aac2a42aad6e90dc1c601ebd45e50e6d496df499b68bc0a54247f867c480d82ca65e5f08656d51b7",
        "l10n\/es_NI.json": "d226092173cab3a1153efbf210b174a706f3ef599916e7700e49f7353d269e17c585aa1e8b799543b0d793cea07fbb857787e798d98908f1acaba87f98069de7",
        "l10n\/es_PA.js": "e6596f70ec1a7f6e2c1e351c462859ef4930ee4cec479d47aac2a42aad6e90dc1c601ebd45e50e6d496df499b68bc0a54247f867c480d82ca65e5f08656d51b7",
        "l10n\/es_PA.json": "d226092173cab3a1153efbf210b174a706f3ef599916e7700e49f7353d269e17c585aa1e8b799543b0d793cea07fbb857787e798d98908f1acaba87f98069de7",
        "l10n\/es_PE.js": "e6596f70ec1a7f6e2c1e351c462859ef4930ee4cec479d47aac2a42aad6e90dc1c601ebd45e50e6d496df499b68bc0a54247f867c480d82ca65e5f08656d51b7",
        "l10n\/es_PE.json": "d226092173cab3a1153efbf210b174a706f3ef599916e7700e49f7353d269e17c585aa1e8b799543b0d793cea07fbb857787e798d98908f1acaba87f98069de7",
        "l10n\/es_PR.js": "e6596f70ec1a7f6e2c1e351c462859ef4930ee4cec479d47aac2a42aad6e90dc1c601ebd45e50e6d496df499b68bc0a54247f867c480d82ca65e5f08656d51b7",
        "l10n\/es_PR.json": "d226092173cab3a1153efbf210b174a706f3ef599916e7700e49f7353d269e17c585aa1e8b799543b0d793cea07fbb857787e798d98908f1acaba87f98069de7",
        "l10n\/es_PY.js": "e6596f70ec1a7f6e2c1e351c462859ef4930ee4cec479d47aac2a42aad6e90dc1c601ebd45e50e6d496df499b68bc0a54247f867c480d82ca65e5f08656d51b7",
        "l10n\/es_PY.json": "d226092173cab3a1153efbf210b174a706f3ef599916e7700e49f7353d269e17c585aa1e8b799543b0d793cea07fbb857787e798d98908f1acaba87f98069de7",
        "l10n\/es_SV.js": "e6596f70ec1a7f6e2c1e351c462859ef4930ee4cec479d47aac2a42aad6e90dc1c601ebd45e50e6d496df499b68bc0a54247f867c480d82ca65e5f08656d51b7",
        "l10n\/es_SV.json": "d226092173cab3a1153efbf210b174a706f3ef599916e7700e49f7353d269e17c585aa1e8b799543b0d793cea07fbb857787e798d98908f1acaba87f98069de7",
        "l10n\/es_UY.js": "e6596f70ec1a7f6e2c1e351c462859ef4930ee4cec479d47aac2a42aad6e90dc1c601ebd45e50e6d496df499b68bc0a54247f867c480d82ca65e5f08656d51b7",
        "l10n\/es_UY.json": "d226092173cab3a1153efbf210b174a706f3ef599916e7700e49f7353d269e17c585aa1e8b799543b0d793cea07fbb857787e798d98908f1acaba87f98069de7",
        "l10n\/et_EE.js": "3692edf44470f52b768f4c1280949e552d4b80c594219c60e00c92a44b7cb4f85182b659ae2ec5a6bb95679ce3f81bc43b81058110bc98cedafb384c8e123d7d",
        "l10n\/et_EE.json": "a2e86b5e751b70482046ad21c4038e01675cafdc3add900ebb1a31c9072e8d471e1ed730ae236b388328d8d418a6cc711f74d4f8bdd59ba282898c104315630b",
        "l10n\/eu.js": "e0590cef495135a0e47355e1470c3681a4a425691af70f3aedcf6517f1671ed1588068a54397f3a27e697afc6f6c4749fcc37bb598b52cd6a0afffaa03bf2cc5",
        "l10n\/eu.json": "2f6274fbd5ae1264a0d3eff57f7a1cc25dc4aa1aabeab9cf9d734007f76728971c733b0302e528db2c3e94107494268e65fe0e6df7eced23850f34a98293a217",
        "l10n\/fa.js": "2ebdd0c647f6c092b24eeb314f5782dabc4946af84d3188e0dc0979cfc2317c72f35cd5fbaf17e70d43491698887678ef10b7ad8345ff44ddd650e9672693516",
        "l10n\/fa.json": "d1a2373211b85bb56fe4fa04e4892f8fc2f709b0fe89e3e7751ba46a5d1ee195312920c3a6c4d47c9ef0f88dfb66c79cde3070daa25f55b3220aedc718ddb48c",
        "l10n\/fi.js": "f6a0514a1fa6cdf6406c061840d1d850914e59a4e6483b3b2dd29f3e384f3ecc7130623e1f4fda5a40bc8c48ad5575f42ac85af2b6388998d7507cf59c5c9890",
        "l10n\/fi.json": "b253f51be47759bd1e11589cc081dd7e228f4c290da721fb2e0529a3047b3e3a304ee798763af8f74822f0a71e06ab96440b7e6b7d6b9374921311123e73f572",
        "l10n\/fr.js": "24b3d65d4dc631d30af9d9a174a2b10064ad751b7ea6d9783664c9d67490ee2336a3c69dd87802a515e5c32d0ce9c07a909e2cd670639778e0980004edd5d0b1",
        "l10n\/fr.json": "db8b73a9ef3cf1943eb9195209b9b4db361bff8ac02abb6f8c299028da99323fecbf6f0e899fdd13f567049a8be63cecde453625ab4a9072fe8f107d72202298",
        "l10n\/gl.js": "f91f0ef2ad458a09d4ef7846be50e7d5ab40d37f803d6dc7c856e22ec0790485a9d48fee34ba02d8c4882ba4318cafb987d6ea7c4cb33136686ac2faf42b5ff0",
        "l10n\/gl.json": "a59cf32b74f8f0e19e1b1d59dc415b461a2fbddf5138907ef0c2105f6e635da18e791c777054ee8d7d066b74918fed9a6fe223f6f1571bbcf62b14157420c338",
        "l10n\/he.js": "ce084afb22aeaa985333568c71acfd70f36bccb363c7c87197f2d603b5da5056ff934b4cff19803f2771f00334fbe060a9d7787def8e732b3acc5b03eed79bad",
        "l10n\/he.json": "a5b91b2302996180969cbe3ac06198e30b30bbdd87460b23fa2f1d4d4a254a6a820361c26a3fe7c16e455e52eb253abec381fdc2d13d8c006836601ade4dcada",
        "l10n\/hr.js": "03d6768fcdcde7273eca6819b884ec54a61708cc4a6bc37b5fa1f6940807b292f61abac8009acc598d3cc1d3759287578bbfeb9a573998a81036b318a78a8a58",
        "l10n\/hr.json": "e8e01a2644d491289f989170c8859697dcb01b02e92ee77ebc3661f8c434455b63e5e117c3c24820abfac08d646dcf2e8ce6f26e4df9a06a882c7253f801f63f",
        "l10n\/hu.js": "2cc6069f9a1433efa6063f4d267546d223b1cf667e894b37849e2baffb8baa728bac9be2f2b9d384e8ebdd4531e366508bdc722bd38c866fa055947462ab6917",
        "l10n\/hu.json": "e9a65372997da905b5080a2e3ad78a6edf47d49052bad641ff7d9110e2f3dbbf34bb6fdf2881628afe3ea23108d513993009d1b043aed70fa0aea51bec579ef1",
        "l10n\/hy.js": "4284e3b2d2bef37f773808e74e7c85cb187ea75af81229b98cd5e9dc55c82367cb76321fd7f3849c794749d6b4b589a2ac593a5775db9edca8eace3b9a9539e9",
        "l10n\/hy.json": "5f9ceee5901b1f2eaf3c6a9df8c20efb22893bb50da687e6563fdd72254dab03a93adfa7f293f7e787a123464002a9a8aa0f7783ede04292ae49de69aa071e7a",
        "l10n\/ia.js": "464b1bdf5215b3331102e2ed88041c3c74c0dc5eb2d5cec4f849528812d0d8fa9fb70b0c16a0d0f4adc4b66b659bd98a594313b0285d0e890e04306451b948ee",
        "l10n\/ia.json": "dc5d4b4d02cea4d4ff12dbb7bad30ae3a18c850e6ec45d78901fbde8700bed2d038d5b45bb985e261fdcb57b0b9fd30ab5f2485c48266c2154403f4728f68ef0",
        "l10n\/id.js": "a8d7cae02b81f2cddcc121f4624847ed75bd7462e4323c8c2e622df4f2738aea1f83961858fee6d5ff1282aab62aa94425ae5dcc423be2d12fae94e2654cad09",
        "l10n\/id.json": "c600fa7d233f7db6c72ac4904f6d78054f048e95040981c78f9a39c741b816f2f4c798edaff2fed0bd0d476e4e342fc1c6bd51e7a0091cbca17ffbf34fab73f5",
        "l10n\/is.js": "98f0bca3dde4029c8f6c16b5a3633177e62c4b8e13f19503b5ae5bebec27c4de85c561cf433b854f90fb1caf5067febe29b0ea2f8d0dabfc9ac164eb3a40a9b8",
        "l10n\/is.json": "6d13f5a58a436c3db57fc1d82b7c061f6c8db259b69d4d76844924305d40cf75913fe9c48bcdefba70574f51ed8e1d5945bb9fdbff788e0022e0a87b7da91d05",
        "l10n\/it.js": "f2293c5b5eaf716d45ea66b3c7acb58ad308ddbaa71a056fa2567b789e56d2b2e2cb5c0b25178959db53a686abe727240f1dc033f105cf27889872d8ab5f7381",
        "l10n\/it.json": "42db6b18e84f217eca8b576c7c185518445f198cb99a3c8d40410de6ac727aa4ca9595245d60cf99e31c7ae0c941edc3a8bcb453d5ba996c5ff11349766ad36f",
        "l10n\/ja.js": "267281f0da0f241ad1323d05b5fd6a9367e98ff8ca56b6525eb41f8d60607abc3bab1cddd517db459ad13c9e62f5e6cc31fca1f0d6f06dc81a83a960a6cc5735",
        "l10n\/ja.json": "c3f22343135bf1ab387c8198ee9e0df16a0d005b2775b380a98ad5997717dce9107161e05ad28271ffbf7475737228fcf0339448c85f9d6cb2fd09cba76037f0",
        "l10n\/ka_GE.js": "795f9157a64b3b5892d7ffd6bb4550c0ac7dc9bfc852763af7cd31b7955b6aaa16bb140d5f084a3ef95bee71543c2d61fdc88de17942ffc9c97099d1acd9b6da",
        "l10n\/ka_GE.json": "1fb2a6e3c313f4c5190ffe043171e95996e2b0cb79b768329b58ffa6148db0fd3e54087347e5d38deeed774b1d0903f4f893f350b4bd67796f33f34b41b08f1e",
        "l10n\/km.js": "f5b2e22b35e5e0d06443229142abdc9df3ab81f1c4f14b367bb30d0ef77b8eb7eef48cac15b181f5d7c4b2795eb12d8630e5e48a18803e48afa4a4fa72a25c03",
        "l10n\/km.json": "97c3d6a38207467b5ef687ba4ed752c33dfe5d57f5a12d68624b8d0a94cc7312739fae30812cf27a321f054501e84bd3d9e7b3042a1c97a97534241379f8a55b",
        "l10n\/kn.js": "37968f3a1b832539c5b9a29c63a4221bc006fa3e1792dff5b9688b1494cf3b265d7e053aad024ff1824b64f77726f337972a3d00212d9e30237e96c95532f342",
        "l10n\/kn.json": "c4b4a8d51c601c92a28f8104b2ec5bc382c54408a85d48282eb4608fcb95d0ba73a31023c59339c29ae3af909a4f4eba41fd6db4c266d25ff834ef95ded33b8a",
        "l10n\/ko.js": "d9ca9e428ba7cbc7318b3cb9b59320d5425d7b95b55191c9f1957dae7ccb8e6f03b384ea28bd3fa171a14f8ac6889774df247221206db0506de2fc7b0b225282",
        "l10n\/ko.json": "5535347198f830510955dba51b01d67d6705d31ed2e259eae0f242fb827211b6f95679d8f6c300f5f8ed6c42dd62f80d1c73d303e623771d20181e206e609013",
        "l10n\/lb.js": "b16b0b095d222eba57f8b364c45328bdf5163f147641b4420fdc9805dcc04bcb2b28951371fc9c584bbc45cdf24a669faead88a4aa2fef82f1c056895805a50e",
        "l10n\/lb.json": "98d39be6fabc5b2ff08274c39c6808afab73d73e22aea7d0dd515e5b270535e5d121fcab63ba18d7d573114a8addd478ec64e55acde9bd8c13e252632a623cb1",
        "l10n\/lt_LT.js": "9becc4e2c3be310d05bb0e63d360a6c1e7577440a90a1e1e3cb50515984eac3433593cc228879df39def7c8b543fc2493aea80be317d5ed28dad132698007a99",
        "l10n\/lt_LT.json": "79f1b1c4cf1105d82419f407c4f0739bb058e857c5aa942531340a90e2579952b9ccecd70a1f1348373d383508349fac5b6705a47be649860d1313977991c95a",
        "l10n\/lv.js": "8b13a05e195cae10b534b11f8831d0b934796e4bad3e9721068576f8fc0f93c05464e0c787b79d38234b6110c4da83fe39f9c77ef8f3a8ac3640deea3c0a3efb",
        "l10n\/lv.json": "9492e275069abd5f14801216a9659101ddfb7b627f1bc370b9c115b0e3ecacb5d29dacdf249b7c626a2bc9bc450031d2970b1a1a14115d72d2e55d918c67a8f7",
        "l10n\/mk.js": "66c5d4e3ec4897e29128c0fd7f2c2fe6759fc6999575f0208afa607e31577a71439b9270e0a65d05ded3f66e261220390ee8579c6bc1f2594f69f862645dbd8d",
        "l10n\/mk.json": "766f71c75a13ec13427e1311d93269e01aa0dac46569659b9ba5545f75347282d1dd7b6825940468d9feb1b56e10f6f7c2451597ba7e22f6bd9aa3503e7d113e",
        "l10n\/mn.js": "580560ab3e55fc678f2dd91bba33d5e93d1c6695085ee624e6453b0911d2ccb18ac11b34e1b6a7a584156aa9c6bdff6bddda55d4521a3b177b433c9ada636f12",
        "l10n\/mn.json": "e331cf7bcb822b5e48b10e3be926d6845e82f3ff3fd4010b968146e928bd16e1028d809a5a3687547943caecd24b985ceeb9ce33a1f603f245f2dbd9244fb7c9",
        "l10n\/ms_MY.js": "2a8565ae5c19999303fe565f634689e57f0f44229eef591ece1c13bb72ef99b5b506bb03353e48f8d7bd1bd4908408826a7ecca934556f1caa74ef6887d9a8e0",
        "l10n\/ms_MY.json": "4cf791b1723d52eebab485b73f01d6b27f35cb4105d91f4bdb534c0c1d0ef1e5079a66dcdc09d2429d52ebbb9ea30cb41db20d53401d8f79c178fffecab69c8a",
        "l10n\/nb.js": "be0685a71f3fc94edf253b81492d1e23f354e1b65ed20b4e7ab7d6db3e4729c863f0f3378b69dceae49413cc995633c34491ad65d3ef77d183d088a4b58131df",
        "l10n\/nb.json": "29f9e6f71d74211b46f958bdad9fa11198089d0740ad28f1c6a1734e9e29de00bd950dfaca790b0ed903cc265f197c0e8ae002953d2f5796c59113d165ac7bde",
        "l10n\/nl.js": "ec76dfa284d4626a2c281fcb6c7cf76bba04de3c284c10382dd36f5cfe9de86d873b935231e9a053d28be934b52ba94c89fb4b6943301e1b4904123f5ccbd623",
        "l10n\/nl.json": "4c6ecc81fc8eee9bde78aa4d3fc0d1138bbb26c6fbc61f9b0620175c7b79e9d8f038b625cb1102c457162de2e1864fa71f0fec169586c316d6bcc1879c3461ab",
        "l10n\/nn_NO.js": "7a8517cb4c8a62458b85372f895f678feb29ee5f5de196f54a93b88e41de3faebe40eb706fb5d606829111e674a0e652d1f6f64253dc27e643aff647639b05c8",
        "l10n\/nn_NO.json": "91841c7edcff7a25c06af060f43013b8f881081485b23d0e241e992b12e18fe178b18c9b2e3b74e36d3b7b1718a121f4828d733e53cb9b582446a83eefc99c90",
        "l10n\/oc.js": "5bcf49a8170df455b48a428a6fa92484918b1892ed53b25acf5f3a0c3ccdb1167378e756edaed875c4d27dca8dfe52820b3612715bc9c4136e583b84521e0f0b",
        "l10n\/oc.json": "4dd08b08c988eedfd40d92f880031db222cd504daa9226d2172f73af4219a6a4c0393087c12b637474b0b0f6ac2c0fe0a24adc5b68e7ea3d342c52aeab3962e4",
        "l10n\/pl.js": "d91d4cb5bdf476a6903c99c662ed7ac7adbc54210df933a040cf40fa877f6f1a64a1eb29e40739c2bbd5fbf14301357e3161ca4d7cbbe4863b879da699b3f27d",
        "l10n\/pl.json": "148485bb84465b1631f91d1498af7fbfc1705213035fa60be2926204bfb9259f1649c83e367ca7627582679dd5d6f4a65e0de2b5f8241695065a55bafc636c97",
        "l10n\/pt_BR.js": "0b5496794f4e296d209b9ae40fe6862c7e357014bd84b9e0270eb5488ee4d7f67267acb8249f0b0ccb2fcea4ddc09695972eb28b166509b8c69b21fc8fb78c76",
        "l10n\/pt_BR.json": "56ea9ce6c81c549b42c1483a2db977de86fdb07be806459b08b7fbd70910e7030a2e8354ac46add055ae511c256a2876c2e4c74742f685eb86e4ae98d6d73858",
        "l10n\/pt_PT.js": "07d0cd4f9efff0a9c13b0d19f717a459c7450ca1d4fb9ee99cffc8cb06c6f085459dc24bdd1f6713e30ab25122d4858baa00d39c58a73ebf0c4b51c499495efa",
        "l10n\/pt_PT.json": "9d1376b9b590c0a674d88383f336d3631f5a9090f20b403b1cb38c49852d4ae0c5290de4aa08b83a053ad75e3bdaaec66936f32f5bd25c7a5cf8643a9cbffee6",
        "l10n\/ro.js": "2349d165ac26d5d5947a666446285b61059bdc4d246d686b40883fc9b0c679758c5e301cd00c268aa60f54da6e35800e432002cfb594523d941e90aeab64bf57",
        "l10n\/ro.json": "fb2a943f81c6bb0a9d4d797c665bc94f03f88e1efc9c07e2d538c7543a2bda1f0ee7420c7cd92ec6feedd72dce1eee436b4f04ce74212d321d8ff4b401ea2d3f",
        "l10n\/ru.js": "e63998d9ef0998b324daf4c828812e34119a2cbabb62ec201f182b66dbbd44568e6e14ea58cb7288a28132b4a6c0478e73ac46b68dcd611b3b4ba5f42d47d205",
        "l10n\/ru.json": "65b9d985903c4bbb652051b13b4c82f81b4747221e595cfd4bb3226dea5552f8ff2cffc6abd91badbab9c96667654012a5abbde6b758b364c4197a98aa91198d",
        "l10n\/sc.js": "14b5e028490b0c3630e32a697f3e9e06554c5fe6cea1f4a7f2e37586f2eebb5b5a64063f0cbe019f9451cd6bb4933b4caab9aaa55319e1f38f391ff22f73a3fe",
        "l10n\/sc.json": "1b579650e70c8d302a40100645b6009c987fded7b731dba717d61aebb9a1f578be980353c20d1e7b461bac1d35043aeb1d39c6df76670753de3150ab9c6a51ea",
        "l10n\/sk.js": "01c113e48de9c5a78e177be61603160a8942e28763a34509679bfc2720c73a207cbf123aa69f01e55d47e6f5ea96cb71bbd228391484c7c109e23b65a0c13163",
        "l10n\/sk.json": "ab56f79e1f2fdecfba40870839a8daa76f70e2907110226272b1f3a07930f876093d40ebf442ecd768f5394b053b1d9296e084731fca04de8414bbe570b4a887",
        "l10n\/sl.js": "b9dc6068078f5241035eba5f99b349d714c926fb5a7b6e123941f8e09416866ab54ee690e90e68f1eb7fec309b15dffa6132c903081b1f02be54b6169275fd7d",
        "l10n\/sl.json": "65692d7574d7c24a003e346e9ba8414d07b7787dba3e64aa96fe89504f4989455623c95f0796f3b4d50dd07c8c3be10d00ddd4e75ba34b71196f0f884da58772",
        "l10n\/sq.js": "9b3e79c93d6a4f78007ef35f16c4ad65b247c9a48727d842027d4e942259c73c07c51369b1d64fa1439d0c0d329d6dcfa15d5b4edc2c3ffd1b0b56a63aeacb54",
        "l10n\/sq.json": "93d48b5b159e335fdcc9aae3f8321957e8a44418665129a1bc9ba7fd0755bb5469b87edac6ab8f8cf134d2cc61f79911740dc2e8ddc09a0bdd217fe95eff60bf",
        "l10n\/sr.js": "c8bd97b1ced8b8af2db6e1856cfc4ccfed9509e0db809a480513ab5a98eaa5b96e31d866a59e2e611485bdc78b6b7c0d236674ecb2110c55da0b93f832dd402c",
        "l10n\/sr.json": "9ce52a318cf86fe562717f66f72c760b9983f223e06d7dd2e16b7b7e5f0713398c4814bd0f6a03819220eba1eb65df607589732b8a4b05cf12fe978e527eef82",
        "l10n\/sr@latin.js": "e0a846572632dd83192289434dae92f4e22a4eeaca71aeef8bc697e47934f185af541f2d0a76cd12ac7b38d3bb106ef738803f00e706905286a4d903cc1271df",
        "l10n\/sr@latin.json": "ecc8c977e19630fa1af20b45c366f6b1662e51c981b05fb46546f207f1e3fe2e0b8509b126f30bb5f09e58d45739322dbb304e1c0b9353f75a4e49b5a7a32f72",
        "l10n\/sv.js": "ed960684f6c55b553dc9a135d5990c2c797b10b8366b2395fe5f53428b54112a5e518c1e89d499370acb8e7755b74414d10a43e7db59886f4a6bafc9dfcb8f57",
        "l10n\/sv.json": "98bfc4d5f6bff1916ca0ef936b9adeaf0732baf4066fb5e3adf0f195eca61bcf9d095dc43fc280a689b3d357623bd28886d900a40f13684d9c6655a692b3d58b",
        "l10n\/th.js": "250b302c29b03b8c37ef113f9e0c7d1a61f0c8a9f9041a63ebfa746eb24228244d11a5e1dc2f911109967de3c9fe67babea4bf299553b8c009b1cbe27b3a9737",
        "l10n\/th.json": "0bf78a715bf94aef73243c46805be5e5f435c39d711ae926883eed78bc000a035004bc8dddae90cd758293ab4f87bef8dec69782a537c232f71cb71c530fbfe5",
        "l10n\/tr.js": "701de620758b6f6f1f6a507b7ff4ff2f3c533d4f88954a484bf41da5ebfda7ce02af6c3926ef30f53b68dddf4cc755cc65e90ae85ae5290f9f5be91b6e765334",
        "l10n\/tr.json": "9cffb75f7f4c55a5b89d2a550de19fd76eef2b5835ac0798de59f1d48cae674157aa6ecfddfc566bf5f7aedd2986cc73f3ede3376d00a9b993c37e5a9916b70e",
        "l10n\/ug.js": "885fb0ee7a428f2d6855fafa344eea2aa4776b6671fba5f2ceb7a5dafe03f10f32ff138a8d3faa5e1235b0a202adbf7d68140fe3392fe523c3b28a60c9e06694",
        "l10n\/ug.json": "7182cae657a04db104e1a344b17215c71e8be6480b5cd9fea6f56a37cd23bc664e8a108e5740ce1b284fc16d65e9dd61a1e0a726cc7044cc53b1351c7cf61b02",
        "l10n\/uk.js": "e639f18c06c552c00ecf8f000827ca0938c1b38a6cae76b0ad5fe0de7fc9e2eccc010a53365c7f98e39f0e22b1fba486a48fdb94165f2524e6996e551d2180bc",
        "l10n\/uk.json": "be8d3627db2dc5538ae374c640cda58f3ae5eb0b8751f44c67c12bacf047b16d8e784febeaa5cc89dbb9bfa2b70e74cb28486f48c4c374ce19286a15951aa969",
        "l10n\/ur_PK.js": "927ce33ab0268b3f1a52d6f189080858b2bb5e75432c148bc7c3de00c5e051f92c7e1e573640a2e40790d745886db2cacfe869fb77b29d6dd7326132774282e5",
        "l10n\/ur_PK.json": "10635302cf0e2f4c8ce27f35b5263c01c3ad7b3a8e2c7dc7fd02fa30620fe579b03dab3d074ce6280463e568859e7406a471203c47d716b10927fefe4bcf7166",
        "l10n\/vi.js": "448cd561c535634ad05d0a8d629cd6e6779e73a82a5aa2e0c3c6124aba97a4f1634017a8691a702d9352bcc7238f1bd332299fbd72b72f0cf6a05a5cb3aecb54",
        "l10n\/vi.json": "b45a706e6c95da121cad286126ada30c9dcd50c7bf4710119fc036ded7779363bf12eefcd419d2d4058691ddba993342f2f1aee345f96d8825d530b6bb531207",
        "l10n\/zh_CN.js": "9c0076a9cc1b75d9e24c579b6fc45dc4b4ae2aafaeba7871094006b43b868d7b481dc1dcc6e5b54187f248d7000d350fb670639024074c838fbc8b3ef7555bd0",
        "l10n\/zh_CN.json": "7d25cdf7e790af2f9309c37d5b68d6a3770ce83c0e8649558cba1b0abf9787fc9bb15e4e1a21c1d68c7a6ca500c8df1daf6634ea6e2917505f44b2404f62c627",
        "l10n\/zh_HK.js": "c8bef5885672b4a934712564e9a89510b916ec8a4cca61f7083fb45aeeead251247b582d5f1b4e9bbe3763fc930d1b8b213027bf2ba5784bb4a42e0335fbfed1",
        "l10n\/zh_HK.json": "51dccc2d39f9181a46ac1e3dd28becc2deedfeb616fb6fe11a66edf26e302836dbaeb60f162e73a3dba1d759f2f9b0828b5d3f02a67b8de8eae63dcffc23e685",
        "l10n\/zh_TW.js": "9f30af9edeee286bf11fda575eab49a4be8e942ac3ae84934f82b4e6add74760158aebf607680b40be35d91a14fe43f834abafe23668cf1a3837e434a12fd6bf",
        "l10n\/zh_TW.json": "31fbd443de9ef3d6e4cc151564751f285f18f0dcd7843441e69405883f5905c92ed200adf163ae60d3fa8316d0d5085af0fdf50909e0eae82ae90ae068361912",
        "lib\/AppInfo\/Application.php": "22c73074f9efab89410ef63a4344cbc671bc541b08540399aa869d07d8fd1cbbe631d7c3ebbe4fdad91639998adfb36c9fd5a4837eb3ef1c320926da3a828691",
        "lib\/BackgroundJob\/ExpireTrash.php": "762c188f471044e92f973ed9fbdcabc00f7f412e213ed695819afd1011f2270a3ced0a5dbf0b983b7919a29cff73b97ae78e27c09cc94d30eb4bba8ba013b6d9",
        "lib\/Capabilities.php": "3723946b9e81a178d4879306f85e28ebf3e7ac3e4809bbbc3be34785331aa78dfea93c52ec04c9dc20cc01fe5a21e5a9b1be14c75e01285af519ea437923a2fc",
        "lib\/Command\/CleanUp.php": "f65497416e2d5b8a3064d762485b2ac9ef07a42e050556494138ad3388ec3ea7ed4b759b34fb6d06f46af9b3ec3e86b206fd0cdf1fd4dafca07635676d1a8d2c",
        "lib\/Command\/Expire.php": "153a221b3b60ed3d2036e30e6ff3366effc0c57cd99a20241e26ee7919379e80b0ebd2314ef3521c558c66480fcb337075ead9f9b470ac9873caad26f5eee429",
        "lib\/Command\/ExpireTrash.php": "aa4b61695b58ffc5d2a14e76716cbd32bb5e58e8252e43087a23c353d5078c04d59f8c2bbc1796d101707554647e5970c60e2b5c8ddd46edd32e3270765d3bfa",
        "lib\/Command\/RestoreAllFiles.php": "ab4e305c8d65336b80d653e846249ebf07ca4482bacd375c55ecc1f35cdb701d69feed87297b893df9faba60c45e1a3d84bd7f83ec87ee65f500b0263a008ccf",
        "lib\/Command\/Size.php": "e3768dfe37ae01c97e92013041b4034a8910e53fe68bc30b740c1a487da3456a104a8d1d852bc414a0e44037affa82d5aaf1b9d25d0e8685432c8bcc015c8468",
        "lib\/Controller\/PreviewController.php": "c7878ee4bb0a992f7a80da353c022068e4bf63c8266db6d4e36d42b28a5ef8a2f32bef83300f439a90cea701678faf7393482d5f62f851f821323e6999909cd9",
        "lib\/Events\/MoveToTrashEvent.php": "104a466c65d340b458e259c601753af75f03685ff0a52262aa536961c3405db53f65e74835320835ebb0d4289e6681b648d632eb226fad77789d222e141552c8",
        "lib\/Exceptions\/CopyRecursiveException.php": "0742a0fe9be3707a2a657ee5f09fe3b319816fe71db560bdfbe1c284ae510d7485a92856f82d5132cf4a888c24d8acadfb6cbf37529d39de8cbd07ebcf66fd93",
        "lib\/Expiration.php": "29176c67f998ef20cd08ef40468821a7c11157ead15b998e5548cc574132122cb8252d33d3207e728ef1b73545b69ac4a3e0b94823368edced8c0b9b61a52196",
        "lib\/Helper.php": "5e06c1937d999ce42661201e0044e6b7b667f83b853aa992751bb216dcd4b107a14f3c936792b7e804a2005ed65bb5019bc06e780f57256042e04c4976fae1ad",
        "lib\/Hooks.php": "a9b916c92e99238ec1b7623f2c6b2e174925da079d6f06697541c6bd39c3b0cb0f45822531e1528ec364d2a807145371e63411f0e2ca732f5c5a38d1f5dc7ba1",
        "lib\/Listeners\/LoadAdditionalScripts.php": "cce7ae0691e52a643338d622abec7d3ebbfbeaff9df4342b870f2c91caf2aefccaa24736b70f61735ccd66f9b44df16c4b3b7c4b9563225814929e5dde29d841",
        "lib\/Migration\/Version1010Date20200630192639.php": "c20ba37f55067dc15a58470bc0aaad4aaaafdc60194fccc112b7278f407ad7755e45b42f7ff65803638ae130868ab24ac793face1451fa556e8eb59cf10053f1",
        "lib\/Sabre\/AbstractTrash.php": "3fde4dc1711e4d33e66e23f58b0a03827803c4c21515f5e994ed6ec725b0f397e820cc28975cf9acea2502d1be28ba9d37287909f2b7b0e51884c5c77983e5f3",
        "lib\/Sabre\/AbstractTrashFile.php": "cbb03874f7c52264cba7605e7d85932aea7c6e6beba4653c426b120cfd0bfab516191cf105cdb6e27b70bb26712ed412810fee7f4af34f4606ebd75e1d882e86",
        "lib\/Sabre\/AbstractTrashFolder.php": "cac465272b56210bd01e7ee6818c9e2ae342f4b74e067c066d8c4b73c71e7ca7203d33e6cc173cd2f8272ad4206e4e96b6335aaebc39e96112fd011c026eb765",
        "lib\/Sabre\/ITrash.php": "1fea8f9c8b5fd79bf1be317300a66ab13225caebc43993bab94d5904611dd75f275e28e9f78e51dc906885b66a64014f88ec707b68934ce1c9fd6a4c30b897f7",
        "lib\/Sabre\/RestoreFolder.php": "6f9281a06bdda0a3f62447c7adffad421c2e944853ec0099861ab0f8db338a0eb7b785db3ff88eb7000ed33cd1c55aad7bc38bd9217593821758dd53c0b2d1f4",
        "lib\/Sabre\/RootCollection.php": "82cb7a11a1ddb6db0278f054439185cd3ca60cc595dfc41c78313ee53a70d6c99de685d05bd74d9149092efd789f4897024b496519045c90ffc707b7abf4cc95",
        "lib\/Sabre\/TrashFile.php": "36d711e62a81d2ea55bee853e10e3304c0de73b06cc8a47153e74ac2ea4c054853728c0da11674efcf54c8b2bfa3ea9e1cd3e39e68aa4c5cc251af04f9cb30eb",
        "lib\/Sabre\/TrashFolder.php": "e1c80f8c23c1caf125c6d046bd4e56de50dca128997a2c61327a5661c946474bf2e983e86271c1cbab247452866df56ae631981c42f506518f362a1231933a98",
        "lib\/Sabre\/TrashFolderFile.php": "2b022f37fe84b284a7ce6dd92feb78ad3dbcf3cd79f2359ec6f4afae46ad285eb301b0655cee27ae72f2840ebec251fca3086e04476f6a6651de13c3ea0a7dd6",
        "lib\/Sabre\/TrashFolderFolder.php": "93ba50269320bfc3b84c733775252ee002556b73635d81a53e47b0daaa84c62cb9bb326f8a351dc6dd44e9dedf85e03beb5e0328a894f4a12459bfa00cb22b83",
        "lib\/Sabre\/TrashHome.php": "2c800e2c2e399c6ff89d90a9b56d8051713f3e67dd8b26a96b90bee406d12e9718055fdf268999f3c7ba5d62a04f1bfa2d498afdbaf6d59ccdb4998f88e73c1b",
        "lib\/Sabre\/TrashRoot.php": "f2d6f7bda741cfe1e7231765e0be97fd955ebf34ee3b1d0a0c340a75ac925fc56f435df12cbbfbe4912bc353eeb41ca78aa79e155f0ce130061ef97e1fb50632",
        "lib\/Sabre\/TrashbinPlugin.php": "d0c7361ae4328b77a1f71fa30d75777781f641467b84f5573706c76ce6b58e20f8e9525362f03ed9772edf5c861b2d3538198473790f7338dd61367b5f5d812a",
        "lib\/Storage.php": "490a73000f12d816222052751debc42a7b85854fccf1a6536156e7e049a3072648886588a048c107ca889d8d9608851a493d0f656c5abc00a38b5bf21316125c",
        "lib\/Trash\/BackendNotFoundException.php": "448d34fb930203b449605092518fd597e994b9b3b00f0a6189da2b89a0b275896df8f8d0534a76041433926285e8c4a8d428021293d13570c93096c46d164bf3",
        "lib\/Trash\/ITrashBackend.php": "2f9c56471d44c5b14c35bc6fc8db4d116ce4e4bee7969ff840d61c92fbd389ec4be64e20a0cb88c7df27467f72be896558d18228b9e35ef9e6ff1b8074996ddd",
        "lib\/Trash\/ITrashItem.php": "ff1473bc64570ad9af3a22f3cb183777a261af433d9551225c9bf6cb86da336936adf918629b5f7959fb7119bcad7cf8c3a21b72fe23e1abf27cad39fadc0e49",
        "lib\/Trash\/ITrashManager.php": "e1c6466aaf014be44e94211729678c31698f62b5354a27fcadf23723b5df1efd388f81cbce394451cfbcf1132900ce600193d08099fc65d737a1dfb5e879d0d1",
        "lib\/Trash\/LegacyTrashBackend.php": "3076d936c3964c3de316e05c2e9d4fe2a62a18a1f378eb06eff4d0a5208d7231f91d478f59f70c0b8efd615a2707d217efe09dadc2a2f8f8ee3c4452ef049bb9",
        "lib\/Trash\/TrashItem.php": "252fae7ca047fd41c7e499d62be85f30fec4e52ec33b3a2fd769a5df8befdb260d2d23d3da3d6c3b343132f66d40deca778234e34b831f364f7f1f8b5989a5e8",
        "lib\/Trash\/TrashManager.php": "8c9538378ac4c2c6e25c268584168b21a501adfa45a2513c83db0f63f335c8a086c1d7e40f29a22338ef89ec2045760d4384c88cad52f50a8d2849fb9def1a40",
        "lib\/Trashbin.php": "42407b1e8742b5a6af5ffcc7ee5f180632fa1059f3cacf75ea5ee5729349a66abe87a9ef12834127c2f62190670d2e5f3224135802270f07dfa116962e142156",
        "lib\/UserMigration\/TrashbinMigrator.php": "7105cfa9acb4c2b14eafb02e439b1af05326b65681b644e921aa31a304223c63ea6662cf6026aa36847026f9459db84d6aefd4f699e21a20383652f685963821",
        "list.php": "726d479e1e6bd28425168ae7b36817f016ec215221d9858d43dd701345fb378769555512c33f65e79071456f2b85924efe631c32a3d0c2080e806325fca0ca5d",
        "templates\/index.php": "140208472bc341ec948ae0b1a4f819f7250879cf78c32af6690fa9518461416797e167ae44e27543587730cbadea50433cbf5faeef23b50cfd28eba00783e510"
    },
    "signature": "S7X7jCEgamsYKuHL63FafAo5beuw4n7otsMOxWC8QbTbJhZJJ57fzxtBLbfWdGRJzz7rOb49nsAi7i3CT\/Lwn\/2foHYBLoco0FD723UH31X6j9DbLDCNlq6nXyAR+LzLrzF6RrqfzeuSGpZejwwqyoVQDF+y4Onnr1bBCBdLUx4oXzIa8NPsGu0A6FeAvEKSqN4D6GlKIIxYRAT3xcpIf614Nr4tvHLwRjtU6GXW\/SF+z7v4BbBk12wYhWSz4AVLPE4xO97XdfuwwRBPj2P7InUDudr\/SQzXRZkJp7SWM9Lsu0KmGK8HkSIg2AwYluAd4sC8ywYpM7iLAI1IPBbJjQ==",
    "certificate": "-----BEGIN CERTIFICATE-----\r\nMIIEojCCA4qgAwIBAgICEAAwDQYJKoZIhvcNAQELBQAwezELMAkGA1UEBhMCREUx\r\nGzAZBgNVBAgMEkJhZGVuLVd1ZXJ0dGVtYmVyZzEXMBUGA1UECgwOTmV4dGNsb3Vk\r\nIEdtYkgxNjA0BgNVBAMMLU5leHRjbG91ZCBDb2RlIFNpZ25pbmcgSW50ZXJtZWRp\r\nYXRlIEF1dGhvcml0eTAeFw0xNjA2MTIyMTA1MDZaFw00MTA2MDYyMTA1MDZaMGYx\r\nCzAJBgNVBAYTAkRFMRswGQYDVQQIDBJCYWRlbi1XdWVydHRlbWJlcmcxEjAQBgNV\r\nBAcMCVN0dXR0Z2FydDEXMBUGA1UECgwOTmV4dGNsb3VkIEdtYkgxDTALBgNVBAMM\r\nBGNvcmUwggEiMA0GCSqGSIb3DQEBAQUAA4IBDwAwggEKAoIBAQDUxcrn2DC892IX\r\n8+dJjZVh9YeHF65n2ha886oeAizOuHBdWBfzqt+GoUYTOjqZF93HZMcwy0P+xyCf\r\nQqak5Ke9dybN06RXUuGP45k9UYBp03qzlUzCDalrkj+Jd30LqcSC1sjRTsfuhc+u\r\nvH1IBuBnf7SMUJUcoEffbmmpAPlEcLHxlUGlGnz0q1e8UFzjbEFj3JucMO4ys35F\r\nqZS4dhvCngQhRW3DaMlQLXEUL9k3kFV+BzlkPzVZEtSmk4HJujFCnZj1vMcjQBg\/\r\nBqq1HCmUB6tulnGcxUzt\/Z\/oSIgnuGyENeke077W3EyryINL7EIyD4Xp7sxLizTM\r\nFCFCjjH1AgMBAAGjggFDMIIBPzAJBgNVHRMEAjAAMBEGCWCGSAGG+EIBAQQEAwIG\r\nQDAzBglghkgBhvhCAQ0EJhYkT3BlblNTTCBHZW5lcmF0ZWQgU2VydmVyIENlcnRp\r\nZmljYXRlMB0GA1UdDgQWBBQwc1H9AL8pRlW2e5SLCfPPqtqc0DCBpQYDVR0jBIGd\r\nMIGagBRt6m6qqTcsPIktFz79Ru7DnnjtdKF+pHwwejELMAkGA1UEBhMCREUxGzAZ\r\nBgNVBAgMEkJhZGVuLVd1ZXJ0dGVtYmVyZzESMBAGA1UEBwwJU3R1dHRnYXJ0MRcw\r\nFQYDVQQKDA5OZXh0Y2xvdWQgR21iSDEhMB8GA1UEAwwYTmV4dGNsb3VkIFJvb3Qg\r\nQXV0aG9yaXR5ggIQADAOBgNVHQ8BAf8EBAMCBaAwEwYDVR0lBAwwCgYIKwYBBQUH\r\nAwEwDQYJKoZIhvcNAQELBQADggEBADZ6+HV\/+0NEH3nahTBFxO6nKyR\/VWigACH0\r\nnaV0ecTcoQwDjKDNNFr+4S1WlHdwITlnNabC7v9rZ\/6QvbkrOTuO9fOR6azp1EwW\r\n2pixWqj0Sb9\/dSIVRpSq+jpBE6JAiX44dSR7zoBxRB8DgVO2Afy0s80xEpr5JAzb\r\nNYuPS7M5UHdAv2dr16fDcDIvn+vk92KpNh1NTeZFjBbRVQ9DXrgkRGW34TK8uSLI\r\nYG6jnfJ6eJgTaO431ywWPXNg1mUMaT\/+QBOgB299QVCKQU+lcZWptQt+RdsJUm46\r\nNY\/nARy4Oi4uOe88SuWITj9KhrFmEvrUlgM8FvoXA1ldrR7KiEg=\r\n-----END CERTIFICATE-----"
}