{
    "hashes": {
        "appinfo\/info.xml": "8f2ff5f86d589475057474e689c19e546ba546d0714c6d262a2bfd15d9cf5624192d2f3c3a7ea2aa8a7998f36479d6acec293e0f648a25c2e4cb2c1ca5ccc442",
        "appinfo\/routes.php": "26c09e4571ae6f89c0be2cbb59a2a38e25ff20e13ddb66002d2f3654862719a2d8e8d287e00db1177662cd26201592b87f2e8b6ff40bbed5f9227b78d28638bf",
        "composer\/autoload.php": "82a557134aa912317835def89c4b1820d7371702cb5dde8fc359bc639fe43c3750507e810d24e372dd7aebe6c57e5a3d44b41a2d094fa4035f4fdc24aa29ee4e",
        "composer\/composer.json": "7cbf047bd6dba96c6bb5d5227352ce20b83875ef633dbc044f761dea5072df00c5f72b53ef7cd25da54f302a89bbb22efbfa854f669f68ede914d81d60455317",
        "composer\/composer.lock": "aba0413aa705be0d0570c496a43249c551836824e7a2b4673b51838fe0d9f425ddd07b6c4b95aa74ca549f58e90f2a7d78b51a2a3080749a5dc2e4a46d04fd1e",
        "composer\/composer\/ClassLoader.php": "a6884d84d11c4bcc2a53f86929ad8f519d5e1cda93724a3069df108b91a71345e59f2598cb0361ac0f88576fc03315a4158215b33e9609d8f07dbd3819754d61",
        "composer\/composer\/InstalledVersions.php": "733e68c171cb9e44868bb0f105850fbd0e4f225c67235bf30fb2ac5c3443c6edfb722d4b33aa91c82bb600e937cb6392eb1883694d41616e66969d7d42e23b4f",
        "composer\/composer\/LICENSE": "f3bb64009f41a425df5a9bbab53490f0eb9b74fa8d6aaa2f57efb928edc4ffff330260666edeaa04a91fed708c3663371cf01b284f3a08d6698aaef7a23f355a",
        "composer\/composer\/autoload_classmap.php": "8b9a259137fbb56a76805e4096fd52726b9af6de66ad0498b70535c91dc1d3413ba8a49f98fac1a2647a1a364ce6f09d2343d48a0c012e0515b06f3bbeae23ed",
        "composer\/composer\/autoload_namespaces.php": "5b2571f3b573a778d362b8c7412787b4084c7f27d3f5bba1585243f3ccbb0b9054e68522a22a1ad59ec11097b03a0e343865c0188c65b25f0a97e24e120339d1",
        "composer\/composer\/autoload_psr4.php": "0cd3a63a44a5c3c65be3a2fcdbf641fae03742507a934f9134ab37ba570f95c42c1dda5474af9dd9a613afaffeb4677cf85a6e452623b989494bfa7045c4756e",
        "composer\/composer\/autoload_real.php": "e42dd7da92f8569e57be0b1214873fca8cdda604cf6d63b7cd1ab249dcb1d2f0f4f4ff49bb7a643ce813327c70d6d5a8e59f6f3330fd9aea657d2bf9736964b8",
        "composer\/composer\/autoload_static.php": "17b18bf72d920a7c931ec3ecc7f5c60c9e16915f4ba685a4b0c2af3b11f30b8a9a28231fc08ca62f89f2f8b70542fbe8f188d60d15697f90596df84f5a9243a5",
        "composer\/composer\/installed.json": "0a3ed51f953eb945b970a8eb21957ca2beee4669c7d0d9be97b8259c391b60688f8abb78d4b1fae5e4e2ea5e3d8747f4d35f066a2605e9a76f5b45ec3f1da357",
        "composer\/composer\/installed.php": "e6858a3fc8f40144ee72d1ab87b5431a4f3246ac64d53bf639efeb6636392372bd10ba18a0b1cbaa483b8c05a1e35af769c457447ddb10af2cf00270767adb22",
        "css\/style.css": "9921123def91849cb7c23e91cc557122bf6849fc3c37f9c19847305c4a4c27f921612d564d02cbd62bed4012d38847210e3daff8d8c0a2bdad842297215f01c5",
        "l10n\/af.js": "b7d1622953be1ea2087bf986e82ebf7d012480b37f547823f7435eb105e2fb3d65a17d4340e2f622132cc4576d307e2d143c2954128d3d188e3292816353404f",
        "l10n\/af.json": "b0377f28d9d4e3c3cfd475ba47930805cdf28960b283b0780c3672e4cfc2ea1889c5310b69365bf66ef4c2bfe490138b90abaf4672c7783ede17b97c8cf9811e",
        "l10n\/ast.js": "68dffa05680a6c7f27e21282661792900762db94a77e707a8475c6f7b98069ec2801a7ad3322406d6f40119e6a9f02a4a7cbd3253bea268110323835215fed80",
        "l10n\/ast.json": "406edd4204498aa2f292d22a2752f1b39d2289126433c2acea7c5f807cc011adb281ee15a67471ea527ad00b6f35d233b15924daf64c966b0ff3e3843816d8a4",
        "l10n\/bg.js": "14d8087ef3baeb201651bf04cdd9434e144b0e545ef3bdae7aa3e5fe578f10465de8aa4d983f090bcce166a855621d947da4646aa13ed0de487027dd68b4a82e",
        "l10n\/bg.json": "0ee75cb852206d770b799156a29d9572ee6412b9e13ba0476d8bb028d35b2ba92aed7a26bcde9bc7bec2505ebf7e1ae3e05c1f7b0bf407e0b7e6f6bd9dfbcfcf",
        "l10n\/ca.js": "5d533ce8355c8c1e53dfb753df28fe6dac3ef396c78d978512deaa001ef5ed3e70d080c8af9b238e7a637f6fe9c71b5926632fb275de5bcf075913531c903176",
        "l10n\/ca.json": "fb07127da4613480b2d28aaea30d3d69cad8764a4341e2319c4bdf2d9da3921dc3a9b634d5f4d6a7392320ec1a91fef8b675a8881795f5ffb024317d12fdf4ff",
        "l10n\/cs.js": "7d352e0665801b7de9d1d355865b9ebd450291f55bf2db5f7247a3c5e16a1b9372b5efdfc7a4c041b7021db4e34ba1f16587510b8a23a454e6556536aea1ed00",
        "l10n\/cs.json": "73463326f5954072212856b47122b7f9d621d43b31be0ed30edfc8e19cde7d56ec990eda614934dda94c02198178bed2c143b85e972e883242a5cfdacc5e89a0",
        "l10n\/da.js": "ab5d8513a1bf5e7de7aaf1fbe93d052bb63d245c49ce522c4b3dc81c286a09b62bcead9c30f02fd53c8f8a00c3d7dec27ad9b2eee7600b9773efe55a0dacd453",
        "l10n\/da.json": "07db9ba7b1b0da50495f316231a1a46db5c7adec58ae1a1f9b2a682c48cb28445a11e90e8a4e481dfe49d01b982813cadf3953fa618efe8d7341b7edb1d2dc13",
        "l10n\/de.js": "e3549a29ba8e3b3394a35df7f2cfcb1ec38d2419de1bfce02c615b1d96938747890155c89863c23ff0408b986c27d398bbe902b6dc67a342d16cc5febbc2faa0",
        "l10n\/de.json": "b6987fa86ce377e35467110ee635dec05f1eb5c57054fc5569bff8b4d4b9898a9154447f87df12ea1d6d9b13887b4cdec4d393e3cc35fe6b7526eee7a59edf39",
        "l10n\/de_DE.js": "cce91f0c90a1aacaee7ea2dd2bc2e745f78183b443facfe34d4dfd77bb029a5dc4ca739a5eba1a2742ae242343da5ab9099f1a432e0c42488e39f7b691184860",
        "l10n\/de_DE.json": "2740851ad7e0899b31f2b52261fee9b3281bec12911ea8baf428daf85272aa118b0b605002f203256d62e80ec563624d2a63b77495002d0688a65d0a49be63ed",
        "l10n\/el.js": "eb20519d74e83feb4e19628abd208cb53b3b16fe9b516924826168bd27f1c646cf7c3c8c3acb8ca9f12162804dd48eedd300e2f4dbacbf066611969fdbaac6ef",
        "l10n\/el.json": "10d71f413b8ab4f6c274d7d6d3d27089fe2f936fc8373024e7bd0eb402d857a06e4dc17ecfdede124500c39f2574b9f7a127683a44dab40a6c2613cefd35bc12",
        "l10n\/en_GB.js": "473bd1682f189084c2de70085ea4cd89a95a2ca6e3c54d7774561f644289a9fe302e52a1ec60f6f41636375e914f7b8aef13d23d6e85bc6cd284f67f96cd39b7",
        "l10n\/en_GB.json": "d075471aff01922d579b4bdc4e0addc175fc5643008daaa790d354a7de1421da6c60562468c3f70b4a6dd365e05b2530bdee17c31087aa0a12083cd87eac7869",
        "l10n\/eo.js": "d91084aae230883c009663e325e77adabf3b8e790673461fe70192a78a230779572308dd363c81075a5e335b6c842389c4b9a5e38146d2923e358c37f2bcf2ff",
        "l10n\/eo.json": "58906cce9541393784204f0ae5262ebb19e530a1fae64367f492ea780398d56a937eba92313b845776038b9b5cb2313dd1ba69f4f65bc23ceb74886b77ad1233",
        "l10n\/es.js": "b83c21e999bb2a9168eaa92f979f06405072233e84d5ca969201f4471cb89ec38fcb88824e311f410503cd0e34ce48559749019858fb2658b9faeed9054bdeaf",
        "l10n\/es.json": "01c4e3422a25f60e9f832ba831accd4bda1fb4194f2bb5792e9ca377b7411a15d9ac2915d53bd19079c57ed4e6e6b561e90e4fdc83a9e3221b30aac0dab273d8",
        "l10n\/es_419.js": "92a067d8eff00b0c682ef212e5c2ccc14313c2071ceab94a87387fc97fa450e189bf948d037430e514efda0c041b7ab27dea5855cbaa35a28bd1399c4f14f71f",
        "l10n\/es_419.json": "2ce6f2a79143f2201614d74ce85579010f85af3f7603cbf2490209f7cc65add00caa7f0cce28a1fdd16a946627d84bc977b91fa58726364dc24eba6241c8cdda",
        "l10n\/es_AR.js": "138c78460dbe4564ee3da653989d481ee56443a1464147a3ea9bbc57b4746a53c456ea7dda2bfd7a5c68bd5c239ae8d7ca4b775a47887c2d73fa80985a6200bf",
        "l10n\/es_AR.json": "67987d147bcb5554d40f51ccd602608a1cf0dc801f3924c8176ca9b12e1f2e6ecfc2c4dc2dae2cd85139b77c1672b8eacec3622723796baf1cd9d3c73e38d562",
        "l10n\/es_CL.js": "d01431523ae3e5c9a5494c49570697c202cef19b6e8ad9b3afea7ca9968ba8ccb3e2422a94fb0bed9b70c9ea0511ccae4e147cef4fd176bd0a1983c4a0cccbc0",
        "l10n\/es_CL.json": "79d95bb33396f893df30762b9705bde6415535655a1c8d9693a816647e8c83b97f96b33ff70b2e5032a6262cc8e7a7b4348ac5729ed1ad5397960322fbefc7f2",
        "l10n\/es_CO.js": "d01431523ae3e5c9a5494c49570697c202cef19b6e8ad9b3afea7ca9968ba8ccb3e2422a94fb0bed9b70c9ea0511ccae4e147cef4fd176bd0a1983c4a0cccbc0",
        "l10n\/es_CO.json": "79d95bb33396f893df30762b9705bde6415535655a1c8d9693a816647e8c83b97f96b33ff70b2e5032a6262cc8e7a7b4348ac5729ed1ad5397960322fbefc7f2",
        "l10n\/es_CR.js": "d01431523ae3e5c9a5494c49570697c202cef19b6e8ad9b3afea7ca9968ba8ccb3e2422a94fb0bed9b70c9ea0511ccae4e147cef4fd176bd0a1983c4a0cccbc0",
        "l10n\/es_CR.json": "79d95bb33396f893df30762b9705bde6415535655a1c8d9693a816647e8c83b97f96b33ff70b2e5032a6262cc8e7a7b4348ac5729ed1ad5397960322fbefc7f2",
        "l10n\/es_DO.js": "d01431523ae3e5c9a5494c49570697c202cef19b6e8ad9b3afea7ca9968ba8ccb3e2422a94fb0bed9b70c9ea0511ccae4e147cef4fd176bd0a1983c4a0cccbc0",
        "l10n\/es_DO.json": "79d95bb33396f893df30762b9705bde6415535655a1c8d9693a816647e8c83b97f96b33ff70b2e5032a6262cc8e7a7b4348ac5729ed1ad5397960322fbefc7f2",
        "l10n\/es_EC.js": "d01431523ae3e5c9a5494c49570697c202cef19b6e8ad9b3afea7ca9968ba8ccb3e2422a94fb0bed9b70c9ea0511ccae4e147cef4fd176bd0a1983c4a0cccbc0",
        "l10n\/es_EC.json": "79d95bb33396f893df30762b9705bde6415535655a1c8d9693a816647e8c83b97f96b33ff70b2e5032a6262cc8e7a7b4348ac5729ed1ad5397960322fbefc7f2",
        "l10n\/es_GT.js": "d01431523ae3e5c9a5494c49570697c202cef19b6e8ad9b3afea7ca9968ba8ccb3e2422a94fb0bed9b70c9ea0511ccae4e147cef4fd176bd0a1983c4a0cccbc0",
        "l10n\/es_GT.json": "79d95bb33396f893df30762b9705bde6415535655a1c8d9693a816647e8c83b97f96b33ff70b2e5032a6262cc8e7a7b4348ac5729ed1ad5397960322fbefc7f2",
        "l10n\/es_HN.js": "92a067d8eff00b0c682ef212e5c2ccc14313c2071ceab94a87387fc97fa450e189bf948d037430e514efda0c041b7ab27dea5855cbaa35a28bd1399c4f14f71f",
        "l10n\/es_HN.json": "2ce6f2a79143f2201614d74ce85579010f85af3f7603cbf2490209f7cc65add00caa7f0cce28a1fdd16a946627d84bc977b91fa58726364dc24eba6241c8cdda",
        "l10n\/es_MX.js": "ae2d0f1a42a7ae2a916783242149c9475e93b3b602ff2cdedfa4207169c1f820fc5f175cda6b477c1d9754365d5d0f8491290991908e366d3c33b8ff0cc7a9d3",
        "l10n\/es_MX.json": "99160f5ccb74560ae80d2d8fec70b2c99d63ffcdbbe505b3f5aada2d21ffa01ba9ce5f7b2b986aac128b745e995e7347f9ad931273778c34ad062325e56e3d04",
        "l10n\/es_NI.js": "92a067d8eff00b0c682ef212e5c2ccc14313c2071ceab94a87387fc97fa450e189bf948d037430e514efda0c041b7ab27dea5855cbaa35a28bd1399c4f14f71f",
        "l10n\/es_NI.json": "2ce6f2a79143f2201614d74ce85579010f85af3f7603cbf2490209f7cc65add00caa7f0cce28a1fdd16a946627d84bc977b91fa58726364dc24eba6241c8cdda",
        "l10n\/es_PA.js": "92a067d8eff00b0c682ef212e5c2ccc14313c2071ceab94a87387fc97fa450e189bf948d037430e514efda0c041b7ab27dea5855cbaa35a28bd1399c4f14f71f",
        "l10n\/es_PA.json": "2ce6f2a79143f2201614d74ce85579010f85af3f7603cbf2490209f7cc65add00caa7f0cce28a1fdd16a946627d84bc977b91fa58726364dc24eba6241c8cdda",
        "l10n\/es_PE.js": "92a067d8eff00b0c682ef212e5c2ccc14313c2071ceab94a87387fc97fa450e189bf948d037430e514efda0c041b7ab27dea5855cbaa35a28bd1399c4f14f71f",
        "l10n\/es_PE.json": "2ce6f2a79143f2201614d74ce85579010f85af3f7603cbf2490209f7cc65add00caa7f0cce28a1fdd16a946627d84bc977b91fa58726364dc24eba6241c8cdda",
        "l10n\/es_PR.js": "92a067d8eff00b0c682ef212e5c2ccc14313c2071ceab94a87387fc97fa450e189bf948d037430e514efda0c041b7ab27dea5855cbaa35a28bd1399c4f14f71f",
        "l10n\/es_PR.json": "2ce6f2a79143f2201614d74ce85579010f85af3f7603cbf2490209f7cc65add00caa7f0cce28a1fdd16a946627d84bc977b91fa58726364dc24eba6241c8cdda",
        "l10n\/es_PY.js": "92a067d8eff00b0c682ef212e5c2ccc14313c2071ceab94a87387fc97fa450e189bf948d037430e514efda0c041b7ab27dea5855cbaa35a28bd1399c4f14f71f",
        "l10n\/es_PY.json": "2ce6f2a79143f2201614d74ce85579010f85af3f7603cbf2490209f7cc65add00caa7f0cce28a1fdd16a946627d84bc977b91fa58726364dc24eba6241c8cdda",
        "l10n\/es_SV.js": "d01431523ae3e5c9a5494c49570697c202cef19b6e8ad9b3afea7ca9968ba8ccb3e2422a94fb0bed9b70c9ea0511ccae4e147cef4fd176bd0a1983c4a0cccbc0",
        "l10n\/es_SV.json": "79d95bb33396f893df30762b9705bde6415535655a1c8d9693a816647e8c83b97f96b33ff70b2e5032a6262cc8e7a7b4348ac5729ed1ad5397960322fbefc7f2",
        "l10n\/es_UY.js": "92a067d8eff00b0c682ef212e5c2ccc14313c2071ceab94a87387fc97fa450e189bf948d037430e514efda0c041b7ab27dea5855cbaa35a28bd1399c4f14f71f",
        "l10n\/es_UY.json": "2ce6f2a79143f2201614d74ce85579010f85af3f7603cbf2490209f7cc65add00caa7f0cce28a1fdd16a946627d84bc977b91fa58726364dc24eba6241c8cdda",
        "l10n\/eu.js": "6e71ded63d2c13d2b446422fa047bfc5b072dbc8bcf44d0e2f70478b80eeb5d747e6e695a7f9c1e4ac4cb3971d5e53d0255537164a89bf5b6daa77346df53b1c",
        "l10n\/eu.json": "b1257424d4daeeda5e9cb16fbb2acaf60d7e6d38a0bfd96880e4fc5630baffc086326be526caca6a7b4cd4d0307a1b1e92a4bd4b4911b467603d019690e28af0",
        "l10n\/fi.js": "d9cc09008b0f8691257cabb17d6c6668dd16dc2d5537960c0cace7b23bbdbb0fb16657b8281e9d5f2a6a1bf36d4604cde1169c4951e668fa343dd5fc0ab85b6f",
        "l10n\/fi.json": "eb1ff92fa508d7ed765ecfb0f9bedc18838826015518503e8439d4730854fd54e5da3cac3306f90b8f0bb573a405ca437aafeb083b91c29b72de281780a88b81",
        "l10n\/fr.js": "bc8405dae1efb28b3fe3fb81361fd19c2afdbeee41579a9cec6c67f763c1b58f7fc12da0dbffa9ca636a714bd8437f9325d978103a024db688b738ab581ac82d",
        "l10n\/fr.json": "b9cdd72e6fc9916193687f1dcd2ca954ca1ac07ae98cb53b307980e9df13114b342b6f749725715f0528643f4e323e61e718e9845325c060103297cf8a6c9b49",
        "l10n\/gl.js": "9569e050f1f240e27327a59e1d01a6fca0cf8d390b9f3a7f2412bd3bf49ca2f238e7401b6c891f99392da8831f7be5a1a62c5032015bce6b4bc3de266de79966",
        "l10n\/gl.json": "2a483594f7d01049c728dc920c51e6ef014dac68b655359b877367c0a5e0ceac70110518637ac2242f72238dd2bb483eedd34acf0e74c0fb12426da67613398f",
        "l10n\/he.js": "b4967424a4e1bcf777f1bb3974a584a577d4449f60860045b7b9991a8129e889fce4cb9ffaae19a39481dea29f7c3bfc7703f07231cb61192824a7d34f3e2c75",
        "l10n\/he.json": "e655533f0bb6845b65605c09c39de20cd8a892671eae7249c43639eb071fb97af9311d300f1e1330e6ea3adf9840300faeb5236c5b4fe5ea330c0868fd541a0c",
        "l10n\/hr.js": "d3fd673d1d34bf3ac0b7f6a3ba19fdb224f3d937fe4015b55195685d209ff2c231891a0583967c2ce0eadcb31feafddeecb3cc9cd873db73179696668ec461de",
        "l10n\/hr.json": "8b4d4119f35467b804e44210e8ca461eb9dfb8030357e1db9b97973462920547df957def4b5d1de8b7b80eab762dd8c92949229405f5a9702537bac133a9cec5",
        "l10n\/hu.js": "42a35ee78f28be751305015c3c03bca3e17afadfa87ce3276833c79d6960a66aca4c2008213e6f8bfabba3afc012f0f36211693c69f34480a13f4c3cf6b07f03",
        "l10n\/hu.json": "8eb78c41a332a9df5aed98c9bd7284e00820e3329e291d970765eff04a853e8a2ec1eeacb340eb5a10b5c33aa31b2d6ff6cde14e7f78528da7d4909596d880bd",
        "l10n\/is.js": "db5346e5761d369312eee3ee273a62c202b7baf44f07f300f4c89cc973af17271247ee245c8f5606e1b276d899019fa83f939ca3cc49e52e59fca631c6cfbbd5",
        "l10n\/is.json": "2b5d561a01fdd05bd0ef961760b6911625a67f90c7583b5bc8bd317debc0629884e973047fec3f0b4cfb8ed206760eab5bcbf2a742b61bb0fd1fda2b0858dc1c",
        "l10n\/it.js": "40ba9f40aa2ac86d6260b3d92be8a995da9f1825bfe5f8af647f302f3ed6cf1df39ba78843be2786652c83e3b41304d2b678fd20ae03b82d67bc94b1eed0f141",
        "l10n\/it.json": "5f4c21da4d454c7be3beb08e47bc9b67cf8db8b2861d926410ade10da57921b8be46b60b637b6c2c215e677d454e3c866709bc9eb69220b0dcbbff8bcc7de875",
        "l10n\/ja.js": "8eb6eb1246449bdbed8ac2b5c499261e427416781078c4bad9f57991f52bf82afcb316f12f3571624985101d807b1c7d0d82aaf3e3081f1dada97b40570c7b62",
        "l10n\/ja.json": "4dcb08940eae3d2651e23f79c39e21951bc42c2213da161aea7687b31eca15f10dc4d3d0001154d63d2049bece88a19cd25a11ce3d95614b3e8b4f1fff34599d",
        "l10n\/ka_GE.js": "ea999b3063362156d3ba676cbf161f643765629e54dfc1ed6010b95065f9d1119a16cfb83913e5d7520e60fca38ac6264f6b91459040075a8c1ec8adaf7b50cd",
        "l10n\/ka_GE.json": "20b066b4e1a5aa36fd6fb6103f8b80959860fae915f42d14905987ed046a1ecdb57b6529cba0b96fd85e2054721598af62ba0f972354d5c6d1080b5a25425ab2",
        "l10n\/ko.js": "bbba600e97a27f2a0378fdcc0a7a661f8783163bd73ba6179b08800e2a9430cc988e610c7a3050f878ee8f902b1a1e38aa95c50db7d5ccd953b9cf1112718d26",
        "l10n\/ko.json": "f5959d6d49038eddf72c24d722c6c1c8c426c4a770a3cf2c417aa64559533234e0963e4419da708a9f687ef5b7ec4f31496642ff66915480dbbaaad01686e3e6",
        "l10n\/lt_LT.js": "266b872de35fe76168252541e1b42393a0b3f6bca32c1085d4254c26c76c4a32683720bc4eb01a1eec43ff8c3d115bdc803bc83b8a11ddd452c470ea6d3238b0",
        "l10n\/lt_LT.json": "9a8507be46c41ac4d9b12a59ad0fdd20aeae79908df803caf080021990840d0c892dac5f5bf192b6094880dc77a02c86bb4bff5083168e57678d1922ebeba438",
        "l10n\/lv.js": "96ca3766620ceab7e7b14976e692bce33e2ea1f29ea32c3244343ff2823686a9698ed8c673d9beca41b2d1846897c949f5fc0b3708b9dca6f5bce588c4502663",
        "l10n\/lv.json": "02bbd20fd73cc680c23c06a18153f9ad5becde36008378fe42605d7ffed481c722914e69231d7f46bfc94005b7ccce9802b6b7dece55f3ff60f9d92f748789cb",
        "l10n\/mk.js": "191caea3dae26c30db7e03f7da79f75f79fab9031d1326edb1f551919ab1f5d0d82b341d10f7e4a2168e3f9c9c89f3e4fa6809d86f094c316f0fedc16cbb4097",
        "l10n\/mk.json": "e76990db043e9f35df807985584ceb8b45423fe60a741e85c8fd3b4d15a4feacd758c13ab8efff452990168f58baf3f101801baecdaef41c60dfad89d82e89bd",
        "l10n\/mn.js": "12cc3f3ab60422211d277df2177ea8e608f3ad7469925551981eed9ef50b9a7973db1b2cf402ad6ece32622bcfd54e3f89a724f29850de57106a279d8b868df3",
        "l10n\/mn.json": "65a52d3bcc7f8099f9a153ae1418bec10c1625f7ee4513829604d12a56e18ca4308ec60c8684da4d1c32ac6ababba5d20c6422fdc61ee0b231fc4bbe23e309b7",
        "l10n\/nb.js": "3e2c2b26256487eeae76db02153c6c233ed74eaf10ed950e61a6b30fa97bc2c41472bac8165cffc7d1b9f5b4cebf78ccecf8c83729243347924fefa82c368c16",
        "l10n\/nb.json": "f2420ef938056cb0103379733709cf09a246fe1dac9d4b5d8a36fcdc50be8db62bdc0a1cbff8c7bbbc42e306e79091ffffaa34126a751e1709942cca1bdbc88e",
        "l10n\/nl.js": "41d97b9551e6cfc4f6943145a9dff30ac5ae32bfd5cc019363e99bb6af7bd2b70dcbf486d5649184be736feaccd5436c97adb2633171c9030c76cb90aa2912ee",
        "l10n\/nl.json": "c16c803b85e3c76316a6d568686ba5aec67d6b36b4ac65506863b09cb7618d1cf6e5e2ffa42b0bfeead38de1a54cc7747c81a9eaafcc20864ae7b923a0c77361",
        "l10n\/pl.js": "e955bf1459a3b4140c9131dc9ad0f83cae6ad5c22f9c1c5dfbc047f7c48aeb93659a4df423dd7984f4bad4160fc7d96ef039c25b05b40bd79081a100b8f617fa",
        "l10n\/pl.json": "2072bc69c117e71b76d46a03d55f9a08330ae7048261082c81aa64dcfefefd75c8c0fb6caf4eb7cd72a2dde375791cbfb46fec0e175399db86bf62e8d70c897c",
        "l10n\/pt_BR.js": "de5676287a49c7c06650d49f57fad6dba33bd62c4c8515ee81c65645a55b36ab374b746aef52c43fdd99c43cc118edff1e3bccc1545578571fb90b45c13e232c",
        "l10n\/pt_BR.json": "8f52987e47a8c2bf62a034a4cb37c0b0aae20f09c25311be1fcfd47d701453653521488d7eb3d7166c6ccd6b5f7c62892eb70b1f6f68d29a56b437f9f18f8303",
        "l10n\/pt_PT.js": "60e9757d3bb3a22f981ac469409e83a4c510bb942392c7e5a4fd445782b995a5fb9b99dbb59545e16f4c3b7eb8487f3db08cba8cba8fdca7dc107b266effd47a",
        "l10n\/pt_PT.json": "aafb8a8dd6bc8af22b9b133aef9468a3bdf9ff720d6f5279ff8d7f1e9da2039c9cc75294db09f3e21f91c2f6b0b83a7a5d5ecf7cad452337db1358dcd904d167",
        "l10n\/ru.js": "9fc31cb582134fab8d717d35d37af4aef6188e2491b9d3c3b07863f5601004d44abf7f3e26a83b922ebeb133d140c3cd4b0a33d2603335627005f88b552a944e",
        "l10n\/ru.json": "11efeccc8b94b35b82be4861d967a14701e03b126e247a7a56401844a0361c0a02fdadbf2b8dffc2c337ab75b2dada50bf63b64f97ac72445b2b4718c52b90df",
        "l10n\/sc.js": "b64559c2c5c5f4b5eb6bafbd392cc7d432bc6090b0470b7218030faa4702a533364fda4c9de5d31368c53e622b5c04e3bde27f0193e8ffeb2bd82b56f84b8433",
        "l10n\/sc.json": "94c19528084456e82ea4b9e14b8bcef74332b96497bbc64634513cbc2fd6e86320df716c5295c9a456e30d768853f39ae2d0c6a6106de345686e9186afd2c575",
        "l10n\/sk.js": "55b96436dc3934219d816bf16e446b724dcea97b8d4202e129f98b3019b3c6aa3cf0a5af98d9f8931f24ff916096afa286f967b62ac71967ab740a427b167632",
        "l10n\/sk.json": "18103365bbb56d72b5500ae3dd87673293ef98ac30b208dedce012b6ca879698a118b42dacd113cebbb8c505704b7da8cd5f532647b2fa0ce6d274a997a60c49",
        "l10n\/sl.js": "35580157c42d395ebd0db86ce676d3b288ae27624d6610b03bec5f39fb287aba55a65df2677d6beae1e7d62657649d1b66d75dbb5c7a955a476b3fb4493dd619",
        "l10n\/sl.json": "1490351f8c85810708a9e692ec96be8fd2470efb714ccc5dab6a212cbe4283ef06d823e46b4d8dfb373381b1938d834bc954b9575d2391767e96f3ac1461278c",
        "l10n\/sq.js": "aa50e1190aab787ae8683a448d336f9aa897bd3409d16ed383002ffe1278881afbe96663c92109e89eb79e2a8078913470ae81fc2f7d3ba21ca2d3a1944b07ad",
        "l10n\/sq.json": "417f81edfe97d699a76d1cbee9df7db4cc07e60f2f7301293a7d26cbc831e7fee75f046d1fc7cb2db4a85dc380905e82f0f5b8f7250d42c58256a33d045d1c21",
        "l10n\/sr.js": "19fc7ef8ff0f8a0e7ec3304d6fab432ee8c7475c1920c3f83c3ff4bafa55e101f15ef6f77b726e3d03e252cfd6b3edade8a6461457d0379be6ab549c2e03a456",
        "l10n\/sr.json": "b26a87aea8c3a0c940e5ea8665cd77a815119168f51bc32699d1c239b7b48d183b838a4b8b125d14ecdae28e153f622c47ee19644fe0c0258699d99e7ae935b0",
        "l10n\/sv.js": "b119098f6a6fe25c485b1c02a5bedd5e94e45b55a05e211a777a1af7d8b9de852d4f32edd756b667b5f113bf11c558c223dba8d628591c7608a5ff1c8d4ba39a",
        "l10n\/sv.json": "96cc5d923fd99a4fbaea0720c1f2417ae2a4c93d36c1bc193ce19658ab222d0938a6cbec87ead98e3080a70d62a38a200fd67c7e15d0038f605ebe284027ed1b",
        "l10n\/tr.js": "372563c785546b49921669c3be537573e7af5f0f1454c47ab6d5665a8f3707a496b0d02b1183a4c21b070355eff2f1b22ce0c96a2e8041e40e586a3c7fcbd71b",
        "l10n\/tr.json": "395c482d29ddda24aff66ad6ee835b4c0a7f762b9bd02098f622f9bd83ece582425523804027e0a2b5a59a27e21533eee003278e3d7aa816cdd6287ab208b32e",
        "l10n\/uk.js": "6263b813892099e661c33a6aa6d8fceb9e9ad731a8d7035503dde13a22eae546e018f9fdf2688b640c9765a81d22aa9fecf34c5d35120c9e789250d7f2922cc7",
        "l10n\/uk.json": "e7a59697b12e6cecd97f5f12beb3be90892ee3bca00bde18e4cd9e119be88ecc1998bfba9f99b87e1549b363c31949eb2ab7392aadc880caa947337ae3a92252",
        "l10n\/zh_CN.js": "b644fa3c43adf332261675715faea18a27a65b42549e2a621ba3db00f657401d271f288b51e0091f6731e7a5c1cb21687bd1455007a53a9c461001ad662530b0",
        "l10n\/zh_CN.json": "b0c80c3d869a7e49e4b77bec3135f26cb34d465eeddbb333b298d96d272602035349e533b5be0f9f8ac73a39296cc25b37f3983e74f47714b9a6ae4d04f3b281",
        "l10n\/zh_HK.js": "5bb4cf21db867a9f16d19e1f6f2b1dcb8ea960ba4ea5381e2d3c44e8d91506685efb2b3419d09b3b665cd59bb66c20d21b84d1c3258f096e7d4babdbd7d7c75d",
        "l10n\/zh_HK.json": "65d474f7c5aebf3a9b4549560ca65cc91ce36ba57487d96f4982424422855c3d66b6efb3b2e152faff619d0e5091b693e9b331a0360c7695967e980bb67268cb",
        "l10n\/zh_TW.js": "651ee21e7c33118c8913cecd3aa63cc880abaec51d7e18959cd0db62685878f53f5bfd2c7e567b71f199103ec5b050f13748ce33785a0dd81c9aae3ede9c40a4",
        "l10n\/zh_TW.json": "5aad67fb6bab1c9b3bd9d76d649d52a3c237b8cb60f92b3082f7c219aafcace479e6a22ac87f9c2b0359157b562c1fa84b9edd7e499a9160fa644926150d97bd",
        "lib\/Activity\/Provider.php": "a0bb04283602f9e520a62d8f7b099ede799524135d607ad3ccc9ff9ab8d2a2df8b2b7f6d5e87639934e5b351e351005aac7a956dfeb513d9c88e0d9385f5b925",
        "lib\/AppInfo\/Application.php": "832e6fe5abfbddc167828cd516f9b2a3691bad8e9ed13fe2d7cd1bf29ca621d7243d8cf87555270f62ebfbae706a3f25540db03a70ba7b9c4e9924a5fe26ec9d",
        "lib\/BackgroundJob\/CheckBackupCodes.php": "750435379cefec056c2f7f6d4dad5c686d1854752934e8fa8016f3c6d552e5a0087aa7e6e37f37fe77bdeb011c4d9d40c50b138d6b776816790a572b5d60aac0",
        "lib\/BackgroundJob\/RememberBackupCodesJob.php": "d5a2a92958d763230e03c3c6f1143189690dba7add6717852a2a529b67dd83451b35b8d3870029eba850e9bcb1f31b53bbcd080b25ea0736ede93a8c8012927d",
        "lib\/Controller\/SettingsController.php": "c16b8e9ce9f67a5ae769bf869a2d92ac90c160ba239e9c8a64a10cbd46dd8843ace7b1fd7712053820d35fcdb1f05510ad4c5139fd7e113ac0e179bc1ca5e43b",
        "lib\/Db\/BackupCode.php": "d75041f16fb9c9dacd372caa466ab51829ecc3fcff7056f40dc487185c926f9e79c53a65644f4777df50453b51c3292e7052c233f126a822f2b5e682531e6b3b",
        "lib\/Db\/BackupCodeMapper.php": "d770b7357c79bf4b92dcc11fba037fb909bebce41c89999cbd21836c7b5f395f1bc4e5a554fe4e9309f4a148bfbb748b95d0fa68edc3b96c499ed2ed35c6c79c",
        "lib\/Event\/CodesGenerated.php": "fe412b6e31a9f9e1323b43027bb29ac1089a7005da0af13d318e482ae4733c9c415d26c55dfe026e5f3bbb7cfcbbdde230700e327cf810c66b6a6bb9f7f24452",
        "lib\/Listener\/ActivityPublisher.php": "239165a696c67085547bdffdc87073e2dc4c878fb43fd1dae90f82626c2af4cad46cbcffa3bd388f9b6165eab12c65512cdc2dd90ed13cb8f2c642ac4edca13d",
        "lib\/Listener\/ClearNotifications.php": "4fd07a4a28a6b6fa780ff1642153af77be6cd2224c6e65fda4eb0aeab8819354115c580702bda5e7565a3eea6ffef64fd9f8cd42aad22fcb6fde7604937686fc",
        "lib\/Listener\/ProviderDisabled.php": "b42f924fa4b8cb0db5eabb10f64956a88e7ea693a8315d66d1fb14e65ea97bb64f9eb43696e48b4aec2776615635b0b07dd9b7cde1158580bc3043f17163e5f1",
        "lib\/Listener\/ProviderEnabled.php": "a97a755d9eb13ea4dba42fe17a8c8ff9c2c5ab6bead15457316fc6740bc27aec923729b24a762e2a2863e5e380ffa768fc0cece9c5848b1abc8a04357200251c",
        "lib\/Listener\/RegistryUpdater.php": "3df48b6dd624acbe9b3e8f9089fd57282308330ac104607ecda8d2a2beed45945ba9a2f2e2b28fc5ce6dd73e5104899c2cf1ecfa7822615d30cbc0dd0d499e9d",
        "lib\/Listener\/UserDeleted.php": "f0bbaeaec6a18aa6e563bd4764d1188d2d4868669b47256129f3a829e912ec7525ad513f5aa4804943eedc52e770066009d76a4d4e5d5cc934564c72e766c523",
        "lib\/Migration\/CheckBackupCodes.php": "7879ceff5d6ab5f5dd983058c66f525438ded75c270132b36a185e8e29b9294d44f644225bf50c286a1055b02b8ff357502ed7f75ae51544a0cb26536c5470ba",
        "lib\/Migration\/Version1002Date20170607104347.php": "b0b882f38272e863556853058cc5bd2d0521aed54121fc84482c2452bb59c55ada0ff893254c8d28745f86c6681de33116a434f4b59b57a28730701f790bff68",
        "lib\/Migration\/Version1002Date20170607113030.php": "bdfa230ed8b03864570752c55b15845ec839d32d657fee6aab29fd28dcdae8f84b9c8a1fb20a53a52b289d876f41aa21d083af624bdafcbc385a7f130bed2e72",
        "lib\/Migration\/Version1002Date20170919123342.php": "2f599fbc4301f8c52b35e810a04f8670da8499482341863df7b2987044ecabfc4836d8f4b472d8bda66b520b3268a89c83c9ecfc2ec25e2961e7c47805570321",
        "lib\/Migration\/Version1002Date20170926101419.php": "f994c63ff2a14429c92ad5b88f69bf6cabb7e1971522f485abc7ac876c083bb74e56baecee3e61a8a89fe33a557da4bd2ff9fa6a86720519bb1aa2f4a27b7771",
        "lib\/Migration\/Version1002Date20180821043638.php": "d32e429825cca0141f591683ca5180e209e6ef97679fca6a5d307be112fb1eb31c63166af0f0fccc90e4290ed903daedbc0c7354856cf0a1f7721986ff98b9a4",
        "lib\/Notifications\/Notifier.php": "69615de6c1d2c5a236707510e771b6da88903030e7cd8058fb8b1f618c45d60d65862482d902a55ffa2ba3011e35bcb71b0e46d644514466ea436381eeafd4e3",
        "lib\/Provider\/BackupCodesProvider.php": "06926085633a68452ec2391a8b374e869fd123cae08ddc01b58c9930aaaf6f7f00e9effe72142f792e83e250482f3962c8f22abf5675b2ce0ed1001b6e5f2641",
        "lib\/Service\/BackupCodeStorage.php": "c61bf8cf8be2c414686a0c77aa2413ec81d52a1797233f8aafff949d6c76765f8aed3983f7921f56346c91576cffc59099e20bb45bed7b6d9ea8f1f22c31291a",
        "lib\/Settings\/Personal.php": "d7ec30b042e36eca015a8c57be5d48384a2ec113553d5c1700d81028f6ffebfab0ddfd49e678cc68d67af3d0ea0c20623cf34ed314e04ed797f29d5ffef440e3",
        "templates\/challenge.php": "143a9d044b950c8f7a2b9831dcca8cef79c4ba43e8c2d768fd3ed5c1fd9eed22a0ad38da0c092b761480a902055f6277327c16885a6ac378fc11dde353d02bb8",
        "templates\/personal.php": "2180a3f15ec0ae18b9d7091c95f5ab48f9e0e9db70594e6bb412dfa6fe384990ff42a621906d616ee32bca09d483341c6cd181e0ef11ecc6fb3569c5d173837f"
    },
    "signature": "N02lrrcA9TdX25fx+XNaD\/8wGV2SolBxdRHSsud3\/LlGRxVk12iNA2hszBuD\/2m7IJFVmqmyI2p4TiPSzq9nfifmnz2KSk9aoaAu0lth0gl70R0PfgWPJfv2Lb16ywWvfzMxa0+rWNGGzVXU2pWkRfpLjrgHkMux7CHs7gQJRoMdTpLPv8aj\/fjFWaqW9DbMWu\/UXSNi2ik81M7g5lqW21H\/JyAnTFtvxM3rggEtNlghM\/4LdhNIcMc8MgFr14KnZjaqn6MzdCHDUSWiUAER51WGVYkM3bkzE3IeKw79qpSI+wf2GXkGKhPSQDadG9HMhlBU7YVoiN0eO7zHsf1pQg==",
    "certificate": "-----BEGIN CERTIFICATE-----\r\nMIIEojCCA4qgAwIBAgICEAAwDQYJKoZIhvcNAQELBQAwezELMAkGA1UEBhMCREUx\r\nGzAZBgNVBAgMEkJhZGVuLVd1ZXJ0dGVtYmVyZzEXMBUGA1UECgwOTmV4dGNsb3Vk\r\nIEdtYkgxNjA0BgNVBAMMLU5leHRjbG91ZCBDb2RlIFNpZ25pbmcgSW50ZXJtZWRp\r\nYXRlIEF1dGhvcml0eTAeFw0xNjA2MTIyMTA1MDZaFw00MTA2MDYyMTA1MDZaMGYx\r\nCzAJBgNVBAYTAkRFMRswGQYDVQQIDBJCYWRlbi1XdWVydHRlbWJlcmcxEjAQBgNV\r\nBAcMCVN0dXR0Z2FydDEXMBUGA1UECgwOTmV4dGNsb3VkIEdtYkgxDTALBgNVBAMM\r\nBGNvcmUwggEiMA0GCSqGSIb3DQEBAQUAA4IBDwAwggEKAoIBAQDUxcrn2DC892IX\r\n8+dJjZVh9YeHF65n2ha886oeAizOuHBdWBfzqt+GoUYTOjqZF93HZMcwy0P+xyCf\r\nQqak5Ke9dybN06RXUuGP45k9UYBp03qzlUzCDalrkj+Jd30LqcSC1sjRTsfuhc+u\r\nvH1IBuBnf7SMUJUcoEffbmmpAPlEcLHxlUGlGnz0q1e8UFzjbEFj3JucMO4ys35F\r\nqZS4dhvCngQhRW3DaMlQLXEUL9k3kFV+BzlkPzVZEtSmk4HJujFCnZj1vMcjQBg\/\r\nBqq1HCmUB6tulnGcxUzt\/Z\/oSIgnuGyENeke077W3EyryINL7EIyD4Xp7sxLizTM\r\nFCFCjjH1AgMBAAGjggFDMIIBPzAJBgNVHRMEAjAAMBEGCWCGSAGG+EIBAQQEAwIG\r\nQDAzBglghkgBhvhCAQ0EJhYkT3BlblNTTCBHZW5lcmF0ZWQgU2VydmVyIENlcnRp\r\nZmljYXRlMB0GA1UdDgQWBBQwc1H9AL8pRlW2e5SLCfPPqtqc0DCBpQYDVR0jBIGd\r\nMIGagBRt6m6qqTcsPIktFz79Ru7DnnjtdKF+pHwwejELMAkGA1UEBhMCREUxGzAZ\r\nBgNVBAgMEkJhZGVuLVd1ZXJ0dGVtYmVyZzESMBAGA1UEBwwJU3R1dHRnYXJ0MRcw\r\nFQYDVQQKDA5OZXh0Y2xvdWQgR21iSDEhMB8GA1UEAwwYTmV4dGNsb3VkIFJvb3Qg\r\nQXV0aG9yaXR5ggIQADAOBgNVHQ8BAf8EBAMCBaAwEwYDVR0lBAwwCgYIKwYBBQUH\r\nAwEwDQYJKoZIhvcNAQELBQADggEBADZ6+HV\/+0NEH3nahTBFxO6nKyR\/VWigACH0\r\nnaV0ecTcoQwDjKDNNFr+4S1WlHdwITlnNabC7v9rZ\/6QvbkrOTuO9fOR6azp1EwW\r\n2pixWqj0Sb9\/dSIVRpSq+jpBE6JAiX44dSR7zoBxRB8DgVO2Afy0s80xEpr5JAzb\r\nNYuPS7M5UHdAv2dr16fDcDIvn+vk92KpNh1NTeZFjBbRVQ9DXrgkRGW34TK8uSLI\r\nYG6jnfJ6eJgTaO431ywWPXNg1mUMaT\/+QBOgB299QVCKQU+lcZWptQt+RdsJUm46\r\nNY\/nARy4Oi4uOe88SuWITj9KhrFmEvrUlgM8FvoXA1ldrR7KiEg=\r\n-----END CERTIFICATE-----"
}