{
    "hashes": {
        ".bowerrc": "4c96b07cd5123913c8299bac758d228e4add547f6f76aa2a1f745f35c5ea642246fbe42e47011c576a779d5398c33fb689137febc4c040459a39a3bef2fd165f",
        "appinfo\/info.xml": "f56d083941ed1aadbc2e2fa3fa3cce83ca07b2c6f09a24315a69ba0a85b25378aa1f377fca27313bb64e6bea4634a6e1899b786aae30b73fadb44c8b6048b6e5",
        "appinfo\/routes.php": "d1789e046778006b9c67665502e899bfefbcc0e8964a4d4dd064170260ca5104702bcce80e80a57d3e827c68078ba4bef90ec175fea7cfe59524feadccdb33f8",
        "composer\/autoload.php": "357a1f345732b739aaaf94d7a9d110884b9dcf9efd598071ab9e4bbc31f4ce1c6ba900c9cfb7f650028f8c9bf51f57ff73875a3ed9f177974d32326950aa7dd3",
        "composer\/composer.json": "756c10a6d8a75c7c45306a4957906e32635ff25b175027289bc6042fb107b889de72d797dc5de528ebfaf5c8e6c2c156e43a050a5a9426d81b739183a7077daa",
        "composer\/composer.lock": "aba0413aa705be0d0570c496a43249c551836824e7a2b4673b51838fe0d9f425ddd07b6c4b95aa74ca549f58e90f2a7d78b51a2a3080749a5dc2e4a46d04fd1e",
        "composer\/composer\/ClassLoader.php": "a6884d84d11c4bcc2a53f86929ad8f519d5e1cda93724a3069df108b91a71345e59f2598cb0361ac0f88576fc03315a4158215b33e9609d8f07dbd3819754d61",
        "composer\/composer\/InstalledVersions.php": "733e68c171cb9e44868bb0f105850fbd0e4f225c67235bf30fb2ac5c3443c6edfb722d4b33aa91c82bb600e937cb6392eb1883694d41616e66969d7d42e23b4f",
        "composer\/composer\/LICENSE": "f3bb64009f41a425df5a9bbab53490f0eb9b74fa8d6aaa2f57efb928edc4ffff330260666edeaa04a91fed708c3663371cf01b284f3a08d6698aaef7a23f355a",
        "composer\/composer\/autoload_classmap.php": "f76cb63875bb4f37e07725fb40d0e4ff329f6ac9280689f1cb44417cdf92f91d2c501eddbd550512949b265bd5d3e10d0cc65f31311ab9bcbeff5d130026157e",
        "composer\/composer\/autoload_namespaces.php": "5b2571f3b573a778d362b8c7412787b4084c7f27d3f5bba1585243f3ccbb0b9054e68522a22a1ad59ec11097b03a0e343865c0188c65b25f0a97e24e120339d1",
        "composer\/composer\/autoload_psr4.php": "d093101fed648a79e0eb9e0dc21406b5b40d348a7a956c67cdd1766eae68e38e759354845c1dbaca667951486950bf4bf43e8aab6d8d0af19f22bbf8afb48d23",
        "composer\/composer\/autoload_real.php": "f3ea7cd8e6905e5fd11d99873d88486653a025ca13d8cd9129eeb502702edefe1eb34d171cbabf474be3e4fe52ea1c9592de577fcc6766b035a907d7163dc586",
        "composer\/composer\/autoload_static.php": "261862449d1c10a68c4ffaf12a0ed46333ab90475fa332500343028eb2ac16b4294abb062aa1c4e05c5a746b191fa8cc18d710cbf62fb17f66f0ffb8503a254a",
        "composer\/composer\/installed.json": "0a3ed51f953eb945b970a8eb21957ca2beee4669c7d0d9be97b8259c391b60688f8abb78d4b1fae5e4e2ea5e3d8747f4d35f066a2605e9a76f5b45ec3f1da357",
        "composer\/composer\/installed.php": "e6858a3fc8f40144ee72d1ab87b5431a4f3246ac64d53bf639efeb6636392372bd10ba18a0b1cbaa483b8c05a1e35af769c457447ddb10af2cf00270767adb22",
        "img\/comments-dark.svg": "c4c52d2d7a94b27e835d44c53728c107fb071a649e3ed5956a68d6ae690574494b5f7384032868ef1d7d3e0a8de7a7a0219e2ec7c982a8cdc45f133a816c7db2",
        "img\/comments.svg": "5a8aa03ff89fcab86fa6e36d0933325fc0ef26b0b5e98c9e0932907efd40291da24cd53b6f7fb12891e03ea0396ddb5efdfc1ca1588aa5c04c7edcd813a274a9",
        "l10n\/af.js": "6ab3610aaacd825877f50730e406c339068e23091bf8cdc5d9d01757e187763271e61e36f477d6446e0181a5e7acdf15b77d270a4ad080d0483336b610339ac4",
        "l10n\/af.json": "b4e8e8b52b670554b8ab3ae6be95545bf9edd001f4e4e0ea724f932d7bf798f6225b6000a25883aa5f202fa4ae2ec6d91fae8d937bd5b60108e1eb4ae7514431",
        "l10n\/ar.js": "7705167edebcd8200fa8ac2d528b13eb02180883f64066570fae6670d747a1adc891efba26616e5c9dbbae19a7affba0bc8c25f95ede11699b43d789a2b20dd4",
        "l10n\/ar.json": "01fd25b3e27a2c6e84fde96c38b18a3d73595f38d5213fffbbf73d92b644160113e9ead6af7ccf57a0a8ea576b55da72cac2e56ce590c4ebda7009b41b066d05",
        "l10n\/ast.js": "dbea78b1e0725d05332e3f79344917e2a9051e938d602a692882d6b5153c4c5b135836ca6744986f042ff9b701b5e2abdbbbf2d6e6225fdb56ab9f3e2c5abbe7",
        "l10n\/ast.json": "f67c29554cd5eead5f6173525580304d0328ff08e33f7dd9239cb5365560c192ff271baf3576ebc2c9524a9b3a5bfaef5beedcb1e000954804d5b706ee38c0ba",
        "l10n\/az.js": "5df32fe0584ffb7419b78a0568da32072a75466b4ec3ea1b56f6ef0ebd53db25594b38d046b1bafdf18ac5c54e95d3194ec2a16eba2c885a33bf6ea40b356aca",
        "l10n\/az.json": "9b980bd3f20a51c224063d01e416bf911d242f60e5a7ed5f618830984741eef8e7924a05ec5e4a842a822bd951c1343bc20f6a63031922d1de96a9ec2d0cdcb4",
        "l10n\/bg.js": "6d03f06bdc0b09c869e04a5cfdec288b3888e41f89116966966846563195afb708035b81b1c8b948119db81532da10eebbc932d809dc153aa431d5443401f3ef",
        "l10n\/bg.json": "e5a5197ea5988c720317e638ee7906f0aaf9fe56e2b17129aa7c5cb67282fbe0e682b8cf56ddb41272972df0d376e588cdad80ed6ef6b8051401f9029a76ba7b",
        "l10n\/bn_BD.js": "c43e3a12ce1181988d2c90b89adb829a5f2d46b3c403ade8f9051d8edad644884ce5aa50662f226fffc3ed6bb2be17c6adde9dd8f2d09863601d768b8e71afbe",
        "l10n\/bn_BD.json": "cc2593db77e2a3ead089aae70a33cc4720a30f56f888b409ec52b48986cfd2e80024ea7e724c9d1f75c122c46d49268a25a309139584c7304eea678cce5866f8",
        "l10n\/bs.js": "a42f116af44b0c1aa1a2fd05e487d3b99d4edebc92a5c569895f1c31f64ab02914538c348773a34cbf4dd4d982d31f4f8fa7bfaf6e9d34763d6fb2401a7a026d",
        "l10n\/bs.json": "8328be6e6d3faad4ca4bfcefa2950ddf56148f15ba69a0a1a4c004048e9fb05013933c47ea4e5d67c74e9c9c73c161da3933f8bb553e429c361544a907575b5a",
        "l10n\/ca.js": "995f0424fbbe492e8005970485ad65bac31d2e850852917c0b7f156cf2ce1154a368c9f1a4bd71c23f485e07f96247607cb91f70ca79c42aa0e0ff82d7dd7aac",
        "l10n\/ca.json": "f0664405fd01db25550f612785358289f2ba789de15a715f88cdd188909be5dd6b7e46c37328a0a78e6b6dac1aa7fce3e405391407ea0ab1ee5a9b07e7776bb1",
        "l10n\/cs.js": "25044491be6fe15d2b489ee9d4cb41aecd5fdb95dcce9f285692d4454bc6e232d3604c97d501a6f59f10c8f69fdd0e79b90a85dac6a09a9617f85770a07f7655",
        "l10n\/cs.json": "1f7a0d88dbe86729c2bbc27f6551c7cb4b595c69d7d0db45a3505b07d9556e4ef6ed5fd47697515ba78fe3440e7ab4d249d6dbe80842b01219c3affcddf980ed",
        "l10n\/cy_GB.js": "5d9e2fc99e8a2a3498100cb7cac728e097f829817690355364c8a100b6e5c10ecfd17b2c0a6f0a6d7cff4690a3c3f64c9288c7e700472272d7c582b6f61c8d40",
        "l10n\/cy_GB.json": "6c5b1b52bc41093f7306e9280e88d51ad7f56d42dcba7e969c09e05292154630f5f8f5bdc1d3eda2155aadd1f5ff3f702c940ffe92532c3186385e3acbb4e65c",
        "l10n\/da.js": "76ecb0e058bfb289a2089a13a967c18aed03862d744300b5e9ec17697af60ae6f1c87fccbc118017ec5f5a386af5971dca0eafadf1c1330fbf34cf9b79eece1a",
        "l10n\/da.json": "dbd8fe93c19553f4ed4fd0c834c9c76d1c2e0635ea12506b9e7e6f9acafadbcd8474928249139f8a2d2665b550fe6adf6c007c9093284bf839d621895e8a9200",
        "l10n\/de.js": "4c85ffdefa974e2effa9ee7e864422eab4fcddfbfeb4fc5406f286d73c77350708a6d6130b81a5a77e055b0e78b7037d61c39727af7db6418e442b4672fa6017",
        "l10n\/de.json": "e349ecd598943c8e3d801c7ae47ced046904a1ca06c29ca6f083ff96f1b9607aec09f4dae474ff7fad3ab8941779fd899de2a305261be69202521807ca4f51cf",
        "l10n\/de_DE.js": "a80c3166d86082547a2e75cc578c56c65653d6894c8c3ff6d82dd27c029ccc40d399110deacd3e1b972d11d0900964bc6ca2e42bdae3580cd12f8e2e4b3d5285",
        "l10n\/de_DE.json": "3c713ddafc1a407f4602bdd372ee4990b50efddd0ed1e06e029e31a30f78573c77481539a45b0617fc9bedbea5cebf52f94e42835fa3a56cedb0baa8935255a1",
        "l10n\/el.js": "9263568df8f386f8c8c4c27a5128bfa5c2b40c2a36b10466807f9b37c4f083a2200ef5773bf6221ab08cf7d052553d1ae7b97a829d5acbba5141456f7e745882",
        "l10n\/el.json": "ab07b4569eeecbafc24e0227c8966970f6171654917dc6a42c05f4966ab16421ca40c5b475f58abe0385a4c2948b2dabfc50931307b3492fc416d6c8a51a94ba",
        "l10n\/en_GB.js": "5851d309cbf0c1f3ec1cb15a479eca8d7f9faeb79876fadd4d35491df1594f4361d0a48beeb31fd1304cd98ad03be03a8be2515d22f5c14cc98f4cf0397325a1",
        "l10n\/en_GB.json": "18e87a1c2147dc01cbdfaf5703b29a5d1ac79b5daed6786d739e047ab6e46b2c074130d54caf6083428835e66eeafd57d39493871cb35472528c1e80b125af4b",
        "l10n\/eo.js": "08e75186f003943da6f4b3e9e117db60eb0f0a4bf9ef2f21da4e86f9b1a46866135e710e0c6f69bf41e59b3293086f5280b3fba70b5bef3a04cd004822ccfc13",
        "l10n\/eo.json": "87559565dde5728e9efb1cfc91ea5d36452b56236b50bc5f82423e6986ce9ad67b836f11fcb1c9228468a2b6a09fba5109d95232e0f57ff6e14f208330c69e99",
        "l10n\/es.js": "db996ebee4923fcebe76f90c822fc2b5174e88cfc54849a33ffccd9aef69891c58e6b5b59ebc3f9b1f22e05121ce71041f80fe224e9f94a1b112c05be14212a5",
        "l10n\/es.json": "6e7656fdaa3d49536a2606d3441620db33a83455f169513a273c014973efd5fdb6153127cb7ea45d36cea6c7b4ff17a96b229c38de07826eac7723ec03b72273",
        "l10n\/es_419.js": "0cfbb640817b301742c735ce59efd420f371b6b5d23f759d16240e1cce4d06976b83e72158d578cb68c89a94eefa943850a25913685dca015ed7e2708f0ba1af",
        "l10n\/es_419.json": "5bacc0171eff37f0efdc5110c24252e4d9829ee781766ce614047776b53e9cdd39a3f8684796fbb5ac92812deb36427bd89d04bb6a22dbb4591847a62399a9d7",
        "l10n\/es_AR.js": "fb1ff22f0adf2c8956f77410127e41b4f82445e24370563c372ff63d12ea00e688f1cf71592530d6f17730ecaf3dd05478a5db6ef2c421782fb87e61eb4b4a0a",
        "l10n\/es_AR.json": "5066a9bd0b80c384c281ff7f1baec9acd8c03383290ee263c08f0f28c3fdc6b30af70c5c917219baa21063439950cac6a657e2a354fdaa59e0a203a35493c240",
        "l10n\/es_CL.js": "0cfbb640817b301742c735ce59efd420f371b6b5d23f759d16240e1cce4d06976b83e72158d578cb68c89a94eefa943850a25913685dca015ed7e2708f0ba1af",
        "l10n\/es_CL.json": "5bacc0171eff37f0efdc5110c24252e4d9829ee781766ce614047776b53e9cdd39a3f8684796fbb5ac92812deb36427bd89d04bb6a22dbb4591847a62399a9d7",
        "l10n\/es_CO.js": "8aada9a5a1258b531516ffbd68464c10b5cf655c3a598e033e869c3ba6d0ec7ae54aae1e6d1a14bcd658df060e883e6314a7d3b66dd4bb4306411917f1c6448a",
        "l10n\/es_CO.json": "c80351e1e1628c4f31510d8cb178ee3a30c64227d922a66ecb411e49f09bb9ccf38f385be44e2cbb04b03f3f7deeacd27055490528fb4394808ec0853681eaee",
        "l10n\/es_CR.js": "0cfbb640817b301742c735ce59efd420f371b6b5d23f759d16240e1cce4d06976b83e72158d578cb68c89a94eefa943850a25913685dca015ed7e2708f0ba1af",
        "l10n\/es_CR.json": "5bacc0171eff37f0efdc5110c24252e4d9829ee781766ce614047776b53e9cdd39a3f8684796fbb5ac92812deb36427bd89d04bb6a22dbb4591847a62399a9d7",
        "l10n\/es_DO.js": "0cfbb640817b301742c735ce59efd420f371b6b5d23f759d16240e1cce4d06976b83e72158d578cb68c89a94eefa943850a25913685dca015ed7e2708f0ba1af",
        "l10n\/es_DO.json": "5bacc0171eff37f0efdc5110c24252e4d9829ee781766ce614047776b53e9cdd39a3f8684796fbb5ac92812deb36427bd89d04bb6a22dbb4591847a62399a9d7",
        "l10n\/es_EC.js": "0cfbb640817b301742c735ce59efd420f371b6b5d23f759d16240e1cce4d06976b83e72158d578cb68c89a94eefa943850a25913685dca015ed7e2708f0ba1af",
        "l10n\/es_EC.json": "5bacc0171eff37f0efdc5110c24252e4d9829ee781766ce614047776b53e9cdd39a3f8684796fbb5ac92812deb36427bd89d04bb6a22dbb4591847a62399a9d7",
        "l10n\/es_GT.js": "0cfbb640817b301742c735ce59efd420f371b6b5d23f759d16240e1cce4d06976b83e72158d578cb68c89a94eefa943850a25913685dca015ed7e2708f0ba1af",
        "l10n\/es_GT.json": "5bacc0171eff37f0efdc5110c24252e4d9829ee781766ce614047776b53e9cdd39a3f8684796fbb5ac92812deb36427bd89d04bb6a22dbb4591847a62399a9d7",
        "l10n\/es_HN.js": "0cfbb640817b301742c735ce59efd420f371b6b5d23f759d16240e1cce4d06976b83e72158d578cb68c89a94eefa943850a25913685dca015ed7e2708f0ba1af",
        "l10n\/es_HN.json": "5bacc0171eff37f0efdc5110c24252e4d9829ee781766ce614047776b53e9cdd39a3f8684796fbb5ac92812deb36427bd89d04bb6a22dbb4591847a62399a9d7",
        "l10n\/es_MX.js": "f6855e2f792651c7e38a3275f52b61fd26e0138ad78de1b1227c099dfad056adea614d379b2b13dc149cb256c2e33e06027ff71fbfe11bee3e056bc153637bcd",
        "l10n\/es_MX.json": "a07e796e69da7b8c3d08200c19604dfa5f543699b4037bc87397874215520137c390bc723f329480ae417f4802b8444f23692e9f9e585faea18b48808e6fef04",
        "l10n\/es_NI.js": "0cfbb640817b301742c735ce59efd420f371b6b5d23f759d16240e1cce4d06976b83e72158d578cb68c89a94eefa943850a25913685dca015ed7e2708f0ba1af",
        "l10n\/es_NI.json": "5bacc0171eff37f0efdc5110c24252e4d9829ee781766ce614047776b53e9cdd39a3f8684796fbb5ac92812deb36427bd89d04bb6a22dbb4591847a62399a9d7",
        "l10n\/es_PA.js": "0cfbb640817b301742c735ce59efd420f371b6b5d23f759d16240e1cce4d06976b83e72158d578cb68c89a94eefa943850a25913685dca015ed7e2708f0ba1af",
        "l10n\/es_PA.json": "5bacc0171eff37f0efdc5110c24252e4d9829ee781766ce614047776b53e9cdd39a3f8684796fbb5ac92812deb36427bd89d04bb6a22dbb4591847a62399a9d7",
        "l10n\/es_PE.js": "0cfbb640817b301742c735ce59efd420f371b6b5d23f759d16240e1cce4d06976b83e72158d578cb68c89a94eefa943850a25913685dca015ed7e2708f0ba1af",
        "l10n\/es_PE.json": "5bacc0171eff37f0efdc5110c24252e4d9829ee781766ce614047776b53e9cdd39a3f8684796fbb5ac92812deb36427bd89d04bb6a22dbb4591847a62399a9d7",
        "l10n\/es_PR.js": "0cfbb640817b301742c735ce59efd420f371b6b5d23f759d16240e1cce4d06976b83e72158d578cb68c89a94eefa943850a25913685dca015ed7e2708f0ba1af",
        "l10n\/es_PR.json": "5bacc0171eff37f0efdc5110c24252e4d9829ee781766ce614047776b53e9cdd39a3f8684796fbb5ac92812deb36427bd89d04bb6a22dbb4591847a62399a9d7",
        "l10n\/es_PY.js": "0cfbb640817b301742c735ce59efd420f371b6b5d23f759d16240e1cce4d06976b83e72158d578cb68c89a94eefa943850a25913685dca015ed7e2708f0ba1af",
        "l10n\/es_PY.json": "5bacc0171eff37f0efdc5110c24252e4d9829ee781766ce614047776b53e9cdd39a3f8684796fbb5ac92812deb36427bd89d04bb6a22dbb4591847a62399a9d7",
        "l10n\/es_SV.js": "0cfbb640817b301742c735ce59efd420f371b6b5d23f759d16240e1cce4d06976b83e72158d578cb68c89a94eefa943850a25913685dca015ed7e2708f0ba1af",
        "l10n\/es_SV.json": "5bacc0171eff37f0efdc5110c24252e4d9829ee781766ce614047776b53e9cdd39a3f8684796fbb5ac92812deb36427bd89d04bb6a22dbb4591847a62399a9d7",
        "l10n\/es_UY.js": "0cfbb640817b301742c735ce59efd420f371b6b5d23f759d16240e1cce4d06976b83e72158d578cb68c89a94eefa943850a25913685dca015ed7e2708f0ba1af",
        "l10n\/es_UY.json": "5bacc0171eff37f0efdc5110c24252e4d9829ee781766ce614047776b53e9cdd39a3f8684796fbb5ac92812deb36427bd89d04bb6a22dbb4591847a62399a9d7",
        "l10n\/et_EE.js": "3ac62655fbde3a64b0a0600fc5457ac5f6252de28a88abcdfb21b715ba52a7c3bd211acc268826afe043ced631c3b9b374157557fe5159919ca991dcce77056b",
        "l10n\/et_EE.json": "c98d91a52c8e5351a75900c7ca4c9505b3cc6826ecf0cb9a8b04104a847ad90ba7442e7eb1b8105892d6d6ba01fd4e87f294828a269b9ffd9f15a68a6b7adb7e",
        "l10n\/eu.js": "301eec7da06c1ad6a9e919a9729475a5ec5b6c72880df2b10f0d392c1840756171e40f021a906bdb52a529ccd3083abd8a5ebfe74e3ca0090caaf030ecd58f0b",
        "l10n\/eu.json": "018f5cd93585c1b94e773319a6b2060f8028ab2979971ac444d9a58370c1a4a15294bba814c4d9897aba513189bc696ddc667382545ca985f9d233cf24039554",
        "l10n\/fa.js": "1b9db96579d2d4766ab8cb1eae5216a2a3bb52f3c89c897a1443682e46e3f0d091feaeb51180c1ca6971e4c05cc4bce5cf4af7b9f766b17da2283e01c452f8f9",
        "l10n\/fa.json": "09dfc93b1cf6ab4a67890ca44af3561fe2a536f6b395058d20ff86b14e11761b0ab9c4af7c4afff5b85be6f25a534bda0f87fa86ee5c647e9e452d3d7a63f6cc",
        "l10n\/fi.js": "fcfdff8847f29c60bf8375df7859cd9d346a29c58f60130bb7947bc770d73e6cd07e9f92e1504ebc1547d44eef19c2297ba5e71c0e6b3ad11282f3dfd5a99894",
        "l10n\/fi.json": "750351960bcc66cc477528a1963d03f5bd934e1499ed0c53efec8db81fee063b26bb8e8d59cb9665e4c2abe5f899e34c5975321a5fcacfe603154998e2a4a5e6",
        "l10n\/fr.js": "6cb9b5246094f6d1287b5508d9e20199d431b5d5817e08b03247bc781e196833a3f94d3cf61a1cfc9f9278ba09a42a44c1a84d3e2e50490de4f3bba8e4009633",
        "l10n\/fr.json": "388f1f2e1ce8decce9e764222244494dc51261af46eff84b97d6b1975a953e244a9922aa2484c3374bb55cc1d20f21aaeae00c0707b25ae253873cdf7517a773",
        "l10n\/gl.js": "ad5d5b0736e43649ad2ae98144f1ac3587f0d1ee9bc31b912faab85e86019a30dfbe93d161dbab627ca0dfa56248023d49cf7332517468170ad518b22f661323",
        "l10n\/gl.json": "bf09aa96ce54426a8bde4b6f6784d1ef461732c18ab01a7e22eaa2d89564a115c62858562826eee027736e529bf9492a5e54e4f9531c734297e39879c1af6e05",
        "l10n\/he.js": "499e00801031905820541fd7341320c9a4a65827027078855f43e2ddf152c6424b9d84de41e353bf2b9f4506fadbb0227a525401fe3c14820c164ed27141afb8",
        "l10n\/he.json": "df7457d294e39d428b38db947638e0b7df097e33ac3b5426cb682bed5d61b396221fd0036ff1848a1ca449b59019b636fa6ced80c210181e95c9abca25cde902",
        "l10n\/hr.js": "a99a93b6e147dbf99e04968eaeac3b3843ad481b6e1681a7d4d74205f3cda5c9dfe04150f7f7db70f20f18fb13e395f9f6e18a0bf22115d9f076f3b26cbe80ad",
        "l10n\/hr.json": "3d96f33b28db3162b010ce76e0663ba383823f62dc4bf7b0020262e5cd78935c91ba182c1d2b91154850757912ed2f0f44c75c577667a0ad5d6abfc5eee84a00",
        "l10n\/hu.js": "14530556951bb5300e955dda68f0531ff805d3666abab5dcaab6316dc576d50df445bc0793e32e94caeeaf6949e936f7773b40d72de51e76f83935319ed4f629",
        "l10n\/hu.json": "207a7ae50d4876df9ba941363bc6b932e4c1aeac34e0706757f225b5860269ea1e0b36c2b56292848fe667f48c83e2a002d050ff1699156bede95157fb788976",
        "l10n\/hy.js": "facf9ad44209da8776b81e4378c923ec89c64b44fe3cc2a505cafee3af7b3b3ea0ce00421dba24a45344a681f7683f9e6a73918ce7f1e72a6f433346c9b4b820",
        "l10n\/hy.json": "4dd200dd7ef7366071c42b7f9d09ffe7f2c242333c8522eed5a11b2303d8ab1d43b0927c5db9951339f964fe8a65dfbbba27d4bd505104d4228934f5033c0441",
        "l10n\/ia.js": "eca1b9e2c5bcab055e854f27dd1eeeba799679504c7b0002ef5578a47eb62b8a342f34c78bcf2b95ffb4dc6457dc44da1335dd48a9beaa2a2868afe083641ace",
        "l10n\/ia.json": "a96c15c321d978827a32183bf0391a6acbe9b87c18bd355956117b949cbb8c39b685ab936cc797f6b087219f78f7739ab7c253ef65055c31519b69e6f06941e5",
        "l10n\/id.js": "317d7b265229066ac259a1f35d76004828c1a40ae9639d514e7696a955d971cf0606cb37a6292d42319dd2e21c0a52bcf6f65696bf57bc7bc35a2e21f10894d8",
        "l10n\/id.json": "4d7dd77f2261ba3d797a58481a8cd58c121bf7d0fabf4ba9b455a0dee04027977f093eb1b8ea7db1b01ba8178de106023f3369dfd68a1179ad99f1898ff89fee",
        "l10n\/is.js": "29d4a888e9f63d547a5a3046193057c6a30d8d8049f5d32bbcb7923f1474f9765924cd6f803d41439d23e1ff3504f6aa5a7613ba1859df7f011a363b365aaca2",
        "l10n\/is.json": "7616f7901146d8f27a96cb71a42d824ed8f0f9df13860c6f735d46d2c53676d27e4a812b559a039b4ab2c11ce1a49b390b3706a3471d1d14062b1cd57b8bc66b",
        "l10n\/it.js": "5c42d1100bac7ce87378804e26c964aa03107c18c30256814915aa7571bf2975081f0792fe41a0b93482be9cc5afd4b3ee6cd9fc0b8ebc2b130e23efef6bcbe5",
        "l10n\/it.json": "7a8ef58d795712582ef025cb1a0fc08c289eba8ce11d6417aac5f9817c4accea351ab68b27f0e16ffdd3cb06e9b46950fa6725f2ba5b905d7bcc56562d6fff50",
        "l10n\/ja.js": "9ab5ec26c7392ff30b8478a16eaecc2f5224311c865f6901d232ad594ac2bdaae1ef63c650bccafb0148bf2cf5440fe9d067420b521514d01fcc0d3582efdde2",
        "l10n\/ja.json": "26b91ec0954693e9902c492a4edd33041ddd8e600fcb81eccda6622a0e20cbf524944fdc1981112c67c366e2b4b9c17ea8ad2088b209c7e2c91332ec53f08192",
        "l10n\/ka_GE.js": "7baec3c55029e262a8a3fb299cdbe45f83fe2aca81ad1c46f169937b7141beb771b8c6b521d2fc6b076cab3f850b1e53736e9d8e5e28836e32d2c7d314d463d9",
        "l10n\/ka_GE.json": "2f09d9e5dd84468188622bb3b31a9ade63b51d90538221519fcf51d41e1b09157750c4eb3279662e33bebff323f66ca336ee799d7dcaae71a0b3b261ae498aa6",
        "l10n\/km.js": "e239e75a6adc57c5762ca70a9ff85df0de4b3fd8a19ebfff4f62b49b449af23203b4eadd530c3bda435ed734c132028e84c1d7962587a9c540b0274d43398cd3",
        "l10n\/km.json": "6e429b486a706b020f7de51f850c0d5d93d97093ba400b4f293ac22bb510e85f785a2ed949639a13d7a37ffdbed122224d6ac9aa515959c81adae2f5b86c35aa",
        "l10n\/kn.js": "13ef334b7c71d663d35c16c94632f75066320f321495ff793374e2df45bc8c45bf694aab938587abcf68877d394e0b5e59931eae8b2391c6ab4d1c97e1c05512",
        "l10n\/kn.json": "59927bf497c06b8dab87208ac365900eb9db69aebd69a0f3c64a8a6169789777b8b5ac3a6f1775b03a1de583208d760b7a67df4827948b13e0739913cbe1d4ea",
        "l10n\/ko.js": "a924c57159996dd56b8cc9a7926fed7e73d1d49280ae4e555324a3572672d891d91a4b9e05394bbc8e81618174fe0476bf5baa9a371e8e1ccdca7d9587b0fc40",
        "l10n\/ko.json": "721f5f4eefdcb52a7239dacd2926233a7e2f60bd67edcdef4ca9bc4fae7c5dc0c024a6525f336b28febf73c9b84dd6d5b587c2176d9e886d7f209242335f059f",
        "l10n\/lb.js": "ccf78e7f094458e461282952370d6775f582727d10bc67406fcea2a275da610707c332548f9232c1b403e9d550aaf528becaab70efc4b6c929520840b1ec618a",
        "l10n\/lb.json": "615b34820ead4ccf6d7e84b2ecc3b6794ed71659314649d60269b199b7daf7d42475707169a816a036fc79062bda6cb6ca2747b93ce172d027f57e3e4e7785c2",
        "l10n\/lt_LT.js": "3a41b90fb5631c98b0f01b2e16267f55ce09f4053e900441ec1ddd47612ec4ccdbdca0e9e2dc720177a844daae5cfd84fe4491e5db6d4672291ca561413d7b6a",
        "l10n\/lt_LT.json": "25260c09e676ca74c1e5fa18ed1f190bb9bf8bc624fd264e0ed642e3e9df3904ff9c0212b843c143adf7feae49ef71b16fd3f96b05ea2227e5c09a2b1527eb75",
        "l10n\/lv.js": "ce9b850a7e830eadd8286c075f7d7d87fc4a8905dcf7d972610e0c39d35fee7c94447300a01cb54b10904630030b7944a139e67422879a3d52ea45119b0e289c",
        "l10n\/lv.json": "f326e037c0e7ec95379ba35efcf80908ee4c3d9b36aca07c4c6ff43cd7b5fac9aa2c4b093536dcf2075a3fde276b0dcc613237eaffeab4af1e67f2bb2c6b318c",
        "l10n\/mk.js": "9a1779a1fe3f08489452c175455d5d3f03f249add0e16bab105883638fd27be73236a4f58cfe09fcb929a81c88d9a9d9d45804314c342880530e5f0cd80596e2",
        "l10n\/mk.json": "abeefffc0248380467e407f9b9565fde713fe02b7c35fe91ec91a0e7ccbc81f237dedf9f70c0684de7aac97dda802ed85fbaed7cff2c23c905e324cf79086d29",
        "l10n\/mn.js": "7470ad8cd61851649d76ba25708fd8c680511a545c4632050053b030f9db448b492fbc8d75db4351d929a9ffa78ea90eea1709a172443b9a6e48a900a9e45b77",
        "l10n\/mn.json": "08e60dea95d5f4551cf89502bfdd59933ee19f73de9951ed9c96261826c176bb0e36ae2c06b6704bf1556af62ce9bc7902e140ef7139bb1df07b66c0f975b4c7",
        "l10n\/ms_MY.js": "443a7d1dd0340152aac16ecb2bc3c1099cc2faf2c25262a7665bb75dfbd055bd7799994ebba2f02463de77fa50e1c0349c99367c9cb452eb2f163344bd5fd500",
        "l10n\/ms_MY.json": "2d25765c7c51ec2ca8e0479202ab9424a1921a414950d363017745dac2a2d4198d916a39466b5217f4ec1730ff302e4bfe80ce569ba12d86ba43e0416d802c9b",
        "l10n\/nb.js": "66e9cbd4f6143b64e976a7a559ea7e3b6752a79108330257ee139eabee5bdcd198dd6fcef762f94c2ad39c14734620032219bc773789961040072ff1bd3a5eae",
        "l10n\/nb.json": "fc2864e639a17a89f3c8b384bc75d87b2d3399b15fc3bbcb9cf001de0a11a4ab4878a680e7fba933eebd339d66934c7b8319f3c943c80fbd208a315aa7bba52b",
        "l10n\/nl.js": "506668239e1aa249fdbe9fcfc2a6eb56136a2900d296d3e777540f8f6638472cce5e6ceb47bcf8c587457cac7b6112eb58a0ab8497f074d751350dcfb7fcc67d",
        "l10n\/nl.json": "b5dd3a8dd0ad955c622691681a77d04b1b277ec7d491b0989dbd5b96926616e16fcea7943a8355a9976ad4605a20ed5dd0c67c292986e994e2813f5b3f18ee2d",
        "l10n\/nn_NO.js": "ea2a57ce9428e2972f1b3a0bcacfd9e59d2fb3779450e482c29eba30f1d7785d0db415677f62d6ef42ff5d3da5d7ae90d8164774c39404ff7e48815ff3e44fc3",
        "l10n\/nn_NO.json": "75324785512bb0f54f0b2376b3384da6d3115d37081df53cd00a700d54f06d36babd5e28d66c8ac10cffc1ebaccb0a443460845a513074907dd658365b7abd32",
        "l10n\/oc.js": "fce938d951bf2c8bf31cc9cbdb1712eb8c88753367a9602dfbed28c4b2e3fca13ae51ca34744d241edb0db49fae6d49593576c8f31f8bcb0869e674ad70d12f7",
        "l10n\/oc.json": "80647fade3945fa388cb208432ed6c71eb0270cbac99ec873dad3c335cdaf655a8febd143e10e325b56aa2738d856ae55cec50f4c7c2cbf2de57749a28286d97",
        "l10n\/pl.js": "2b401d19f0b63a5b4c026b74ae7a1f6e5a8dc9974bf202ef3acdb2e3a4bff7f24435bfe9fab297225bdbc1f47aeaa70822f2cddbcfacb96353c220045faf4e8a",
        "l10n\/pl.json": "4b65f44b8668f75c9dbbe94710233085738f4f99a6c22740f76e12c8243a64b111cb5f36ce3fe41491e80b6dee6351d51de789d358e5bd83fcbeb96ab4cf2712",
        "l10n\/ps.js": "1239ebe0bd8b038b4ce7fa09ad8fdd08c90cdf439d549347df9e9f8ca1d956c6902c7ba1d447905e1337a7a95c0721e54b802ceff6731193bcef39e046d6d8db",
        "l10n\/ps.json": "69d494d02e26cf85b2ca51c41ff3625e0eb9a17d30eca049ac72798e8e1f1191f1791ab90c0eef16515f4daef1da5f8eb280a2ef0bd0e5fc56032a9fe2d9e735",
        "l10n\/pt_BR.js": "4b775da7f208b0552a5ba6fb719f0b10c4324bafab69dff4d0d73703a4157807651b919339666a12c0f5917680115067f40adc5ce158b24c104a4647dae16ffe",
        "l10n\/pt_BR.json": "bace57d77c6c5e2892aedb88326a8c7b00b7bba40e2a72758141ae714ab19fae3dca95863be990d6715590f10c5f93a120c11a1e153d08196110e325f96698cd",
        "l10n\/pt_PT.js": "15ac47add4e98094c28cd599f164d3bddfd1216034c927476d34e3912e81a62cadc1b8f3deb455197dc713b95b06654381185992c27696b68314d89c72ca9c31",
        "l10n\/pt_PT.json": "cb2d8eaa23ca1bd88464fafb711c95a33f285b9a497432d2b7a150af6fa938a09fab2279895cc03d783c97b9c3a286150b27a87e28ca8e10ecdb1092e99f5fd7",
        "l10n\/ro.js": "84ac4e07c2dbbeda28d7c621a26c05265cc0ad49a2f5587100de3b23e58403c6a34a66fe75f9fa1bf61f413a2f19a8ac23b1a083a49ebe6b6cbe8fae2cff7ca2",
        "l10n\/ro.json": "0f24795ab0dccdb6dded3b204caa2a297ce376261b7ae74c6dde82c188f6c071b9ad87f0cca5fc44c9f269668185e6c9336b98c544ea9a40d174bc68a1d1ca40",
        "l10n\/ru.js": "6affd7bab076a5cf6862c3a96d8cdabfccdc7ba09eb6d7d15701b5aed139c29f842a9269d0e15b6560a2bcc2736df22c75d24f612ebfc5674e0a6e8f29345e24",
        "l10n\/ru.json": "f8dde6b617e03eeaf9c656c395ce4902f146c68ff700668729867e31702c5d42ee5e8836a498ca60bbdc4a16c50ea1f6db609e2cdbb29ce2bb773aac5a237afd",
        "l10n\/sc.js": "f63d9568303bfaddfbdd3885a674015bfc0e9c0738d572f5202b0fabebde062770f98fab09cba91934d92c34a6f5cbbf38d382c7bd37b62231942fbe469ba29d",
        "l10n\/sc.json": "efd1070e6eee5898992f350535e000f33110908df2108dc3f0aa1b9fdb8e81a83c8a90e4f230916a0d90d749f45ae236bd43b240e06c24c770586cdb08659da8",
        "l10n\/si.js": "5085b576d69a13b86a8533c531483cedb7ceebeb83f333b2b590185bc960ae2ab3bf95477d067d0c457c68bac6a2c1d0eb1506a3aed4c4918cb59078fb651d8e",
        "l10n\/si.json": "9521223f012a05446b783090452701f81c01aa256b7da52ea68c7b6d007ded0d587fafba43c9b41f7d4b3f7a58acc9eeaa3ed6fe34dd8ae7ad50995821f54e21",
        "l10n\/sk.js": "1118a9c18452195fe9d7433bc1714183cea2171b2db2ae4823ea7ff66b609e0cdf8a71288b77b8becd60d1ef52fe9d57f6f6184cc8524cb0c747e21306e9ac82",
        "l10n\/sk.json": "569819363425b7da04876c86aa45b0c8d7aee79f8651db44c2fdd66688be9d9f4fe689bfeafd8f53fd2276a4e2cbaca905eb52251ad5f8be52889bcd2340b8a3",
        "l10n\/sl.js": "03bde3415f378a95b9941f0c3e61ceaf0a5a54b90e6c9414d06ddbc829ba24fbc26a2949584a1bcdf581e020bb575d4356100cc11283872791284416172ea387",
        "l10n\/sl.json": "a1a38812313e5b41bc1c2a0a9c78e2581ebfa0c6abbd57379f3922bbbcdfa91e54f2053ca473efcfa2b25362b3a8bd15daaf85800d37dc4e3ee458a9eba08bfa",
        "l10n\/sq.js": "3636636f7a0ea2ede2dc06149342f419ca478707dfe2701c61facd1b999772397b06a42bceb43fa59dc295419fe0f4d6cef6cd3dc4eaa348a5b46429077bca8b",
        "l10n\/sq.json": "c108eb847211454ddd6e11d55dc2f85dd97d5ec67413159400149764b977642d11d8eece142386d83522db45c38d40c7aef59f0e225e623dcc7defbd66445276",
        "l10n\/sr.js": "88bbaa7fd7c76dadea5103cddcfeb194a4525e73e99b1e582b2cda385371e18508d7eeb699c3a268596e9367b25eb1e14050b5e4dc50f64eb68932429d649001",
        "l10n\/sr.json": "852be8aca981796c1476a7612d2cddbce514d5e3bddf70a04844d1b2d3c0f6db92679d3a01840818546030882cc4a808f14a4102455e6333a427f7e2fc392d92",
        "l10n\/sr@latin.js": "a0faed286b0faa6c0ed610ade877f6538a969a04b52285ddf401a9fff37a0aea70be9bb2153da93f99c4163a59fd3f8c60483c3bd0ef25aa56ef5ae6b376ecb7",
        "l10n\/sr@latin.json": "6d2f9409741a487abc84d396c96f13d950fa9cabc99150f790a3c708df6fc6053952fd12f56c33ef1d2ec4e4918941cae1cffa1600048f67416b4f4a86afb7e7",
        "l10n\/sv.js": "282ca380e93df3b5fd8e9883aa89cb206779556c9e746f82b376e1b6340da16e143bd0f629f966ad02793da1ad9a5e3ec8baef6de18e3f857c5d7d128fc38a53",
        "l10n\/sv.json": "462438dbf0f5ad7dc8d5ecfed7373098e344560a3b2707fe317720377cd43379bb206809472f395a00ac73689b3fc60bcb6f24c602db04b2caec800e1752c6f2",
        "l10n\/th.js": "258ff12a6f35871a7083c6fd5d324193aaf6715a7742b45630447d1ed638b40d265bb1e243382ff20b27a92d9eb5b31633b20ad463dd0b5322182ab5ae493c1d",
        "l10n\/th.json": "cdee8314dda2bb9f36eea2bf1a714a7ead0149944d93d1a9f3948fe0c9b5f20b08623b71bb4b38fa7f624607e0845d25ae94052cd5c259698e41f8699b667a7f",
        "l10n\/tr.js": "4279d8c3e2d96872a90ab0c5002fb7705ba08f6d17d39ef5d75724dfaf43583c93c0e4cabc608640a05a68a9077f38024820a4891982468934bd82b677ac60f7",
        "l10n\/tr.json": "5ff41b5921d102c043e523c25a223a29f8bda2562ac49f61bd8d45bab47b5f9f03a8cc38f46de1a67483a6b2881417b12d7a85866157f78dd25fbc0814a80734",
        "l10n\/ug.js": "2216702a9a8f3eba5dd14af04bd19fb3f84aa011c0ddee5dc18a7de2f5361a2d61407f96c9c4a2a95a198e4291b8e834f256ed82c30d4b965934edba442c0591",
        "l10n\/ug.json": "2ce953bbdcea83424603f6d12cff2cf9d66ce5ff3468c5e167be265e8befeb740a7235b51a07a311d101f4a475956b18fa02471cc5f9d42abb9c8802eb6939b0",
        "l10n\/uk.js": "f8dc94bd6bd75fb370cce22fb0409960ce23ebf94f75d7bde1f2ea4f5691edd2e3611344f09fd1620d00f62f15f2564d21de2ceaecb8c177ca4936de700f2177",
        "l10n\/uk.json": "459b61b0b70ff911c5f3d36663eefd5a492e001392da8e0a8a92eb98a0b410c2527810cb4d745f95fbdeeaab8f321a4a46a89129ee4329d7cc224507835c84ad",
        "l10n\/ur_PK.js": "713f7a94cf2ee0d6f9f24cbed0a129ecdc38df1da736dfb9657edac5cfd47106c12cfb26c518949559755a37403d8f45bd935b9ea40575d6285975d1b7d46cdc",
        "l10n\/ur_PK.json": "9f72b3426b12a3b8f6e7ba3cbf36c1f677382af2b1cc0fa1cccf2eb55689758e9f7fd7b2c3837163fb76c084287423263f8e5df0e027b1dcdba3d6294fac134f",
        "l10n\/vi.js": "d2fba2794035bac6062fb7a3e8c0b009a3c7565ea277ffc6840f5c861f695c22e8c10ae86e2f66710a1d6fe55e8aea838a188616837ca1d0787e73b7d1bdf52a",
        "l10n\/vi.json": "8ddab9ff61240697f128fe57f77db31ef94bc11658accd12e1cda5f2e36cc744fb64fcf0457bd58694722432ea0bbd2bd6ee6f7fedd5fc6b325adf37084d2100",
        "l10n\/zh_CN.js": "b91832840f6ec90456a3ccedd1b739836c58c7a17f7ce94a08b9c6f4baaf63d79eb5230ba41d0f609eb97bb2c401b7263f26d5f9c12537afffda64c3ae067c49",
        "l10n\/zh_CN.json": "711252e62db7606c11a03ff1c386d161d4de96bf1aa0ed4a864698d8d90741a12f9760aaaf20c0fb1a9e94d10b758145444807f3ac2e39b85238e79a18f7a049",
        "l10n\/zh_HK.js": "4dd81c1cb36fea70ff78a062b2839d305e34baf48fc7fee27a9aa3ce016a124aac662fab4c1b19890032da1e65edbfeca3ffc07eae8d81c3831f91e09e07aa63",
        "l10n\/zh_HK.json": "95f22c28f83bc0681c7acf9592c101a73d52a2767b6404b669fc4f07ed744119f9668de42a3336518b5afef2a9401a70d60a27ef2725ee6f43b516d25ac70eb1",
        "l10n\/zh_TW.js": "7569ac82fe33ec991676cc04b5b7670946c8daa94adf68385c2f25dee630170a81f120ae217e9fc8075be36a2070a4b71019dc0686480afcd04a69831ad1f50b",
        "l10n\/zh_TW.json": "dc39597262ce039a63472c97cf2f2731482477e52d582423715fc4fee83df3478f575c41d21768ce0c9220276c2c6cf2db90dd24a5873b462f7bfe8f407390ac",
        "lib\/Activity\/Filter.php": "163b202ef0e919985da6e9b4011de9b37732ebf565367a303654f5dfdbabfa9609f481ca96e7c84437438caf6035d0eedff6a5ae6c5316027ef6a82542a5a255",
        "lib\/Activity\/Listener.php": "3e4bafa93fe4b9e0ace76d7f6ac9f1971578eb2931cfe58b5c731179a592e38e4b1a5b6a998de8e42c46714615655b38b47bf5d96d5181f561c4aa04dc43499d",
        "lib\/Activity\/Provider.php": "1304668d7e4cc1d4da7a5daa9f23169a224d40c61e6c07c680609a11deb044c475cc414e224a2c6a8607d3113a4c34e582d91f4d75715bdbaf3b66e9b05041d6",
        "lib\/Activity\/Setting.php": "8ee3b2f402bc9136ea49d29ce6b05de8a19987c78856a56739d40067745aed33e7a25f81dffc783073d3023791fa2af89a504c46fabc2c3bf583efa5596afaaa",
        "lib\/AppInfo\/Application.php": "1e20c6cf9a138147a0fd063cf2621c3ce9f613ff97e081a5d7827e49fb3494f63cc40002616a347e750a286b0606fc27e4625d546f112bea0e72944e3c2cd6c8",
        "lib\/Capabilities.php": "9b6d594ac9c6a2891477cbb7da20428648e6b91e252b1e05a0fa3f1e38f683af4265dd16fb78c53ac06ff163d08744c830bb8cd15c4311af58ae38ac021f3612",
        "lib\/Collaboration\/CommentersSorter.php": "9f069936f7fcaf9da995c7d1588f63a9b2b1fc79a3ffd666d5867b11db06a9652fc71d29741791cb538d9ca12b11871271dbdf6e8e46b47964d532148cd52a13",
        "lib\/Controller\/Notifications.php": "9cc8d73d54120de1be8129295ff2c5181bf4e90960a5e7c5913e4c30a6eccac219eb45c296c177d9f9767e6cc23c179592e4a64cc4f469ad420c405837899d27",
        "lib\/EventHandler.php": "5a7abf8e6ae762bb219c8b7e71cab5a645eb7ae5aedbe386ba1874b88b4c924e5f080fce28f1045a719e51544d92e39701fc6b439a5bf38580461e5e56f1ea8a",
        "lib\/Listener\/CommentsEntityEventListener.php": "5de5202539082869500c4c300e74df15ddbcae89f2cdaf251f06d0d633b9c7d00e08ec4914fb9e41c48c1add5b5c4ec293e71d004e94b2d1605ad8b2d9fb638c",
        "lib\/Listener\/LoadAdditionalScripts.php": "2cc39e4cecb092971c5e4ca30dc51eaaeede5072c0779a78f8014630f9ebe4b8307b633039a09a8c99aa8d0082e346ea9afbd65fe10f0aa36795a08de5fe8be3",
        "lib\/Listener\/LoadSidebarScripts.php": "3a934d774aba58155b341c6fbb6f691a15c650d985162e5a1bca85dfbcf9913c57c8ef5bf65ee6e041432fa49dcab7d18513ad32a7166df0f878cff9aa5c24b2",
        "lib\/MaxAutoCompleteResultsInitialState.php": "c43d6e4511e11cc541eec1afd31a771207bdcc84798fc41b075b19c982f018699dfbd5c3cd217ff1c2d619a932fa54ed826af93e317689d73c3d671ebd6215bb",
        "lib\/Notification\/Listener.php": "5e5c108ba60fdc0e6c5023562063f97eb41cc5d799a91696cb83d2cbcec22a560cf5d3f0d3fb5fab7fd42148f003b3d1ebfd9d9c779f09eb452e2b0854aa6a99",
        "lib\/Notification\/Notifier.php": "3c37198a1a5168997fe9175ae289033aa6fa8bd468012470402e39c618a863154cb282c0e5811b75059cfff1cc89f03d9140a039514ddbd3240bf33002fa58f0",
        "lib\/Search\/CommentsSearchProvider.php": "23be1255d987e65157c670c5910c8615d8d2740a8f0c106f6d3280d2298b6a9dde23b730e38d7a104098df32136d2146616b62e79bf69da20293e54656b4970b",
        "lib\/Search\/LegacyProvider.php": "9166daf7665214e5f7a17ff36d22d4c8ae7066fe7ebfd08b4d8285d510431450f581b333723b0387014a328d09deee5a0b3b0c1df33879a01660ce6a4c2247e2",
        "lib\/Search\/Result.php": "6f6d8e90d6446a5f522f140f89f7fb60377d5a42188fd7b9dc909540a7d2447e349ba503e06cd38a8ce160ad12414dd4f5adee33b99cc226af63a3b977ee4ebd"
    },
    "signature": "I\/ByWGMV+Y\/cZ08wwlGpA2oCZj+\/fCeXbHFE5uaANODPse4S6mS+DMPaJLAd+HpbY7uK05ac5CDSpBMpQcrr\/n8NZI8uK+otso\/jFSga34nIakDzgXFBmZ8+w+67jmQeNmVZoSF2+VDYQQV+bAI4Lf6KZc44vefEvTs7rvdn5z+TCewtoo3qx980BCGDOOoiA+YuCp0t10\/w1lXWE2uje1BDqrsuMKazmmHzFSyUIlGeM2SW59mkgqQcJN4DOpSWEE40+RCB44aFjW61TGAJAPeOvmcj8ogz\/wj5BfAojiTEdOeYAgJ5N4lGG99efAoo0A84kjMIxCj9F1lIemOhTQ==",
    "certificate": "-----BEGIN CERTIFICATE-----\r\nMIIEojCCA4qgAwIBAgICEAAwDQYJKoZIhvcNAQELBQAwezELMAkGA1UEBhMCREUx\r\nGzAZBgNVBAgMEkJhZGVuLVd1ZXJ0dGVtYmVyZzEXMBUGA1UECgwOTmV4dGNsb3Vk\r\nIEdtYkgxNjA0BgNVBAMMLU5leHRjbG91ZCBDb2RlIFNpZ25pbmcgSW50ZXJtZWRp\r\nYXRlIEF1dGhvcml0eTAeFw0xNjA2MTIyMTA1MDZaFw00MTA2MDYyMTA1MDZaMGYx\r\nCzAJBgNVBAYTAkRFMRswGQYDVQQIDBJCYWRlbi1XdWVydHRlbWJlcmcxEjAQBgNV\r\nBAcMCVN0dXR0Z2FydDEXMBUGA1UECgwOTmV4dGNsb3VkIEdtYkgxDTALBgNVBAMM\r\nBGNvcmUwggEiMA0GCSqGSIb3DQEBAQUAA4IBDwAwggEKAoIBAQDUxcrn2DC892IX\r\n8+dJjZVh9YeHF65n2ha886oeAizOuHBdWBfzqt+GoUYTOjqZF93HZMcwy0P+xyCf\r\nQqak5Ke9dybN06RXUuGP45k9UYBp03qzlUzCDalrkj+Jd30LqcSC1sjRTsfuhc+u\r\nvH1IBuBnf7SMUJUcoEffbmmpAPlEcLHxlUGlGnz0q1e8UFzjbEFj3JucMO4ys35F\r\nqZS4dhvCngQhRW3DaMlQLXEUL9k3kFV+BzlkPzVZEtSmk4HJujFCnZj1vMcjQBg\/\r\nBqq1HCmUB6tulnGcxUzt\/Z\/oSIgnuGyENeke077W3EyryINL7EIyD4Xp7sxLizTM\r\nFCFCjjH1AgMBAAGjggFDMIIBPzAJBgNVHRMEAjAAMBEGCWCGSAGG+EIBAQQEAwIG\r\nQDAzBglghkgBhvhCAQ0EJhYkT3BlblNTTCBHZW5lcmF0ZWQgU2VydmVyIENlcnRp\r\nZmljYXRlMB0GA1UdDgQWBBQwc1H9AL8pRlW2e5SLCfPPqtqc0DCBpQYDVR0jBIGd\r\nMIGagBRt6m6qqTcsPIktFz79Ru7DnnjtdKF+pHwwejELMAkGA1UEBhMCREUxGzAZ\r\nBgNVBAgMEkJhZGVuLVd1ZXJ0dGVtYmVyZzESMBAGA1UEBwwJU3R1dHRnYXJ0MRcw\r\nFQYDVQQKDA5OZXh0Y2xvdWQgR21iSDEhMB8GA1UEAwwYTmV4dGNsb3VkIFJvb3Qg\r\nQXV0aG9yaXR5ggIQADAOBgNVHQ8BAf8EBAMCBaAwEwYDVR0lBAwwCgYIKwYBBQUH\r\nAwEwDQYJKoZIhvcNAQELBQADggEBADZ6+HV\/+0NEH3nahTBFxO6nKyR\/VWigACH0\r\nnaV0ecTcoQwDjKDNNFr+4S1WlHdwITlnNabC7v9rZ\/6QvbkrOTuO9fOR6azp1EwW\r\n2pixWqj0Sb9\/dSIVRpSq+jpBE6JAiX44dSR7zoBxRB8DgVO2Afy0s80xEpr5JAzb\r\nNYuPS7M5UHdAv2dr16fDcDIvn+vk92KpNh1NTeZFjBbRVQ9DXrgkRGW34TK8uSLI\r\nYG6jnfJ6eJgTaO431ywWPXNg1mUMaT\/+QBOgB299QVCKQU+lcZWptQt+RdsJUm46\r\nNY\/nARy4Oi4uOe88SuWITj9KhrFmEvrUlgM8FvoXA1ldrR7KiEg=\r\n-----END CERTIFICATE-----"
}