{
    "hashes": {
        "3rdparty\/.gitignore": "29e38629b5ce893167f758ea3b042aef4b350e537534737b2c0fbe701f32115f78951b44210a7f902b1f6794d749e0dec180847764ddb7e5315d9f89f37b6bbf",
        "3rdparty\/autoload.php": "d8322a54e44298cc5028f302f63c5a4c1bd6017a237e1e1a441c0deb6966655dcb78c1bba72bd49f737a095043371605e6648c3910f63523bf258ffc7b94e43d",
        "3rdparty\/composer.json": "540c1c6dc690e1f4334e240b038fe63417b4ce95c5f941bdd670aa37b537944fdbe4ef8a8d42651b3b064cd975175e33405aa7e3d3643900a120c47c337fb430",
        "3rdparty\/composer.lock": "04d19b4af9cc033015af6cedec56906980be3a84204d2acb7e6d858f06dd545edfd4b3ebbf427bf5121cfa9972c9f10e92b407fd7dcd26b3f6b5da26dbbcfae3",
        "3rdparty\/composer\/ClassLoader.php": "a6884d84d11c4bcc2a53f86929ad8f519d5e1cda93724a3069df108b91a71345e59f2598cb0361ac0f88576fc03315a4158215b33e9609d8f07dbd3819754d61",
        "3rdparty\/composer\/InstalledVersions.php": "733e68c171cb9e44868bb0f105850fbd0e4f225c67235bf30fb2ac5c3443c6edfb722d4b33aa91c82bb600e937cb6392eb1883694d41616e66969d7d42e23b4f",
        "3rdparty\/composer\/LICENSE": "f3bb64009f41a425df5a9bbab53490f0eb9b74fa8d6aaa2f57efb928edc4ffff330260666edeaa04a91fed708c3663371cf01b284f3a08d6698aaef7a23f355a",
        "3rdparty\/composer\/autoload_classmap.php": "6af29eddf9e463585c9ba72bb755ebffe4d282fe082f6ecbd6ab59f554df3e43c2d94e113d0d48a060da95d78a2d028ed5ea9e23530868976f69004e1b0bc017",
        "3rdparty\/composer\/autoload_namespaces.php": "5b2571f3b573a778d362b8c7412787b4084c7f27d3f5bba1585243f3ccbb0b9054e68522a22a1ad59ec11097b03a0e343865c0188c65b25f0a97e24e120339d1",
        "3rdparty\/composer\/autoload_psr4.php": "3f699d58db0424a3b6ddae673f36c5e1f75b59f9a928cf390c266c10773cd5f24efd16954c4ab6c25db7d5809e3ad49e1383f6098ee8556ef74e497a3bb72545",
        "3rdparty\/composer\/autoload_real.php": "e9b61abaec088c72c69f515d504b213cecfca70f3e1204e5fd96fb6b295bd269876e79d4840de1ed22562c0c70578b899e4f397bc259d51ab2e3f14160624337",
        "3rdparty\/composer\/autoload_static.php": "e206877706a3f4cdbd2315a2ed855a1b62a32af85c22544805af8738001d6c87dc40aa37b95af3785d87e83840bcd07f4eaa89ee0223e0c1afb9676103653f57",
        "3rdparty\/composer\/installed.json": "0c3227846891f9f5e0a5b91c174e5680d418bc06f00f9cac50f8f68981d68e6aa795bbc0ce98e8600a2093d1f809cc170320ee735a2f0f50959bc98032b7e66d",
        "3rdparty\/composer\/installed.php": "5d6752e62f4cd5013de418abe353e7f65e76561b06827ad46384e4ce3ae9eed8af23483f1f696e4693ef13f504dd9cf126d65309310ccf0d7582690c26461b7c",
        "3rdparty\/composer\/platform_check.php": "3a6ee48b1b0fc814c7662ccca2cdd03481c52213f02ba32940dc33d717de0a421f9aade8a4bb75a93c0e91f7a523a139448b9f66bae26da8177c206c6a50e695",
        "3rdparty\/icewind\/smb\/.gitignore": "174f408c655ba301bbc4655343ec7e824ea4d83965c798404a69881b678a9aafc1f2625997c48ff2082e16fb7a53810f7a523907977d87e718c95dafc5e893e6",
        "3rdparty\/icewind\/smb\/.php_cs.dist": "815c28056f1ef8e467f5d834973a38bbc6b143e3ea6ac89280582fb8d7786428e5583f2be44c01e04578d56321efbb4add0936b6152ea1d4aab2dfad74b4684c",
        "3rdparty\/icewind\/smb\/LICENSE.txt": "b4adb8e3a55a9fb884fd75685a23a47db77a088d0c1300b1bd58ae77d6b09faec63ba0e2a0bb4baf3c3a15973fc64a8d2d43e73dc136e0f65cfbd600355aefec",
        "3rdparty\/icewind\/smb\/README.md": "af00edf75cba5fde8879004cd4da87f6d812b0b0011ee3f96da46de2b9129e976dc4bc44f9a18c67e4c72fefc5fec55efdc09b189a87ab117af41cbc977420b6",
        "3rdparty\/icewind\/smb\/composer.json": "61d6ece7f8274bb2329eaa0752aaa6243b61dbcfb11b68037241b92f5ada3cfed2e53d38dbca0103e70f2e5fa03597e5b426d694e86cd873c9069537e788f768",
        "3rdparty\/icewind\/smb\/src\/ACL.php": "6a88739d9bf45b31fdee76df7b7c6ea32e0db89c254da89008eeeb23755de030ac7ef9cb3442006b7d3d2de5b726c72620ae25e9695b1f8d05d23c0b46bb9ce2",
        "3rdparty\/icewind\/smb\/src\/AbstractServer.php": "0c9a4b9164da979fba0f52f27c2b81ee84bcbd8aa06b9c7aeee14e3874ae460d79f3ccc52e1a0ee472352250f91259a45df16dfd24918037b1ac62316f6d4e09",
        "3rdparty\/icewind\/smb\/src\/AbstractShare.php": "e123745e07c0aa6934642973591be704b6e85686a3c470caa2182683c52faad3c08497305654d06640ff9ab1cd30dfe022cc787448886f7af56078f6d0e0b5ee",
        "3rdparty\/icewind\/smb\/src\/AnonymousAuth.php": "e69c89e0a28d2e1757b89a0d1292bcec1ca0c8e56dd995fd157d89e90941b9514c6984717b897fc487f233a24d7a7806a38dc974f404e753a8bd1fa773a9cd2d",
        "3rdparty\/icewind\/smb\/src\/BasicAuth.php": "46c849b46bb341f9c41c701cf85110a2cc829d60f2d9d4a4ef5e7317f90e45586408367f62ab0e0021e205812ba978473d600f7db8a59a3b3266c3cc8545ae65",
        "3rdparty\/icewind\/smb\/src\/Change.php": "b7492aac61ce4470ee2ec4f905154d55a0777162e2b30268614b9617c95dec6e859448780b96bb908b9580606d1e9908b7e05115c6ead48fdff352146bc0609e",
        "3rdparty\/icewind\/smb\/src\/Exception\/AccessDeniedException.php": "0df97f8beb93ed40cef79ac07cd85030be36995bc706a37e49b5ab0e2a7f86922bf5c2f67c3d7395930eb18fd3d5ff2c4bdc09983a7dbb19ebd1c07926e05b77",
        "3rdparty\/icewind\/smb\/src\/Exception\/AlreadyExistsException.php": "919c367752f84992afa610a4623efa365bc0aaacc4232e86f7e93f79b9a92601ccebf7e26423a56eb77c9a1f779ea65cae6082e1d82c5bd0cc6be04296a26a13",
        "3rdparty\/icewind\/smb\/src\/Exception\/AuthenticationException.php": "7f49330e63d98ec8fe8d23cff863b36c84afa380e88e6ce074604546f7a6f5402f9dfc3256a6289e4161cf984e46f4dd023c51e3650cae764715f9186dfcf8b0",
        "3rdparty\/icewind\/smb\/src\/Exception\/ConnectException.php": "d885b63b55b639983f711da74da28184740a59ec410a1f77fefb73bb78907615145b7d615b67ceca36f762edcf5895339a8ebad089ee74e9cadd6d7e14dbc441",
        "3rdparty\/icewind\/smb\/src\/Exception\/ConnectionAbortedException.php": "a9cbb93c94d2f29b97d7c335f15f43ce5da93ea5066a0bcef5563ec241942e33a93e6ba2706d1eedc7377f3b01ee3a1ae4e7204e6296b5d2558117e5dc1cdd7d",
        "3rdparty\/icewind\/smb\/src\/Exception\/ConnectionException.php": "b1d860c7411e64d43ae364d410ce472580153b066647ee5784993a138eb3092d02c2b55207a3160feb2e71d245ced17559b21f245228de1832589f318a08d960",
        "3rdparty\/icewind\/smb\/src\/Exception\/ConnectionRefusedException.php": "3e4d7670001463964f5e9357fc90bde8c653ccd1ce2de44c6adf03af79e4c9617ffea3b9b7402de277c3c4f3cf852b49d159266986a8b7ba84eae012b87df589",
        "3rdparty\/icewind\/smb\/src\/Exception\/ConnectionResetException.php": "71e3465453f206bce9bb1d98a7ce72129eb4d84cbf4fda9bfc094043afafa0c398065aeac48c3dc2834817ef35064e16bdea1b11be7d588696ce7835981a2ad7",
        "3rdparty\/icewind\/smb\/src\/Exception\/DependencyException.php": "f82d329912b5a06027e2eb5092bf96289a82944dc2cbb45df74ad07cba36ce0de175cb4e3bb50570fe5ea4a62054479b05cd8d159636c2624a5cc2f143f0f61b",
        "3rdparty\/icewind\/smb\/src\/Exception\/Exception.php": "2c7d2e55251915bb32240af08f33ea94d5354bdd25d007bef516da16d59682eb064aae353eb12b3b3bb68b3634df44db48b3e156dab0b3c2f75fbd4100e18e12",
        "3rdparty\/icewind\/smb\/src\/Exception\/FileInUseException.php": "444607b46bda7fe686e657097880dad928290281d0c98a44ff83c79794dcd396d87f6be787a44b66d71b1d39424fac8aad10ad539e1d62227a3cc226ef47d161",
        "3rdparty\/icewind\/smb\/src\/Exception\/ForbiddenException.php": "0331401ffc48bcc6218cfbae0997a678275e1fee9333d95d1033f9c6ecbea483524175d5ee4f0882531d3d2c504f87ba9ffa70326571a111b7ddec0ad053a532",
        "3rdparty\/icewind\/smb\/src\/Exception\/HostDownException.php": "6a57b02332534e9ccd8040e32e12422a7976039d1ad8225dfe534c5f52b54d4a0e78ff8e15fe5df9b8ba85c7ee565ca0968186acd4a5b21ff244d3bb831c9ab6",
        "3rdparty\/icewind\/smb\/src\/Exception\/InvalidArgumentException.php": "d17e6e1fdafc5c5256cb32df638c333573eaeae5b1f9e7d392e6e2403c3cce4f8808d7e8ee5921e70ddfc3af237e5959b4b8873c6e7787940ad930881278b33c",
        "3rdparty\/icewind\/smb\/src\/Exception\/InvalidHostException.php": "12322ac98bfdeb09051c3b92bba85b89e13c3ca65993a24778f36c52733aa93335e5b6a6f00c9a0855a7c99907f336b42539315750628831a1b0b2894e3a8c6f",
        "3rdparty\/icewind\/smb\/src\/Exception\/InvalidParameterException.php": "8f062fe939df690e7666ffd6318b8b251f0e16bc113459505d0add327cce2865c8dd06716bee164f1e449f49a3dea68caa6f04628051822abc7837ca975f5dc2",
        "3rdparty\/icewind\/smb\/src\/Exception\/InvalidPathException.php": "e72b302a736e6bc4df1a4fdc63e254f20654aef1b5717cd7e814e03ad91f6b24a0d505bbec512d79f02d668978e8fee861a2a499a1c7ab42f98013b14524cef8",
        "3rdparty\/icewind\/smb\/src\/Exception\/InvalidRequestException.php": "f64264b7d91b659ce4866f607b5e2d195f743dff94ea192779fa58b690bccbd2a200914119ecf12f79c35c47f98f3a205ae62ece60295b3af06e36e9c16cc99b",
        "3rdparty\/icewind\/smb\/src\/Exception\/InvalidResourceException.php": "cdb6908b556f1b701871e2997870f1e7e1ae1fcff98bcb74511929a3544a7d372c24346286025d4bdf128d81268ebdb9fad794f4e3e66f12e782836502c87ee2",
        "3rdparty\/icewind\/smb\/src\/Exception\/InvalidTypeException.php": "08f113b2edff144a9478030efdd17d4c91ae92522a86f063c5cb488db8673b67ccd4070a83b0e73ae007c126f0d1df527edad94dea247ac9587f35be177ca549",
        "3rdparty\/icewind\/smb\/src\/Exception\/NoLoginServerException.php": "677d06905f87fc7d70c0c1a9b721ec8255e3c8d7d58f9a522d92478d2c7916626b023ce111c8ecfa93641be5d846ae8d2e4f9e3a1eba9a4a2fc4c84fe925dd82",
        "3rdparty\/icewind\/smb\/src\/Exception\/NoRouteToHostException.php": "94ff2852315b5d952f6ed4831d48e4e30d0c72d0e485a6f77a213180ff3653254ceb163120c32b577d3573a5665295807e72f063e97f0dc3a823b684550e2295",
        "3rdparty\/icewind\/smb\/src\/Exception\/NotEmptyException.php": "33828870aca45257ca3e5cd580c5ddd8652c643fda9949a3b032b37595cb019ded513ceb7322d379be78b09286d343659978133cd4915efd382bde2178c99ebc",
        "3rdparty\/icewind\/smb\/src\/Exception\/NotFoundException.php": "761c0f45d7bf3837c7fd047d9249ab0219dd8d39b8aba948bc1ee2f777fbe1e47f26ee715383ee6ed85128088759918e0f7c70b851cc33645f0f59f5dfcd7441",
        "3rdparty\/icewind\/smb\/src\/Exception\/OutOfSpaceException.php": "b1ce08dc92f1ccfb1d242b28c5a22ef0d7ae65c722b573171223ef3971716001b0c91f18bfcef0ea7b9c1997ad78ed8224abf7ee2d0a9a2853a125e4763a65b2",
        "3rdparty\/icewind\/smb\/src\/Exception\/RevisionMismatchException.php": "1a84e9e47b6b0a104af3d74c180ed0229736b384d1d318e37f453f9d0e444a002d9bc29ce3822a5bebf6c01b8fcd19ae4c2fabb4c35e05dd25dff1dbd5f63ee9",
        "3rdparty\/icewind\/smb\/src\/Exception\/TimedOutException.php": "c7130e412790ea0fc313ff5c8f8ff02020e9f64a8a369b03af89b71b1f0396e68162c1599bcb8444c9e93d85395e3e0a758535ead1110e67fff6926a7388766b",
        "3rdparty\/icewind\/smb\/src\/IAuth.php": "8bdd26b40f1f98ee56f30b85d8d0826868e0043af736c52966da44e5571b98234e0e32137e3c665af6de31df43389e43c9b453139147dc2885861712c4822cc7",
        "3rdparty\/icewind\/smb\/src\/IFileInfo.php": "fbe772fe25d2c6faef5ca299ff17858eeb7574ddd89639f2287ca62c32b59c07c071a38dba43f8b10a0e7c1e00979c4e300a5e2f86b4478165a4996584f308bc",
        "3rdparty\/icewind\/smb\/src\/INotifyHandler.php": "6afc078fa6b6b334674db1abf239f144531faf81b3ca77a40ec2e4ae20f4feb0cf398bf63fe5b3b8b2f00723060997cc12d3ce9f2010bde959e8120168e38d4b",
        "3rdparty\/icewind\/smb\/src\/IOptions.php": "f45996dc349f854dcede5e61ba357f1c5c9e9b9b425b320bdaeb62ccb9b3adb57c874f59548b96d6643981fb0278ce8d105a3f4f89a32b5f8786bed00ee5e96b",
        "3rdparty\/icewind\/smb\/src\/IServer.php": "1ef7f80b3159ebc74978674fd4d696b3afbbdb09c457e7650f87bd97144007756353455262a4701cd34887eeab37a8a308f7677e446aad2d8c385a852dab6e66",
        "3rdparty\/icewind\/smb\/src\/IShare.php": "1aae47923bc7c37300d16f74d55b577e327c9b106128fe74fd345cbd0de30903acf98a21d5212afa4b8b9ff850c97f72928d9d1b0460aad860178ec478e3a9e6",
        "3rdparty\/icewind\/smb\/src\/ISystem.php": "19c5edcf53bf6dd0299b66f6f4d33cf66c3ec6eeb234fd0627f3c35dae119418ce0c30d75c20e954b9dbfc77aa7f9789e6cfa2699de73e20c3589ef9536dc27b",
        "3rdparty\/icewind\/smb\/src\/ITimeZoneProvider.php": "39ab489142f1e6e8b7ad31b2322c5de09bea24315f5578ee4a922de39bff16c072c863c526b6426b3e9c44621cf799e307101ee27632fe2f67dfbc039fda4443",
        "3rdparty\/icewind\/smb\/src\/KerberosApacheAuth.php": "65d22ead753de2170c78872dd0c8b5ca9ed7b8b8d82a6b04b4db2b89d5312deca381da2c6df345af8d87940698859499ab961f853cafff801070bd236fb468e2",
        "3rdparty\/icewind\/smb\/src\/KerberosAuth.php": "b98814409212e4d85b078257b98412f20ea10c4410fe78f1a46b2cd1b63d2e177ce3e22c9abd3c528504fc9c1ef23e4cd820ada7c45eacb556c5c8bef6b71830",
        "3rdparty\/icewind\/smb\/src\/Native\/NativeFileInfo.php": "dde8828da65359f717fbf0b3885639a8256d7b57c29f0af27efeefd795b00b3174f7f4fc21bb93dc1fb661c2bfcc15fa553fe2b5049c1ace3130bf12977fc678",
        "3rdparty\/icewind\/smb\/src\/Native\/NativeReadStream.php": "a1f630512f5cd5b4fe78756d49eeaf5e4f04144c317242ceaa399530fde7603e98ff5ed3ab772e0540a2fb9f4eada3d07537b9e5c263ab13ebdf1c4014aaf92e",
        "3rdparty\/icewind\/smb\/src\/Native\/NativeServer.php": "49a6795ae838d724211320f7d844cafc579795e78ae6bb29b1baca7a1b54424d126fc10f8c7d375657d0b2baa2a8ccda6db347bab33ed53e9ff5ef2fc3a0f51b",
        "3rdparty\/icewind\/smb\/src\/Native\/NativeShare.php": "5a304451683e748fe7ec31b4362ffc6ceaff9030466917a2ee4bd2b53a19230834cf8742e920c45a9173278176f3362b823df4c7ab16ce8e5eb0c51df9cbe05e",
        "3rdparty\/icewind\/smb\/src\/Native\/NativeState.php": "1c9864ef7d57c29239253191d7656297c9c917d9c459b5ea1c526bf411f91276904d58288faef331fd62629acf65df28440fc5d311f9f50387f2406d8c642add",
        "3rdparty\/icewind\/smb\/src\/Native\/NativeStream.php": "2c735bd38a9116b7fd72311c505011eec518dd9ab6e4b83d0577ec221d304f0e74a4a0e27e16d2dc2c47552fc0a4d2301a13b0f224594b4016a491af9a613018",
        "3rdparty\/icewind\/smb\/src\/Native\/NativeWriteStream.php": "77050b0890482fe30d20323c6df9cea1046532b4f2fb74eb40bcd0d4ba6249b355145c5a0bea2f9956d6af0e3050832271acd2e3dfb2b230ea61f6be71c5caba",
        "3rdparty\/icewind\/smb\/src\/Options.php": "5926abfa8c30f1e54bc7a3bea27e9856d245a0b0f08a3eeabe9123c98e226902b8e4415782ac47eb4953b4ad3f9b7aad7078e31d80eea215b927d1c20f3385b5",
        "3rdparty\/icewind\/smb\/src\/ServerFactory.php": "f709ffc28720e90f96d80e9c4a0bcff06bca17fe6cccbaaa567130ab61a0372eecd393ef1e71cd157c067405dc1ce24ca7d7c79bf8525e9d136826eb9f9aab9f",
        "3rdparty\/icewind\/smb\/src\/StringBuffer.php": "96e81597417f8a0707e4bd185c43a94f8a20cb4661d9def3ecb106471bfa84e3b92ec1062047d263ffe8979f8018339d14cc7f8ec98e08b1633a980ad358c15e",
        "3rdparty\/icewind\/smb\/src\/System.php": "96c849dd9fb0e445f11f760c9f6f3797bea0127f45f85ca8a56c3baf13b9de1ec2f4a2c71ac52fa46a4f14b69fa17037d9030ebfa8b40279a37b9d37fd768b3b",
        "3rdparty\/icewind\/smb\/src\/TimeZoneProvider.php": "d7b3793a1160ec38c575d6a1d52673b8b177eabe7b011f2e809e8ab32c6b261cfa8d76107f577ce59c723bc7dd6e40f4d12bff00d97244100a513c2bd3d5934f",
        "3rdparty\/icewind\/smb\/src\/Wrapped\/Connection.php": "db481718aab887064fab94bd3fc337fe074f437ad8b6b02e7a1c025e7118a94c72ce159eda093bfb86baabde713f94f326bbb019bfad6cc5391c700db25d778c",
        "3rdparty\/icewind\/smb\/src\/Wrapped\/ErrorCodes.php": "f19130ce656c09d2f03b07d48e03dd3b50f8e6c018008c7472ec26e561492082ae6b5a9b47fa0ff78f5f41c192e7b21b16450914759fb0a6b074158699570240",
        "3rdparty\/icewind\/smb\/src\/Wrapped\/FileInfo.php": "48015c67e51cd7caf474e486201d583b907bf11168bd2db07cd2eedf2e9d4d31b0970e81d2c05951d9aee15c5251e1c93ef4f26e668016fd251c574ee3833752",
        "3rdparty\/icewind\/smb\/src\/Wrapped\/NotifyHandler.php": "5a02f98a2c554583384574f663b5cecfdb3c82dd6746aa0ed9f47f2e5f890b9869c1826404a76a3de1c8768f280cacae5120bb9222f795ec510ca967da1bc693",
        "3rdparty\/icewind\/smb\/src\/Wrapped\/Parser.php": "ad8cb98f4f48db27841c15f3ad2c862cba7e5874b1e5503e992c31710eae24755a8f41ff6d993e58ead5e660b9a663e8ac67e61749f3bb53a8f4ece0432c8453",
        "3rdparty\/icewind\/smb\/src\/Wrapped\/RawConnection.php": "f9384867017e40faad26213c37e6027a828889ba9fce4ffccac83a2538efd95c79d5b555e4593fddabb4a138c3f7e9bcd1701a3e4ed83c8ca6fe58707f05915d",
        "3rdparty\/icewind\/smb\/src\/Wrapped\/Server.php": "6d7a9a3f13aeb282f97bff191c8a68615a4cfc17ebaf8c96d0643b0cb73d695f999f5ea4e4e997f9690c911d3be6da62641ee2419d2e8c2d03b33f1744b89368",
        "3rdparty\/icewind\/smb\/src\/Wrapped\/Share.php": "8e76700b41d8e1daf0958f861b96978feebd34a0559f2ca4615c52c2d8a97e99d20c165ec16d53048cdd2930de5f29fcff0991bd8fff566b0b19fdab31924f27",
        "3rdparty\/icewind\/streams-dummy\/composer.json": "f0e448892b9e4a3b5909114cf699d42b2becd907b6d31134a2bc4755a885b3dd8ff7abeaf5c2245ccccd11016f06c0ba6da09e1f32592cece4685f3cfa3e1c45",
        "3rdparty\/icewind\/streams\/.gitignore": "6e7b7402c6bc49aa0fba0fc0383c038946af413f0e7047f9319d078a5092d475a2a8ad15a4d0df3ca5c30cb810e9567fbfffe7241842c64d1738d79e598347f8",
        "3rdparty\/icewind\/streams\/LICENCE": "863fb36eecfe65472958fd3d137a503e21889f04e4e19860d72704cffc4fe55227c71cc414cb9d48194d3a342af01acda8cc3c1f58514c210f7e1396bfd43c2c",
        "3rdparty\/icewind\/streams\/README.md": "aa082819099f38af42cfe0f9f97bb4ec8f009862432890156ea903740a2c971d5fb16243e9317c2ead37d6109bdaef6ff60fa9cb13f6a53a11e96713869a01c6",
        "3rdparty\/icewind\/streams\/composer.json": "33d25591b3810028bd596022bfd1a4989e47d5d933735cfece022821803d0806b00833a2b3de8449a18925e80bc38b95e6dde2910ee92d4f20bbe8eb5fde6480",
        "3rdparty\/icewind\/streams\/src\/CallbackWrapper.php": "2abf3589496d3a64cd6ac175b4dddf385f6b1c73e89adf9a79fea0be0b14aa6f995393bcc3cb495889b56f1345c4b2bf68b5935128ef4d84167d1ab990bb5b62",
        "3rdparty\/icewind\/streams\/src\/CountWrapper.php": "971975d234b4fc078a8e38873ffde9d9b3e9dc3d71cfd061bac667a79722ed7e9198b1df6ade342ee3221519e662e8429e2a4e2d948fa24f93b542c56d8f9dff",
        "3rdparty\/icewind\/streams\/src\/Directory.php": "492a0a56ab8bb4fd5910042f4a601eee1854739e4e630dd49142b5964be4f4378786c73befb94d51785567aa42858303e2703b4c7e3cb6c1a3a9814befbef5d2",
        "3rdparty\/icewind\/streams\/src\/DirectoryFilter.php": "d57e347f910cce318c82a3f48a7b8fafcc760082d483dfdfc22a122eb28c2aa2b48da59bf17a9c95e138f128ab402ad099dbfb3214ee52acc7478ccf07c76e23",
        "3rdparty\/icewind\/streams\/src\/DirectoryWrapper.php": "7af15a34c19aa946418f6fb39d409b207a8bec6d663801aaedef5c62e2d782e32ff0989ca604f38b25464bae8ef088b94addc40e41b71ebf86d5416e8b1c0287",
        "3rdparty\/icewind\/streams\/src\/File.php": "0aa9bb061a1b843fbb089c7fbab10a9e4d981e00013a0352d2a46d986b645f105f221894016f091c757199dfc4b70ca717ea633826ac249d9e19715755646c40",
        "3rdparty\/icewind\/streams\/src\/HashWrapper.php": "6e172b3f07dc6b87e22e34c6b822ee160e8ec36b47e445acf7792ac09f4e05a65f43a479939fa75c0aaa7a9fc3cc6e4ca7e7eac1bbdd2de72a68252d8c95af52",
        "3rdparty\/icewind\/streams\/src\/IteratorDirectory.php": "9907ae74f935f6b6afb204d1954fd28385839324e6eafb6e1ee83ffa6f912a6311baf544f06c75d82334eb42a63bd7dc0b11192076ef7cff89ef2dcd515419c1",
        "3rdparty\/icewind\/streams\/src\/NullWrapper.php": "bc493219006b13b0a1e259902d00e0b4ffa30b6de0650c497a0f5923aaeef9ad04ff246752538a9d4fc8ff5968cb035f554a7bc38baa8917dbcc126655823991",
        "3rdparty\/icewind\/streams\/src\/Path.php": "885763edacb869c51e8c653ca3cd243c55b6c16ecaf096ad6f768fd6480cd8fbfcd7d1fb6fb52fe57000426ba8f21dea090395801e8218995d8faf2e1d2dfb18",
        "3rdparty\/icewind\/streams\/src\/PathWrapper.php": "8392cc738d67fd0865cfd2c3dfb30920f1e720af730db6529986c032d09bc52a4582f450ba490c6134109abf67c222faa6a5c706fb34eba08278d0f2b8749fce",
        "3rdparty\/icewind\/streams\/src\/ReadHashWrapper.php": "546c3cfb719437aa0ad9dd62adf6baccc2a5e2c2865b9fccf085bbf992d4e7ae9419118943ea61ceb8fc0505e61b2647b7a474a6a14dd49a141219a9834c3f7c",
        "3rdparty\/icewind\/streams\/src\/RetryWrapper.php": "7639b03878c18e3d8d3ccbd5229d17f3a552f4b22666c3b4b5e2903ba966aab4753b2e5723b69fbce1ff14318bb84b16d8b74b1667b6045aa96f88ce254af81c",
        "3rdparty\/icewind\/streams\/src\/SeekableWrapper.php": "73a8be99b1aec12e5fe15c50df3812fe0104cb5e06ed237f5de1b994188e0c5c18ed200cce3e951d1335e7523e59a192e952496de56cb1190e062f7ad0e0826b",
        "3rdparty\/icewind\/streams\/src\/Url.php": "edc26edf94828855f2bd5ec56df1bc8189ba95b0dac93f80b80df21d7c397a5588404b2c8417d842c7599f5c09e6bf7d567e6267c2a022cf44a7c36f3bf0b7cd",
        "3rdparty\/icewind\/streams\/src\/UrlCallback.php": "97b4b68502058399bce9619bd180db53e734b774856751868265e3f1d6d89df62a5b621f8a4790661213261d97132bf3ddc675575b88231a9328f949276be891",
        "3rdparty\/icewind\/streams\/src\/Wrapper.php": "9e152bd86172b06719398b5dfafb128ac21a00d102a0a80af2b3cfeae756ad941863005100696f8fe58bd73470f219e61049c413e14a1b920a9032b4fbc84d40",
        "3rdparty\/icewind\/streams\/src\/WrapperHandler.php": "783135d7b01af5e7b3a2ec5c552afda99e4cc98dbd8e7ca119d03ba68d2a4adbb23ae3d532efcd1dfd845202118f2952f8f202789ac509b77362202e79aae239",
        "3rdparty\/icewind\/streams\/src\/WriteHashWrapper.php": "4a708c49484af29a5baaa9f4563efc38d4fe5214040720785d26dcd1c70eb5a270f92530241af8cebd6f78f8dc7873e6843e0f8a08e42c84a3641857aa3ae6ce",
        "ajax\/applicable.php": "4b43e7fc782f8a63e23821d4b9d3f3808333c450d3e94fb3e20e8aa83e04e60893476ed8a6c4229305909a5542060d5177ce9b40fbacab62653618c14029186b",
        "ajax\/oauth2.php": "a120d7a31e3f65f37eb8565c6772434da1f435f82b4c673ead5902e732da0f5329ad683b61ec862ccb7f7f6a32b94680a41fbc7a0a080a9c7a0abd2a1dfb563e",
        "appinfo\/info.xml": "2f4fc9a178826da3a82056e39974994406e337e5533c48f93fa6618433e62fe50d707b4cb77b6a0930700c2e2fb9625f6a024ca6b9665ef70144e5edabb1c774",
        "appinfo\/routes.php": "a8551aca6167673f46fb9560c031b244f1cc284a3b84ea8585fbe5150527cc3e7ac622e3aa08c398968fd5ecf6dc6de564da0451abde140719acd147c153432b",
        "composer\/autoload.php": "3548106cc5a93603f7f4c3fdefa4eb2075ea0cc50e40b44b6d1e9836c24372f4c9c76d630bf4435c4c787f7e04c513be7adbf0b9277108556d0621081ef7d4ee",
        "composer\/composer.json": "794e5b91ee4c3f6f530f0bed53550e795c9ed49672ea27b6dcd18debb4435a88e91ad6e2d8c67d0ab5a98bf0e1612deccc62ce9d0c850e1c72c433581bf17b29",
        "composer\/composer.lock": "ff05b13233ad4e3365c2bdfd64abe5c05883d227b20303d35b50ae0f6415fb36a3f2c7d047b130bcafaeedb4a9231cdbafb81bdfc1a2f51746e008a7a68ad0b1",
        "composer\/composer\/ClassLoader.php": "a6884d84d11c4bcc2a53f86929ad8f519d5e1cda93724a3069df108b91a71345e59f2598cb0361ac0f88576fc03315a4158215b33e9609d8f07dbd3819754d61",
        "composer\/composer\/InstalledVersions.php": "733e68c171cb9e44868bb0f105850fbd0e4f225c67235bf30fb2ac5c3443c6edfb722d4b33aa91c82bb600e937cb6392eb1883694d41616e66969d7d42e23b4f",
        "composer\/composer\/LICENSE": "f3bb64009f41a425df5a9bbab53490f0eb9b74fa8d6aaa2f57efb928edc4ffff330260666edeaa04a91fed708c3663371cf01b284f3a08d6698aaef7a23f355a",
        "composer\/composer\/autoload_classmap.php": "ca51312d6fc827336f2f4c7f67aca56bb870c112fbac137a54e8e766088e299394b2e62b0b7a69f6dcd8b02a89073f6ea7f18dd95c075599b67c30e08e4ae6ed",
        "composer\/composer\/autoload_namespaces.php": "5b2571f3b573a778d362b8c7412787b4084c7f27d3f5bba1585243f3ccbb0b9054e68522a22a1ad59ec11097b03a0e343865c0188c65b25f0a97e24e120339d1",
        "composer\/composer\/autoload_psr4.php": "b1920be32102b86ec9c4dfa97a48a57902411a214790ca140a2eb14f9eabc386cbfcf46c7cec5cd713d9493ecbef507124df78c6c9b6bc77b206daef1e1d8ad8",
        "composer\/composer\/autoload_real.php": "083b2f2709b3bdd103dd7ef891de288ba7e070b54ef41bcae265dfe4213187f98e01e177ab216b2aa1b834c91af57453607432398ebc8fb529f24a93cc0605c8",
        "composer\/composer\/autoload_static.php": "3d8ba2b3f3da16a24c5734069edb5463e6e81b73aee9535b93cb9e310082e28927ba1921432d9d10443ee2374183c6bf79d7d075ae1d2fe7f346e2a99db448c5",
        "composer\/composer\/installed.json": "0a3ed51f953eb945b970a8eb21957ca2beee4669c7d0d9be97b8259c391b60688f8abb78d4b1fae5e4e2ea5e3d8747f4d35f066a2605e9a76f5b45ec3f1da357",
        "composer\/composer\/installed.php": "e6858a3fc8f40144ee72d1ab87b5431a4f3246ac64d53bf639efeb6636392372bd10ba18a0b1cbaa483b8c05a1e35af769c457447ddb10af2cf00270767adb22",
        "css\/external.css": "e60b597a5c6049aded39f2055f69702a9a00f8fb89a62526c322a321705d9391ee6ee8ab9b8e0935fdc0aa80c265c44cd6922121160119a87e59c08e2bc065f3",
        "css\/settings.css": "c6980ae54154ec74ac5135e04701caaa0cac04d3cb10db1825074a5f6acddbf70e499264563508889b691d1a50e33ea95d26a886c8b1a6ab8fcd8111cc7ee943",
        "css\/settings.css.map": "67066b6fc0b6d1a4393b3b08cb206e72092279544ddd09981f30da16ea98ecf1579a353d176a470dc8f138acfa6eb2d337ed57bfcffe791dd68f9f4dbf68187d",
        "css\/settings.scss": "9705ef769df93feb124c0a408e7235a538df74257949295ace5ee183f053fccf4208ab138fbcd12a567e677a10f99b0bd1d228addeb93006a88dc00bccabfe34",
        "img\/app-dark.svg": "823e006506d5b11b2ddc3883f3d1fd1c464a9946e67b151d5da31b4da5c8fea9f74e4d5af89f98b6978181299d91cf98cf2f7acbde004d169c4892eafd6b268f",
        "img\/app.svg": "509916715c4384603466d7f5fe69d389b571785c1404bfcc0f683aeb42c0f02bbefb93cfece6ba39a2268612507d39755e14f866d20f1e7792f7178275ae3e42",
        "js\/app.js": "55c7791792603b1f3632115c466913e988f01cb493b4dac36be73110ff7dd988ffebdbae5bf3eac4ef35169c452deb371ef0a2295192a375528959f4d4ec887c",
        "js\/mountsfilelist.js": "46b71c67af1ac6ed7362c03bdaf15ae6a25c1243116c48157bb87d37c19328f2c832b6fb558df2f1459512e1e65f423923739fc1b316bc4377b05074fa85b214",
        "js\/oauth1.js": "dc55468552f25546066eb04405ee4d2c1c7e902e4858b40a62210b8e33813221985cf4afb0bf9d1abb592699711239767aace1cb920f93782efa0d8f792328e1",
        "js\/oauth2.js": "08f4fdd46f91239bc997b84adf09825565294552b1f2cda59620c43676d14563d16e44a52a3fe7db8fd8be4a3125219d1972649b76f7e58ceb6ec8b2eb460009",
        "js\/public_key.js": "b45300c804b4c632b7b7f43a52ea7b3d3e92859af1c07ca018bb8dec9cb23db350a8797df1e2e291aa23449cdc4e10baa09f12d193c0dd72d1b32dabe0162472",
        "js\/rollingqueue.js": "08877347837729c96846ae515a2774032709beb16765632e89fa147a28205b8f704564aedba27e2c6594581fb30f7c834c312100a22d1b9ae442a15c9151c37e",
        "js\/settings.js": "2da1927fe846351c012d271df830eac322d05591497c32640557eaeaf181f20f87ea8b4e1ee54b1e934a9c5baaae77396b02e41a00a90403b574369772c9b487",
        "js\/statusmanager.js": "33d717a8c3ca8bce9a622e7b388e49db82becd8322f43118143bf13f04793462a4894f83e4fef4eab6312685ecf09b0cc78f704561bda3b0768ae91f589f5154",
        "js\/templates.js": "8e9e452dfc4650f7bfae4e1f81e10bc1d98d6325aa8647c1d98ff29c23b970425365d09b9d0564de38fcabf54e65d61e01dd6b765a3bfde8dce3b6e68e17284d",
        "js\/templates\/credentialsDialog.handlebars": "d0a792564012b6675b24b4587b61e73a2138d3f7d862ff383986a1a484d01f2a392a6372171176dc983a65f5070cf27a404d1321283486b51925df8aaae04e6d",
        "js\/templates\/mountOptionsDropDown.handlebars": "a20a3996673005d17123aa929d4fdb4c9e43abf999d10e34f5eb3bd96a057f1ac2ac87f55cfafa9a4b1d7c57860fe4758be02f14edb8d771b8ef7e9e5f35cbac",
        "l10n\/ar.js": "0475e5d10a37aea56bb78dc8263f898d4c9bb652a1527db42bf1b29b008b538773a372e5722ce3924dd1818d61337abe80fadf80dabadf0bf38ee7a8669f4863",
        "l10n\/ar.json": "ca222e9bd1c6c70b9ae840dcbcee732852663c947ac6fe4f0394d26e5d7bf6192ddb2a1d0d9bfa37302d77a4166649f8f1d2acb6b542d0a922d4e0da0e24f5d8",
        "l10n\/ast.js": "ef5ca8e07c287004739e9fd9e67151220d4c80d2a3c1bbe2042f2162aa0644e8befd62b9c95b5cda5b885db01e488ce02b8381fcc4a8a9d72e7ef5d9139909e0",
        "l10n\/ast.json": "cfef9b4b4be10dbadac35c99c3b7c09bf631774023db967566bef7a40d8be00517435ee2b209035dbe2832ba9b3c2d84de9814fcf62e5ea2708ea1f3130ea555",
        "l10n\/az.js": "801130277d5a684e2ce4cb9234287a302a181bf7e10e29b5a5a2d1e0f7a33949a759c9989c45e0140c4a62d9b6a60d616c0a42aa33d6be17c83693f1852207fc",
        "l10n\/az.json": "b1d41df039cc6110caf8561515111a5c516361237e27f1bba656367183f86b9966e8df8e5d0be79b79222d8fd9f9aab112b92fc8a5e2bc20e43fb18c6038f99f",
        "l10n\/bg.js": "3687007728b3740a17f922a9d26cb8da9e4c990f3e0009ae34cab8c3484f52446cfefc7eb86ac564f04942cea7076b4d8fc9d6b56f6a8c5b9a77bff3bacb9a23",
        "l10n\/bg.json": "093e94898f09c6794a2e67d3f1a1a3080e559a893aaf793e088fc158c0d4821b3c9aa70f4fe1826e3f36cc38e18f48ade63c68bad7865ec264e7f517289e2dfc",
        "l10n\/bn_BD.js": "94528e5b1f2ef0ab0d0405ae162e4050615eabfbb6830fa2de4fefd5a7ace43364565cfabd8470e53bacbfad2e0fcb0848c57800eb7e82704c57faa39f1e19ca",
        "l10n\/bn_BD.json": "80430723cf379402db1b0ae3799e21fdf1c7c6fc0a2ede8ae9a35eed0e94107ce6352689ac9076d5bd3c103e3c5382bce1dc81efb0b687da3c92049fbb09f01e",
        "l10n\/bs.js": "c0ddee83e2ef3c2802b798d5157d7d89df37d97c63a28f916e2db4a4a10c8f1aca7f5517bbf29f50acba99ebcb848ef894a1c1f86e5439089a41372e9f7dc9aa",
        "l10n\/bs.json": "38f26dc7c6e32e7ba5b16ffc1928becc63e85e03ffee984222ac22847f425542734b6a40301884a8f8916524eff6eaf476a41e40d4cd73d356a4769cd67ba546",
        "l10n\/ca.js": "dcba5065e6e22eef688190d7644e1ac78eb3e1b32ee8eddf3ad78c2dc934749f95fef186d7eac1ae5000669ca8b304c898fd7583dd971c2a9b16fda30323731b",
        "l10n\/ca.json": "8750d18c3e682404c8d9dec3fb1702367d85a0c441b68aebb9ba00b58dde5dbbe7af34d823d96a98e41e673a30b887648e94f5403c198a4292510378653505fe",
        "l10n\/cs.js": "0544bb5bb88ceb0b17f9ec155b8b31d28a0e9367405913a8d66adcff671795b4f7dd22e1e92fb16768e39fccdc38e5f8e83fc8913af14371ccc6a911c5b4b750",
        "l10n\/cs.json": "d03af82026d23643dfcbcc9bac79d0e7ccfc22c31da72204b0c788aa4b719b54339a59614b6718f1fe43e42876c98968266fd8a8fa697cfbbaaad02aa199737a",
        "l10n\/cy_GB.js": "857f9ca36c06e55645d7da758ae752a9420b42a06d253e4da036af3562c4cde6468d90739590761642eb66f95f8bf2f6ace19ace1d260b9de4f6c0be2b1486a7",
        "l10n\/cy_GB.json": "1ec3ce7247a659eeae9cefa5c6f3eaa0f8883dc61a3143107aa4aa62c5b90a5ba74690b8921d7fc06962bc5e0b860675ad45e467195634572cc5dfc52da20827",
        "l10n\/da.js": "a9cee7e38d505b527c34962983290504331f76747708b4e61a60b0a84bf586f169ab4a39cb41f5a6c27fb5f67c6f262eb0b285e0ca1ddab35a889338b639f229",
        "l10n\/da.json": "b4ac22383c4cc74315bf99797e05da35cb08158172087e9e7ab2b52bb98324fdd09bd854efa882d4fac2298adfa69d22190f95b95558bfd86c0e1d721f4c2279",
        "l10n\/de.js": "2ba411324020dfc62893dca10aae9f067b2d3fec7e8ad8c6f575493e49154bffbe1c7c3f111c51781153b2389a912eefb6fbf244035c29ff1fbc470002d70ae9",
        "l10n\/de.json": "8b7da2905f9a2e46508a661a0efbd77e0b70f3ba0033974a0099794976c72c6cf689cec7b0f4a7a98b828f2c44c423b676f396b6e5ad2fbf44bb88ecdd1d5491",
        "l10n\/de_DE.js": "262dcd0339bc53dfc9564355dd7b3aa23f744a9a22f1f8d9ec62486e7fde30c331bad211da863049efe3963cc5f88148c68a480c32a7018e7bbcc69929ac1845",
        "l10n\/de_DE.json": "e2ef9e5978ff9aa0e70e47860201d6ba9ae53bd1a79268e5bdd9cea52164010fccc2e43e26be3409bccab235d23ae882e4928344009b65e304bc8ab3980b61e4",
        "l10n\/el.js": "4ef7d24f4cb94c619425bee435a01ef5eb65b52bab6d6f00967f023d414b5c762cf9ef5b73f2f3baffa6264cf516ae193d96e054ee58060092bef4502ff26e65",
        "l10n\/el.json": "c1ad77636bd32c55c62a81ad38db34223da2274566fb1c95b8a450e5c200735cb7a291d7558db07b7f0e01769c6c89189b078122419db73ba6a0f1f10d8c84d4",
        "l10n\/en_GB.js": "a99a715932ffd490c29b82632a98dd49ac1636771c1f9663f74711d6d659f528b08710cbae18d7691c62608fff903cff40a046f815e936abe280e97a2c69d273",
        "l10n\/en_GB.json": "8fd63c33204cd979753bcafbbe11f755b1cf18772dee0743a94349581fd54f621338d55b835e4b8d0daffd3813a3da47ae6490266581ed068291fe76ac89f068",
        "l10n\/eo.js": "e0b46cb1a773b7fd5904b4c2a341275797fe8a870136402249cc955c7566d1312aeb884e62854a0574028e37eae0b136434af9ad7957f941f010cabf0a842a67",
        "l10n\/eo.json": "1a46ad836ebec9ec9db8f51cea8ad83e4f00e28f24819ec2887b51a028648d749191f533729472acd30cd3ccc7d4684a02bd145360dccf3ddb05629843ed3ba0",
        "l10n\/es.js": "a23b359b43b6585ad8654e482f7f9ffa3adce123537b4fb5d588704a752b7f76bf1260a3530e4c4336e1a30fb767560d80082751b3848a72037efd8fc4f1e4ed",
        "l10n\/es.json": "c7c48a0d06d6707bfc2002ff26d0928a63b8b5087f644e8528a5918a0b62739a9dc3b828716da8185376559414b0ce21e91ae3b8ef2fa46ee2308001d22c7dff",
        "l10n\/es_419.js": "78250f6003343296790a323442627cd12cf97b7cf07596956c07e8dd26ae180a8536a78d73f6f752f534eb12994051fedfd28336636abc238f0267c146526564",
        "l10n\/es_419.json": "9a71d13f27bdb895be2444f43bad7a06d44403479d4b7ad309ed74a2bdb8700ac76a32ef639e9369a6a28061a80f0abdd2a3498b7303421ce30fe08477cb385d",
        "l10n\/es_AR.js": "ead4ad3137e4995813f1931efbea68689ec847c8d478565847d495e8907062373057e1836266ca893767cf7415872ae4646123b381a9a7eff4a890a86d55c5ea",
        "l10n\/es_AR.json": "cdd38a8fbe513a18efc7f171202af079bf6df64afe85672a0761be752ac70205dc75e464b7f46af723630f8faa8ab1082e7e9b025326731282411199c1086f9f",
        "l10n\/es_CL.js": "c77f9fc2b7d2c19ff5fa971573ff58ad69fba22be9293e8e04deeecc19465f6fb3cfcbc2eac456e3231a682d3de995028993f0b2ee0a60cbd804f1dbecce8b35",
        "l10n\/es_CL.json": "a60902b69a1ea1c337dd1ae4228fff7495f5d0bae3b21b0d2122f384e948cc5ba16ddf64e1f3b448619b0f7a5a564192a82cf2bf617f57fd57ac53aa205fc465",
        "l10n\/es_CO.js": "c77f9fc2b7d2c19ff5fa971573ff58ad69fba22be9293e8e04deeecc19465f6fb3cfcbc2eac456e3231a682d3de995028993f0b2ee0a60cbd804f1dbecce8b35",
        "l10n\/es_CO.json": "a60902b69a1ea1c337dd1ae4228fff7495f5d0bae3b21b0d2122f384e948cc5ba16ddf64e1f3b448619b0f7a5a564192a82cf2bf617f57fd57ac53aa205fc465",
        "l10n\/es_CR.js": "c77f9fc2b7d2c19ff5fa971573ff58ad69fba22be9293e8e04deeecc19465f6fb3cfcbc2eac456e3231a682d3de995028993f0b2ee0a60cbd804f1dbecce8b35",
        "l10n\/es_CR.json": "a60902b69a1ea1c337dd1ae4228fff7495f5d0bae3b21b0d2122f384e948cc5ba16ddf64e1f3b448619b0f7a5a564192a82cf2bf617f57fd57ac53aa205fc465",
        "l10n\/es_DO.js": "c77f9fc2b7d2c19ff5fa971573ff58ad69fba22be9293e8e04deeecc19465f6fb3cfcbc2eac456e3231a682d3de995028993f0b2ee0a60cbd804f1dbecce8b35",
        "l10n\/es_DO.json": "a60902b69a1ea1c337dd1ae4228fff7495f5d0bae3b21b0d2122f384e948cc5ba16ddf64e1f3b448619b0f7a5a564192a82cf2bf617f57fd57ac53aa205fc465",
        "l10n\/es_EC.js": "e69042d8e1a8d4ba69de6462bd3e5e4f6cfc4617bb6719e5778434d875f738791ac085f5a5f2ab6c0239062c152c9c3d71b7f471b6b31e5b91f0f0da2e92a213",
        "l10n\/es_EC.json": "4ba85009942f087c7e8ce6677476d8842bf484060aa933966a8e77282f61c98874a3ee6b1dc06e3f2847af89689bbf14be0031ff3f3753b039d98ae8459f10df",
        "l10n\/es_GT.js": "c77f9fc2b7d2c19ff5fa971573ff58ad69fba22be9293e8e04deeecc19465f6fb3cfcbc2eac456e3231a682d3de995028993f0b2ee0a60cbd804f1dbecce8b35",
        "l10n\/es_GT.json": "a60902b69a1ea1c337dd1ae4228fff7495f5d0bae3b21b0d2122f384e948cc5ba16ddf64e1f3b448619b0f7a5a564192a82cf2bf617f57fd57ac53aa205fc465",
        "l10n\/es_HN.js": "c530620968758771b24e16db1521596049b5a24a1bf8e7c3740962bdbfe756709789b74fa09bbbde23e5835c3d341a71a13d82354a98d7100c7b899bc7a01832",
        "l10n\/es_HN.json": "09604d7d7e7599482771c9e32ada6a4f698333a47613a7070f55bfba8e4eaeeec515288b92bbbb52942b12fe8ece28f3fcc6e47f4119933ee9c986d71d4a0190",
        "l10n\/es_MX.js": "bd1209c4970ec429af90f081ef4430e80a3a6e5698d61654b3d2426be29705a61c3800edf51596737bfb07517fbef021fd7fe1a9272ac40b044b6e7219411ddf",
        "l10n\/es_MX.json": "0f5f4e57528830f80e44705e455c0b5b9587bb2f8507ae7e844aded56f0af152d62c8488dfe7e865cdf361e90b208a5ab7c74d202cc7f979ed365456cd66368a",
        "l10n\/es_NI.js": "c530620968758771b24e16db1521596049b5a24a1bf8e7c3740962bdbfe756709789b74fa09bbbde23e5835c3d341a71a13d82354a98d7100c7b899bc7a01832",
        "l10n\/es_NI.json": "09604d7d7e7599482771c9e32ada6a4f698333a47613a7070f55bfba8e4eaeeec515288b92bbbb52942b12fe8ece28f3fcc6e47f4119933ee9c986d71d4a0190",
        "l10n\/es_PA.js": "c530620968758771b24e16db1521596049b5a24a1bf8e7c3740962bdbfe756709789b74fa09bbbde23e5835c3d341a71a13d82354a98d7100c7b899bc7a01832",
        "l10n\/es_PA.json": "09604d7d7e7599482771c9e32ada6a4f698333a47613a7070f55bfba8e4eaeeec515288b92bbbb52942b12fe8ece28f3fcc6e47f4119933ee9c986d71d4a0190",
        "l10n\/es_PE.js": "c530620968758771b24e16db1521596049b5a24a1bf8e7c3740962bdbfe756709789b74fa09bbbde23e5835c3d341a71a13d82354a98d7100c7b899bc7a01832",
        "l10n\/es_PE.json": "09604d7d7e7599482771c9e32ada6a4f698333a47613a7070f55bfba8e4eaeeec515288b92bbbb52942b12fe8ece28f3fcc6e47f4119933ee9c986d71d4a0190",
        "l10n\/es_PR.js": "c530620968758771b24e16db1521596049b5a24a1bf8e7c3740962bdbfe756709789b74fa09bbbde23e5835c3d341a71a13d82354a98d7100c7b899bc7a01832",
        "l10n\/es_PR.json": "09604d7d7e7599482771c9e32ada6a4f698333a47613a7070f55bfba8e4eaeeec515288b92bbbb52942b12fe8ece28f3fcc6e47f4119933ee9c986d71d4a0190",
        "l10n\/es_PY.js": "c530620968758771b24e16db1521596049b5a24a1bf8e7c3740962bdbfe756709789b74fa09bbbde23e5835c3d341a71a13d82354a98d7100c7b899bc7a01832",
        "l10n\/es_PY.json": "09604d7d7e7599482771c9e32ada6a4f698333a47613a7070f55bfba8e4eaeeec515288b92bbbb52942b12fe8ece28f3fcc6e47f4119933ee9c986d71d4a0190",
        "l10n\/es_SV.js": "c77f9fc2b7d2c19ff5fa971573ff58ad69fba22be9293e8e04deeecc19465f6fb3cfcbc2eac456e3231a682d3de995028993f0b2ee0a60cbd804f1dbecce8b35",
        "l10n\/es_SV.json": "a60902b69a1ea1c337dd1ae4228fff7495f5d0bae3b21b0d2122f384e948cc5ba16ddf64e1f3b448619b0f7a5a564192a82cf2bf617f57fd57ac53aa205fc465",
        "l10n\/es_UY.js": "c530620968758771b24e16db1521596049b5a24a1bf8e7c3740962bdbfe756709789b74fa09bbbde23e5835c3d341a71a13d82354a98d7100c7b899bc7a01832",
        "l10n\/es_UY.json": "09604d7d7e7599482771c9e32ada6a4f698333a47613a7070f55bfba8e4eaeeec515288b92bbbb52942b12fe8ece28f3fcc6e47f4119933ee9c986d71d4a0190",
        "l10n\/et_EE.js": "978887c10d4dfe50493b084561ec3b88f6cd1420da99c2e9e6417be5724f9435f11a10be992c9452a3bd087ccd121c3ce4c91a03c08fcac403770764bd4934bf",
        "l10n\/et_EE.json": "3bcc65862a74bdf0226fdf36fd5c3efbc06bc543856427a4212414b76fab92e9ea35384be8716cc71fb19ee47ea95491b625e04db63fcbfcef866a70b6225cbb",
        "l10n\/eu.js": "6d013938489be8e11371f4b1e998ee9b3e263f5d200d2e6346f5b90e6651e81fa65f61ca086ceba5cd230bc1042f242b546dc1dc105e0b1da18b8a615973ea90",
        "l10n\/eu.json": "499ef2a988f5d46947e8a26bb2ae5fcfc16ff785829ce8d5cf8bc4a105ab97805b4fcac63a521cc7973aeac9ce6dec555d75e09a0750d95c99765c94dd226fd2",
        "l10n\/fa.js": "054823f86de1776a83d74570515cfdcfb7bc3232f3904c6b087aa1a8bd7337013e8f5cb2cce89509a4e00d22364b5aea5309b9721c4776c2335a07556b6045fa",
        "l10n\/fa.json": "b6bebdc79b59243e846037817c96bec49f882a0d8e8cc4b1ce0eeeb9bbb002b1e6bf3c78837ede4fdde408ae0ce04fc440b4f3135af2a778dc8cf41952d0a9f6",
        "l10n\/fi.js": "3868e2e587ebd6c54c4947eca91a06402b8282f05b8f617c374cbc38e914a3a32cecececbad37dcbb3bf48130391525a97f5495bdd9be653eaa6edf79dcaafbf",
        "l10n\/fi.json": "e3058cd81ac618f39a99098e2a4b7eb56da3ba95661c6c6e0d6fdf84aa25639b2c78255a44bbb95ec0fc339462abb0b787565e434f97ce7c569f62f889c23cdd",
        "l10n\/fr.js": "2b9aa328e6a7f870a95202d8936d066e5f0cfe8b4e517eac59de071d9d46bf3a7fae7a5a95ac3b537f59a164f3bf126e9b8ce7a07b61ce01fdd05222db2e026a",
        "l10n\/fr.json": "11f2e8a5da41e5f5ee0f22ee9184a581cb386f6840ceb7927082766778928e63c08b20bf42038cf5178e29b959a996f2dc63405e665917a856cdc6818c717a81",
        "l10n\/gl.js": "66d74aa19b7e65699089a3878498bfdd6e1e889af2b9d0af5cc94619701eb53d72dd0dc642943956488dc01ea6dc2a21a392930b0a50dffa1faaa683240a7765",
        "l10n\/gl.json": "6b6a06741662ef90c04d8a0228946f28be49a3a327979ead9b425a35b79ed5039cd79a0e219b62c291159fb7324236a787d8fa597f2ca76a7b496091b0e6ca71",
        "l10n\/he.js": "63f66bd22c89c8d997fb858bc77ad30f71020ce312629b8e86f51bfa9f9af5c28dd9e5995e8fde2a6186ab1b172ffeaa2bf16b853313b50d69cafdc530cc564d",
        "l10n\/he.json": "6c3ee0f48edb2e717b3ce4bc8f8bc5ae7aa0d4e4089093d45d573f74d3279e75b5c7f34f3ab6b5704127e3274ded0d2f9f2cbb00a41fd7bc78cd210553e1a43f",
        "l10n\/hr.js": "de913682710fd04be14a197869c6bd02a60e5f9aecf5d45b27d91989701b7338155ffed56497a0b0488cb59bfc85a56a7d9b2e3236fe32a0f00ed8249bfe5fc8",
        "l10n\/hr.json": "3b95d054334661a16b063b48836dfc266f10c0048ce9cdc23cccf19de866a82d85dc8f52eeeff4ab8e1143e33ec9d9e999bd3ab96adf1485ef02b28cf2e850ee",
        "l10n\/hu.js": "6a18dc2ece71f501e23655f9a5cb11fa51a4a811d64c22e048b47b90d22dc732f7da067b64fe4e32625f65d8bf6c4f6f27001511196b2d026c540ffd45fc604a",
        "l10n\/hu.json": "7354601404128376501bc2bc0d9a3be05c47df3d7d202eb0cd47fa984ecffa85300014546697a91842a90942898cf64d5288b7a1d3454ea424f3a06a8500d2bf",
        "l10n\/hy.js": "dcea4e77320c681416f64be29979a505e952833a636d49ee460de255d77329d6ad17662764fcc88497864b0ab8096198ced09fd4b1cbb26628bb7969dc35d7c9",
        "l10n\/hy.json": "0fd9e628a8ececb994de16ea50a5c0955a7f43f14a56c768c772ea648d12e91f7369dba70f6dd345862099dd43005dab96f1523e8a513c2b34a7816a23c75196",
        "l10n\/ia.js": "84233b6adc94a16e165135508e98c99238f35d191816d43a1611dd22b69074af5ec7cbe15b4766ee96c31a82c7a12435ae29861cf2102e917f9e70d512b57fa8",
        "l10n\/ia.json": "ed8e07c1c4a0238befcff35c50e107d4a7c5eeffc73474b84f40d6a254b33d6116f98ca062f07543bd86440f5e60229b48fee7bc6ea8deed567503ddd92495da",
        "l10n\/id.js": "27973de0360f654b1e7cc5edc932ddb1ea82bd0547639c4f5b020893e1e97fcaea161c6cdccfdce419b850ccb6082e232a3073896a8bf86ae1d32425625e7fe5",
        "l10n\/id.json": "99d3d11e8de096922bfd3f1184956e8339114f489b0dc51233df3e8843501c68d15e9a042e7d1678a3faa17afa0cd9d6a09a0be5a172454d447d5b2521e9637b",
        "l10n\/is.js": "dc3324f8c04e49c5a8dc5df530ea827ad6d70cbd89b3ff5ebe46f9110cc4a0d887a5c7db21a4f5d059c4ebca42dc86d30af30698511a2ecef1f257e444feebcb",
        "l10n\/is.json": "c45b0713c47f94c239eb0badc941b2f3f975feeb6ba851c775c55b141541d5e13f95044cb829746be489ae1b4e236593fcd499fcf317566e61f510bdc8d9188c",
        "l10n\/it.js": "6f19dcaec3f2722185aaa5657dd6d7b7d85fe8a305bc9b7227da4092001f3c118638cc5f42547ccd79b88a290ecde918c379ab7b6ee5dc1b9960305bb44b210e",
        "l10n\/it.json": "af79a37c953f3f81d7cd706e03cfd7bf2af4638fc45eaa87a471190452312e3b03a2afaee352c3d9290c801eb1452af859f10c3dd4dea23bd37761ae6835efbd",
        "l10n\/ja.js": "b8bcaa25cd5d46b36c91fabce58eab066474a9a093620221c40f10f28ca8739b5011ebea7004086f7d6d65189126979eb817f806eae779a020773e9fd6675d82",
        "l10n\/ja.json": "efda97c96a9451e29e7618273941e7fc3ec38446d84cdcc6a841d5d6d353bfda3f191e831cb34f7704f36a77b325bf083011693feb2d2d4a6a517e57ae3ec178",
        "l10n\/ka_GE.js": "9d7e9e7760a2260a1ee76fa492268ad4531b7a02e699297678ea7349fed998bf5a8bd0dd779c35fe7ec00247ade9b48afef0e591f218c80c8adf6e64e02b64a4",
        "l10n\/ka_GE.json": "dabaf3f9b6f0be6efb1978a574102d9abd1c5de90fcb4617bd4efdac43468a5fdf50247557803f19547c1cfb758086fff4308812a9fa2c15a7ed589f08ce712a",
        "l10n\/km.js": "da7e6f254be03c0b69bb1c07620d7c2a5672725712942a7276def0275c67509ec8189dea4c06cbc2dcff3573c76bd90ceb6ebd6152ef2cdc41a535098142a636",
        "l10n\/km.json": "be7032420349708e53d6324d4ba5a22e681f23bb1ae645faf46044db80451d4bdc102a341fe6591b3bcb6bad2baa43de275393a87e6a0f4f2b430615ea8750e0",
        "l10n\/kn.js": "e80391d8e5f9a80d0f076210ff13489e7ac21482af3c9f03f683337bfa08519cfb8fc3b82c637ba3f0e8d5d84a38cb9f9a35b9df0d9ecd2648f1ce5ba2150973",
        "l10n\/kn.json": "cf10d3e1d8a32e761d64121e7a3175259ee07a8e606ebcbfa4e026fb09dc32f347df0cf005e4e88c47bc2cc6fe38c52ebb9c1bd27bd0f1ad9f36addc625ee3bc",
        "l10n\/ko.js": "133df6136bd25f5fe85fbb75fbe58a548e821bc78599e246443c7be53a678c30b26bd31af2e0b6c72e58d66805a64b552077a021d8356974113d280b27b01179",
        "l10n\/ko.json": "8cc27c2154ee664074c5b7e52c705070baa71c5a57c963fdf62b47566eac9e017dfe2df553699fa1ed01be5266ae2dea12f97a598207e8f969b91f4c9c979160",
        "l10n\/lb.js": "15ab714f68572f67fb79e9307e41799966223c01ce76635f906eb2823f324799854f8f6a0624f8303b9aa5045230e1aee6bc1f782a54c29b76cabf79e3a059db",
        "l10n\/lb.json": "14d16a9caeb53ce40af3262264510884aa6492e8be87f0a2d4756c2a5201aa4c5787337bc57de1e76beb0c54c33dcb677307d554b10a75ec12d9aa7650a24076",
        "l10n\/lt_LT.js": "e31483094bd1fb826dbf24bc4e645423a21148f7ab55fdf0285ae37c52aa5ed2ebda42d82b6e216b80a77e67e946d5fd68582844a4bf3b7c07fddb00e9b3e975",
        "l10n\/lt_LT.json": "65974d76638d3adf8ec51caf4a5d2cefcf5d5c7ba393f33cd48d9d41093f0891bd6b414149e599d11628c9ee07ccfbbf8e70adddc987d34687fdab0494db675f",
        "l10n\/lv.js": "2dd38471252601b13eb07b2d03853abaca3b01aec298c60e0c32790c9488dce63874d12aeda4a7a5e78d585ebcd128db12e3f74451704a58e4a908ef7266cd21",
        "l10n\/lv.json": "cbf696bd89047f816b30f79609e0e3e8f0b8029795d6a0e4f7c24409c5e883361aa37c9ab97725fd6be4f3febd1fbab203fdb823166ebde5a1cb95cbe0423902",
        "l10n\/mk.js": "3deecaec63eac6a19d18127114aedad0e6ff116b318a80524ae586aa31cef7d4700091d6410bdccd0d6f0b2fea1c14328daa35c146c4edfe22e556d6d33296a3",
        "l10n\/mk.json": "5ecf5ce3aca5ab497b0727b0b5f811ae4d6e21d1e4f8baf01fe36d1b8cb0caca9af2bc75b0481a14b611b086352aa650498ab81baec69ef68fa43382e8cd91e0",
        "l10n\/mn.js": "78e7eb58a00a73c11caaf1f41a5f6902292756b3f9eee99bc71eb1b44bfb235f114458b0d6f824f3b58c621c59e650a09e890d1b95da325e70e988c55e75475a",
        "l10n\/mn.json": "c03ab3267c605a4c7430142d3e343829e4526c05d1dd7135132eeb3a84fa91fa52fa2994f2a0218d77c105fcd63679ab935c14b286a6c38d5f934eba814d34f9",
        "l10n\/ms_MY.js": "e15936f1aeabee548aafcb95cd6419587f9acdfd689993387b8d35199e9d7f34c25cb1245d5de6c98e6e19402e4ee55b572f0df68813fb2132d0db0973367068",
        "l10n\/ms_MY.json": "2c91486296d74a1443d67b8b6de277bd97e27b518bd22f783f2d66b04b46618caa87f4dffb6a30828259f1b4c1a85de234b300ff27abc239576ec6e816147317",
        "l10n\/nb.js": "416af451afd97002a8ed78cc5950f98e901c02c867b503c1af6c33dc7cadba39382d5bbdf7aa3c24eb32a73b0c0b9cff388683f627feffe72940fe7e04e77295",
        "l10n\/nb.json": "e6947b930430a6218d37d2a704d0b7c2020e74411cabdf7f3024ffda52d72a443fa03466e6f12a1f0e6c2c6c85b4c896ef135620a73e224ae30b5104e4f056cb",
        "l10n\/nl.js": "8ec53cccb8b3fd607aeaf12c16af5a50214ebf7f04375789f0e3093b83541cae438b0f3655c73159d056cc8978b226e2a863a0cac50d21e24c6700a5528618a8",
        "l10n\/nl.json": "0dc60f36dc0007fd7fe64b5839d8b99c5db4e282f9a9f9157e46de1b52b467f05af52c7011ecba4ea8f0fecdb82a5521808a4c0abdcf54f1a94836a1868f7d82",
        "l10n\/nn_NO.js": "5dd980abb7e399ee565433a8814609725cdcf33559946039227346620f4fe7b68b45fd54f68f633bcdac4952af3d924b3eb23a5244fef94a5f025145d76020fd",
        "l10n\/nn_NO.json": "2fabde606a4b865aadd2e06b05b0aa2bf03fb76f46ed25a8174ba4c0044faf1d98ea1f6a38576fee7aa4a76a0d0b414d279d7fefb864c4a9078456bf8cfc658b",
        "l10n\/oc.js": "585d8facb350ce2262c06724f86421d50f2d397fe93f68e6463f6239dce49308a1c68a7916ca63b32cb9fa39cf28ef01112c9e61a834a2dd8c2dfb144453491f",
        "l10n\/oc.json": "d1876eb7bcaf72970546d485c11645a59cb4948ca7f8bf5d82ea198950cde458e602d55fc7b3af9dc5c12c78cf9614de4a6dd2aeb9db67d4ec683c0d46fe3b7e",
        "l10n\/pl.js": "a37afd59c93adb472b20573e478b2782cc89d491b0577f26aa15e7038a3ceca41620e37f063ef823ea22648a183ebc76c73120f2cee3277cbf1389db8441c692",
        "l10n\/pl.json": "5df3b7feebdcd41fbdd66f4f8116b6e579b6588b12d13f25b33f7c58432c3c881f02d5d75a4fa9ba3675829d11221d89b8cef5f02be6c58272cd991743421aa2",
        "l10n\/pt_BR.js": "4ac002bee11c1f68f4159b97ddfcaa7c9f293fbde94962ec45d36099cf1a54e160c2eaaaa7df7aa87032e57a70e012c23a86f60c303f4a7da6cdb0aead807841",
        "l10n\/pt_BR.json": "be22e1a578d72751536cefca13548af1d6811e53c9b65eb49ff4c4a9f9f7e38f0b0ff44e7d161c4d45516c4d0e09612456efcb9396c224c038f09c565f2a1a8e",
        "l10n\/pt_PT.js": "17780f8a232f04c38967cd86da40bab713b41fb9200d18183c66b3e8d7919f247b380961ee076a352c7ab1fa02c973775995c0532baa99348bced6b60bab46f0",
        "l10n\/pt_PT.json": "981af037151d227c464a436a7339ec3bd912ef19f9ad8d301066c6b494d66e4cac69c1901157dd2e1684fccfa817b818df1cb14a727d1b17c4aeeb3215e7bfb5",
        "l10n\/ro.js": "08af171b9137d543dbc00b6d6987a7a3439b06030e533e8cd007445f8d8e6797c50feb22292ebd5863839c4c89246fbed1b00ff307a684a2f5f0e9cbb0846b39",
        "l10n\/ro.json": "58b24fcaabfe31a5796efb88f5de41e28a9ad5d4b24d8a9d6cac3769015b4c090cb97d734495547046d74cd9e3744e56fb47618f2f9593dd6d8be7a4075a1386",
        "l10n\/ru.js": "3053f32c4a68d87b034d4a031ad1bce98ddc681d0042449c3963a6d7753b8a55e26b1d548936814cf72ba38e0d8fc7b31e303d31ed92e468271c6775267d6d84",
        "l10n\/ru.json": "9814fc26ebf8a930672c5a63320b3ef6f7232f683a2e6452c47e75fd1c2c59c70dd135491581164c049fa02ee909bbcb0f6e9e4e2359d5ff5828d8dbe6e9ea09",
        "l10n\/sc.js": "c1c41a0ebb1e82eb6bc41d651adbc00a02750fe3d10554e4cdd2f9844dce859488194a134dd24a4e54a0b478e5b9bd0e2fc6172bfde24d3431d32c7a96bdc460",
        "l10n\/sc.json": "4534b12f05fefafdb02da691e3a1ac957226500afc6626156316c2330bb30c87d472237cea5244db0d69646f6160cf64418950b0865169ad7d5376e69ff3e3e1",
        "l10n\/sk.js": "72c88089728452794e74aef1bba9ed179520a841787503d03c1da817704dcd184db02290c99a76f1d4681ba17908b3bc9e3b1a61c3730741069b04444a656102",
        "l10n\/sk.json": "acabc2c7e6b6bdfddc04ec0701c29a916961d8c8ddbcd75713a483b284594fcd25befb08d6a21e80f16ac0645992d127013ef0b79a97b324d6bb6b56635e99e4",
        "l10n\/sl.js": "a96d44b8a0c621cd59445750f469cd8bee9fd8ca09f132f40a0c2a0648ef0216323d3401ba84e20c1826c6d0468eedabc625758fac059c3af03ed1720010c69c",
        "l10n\/sl.json": "cf0ea1a57d1912dc61f6034acfc54161188e33c0a0e2582a4b10d3fd599df27d6713314e40683ea259c197799bb05714e890b379ba7bdbedc6611daf3ee41c2f",
        "l10n\/sq.js": "b8e5b0348f82aaf4577711b394cf764ed08b0d9f2fb3267585d98fdf0cc41d72344cc573f3375be2bb39024d0932727d8f7ca9f0b68db8ebf51280670d3c6ff2",
        "l10n\/sq.json": "953f142c563b9cb4f400c5ced937d463017c3a65640da909b853e6e1de8f71032c8e97b46046e36d179ed132bc4287f31a08481b3fe09f36245a7d829f7c5913",
        "l10n\/sr.js": "47574a071b13d113e6d1a164804f9d61e00f6a982dfa6f526c6ba0a3479e586678bc36c24acf01cef5945d3e33d06c6f9a3b4d8b9efce3ebb9f7488843ea799f",
        "l10n\/sr.json": "67b87b13b37373abb74ab0ff84301a28580214fba06af223a122b4ce4ca566e0f41c61515f54a44224e89040841fcd11983b2e3b0175251d3eb01b589fd1ddc3",
        "l10n\/sr@latin.js": "4ce080a9380595a231f73aaf1951c2f9f7a8eacf9aa909c3250998a1766747b5171faab8c8a807cc2af5ffcc6d957f88b314908d9816b112241486bab47719e8",
        "l10n\/sr@latin.json": "3b682b4ede6253c504a65b287f57251aad7da3be8edcd8d56e0845516b2e24ab6a5540515bb6846952d38a4aa2c368ea54acd600a99db7d60c093334ec6ecaf8",
        "l10n\/sv.js": "361450d109f0cc116cc3059050e29cc3c4f755edd8983f0a824eac3a90d76ca2b087b8064c7e2e40626d1ce1d76fe641fcdd87015ab60690ccc4acba95254262",
        "l10n\/sv.json": "d2bd6e3446cd63191c0061edcbe9bed0730efa4f20d450da3e2f1148097c7a75c4e2928ba26a97e24ba5886eff4430b9345178946d76e007e0f66798abb25a35",
        "l10n\/th.js": "337e77a8819cf3540fa117495a465330d2e76bbcf6b3848c6b1e08db938d87a11ebadd1b013301f555ed6ec04c287dc65a8acdec4d3eafaf13d03899a841519d",
        "l10n\/th.json": "0af9316befdea526cde3511b7e3906ad87d434d890155111a7813bb667c5fcc8fa41a1576ac1d5e29080d0662f609a669a62faae7364e04f3d448b647845a7cc",
        "l10n\/tr.js": "219982f4d6483f8ae2a9fb71096a5e05bb56648039b740fc2169600ad8622ce37197c2f486ef52449765f411702778491d37b33b56c6a4fd5ef979f6a642d695",
        "l10n\/tr.json": "6d664d49a3c792ccf2583ccd6f0f2654c9f8995fa8b05351d5a07e7fed56e8c4464c7fbb50fb4ad56b4acab3cff9904e64a8f284b51fa77183a29ecb90a0ccfb",
        "l10n\/ug.js": "8f24ebf0075e5e257254c5b5f961f98fb2a8d131d9c80a899636a31f0dc4e69be2fc2cbca9f9b3c90d047aab8342d1deed0024d06b4b8d558aa3d30c4c64b7b6",
        "l10n\/ug.json": "aeeb300bd9d3880d318fee60d78c9c3a5a523172142748adf5833b4237fab8dea462f9223c9cd650eb5ab31d3d99f88db0786d0108f675b90bd93dbcd828943f",
        "l10n\/uk.js": "ab31ee85cfb83c957e266f2eba95e1e898aaec41e28ea0edf57b19cf9789ce1a250886d80e173ef0d12e9082aee9f590fda88239f6ce5b216101599cb0f71f5f",
        "l10n\/uk.json": "88be628a9bc9f8655e21c6ed077270fd8be60597676136041ac347f0b8956ffbf1e9a727caebcd198bf4aacfed7ed9ad5e561c37a78a607246ef0a10eccd2769",
        "l10n\/ur_PK.js": "790b7bb7095d911adba44989f4a95ce3c5a4bd4e4abaaadf0f21fe653636cbab0837748881715c78ba49187e7ea4409540bc2c92d7e201f9d748485451ea10fc",
        "l10n\/ur_PK.json": "0bc45b802357be3f47986230fc36aa62d80646737f25528ce7c879b19989e99c0c06e375b2acaa437162864322f8c8e495738cc8709a4e7f1824979d2f90446e",
        "l10n\/vi.js": "2483e0a6cc5efacc983a67bfbf535e43f222db436a6363fc149d934ee7d29d342cb6709bcd4fb0ca8ce2b5b35b6b3e9001466d0b0855bf09d1eb2a4b87e8b494",
        "l10n\/vi.json": "93981c81ac86cc57290c6fd896160c1df63539799cd7041e61ce67b13dae6675d21e800a2d6ca518bc54eadb6d05768f16e53c10a7fb457ab5bb11a46409db7e",
        "l10n\/zh_CN.js": "504c4a39cc1cc427c217cedcca881a418a81feaea81f07c8ef17d4578ae739195ec3fb7729e4a65b09595f871ef147e2d9bf46b96b5192b9d98012745e382b51",
        "l10n\/zh_CN.json": "ebef8a1189272e18144a63992fc7c7e97a42666d619f67cee6e76972eb97de4a1bc5457a2da33a28d983e766474fff3e93ac31528c9698438e3aefada46160e8",
        "l10n\/zh_HK.js": "554bb67f11efad0723a23b9df8c07290be384a26dbdc0baf4f5741d88cc303c48f14603fdeb6e572673aaa90b5553d191e3c6445555db8952e4381fbe42f9b24",
        "l10n\/zh_HK.json": "3b979b468160e0776ad13ecd3037127d4f239cfedb80a2d4f9ff9b067cd32ae632102408ddef97bf716b21bc017b9018cd48e23cabb83ff157feefe0ad169b05",
        "l10n\/zh_TW.js": "2f4fa99d45de2c2ec5151b2743f79997845ec9483c703b58907a9c194b8a4807b7f6313c5481d2bec442a6122afe838779fd71418deae97d2090e58295fbdee5",
        "l10n\/zh_TW.json": "2bc94d82953654214a3606746515c80197a7b97b6ecb42b9dcded77f1a1d7183065a46e85b8df451115988111be8900c3fa734fdcfbad76091d3d9d1606a30fb",
        "lib\/AppInfo\/Application.php": "19db7684efb737d2c33c1785a8d007a5fd98c9d00627dd86c845c1dd36dbe2bf81acf1c17861ababe8ff1cc802fcca874c0100a2c1921df7d0bbd1fba889b710",
        "lib\/BackgroundJob\/CredentialsCleanup.php": "43880d445797d6e8a5638e7bded8852bb9f7c34cea2f9315eb189d64411f17c19a875fec7a71b39ecf7aa46f61eb4c932cbedc67d1bde9e6ac3bd0d0edf87268",
        "lib\/Command\/Applicable.php": "67c8f6f40a096dd55ee3f1f6ce37b869623dcb823a10c1fecb856db87d8f7316b2a30bbfe60df534e899711a70db96b3ae93d5e1d52b03bd17fde20477490cf4",
        "lib\/Command\/Backends.php": "8be8b050b5fae71a0a506f22a1ea202e28810fcae9b20bc2bdf8af1bd55176f7e39b868eecf182bff7f422451a0629c7054e70c5a0e3b95051a10c11f8928f72",
        "lib\/Command\/Config.php": "7a1462e094e2811c1b749f2e9b507bb04528fba9bee5926ac03c035dae9818092de5f9d013171dcd1bfc6f4230f17d92d02313d984e36f0dfaf6345e6440889d",
        "lib\/Command\/Create.php": "80c2207e5344d88204225b2c8c0f939a2e7a8bd21dd145f202c29fea8ec49e45491c3469b5e68c69fde7c024686faac47a077921195fd734326f9ccb2aa57785",
        "lib\/Command\/Delete.php": "9c719b66ce3d2a8fca772ac960babc0bb2255337012b54c56e5c7cd51ac74660310584bbda2814562113edad0010159151533c93b0303a21b08eb927952e43bc",
        "lib\/Command\/Export.php": "aacad50b5266d93f1694ebe0560383ec898db76edfa10ac090355cde07794ef85a98b4d60499bed29eef890a285561670358947aeeefe32fe6cfd5548d30ba5b",
        "lib\/Command\/Import.php": "7a967175833d064471ae25659afbd46616a8eadda0cccfea6e2ce7781b6585593c44e36babd71e5a9eed5b6a776a89329c0025d060ea0287f3dd33f4ac9b2d17",
        "lib\/Command\/ListCommand.php": "fa64374dce7bf92c6be3f0b72e226934b914cbef963b80000f57d729f86245bffb8947f12dfaf62b4ff3c9c5ed96600e3543fcc14d47e20b96499052b52723b9",
        "lib\/Command\/Notify.php": "b4693b5cd4d18fa4170cfb51199a0bcc2ef11e17b6e4af35b13796a950af4282ffe70acc36d9956c2077fd7203b40ee8dd51b2c0d6605cd44192a8c056b34824",
        "lib\/Command\/Option.php": "79e5bbda3b282b32b88fc0b98a539354676f703109bc430565270fe64bb9d82094ce99fadcad8f368a2b3ddd6261cbdbc7488a26493aaaebe57f3fdd5b39f523",
        "lib\/Command\/Verify.php": "f75340fb0072d6806fde4af84023ddaf20bddd78655878b420f8aad15a642fb78b0d0fc3fd9bfaf4d1c7507e7fc2101b65b2ed94e78f55b0068cb11c131505d6",
        "lib\/Config\/ConfigAdapter.php": "a1e37b21444826f219445b3f9b00d3c8d5720384872caeb328669d7e81b28bd94249a35782f7a4e04fcd95e5e4243dd4a2a1a45dfdd9095c2f8f2c443c34aa1f",
        "lib\/Config\/ExternalMountPoint.php": "869cf07a8d118dd9ffe5b97bd34717c90a4d5bc560ec4884bb8cd5f79e901239bc647ccf59b5d51148859f7f851c7c3f49a916ba7d1d08dd169e9e3432dc8b1b",
        "lib\/Config\/IConfigHandler.php": "535661f013ac698d9724016a60d48c3d7aebf2f1ca17fe1b6d92a43c1958341a5fe6c8d3899a704a6470c125926326c5947c21d76ae51f90fead82c6643329c2",
        "lib\/Config\/SimpleSubstitutionTrait.php": "47aaf461de1d3f2c019749a70243a965a07a47108cefd5e70b56f9217adbb6a65dbe5348c90d45240646b05e71aa5d33b30b4c15abcacc1986c446784941e17d",
        "lib\/Config\/SystemMountPoint.php": "4f60e38d63156f35cfeed7c845240c47e760ae10a4e369026b0571a62f501fb810d9619c5362156ddd1d6647611a13ed91a3331af90b1b01eb19b990b8eb9a13",
        "lib\/Config\/UserContext.php": "5594c91894f2806f6bfa529b7cc631ef96acd8a20ea783784d9a7c7095da6ec10dd57583c5c3d3c2e1b44a6a984d246f76a61668770f331419d7fe6f835beea9",
        "lib\/Config\/UserPlaceholderHandler.php": "a663204db49bd715af5e65af459ea620bcee360700b41fa1edecb866bf1fa46f5de40940eef60ad54ecf69cf86cd83fc763e6c0fd7c8820cea91eb8fc28063f2",
        "lib\/Controller\/AjaxController.php": "fb5b283d6255068bad3e6c66c453a9248ac541c8ee3e6a3ea172b72edfa086bc93c4941f55f7c70f0952d43d2c5003a5d90df65def137fa6d279c918e9b6acee",
        "lib\/Controller\/ApiController.php": "0193d7ab091b12aa9b6c0b651780d0a951bb9e10042110d1e5d17716aac2cc009cbb1b36b6b7f2421b245e0c07719472c7492f2bbe3ed7ce1612276a5f0a0dcb",
        "lib\/Controller\/GlobalStoragesController.php": "4f09c04afd6ed0f7f434c52596c903dcfb89133fe0259ef36626071270ab2406281d8e2fdcfce144bdc9afc9de58f4a415580f94e03dad76aed6f18fda72ad2f",
        "lib\/Controller\/StoragesController.php": "b98d005d678695db6cd0b98110a4cafa8142a28e2514f606a88ae626d0bc469e475054f83922202608f0820d697b016421c0e25aee86efb6879475e880fea40d",
        "lib\/Controller\/UserGlobalStoragesController.php": "f1458ac3c057256f48aa3b48b76f4a91cfd104c31c597fc1d836f0b2824d7eb2e0be691fa03a18e2bbe3ad461c333d052c13a7fd3d423d4542062324f1bb234d",
        "lib\/Controller\/UserStoragesController.php": "693fb15d6094b3232e6e6cbba3bfb2be20e30fe7fdc5d2f8af39d9e285fd671db40ed3c5a1e2e135eeb2876d74fd2db98c03ec14263b30ee2075749d4e291cde",
        "lib\/Lib\/Auth\/AmazonS3\/AccessKey.php": "2a3d9d6116b7d62052f70c2e4e58fcbd830115ea9eef530cec011588b023f11eed7b1a2d23ad28022ad02bb37bd15886e3a95676275cc267e6cf0bc231e4d8ca",
        "lib\/Lib\/Auth\/AuthMechanism.php": "f8042fface88f0191408c2f2f42d1c0287c7538178106f7a9076ff5e7cd496416c743c304dcb7b34bbb13f104709a31726500e1636f267ba9d6d9a8c72c4f28e",
        "lib\/Lib\/Auth\/Builtin.php": "7cc69bab40cfdd1f4b821f5f0a96f0bd53a0f698ab822d530885bbdc9fbe21da554b9d7c1c484083bddfdef6de1869dcc1dc14f543df65e4d2f9daf0ee50926f",
        "lib\/Lib\/Auth\/IUserProvided.php": "a1d9b8ee79a74ed247c87a72f98c5e8287a946f47958e29601031b433203c377ee05481e719f33b3dbb7e0091a9bfe8f8c2c1b960a843c8c3fc3e5af40356d39",
        "lib\/Lib\/Auth\/InvalidAuth.php": "db04f2c4c703f5bebbab2a34d2a5184a6ec416f556898ab0e999d8eb53c43ba85033a4dd43b24f4512e1cab16142d9404cbbc4321a9ab7c999f96d2023b279d2",
        "lib\/Lib\/Auth\/NullMechanism.php": "e1536647fa498178ba91c984ef35648162331cd23c109e2d30ff62f0271d6fdb46dfc3f95f4cfe058c0ae5323c0133fd6ebe05bcc0fac32f387c225f8ebc96c9",
        "lib\/Lib\/Auth\/OAuth1\/OAuth1.php": "062f61cc2de6aeae11000e6fe5f008aaa653bea7e2fa4a3e2b7e13e1f2b28446874791845714da683c18164d6b3c1a779de7255c9231a08f54712d35d51a89dd",
        "lib\/Lib\/Auth\/OAuth2\/OAuth2.php": "2a51b06e6e9f27da06e0735065d7fc3cc7b7c0acfc936a9766ccc54b15cbf07a8fb19d15035f41a6c3d2b89ab2d2ee38d19bf114fa399aaf3b210c115ad51f30",
        "lib\/Lib\/Auth\/OpenStack\/OpenStackV2.php": "5b7dc4bac19dc77e552624f436d279cde075db76b59aeac99c9198984cf2a21b338c800e1d0bf0faf0794ef1cc7c848a28db4a6aec037ca4fde330d15a8435d7",
        "lib\/Lib\/Auth\/OpenStack\/OpenStackV3.php": "22bb11ca89dbbda762900889b4e00128753b1e86b8f1ca4515b222ffb01d31aae7a168caaa0efdbb21a7cb1cca78dd5aa7e998c490e43b958dc34aeded571855",
        "lib\/Lib\/Auth\/OpenStack\/Rackspace.php": "c118753cc907fc393381efef8427c394261d1561012dc148d61cbfb64bebebaaa6046bea180341f69d77b4828ce129c1c3e187c23c7ff02017f7ebdfb83c8594",
        "lib\/Lib\/Auth\/Password\/GlobalAuth.php": "6f717631f2838708123c274b47156b91b264adc3ed974dfaff1cc3b0a79c16329c8e4528a3f967529bed6256a7f01e9fac1eddbd987971dba18a8b51e7ffdfc2",
        "lib\/Lib\/Auth\/Password\/LoginCredentials.php": "ca19d65ca8ba686c09a76a8198825953ae44c9b953eccfbf557f3c3c6a32f27d8489845cfc08cb5b68126262fda084f773d1229cdf56d5404ea84ac730a5cc4c",
        "lib\/Lib\/Auth\/Password\/Password.php": "71ec5fe7ed4aac217ad6e7f8f5f1e53b6893682235f074b034a4dcb2c8be0ed693d5b7793b6edfb01b294561b10f097ed99edb60000d1f342609f3ceb144152c",
        "lib\/Lib\/Auth\/Password\/SessionCredentials.php": "19b9563fc23ec89ba7a2f1fed8983ce2dc69c2b8fbb2e2adaf8b3ff85a726c1ab18d1861b6b12942cdc62633af2e9539b88b4a98fe52df61052f9b30182b8cf4",
        "lib\/Lib\/Auth\/Password\/UserGlobalAuth.php": "23a60a74df8e97227086c35a2c6ddadbf03609c233fd1750a57d0664e8486e5b21a89afe9af661358b3f9ec0d4147819113b903581474115713f1e69420202fd",
        "lib\/Lib\/Auth\/Password\/UserProvided.php": "a9d8ffa7dd504c32693e16826a8eaf69c4e73470eda6b390ca088c92a474c860c47d81de82eb790c04091689f618b321c1875c54585c2e47de001f9cb8dfe658",
        "lib\/Lib\/Auth\/PublicKey\/RSA.php": "852157ccc865d231fc11a42c657135704c38e53dc62c311064db2cdefe7592672145b288b8f4fece0bc58bdac0a72457cffefac6ab8dff9eeaaf84873f7dd6b5",
        "lib\/Lib\/Auth\/PublicKey\/RSAPrivateKey.php": "df136d4d4b11471268ed97a34c2be1d8ad85c7aa63d856d85963d21e0317cc8e305603e8d9002a71b359efe46b87dffd65faf1a3b96b1c04218c6c8e6baf34ff",
        "lib\/Lib\/Auth\/SMB\/KerberosApacheAuth.php": "15f78c15fc45da60454c656a3c5c59e7131e3f2f632ba1deb205e71b7bedc345f129b8c3fe2f6fea535d9361c7381c5499d08869ae21a377d8a00ea6b735dfa9",
        "lib\/Lib\/Auth\/SMB\/KerberosAuth.php": "831fd5a35d3f9f160211dcc3a0a62669a1c13d2c653235dbf79a0f91032304ccb2fd644ae859e52f700b4c40a4f341cf4bfe685d611606632540344067245ffd",
        "lib\/Lib\/Backend\/AmazonS3.php": "46c3d8765e9c2c61ea4f4e4ca58df0f35680be3f52f3b49d5a4ef9de92537d2d8eeb3d25f4f3f92a4d2042807f25977e4c86d02dfe942a9678d5c3db31054f47",
        "lib\/Lib\/Backend\/Backend.php": "2e49685897ae2363b860c535f5f3630a7309ed5ee2511c9932b9ba8b464dc1e17864417c3e74fc5cc04a71754e22e63e63b1f396600e266599d519081a767e11",
        "lib\/Lib\/Backend\/DAV.php": "195329598ed1e9c9bb9038d5a03bc8a39aea39d82d80a159e0dc874c2e7ee391ab0fe3fdac30ab9f95a13d51f6ace512a0de207369edbbd77e6c6606ef64e6fa",
        "lib\/Lib\/Backend\/FTP.php": "6f269e827fa713d1390dc3f10307725a84acd9b3378cd7d593019c06fdf16e6c5933836982474ab6d57c55931ce5b0e1e66af0255af3975503f8aefc08fc3611",
        "lib\/Lib\/Backend\/InvalidBackend.php": "c4e653374cd58f294cdb4a0d43e82e430a9e17737b256f09656f20e7b364b2604116be3d783a34916e62d11083beda8b6141555b9fa0a6fbd9316a132a85b290",
        "lib\/Lib\/Backend\/LegacyBackend.php": "d705195a38885200aaec6e47279404a2a902d305d200936ebf00dc5f6044e3cbf9a03e9b8f0a5bc95bf2d034c1e37f0a5bdfb538f3723c0e616fac60afc31f8e",
        "lib\/Lib\/Backend\/Local.php": "5e179ccaf98e069125c2814324a82d824a823b3023446e84cdde730f1456305a6d7b9d08afcd7b5d63f3227d6a10edc098212f4d9e5bb801ac6e2f934cc81a83",
        "lib\/Lib\/Backend\/OwnCloud.php": "b5afb60e246aa0ceb8d5bd76210c93749a3c473ea0993bbad52c22c2c514f18b83422d12a193e9f8b17f8043edb67502274a73a5d9be940e95d5f6f2e26a5d25",
        "lib\/Lib\/Backend\/SFTP.php": "00264847d4c1573572b54851530bf2ac019e6c4a2899bb6611f443f33dda5fad4af5247f2d6775e74f52e0a4c66fa5f72e0a30a0fb502b1c00a5eb5c9bb01a21",
        "lib\/Lib\/Backend\/SFTP_Key.php": "07e91154259d2311f0ccee0fb8c03a325bed712ed13f97d587876aadfd65c4f5d3fbc268d0d5abad1e833c608d84c9d07a9909def64157d37e31a9bb3324c118",
        "lib\/Lib\/Backend\/SMB.php": "5f5a212337d42ca24f4daa9ad88376974f67ddaceb361a20b9ed649ba54e7ecd0162ea29fe6a4f293c0f0578d921318b009f085b1093f4c91ae4c187dc7d386e",
        "lib\/Lib\/Backend\/SMB_OC.php": "58ed7c1e044f9051c77704e7799eb4f885ade1d14352a25fa90d8f21bd654066124fba25bd9ac56537dc8526d91057f5705588d4e1f8a32c00233001e77b77f0",
        "lib\/Lib\/Backend\/Swift.php": "dd3f55731f81d71aa2a8c312dacd88b4e9482f86ca9f6ae20b534190af59cbfbeaa9d33dd6c9e08709ac404ef31fe97fa0ca73724f5e885e505acf560501a613",
        "lib\/Lib\/Config\/IAuthMechanismProvider.php": "9cd6cdf2cda1c7a56e9784e57bed9e64270c1c9c4383514b811eb3827aee37ef7d6309046a19e0bac24ad0161feec7078d3590a5a2d4a9cfac2d09bf8b388fb8",
        "lib\/Lib\/Config\/IBackendProvider.php": "f2c517c86d8ccc8657896aeaffe51029bf12aed8eb3b78ad253f8db137c353de9ffc77b811ae840104d9ab98565fb5070046421a7035d128df050eec2474b007",
        "lib\/Lib\/DefinitionParameter.php": "ce72862b827ce95b3525df0943ab7720e23d216d3bdfeec7d6e87d8fbf9dfa9945af4b7648ad32e9f9964cb05b574bd0bdf1aa0024fcbab86ec4e9a66bc2e552",
        "lib\/Lib\/DependencyTrait.php": "a6987f866a436539de5f663ab3774e988099e81b810df83cfdeeb7275fd4a0c7dda63482983ef0a347fd649070c27cd74451ef1f36133fa52165cee7f84b305e",
        "lib\/Lib\/FrontendDefinitionTrait.php": "5b8d3ffdbd37238fb5329c43e6aab0de9b8523464e4285ef9ceb2a2b8248c058962ac53580cea377a89998bf5173b29039d142ee1bfbb58245ec4190a80d2a77",
        "lib\/Lib\/IFrontendDefinition.php": "51c0adac40298d5224c1d9bede951e17bcdf102e46a90fef6e63371d42d1e3a8b950952e51cb5976105d527f1260d0e5cb0c98a4fac7a1a795c122af358a4137",
        "lib\/Lib\/IIdentifier.php": "ea0031ae59bd147807fe465f9a63787c38e37d2f00c220a3ffa6ffd4b498abaa2d1c871ffbeb97c9572d7da9ce61b6b368da51bd2a4aeba336ced238e8a9c143",
        "lib\/Lib\/IdentifierTrait.php": "1e9821b914792123742eaad3a93aa0bef250654ef0a42de4b0da660ab4783f6c3d153f6e51e5e0be3786ef69ce87d8781b7dcfa0df5cc958065ee7f97754dd37",
        "lib\/Lib\/InsufficientDataForMeaningfulAnswerException.php": "48e6cf030f79edbf004dc4bee22bf5a59254e6075478f087832ae92923e355785476f57f2f424b4cfba58e0404cdf45c4e550ad8f4eeff9e157ed3acd8038e69",
        "lib\/Lib\/LegacyDependencyCheckPolyfill.php": "4abf85511d7bb8d073043812e02be9f35278d3ecb7263f3b92e8852691eb35f769f9723f47f22e508572e24e01f6cd160b715e91164790efb7028dc807825b66",
        "lib\/Lib\/MissingDependency.php": "82f6b48b154d349bbfd9a0a895d0338d7524aa6319ed60b61eab55ed2cfb1eb654a3c25e4c9f3adbebc1f82bbdd3ed8a2e9f76dc4e5f8c87447dadee72eb48bc",
        "lib\/Lib\/Notify\/SMBNotifyHandler.php": "71adfae3fa0a22a48814cea502876f9b2f05a08808dff28d714eb4b3077f80d38556edd14d7962aef25702d6085e215a2e8df694868e4820efaae69e87c2eaa3",
        "lib\/Lib\/PersonalMount.php": "07d3eb558c6919f2157981349766f0a67d35a7b3194ceb2b23e010aa829f1796be0a638b599753ced3e2b5d0d1c94d13974bb127c453a50dec96e3a8c8c08fcd",
        "lib\/Lib\/PriorityTrait.php": "6388deb22bd47b5c58c62a33da5de249adde8c7e0b8dd654ad078878d650c0e052d0842c88dd2c9ea56c85baff200cdbc799658dfa91138c118117e070f2a004",
        "lib\/Lib\/SessionStorageWrapper.php": "9fc2ab783cc5638a1f701301ede1d434d0ff8e6a0997d391fc1be60b6deaa290779f38ac18c41738f01bee1da6fed32b825b358dd4a0ece5e532c5bcd3976c9a",
        "lib\/Lib\/Storage\/AmazonS3.php": "b130442a50f76aa7757e58793b28c72ed365d471e2823b6a1d263cc3af138aab74b5e5d8908909042cebac361e6e9d6c8d3be0b3aa831e528a08d0a7735567e7",
        "lib\/Lib\/Storage\/FTP.php": "e2183ff738ae8d19bb3fc1077c0f6a37c6f02b7a6f31512ba4454669a3b55ba054ec521f7556c7ebdd96706def3caccb25d508c0ba5368a9338daf341535df82",
        "lib\/Lib\/Storage\/FtpConnection.php": "ac1d502225097bf0ccdbac20193665e71cf3682b5f54c9ea8d420496210c25f2b97939c36d47bd1d66e712b2132a423e04f64b45745fd8db73075dfa1fbbd913",
        "lib\/Lib\/Storage\/OwnCloud.php": "0e3cbe93b768493387a11465d635dd62f0b4a61971c2d753b09b9bd4fad8ecb705fc74e040820e163975c9986269b772f96143b1f32bd2054bd5488b657f5f77",
        "lib\/Lib\/Storage\/SFTP.php": "9585e79259ac997ce8536000a4279c78f6777870760d05c63fd60c3186ccd2d1bf3b48dc22707dc7013ce5bbc1ec3269a5f5c1666d624fe827b3068d5aa41a6f",
        "lib\/Lib\/Storage\/SFTPReadStream.php": "cac9eef7ec8cd4aca572b7763f47a393c0700ca84afdbfb8a233e24b3d03a39f302534a24978a5d6ea3bb9562f4eb79dc1a6b82309a58fe38c9fa6af2aa51e63",
        "lib\/Lib\/Storage\/SFTPWriteStream.php": "45bff72de25f30f6816754140f5b688b13f35da5ddbcac40e5c50b42eaf9f61fe0e9255f56c32d4c4b767234b3a56ebe239c1b3f19b329f7cf2dd9b22cfe393e",
        "lib\/Lib\/Storage\/SMB.php": "c112b60b2a01dbd825478f030b089e2f80338496703e0ed2f6dc6756cbde41e7824fbc84048818b5b3dd23b9c653b41699846e3e049be261e10b2a814dc1442d",
        "lib\/Lib\/Storage\/StreamWrapper.php": "ca939ade3ff1bd66bff41371af66ff59bef4b5c776061871f42da3b6c5dffa356a6effc453a22faa5a3b4fb8b80f843901250c2b42e48fea87fb2585159ff532",
        "lib\/Lib\/Storage\/Swift.php": "dfcd41548508185fbc6daa1aaef56f459fc7f1ab5967b188f544b1bae4b9f4bd02115262f21c81d92e351faab698f3561a21aa11556934355d805b8917226a39",
        "lib\/Lib\/StorageConfig.php": "9a7622806f1dd505e11cd86d84b646f60dc62714627d1c087f4d686469ff11b8d2236db026cd6fd986a97d070dce5db2301255ef175963b88eb40008fd4f617f",
        "lib\/Lib\/StorageModifierTrait.php": "f8608bf2911bfbcd93868a2746b17d8c575a0276170958f2ebe83f1e40c28115527d7ccdb100e2d242467c8cdffa2777f2912048422dbb0a2c654309c4de2ce6",
        "lib\/Lib\/VisibilityTrait.php": "0af4ef2972c3bd012d154f4444080cb9cfd8a1e0dc566093952ba5af0f5696c90b415d3e3eee87e0157c610aefb0a61badc4d37050d1b0a83f085bb337bf1cdb",
        "lib\/Listener\/GroupDeletedListener.php": "1b06885f2f49678db6453c1c249d72cb8d5fbe95500562b44826c88cee7aab9d8dedeaf418c49194aae00acc28dcc0a65ddd1e7214f76540866320ce7f303df5",
        "lib\/Listener\/StorePasswordListener.php": "60a74159d31cc1363b6a156b799f9090959f8e900e93c8da8da239ba11f6c073a4a463d4420432491f59ee0f851d9103c17c03fd6b5eb2261e238ad565750d55",
        "lib\/Listener\/UserDeletedListener.php": "7d298da148a1b97645cf19c32839ac067c9a02455fa2a1a114bc1ae574e5c373a1c3c90ac8b89e26e72487879e38ee6ac019d17d7a148658a9ba1c856617ab1d",
        "lib\/Migration\/DummyUserSession.php": "d2ee2b4eff5a588d851389fdf3054b2f56e8fb564c3b69d9c3b1d0984f67931088ae6510b23a5257691b5778ba86da93032ea5d14386343a8998f74fd2ede757",
        "lib\/Migration\/Version1011Date20200630192246.php": "c08d9d5361bc9d183f7a68ad47a26ccad9a3a72e4f333b3e215e229a91539e8d43dcef9550681de6ca979b1bc911967967b53d4b64206881fb6c3e6ef41a0dad",
        "lib\/Migration\/Version1015Date20211104103506.php": "09a6531bc896839ef74fb17261a33bfa4fb8bb7484231edac8824fa6390bc1f46ac0865283c41c82689c31b1b69b0e5c7104fb12cd453a439801434958129ca4",
        "lib\/Migration\/Version1016Date20220324154536.php": "1b4e5d09b7e6dcec42c692f1277930227d6fb584e5263604f5503c33ccb09b688d71d411f6ac6f7463952efbea30bc36564fe8af88d979bb578974edd6760d04",
        "lib\/Migration\/Version22000Date20210216084416.php": "cd06f6dfce5b9c833e043a39e58803d4ed59bbb65e68914abb284cc1c66cd044570fa4eb0706f0465fcbe66266915eeed8b40a72552304626e14c408189b7789",
        "lib\/MountConfig.php": "f01b225cc6dafb87197738f4c1d5d505daad755666cfbe180d9c5487abf93380201c02d16dd6d8c5647ba3b8691df58e1b1c1e8eda52cce97d579edad0718918",
        "lib\/NotFoundException.php": "7df8aaaa740d94bbe436593b2f1e9c52d406bc11909921311430dc5d602c307694100300cd57ed6d8856ecef592d501ae3db8c91950c4b8dafd21d6f4d6439b1",
        "lib\/Service\/BackendService.php": "e346d489ee963754c48ecb17cead2ea2edc98cf419d969ed6e727cd114a48dc0b9eac0c92a35839ba34eadeb035cd997ce2bf67abb6150b607c500de3eb62af2",
        "lib\/Service\/DBConfigService.php": "0b4e8b398770de842b93e44f8d00efc1b4916dd208e135d76aab31c1e92577ceeea60f23488dfb801437015ac9df055ce9d23a014cec31d39a301d237f9602cb",
        "lib\/Service\/GlobalStoragesService.php": "ca3e54e0883603e1620d597be259b3f7bbbbdd558dd9c125fffe9cd780b81ce996753ce543863a54bd182388a0ca2624e76d3ac992b4a5a37e880ff63968ce9c",
        "lib\/Service\/ImportLegacyStoragesService.php": "938a015c0931697f3e8596aea3d041362b51d1126eb780fc9954bfac1a24b7d51d31ef354265c187f6bdd0d78cf2f80a3ba90d1ba019e879bbf7721ee09d272d",
        "lib\/Service\/LegacyStoragesService.php": "407f904072b56ac82adc69913223b5ba85bbf8003e49201fa0e3b4be49ff2be96d3c7f156d2b00f5e540095c56afe23fd15d8f1d102dbcfdb77ba636264a80df",
        "lib\/Service\/StoragesService.php": "eeb48e850b2f7eaacaae47ab6f4a037c4464d7674f1a8a0f1880eb451e2c373ea68e2e8d351543f4c67d1970508c8e9f320d4ac66f8556235b617712aec16b14",
        "lib\/Service\/UserGlobalStoragesService.php": "ac758f40aa84b4a67ce407f45357efb3c2f3432833d84fea11deca24aa6d33d8d2e4abeae5b3e5aeade3f856ee53c4291fd2f7778ed0c79edcbd127504663a91",
        "lib\/Service\/UserStoragesService.php": "bafadb01cbdf72384723970eb0838d1f35ca81c2e45eaaaddf807d4697856027319b9d2fcb097b7d6417813a466a48b1c323b8ab2fcea781727ff393f0907cb7",
        "lib\/Service\/UserTrait.php": "8723930dcfb02fc55561e2bf5f2dfc3684c5c43caf4ffe069d587c01e2bb6751da7917eb154f151f24c70de699a942c19a6cc619f5bdc131e513e00f6f4124c4",
        "lib\/Settings\/Admin.php": "402cacf0fa10f5f9835648fd18797450b4dadcfafdd02fd7422a884688627fafd2b49220ad01a22536d06748e1c09e2660b844d52ca8f7f9af6690f5b419e58f",
        "lib\/Settings\/Personal.php": "9b26910a66f1c36e74592a4ea760551c8e2f51e3837833028cef480c77561e82b1bc52a385e5c3d7799aca27719d6caa22659469f32d1f3bd1a7e933daa5c779",
        "lib\/Settings\/PersonalSection.php": "e4af4f9a04f02e43382f0d0053aefb375581ad237d07b08734322ecdd7beb316ae8cf4efe302c1b32096ee8710676d4d9a1f5fc74f09058617e4905066549228",
        "lib\/Settings\/Section.php": "961e7f424fdb6dc7640540a8d220860f6664c805b6498d89fe0da59c4866081aa2a933617f38a0e03a15be1b6b81b6c9d80b8b6d14bc7e7cd7c39cc82ddf1d6d",
        "list.php": "585b0662ea3881ea70c39c6d2aaf03df21e893399f9a33ef549941448cfed03c72d2fec7c33bbcae82307174912f72148e3cd6f91211f9f1352509c6da80f4d1",
        "templates\/list.php": "cd352ec6ab2b0d761e5cc972ce03a148a9d3d7ffaa6ef18f1c8d99624da5e22168a36aeba28eb6bf6251dd21039db96a25bcea2e134d1ece4775593c14894a11",
        "templates\/settings.php": "d2f751dd21928ddb74973222272c5b7030981b2f6c7fd4a0085b7478054edb01deb836f14894d83ef2ea75fff54c7b029f335ac73e8830e76ab71132fc0301bd"
    },
    "signature": "QP\/ZZOgYPMrcs+v98i7MPEr+9FIq7f4fJLV86BhQYkIPs+t8yY7Gj2ET4e7PM9A\/ZoW6KV8tAYQrR9kbgEymYMRMbzAvcB9Ikd1adWLmWrxWfH5JgFlWCVwX06nG0hFinoN0krPMemZbUQR2SzB33lABZFCmmO8whGQQXWcjAopdkEYZtNJsESj1oNzImoN0ahe4KnxVAsfF0cPQAaIHNDOf5k8vV+obSAaMbhurzISM2rWzQjhgNRz52yTAdZVJ3WPk7mmktLgAaNe58lA9GfG1Ti6wR\/UgMM1vsVmwgfVutr7sWNBgcMbcNlz0cp26cEiOaWynohR+l98TJtK02g==",
    "certificate": "-----BEGIN CERTIFICATE-----\r\nMIIEojCCA4qgAwIBAgICEAAwDQYJKoZIhvcNAQELBQAwezELMAkGA1UEBhMCREUx\r\nGzAZBgNVBAgMEkJhZGVuLVd1ZXJ0dGVtYmVyZzEXMBUGA1UECgwOTmV4dGNsb3Vk\r\nIEdtYkgxNjA0BgNVBAMMLU5leHRjbG91ZCBDb2RlIFNpZ25pbmcgSW50ZXJtZWRp\r\nYXRlIEF1dGhvcml0eTAeFw0xNjA2MTIyMTA1MDZaFw00MTA2MDYyMTA1MDZaMGYx\r\nCzAJBgNVBAYTAkRFMRswGQYDVQQIDBJCYWRlbi1XdWVydHRlbWJlcmcxEjAQBgNV\r\nBAcMCVN0dXR0Z2FydDEXMBUGA1UECgwOTmV4dGNsb3VkIEdtYkgxDTALBgNVBAMM\r\nBGNvcmUwggEiMA0GCSqGSIb3DQEBAQUAA4IBDwAwggEKAoIBAQDUxcrn2DC892IX\r\n8+dJjZVh9YeHF65n2ha886oeAizOuHBdWBfzqt+GoUYTOjqZF93HZMcwy0P+xyCf\r\nQqak5Ke9dybN06RXUuGP45k9UYBp03qzlUzCDalrkj+Jd30LqcSC1sjRTsfuhc+u\r\nvH1IBuBnf7SMUJUcoEffbmmpAPlEcLHxlUGlGnz0q1e8UFzjbEFj3JucMO4ys35F\r\nqZS4dhvCngQhRW3DaMlQLXEUL9k3kFV+BzlkPzVZEtSmk4HJujFCnZj1vMcjQBg\/\r\nBqq1HCmUB6tulnGcxUzt\/Z\/oSIgnuGyENeke077W3EyryINL7EIyD4Xp7sxLizTM\r\nFCFCjjH1AgMBAAGjggFDMIIBPzAJBgNVHRMEAjAAMBEGCWCGSAGG+EIBAQQEAwIG\r\nQDAzBglghkgBhvhCAQ0EJhYkT3BlblNTTCBHZW5lcmF0ZWQgU2VydmVyIENlcnRp\r\nZmljYXRlMB0GA1UdDgQWBBQwc1H9AL8pRlW2e5SLCfPPqtqc0DCBpQYDVR0jBIGd\r\nMIGagBRt6m6qqTcsPIktFz79Ru7DnnjtdKF+pHwwejELMAkGA1UEBhMCREUxGzAZ\r\nBgNVBAgMEkJhZGVuLVd1ZXJ0dGVtYmVyZzESMBAGA1UEBwwJU3R1dHRnYXJ0MRcw\r\nFQYDVQQKDA5OZXh0Y2xvdWQgR21iSDEhMB8GA1UEAwwYTmV4dGNsb3VkIFJvb3Qg\r\nQXV0aG9yaXR5ggIQADAOBgNVHQ8BAf8EBAMCBaAwEwYDVR0lBAwwCgYIKwYBBQUH\r\nAwEwDQYJKoZIhvcNAQELBQADggEBADZ6+HV\/+0NEH3nahTBFxO6nKyR\/VWigACH0\r\nnaV0ecTcoQwDjKDNNFr+4S1WlHdwITlnNabC7v9rZ\/6QvbkrOTuO9fOR6azp1EwW\r\n2pixWqj0Sb9\/dSIVRpSq+jpBE6JAiX44dSR7zoBxRB8DgVO2Afy0s80xEpr5JAzb\r\nNYuPS7M5UHdAv2dr16fDcDIvn+vk92KpNh1NTeZFjBbRVQ9DXrgkRGW34TK8uSLI\r\nYG6jnfJ6eJgTaO431ywWPXNg1mUMaT\/+QBOgB299QVCKQU+lcZWptQt+RdsJUm46\r\nNY\/nARy4Oi4uOe88SuWITj9KhrFmEvrUlgM8FvoXA1ldrR7KiEg=\r\n-----END CERTIFICATE-----"
}