{
    "hashes": {
        "AUTHORS.md": "e09e9b0ca60a23fe42881dd4276b2cd3058dc9471c6b893ecf300e05ed1bb11d3898e35c714d4be60dfd14ae5985ba1ee6e7f2b980b47e4b961204f8e2a8f752",
        "CHANGELOG.md": "cf83e1357eefb8bdf1542850d66d8007d620e4050b5715dc83f4a921d36ce9ce47d0d13c5d85f2b0ff8318d2877eec2f63b931bd47417a81a538327af927da3e",
        "COPYING": "6e90d46be391aa645bcf4dfaa67f452cb15a73749f1895633789c7763b43cc0b65d391e5e95652c9a9a2063c956e0e8099a4e1ce4b70b0636629f9eac39c1080",
        "appinfo\/info.xml": "8f225848ed76439fe25c578c53eb440557ee1510edff56ea56f13dd4fce56ff5f0d452c58428f693d27d47b0bf4502965e95e464338d70d6c0cf903da51daabd",
        "appinfo\/routes.php": "b1f41440e5c3558fd3b9cd779f01c4aceaa4fa3ec498c165287bfb592335871b35502411a34a674e7e310c8dc3ae94ccb07d05df9e57ea328a3ec94ebf66b5bf",
        "composer.json": "a98a1fd3de7367575a26afebc8f48319811a2330521682ec83c43976cc14a20dce3079f9ec58ac90eadadb4beba5081eb65e82a6d1a5be0a57582b4dc71f2d7b",
        "composer.lock": "f073f3bc72c001154222c0d8afcc3fed3fd239575f0dc418429ba5ed8c955067467b262ac071891604ff817718631abeee80d69c45d555ed5b1a73680908bdb8",
        "css\/style.css": "69835c8c8d906047bf321eb72f108500748499ff654f559ec75fb527531e558ce000e7a3346c1e93654aba8449b0d2c4d33b31d73186376aca0fb6b6b4bcb37e",
        "img\/app-dark.svg": "cd9caecb9686d69f99d5e7a08811c43e5605b19475c1fed48a921bb0555b5708aafc7ccf84aba0a04aaa99fc7753cde66455d4f41a58eff0f7eb7375e8835554",
        "img\/app.svg": "4716500378613436afa533eb721429588d5c28ae88018d125e9cdade344ea0ef7c5675fca98e2659593baa219153e09a72f1d1e7106f4060db994d482338acbe",
        "js\/Chart.min.js": "b4e7070034fe606090a87ed83bdf6e25d928e8bf10939a2e74b37ab02788e01427a4436aeab891eb1f489be486ce15e9828a0a05190fb207ade043a81f98cd0b",
        "js\/script.js": "5a5ec051dcc516eaa22e3e5d84e6d49b5e133fb9ef21855e142a33863699a58fdef80ada8be799b3a415a3403cd500a3d3a362bebd167db5cfd4e247bc404de0",
        "js\/smoothie.js": "e117e3a5ed36152fbe03d280b08a30a95e0e170413878b510fd98a1efe91b48d01be194e4510a627405a789b8e488fe5aa831597be600a367498355567da65e7",
        "l10n\/af.js": "8bff3c64226c7129b62d520a5cadd6be8ee98cb363bc0fd95c6841b8e9c371edf351e1ea7469c3945bc89fa0f176f23b6aec1dd124ed1c301f6dee3c7660c81a",
        "l10n\/af.json": "a0dd05f9bfc00aa6696b6c8d50ac990eef160ccab6b8c85b237b164a9edd0bbf7436d9ce477f8adacf1b7649a19c04fce71dc5ee75e3b036b90aac7adbc0cbb8",
        "l10n\/an.js": "9c0c45ec1dc32333a210d3f4d3e73abcf653fae68c663872033dd80f5f99ac27e3d778bfdf5279c844f2b2c255de956d38cf2ee688b8df767008b62a124b2aa0",
        "l10n\/an.json": "65e983d1e2c6d9f526b65a23db29cd698acb4c9fafa6353de1be1bd1250c4c0b24d484ddea32dbb70a26a58109060b82bb3f0309f0a6eb55be690a6882a7b894",
        "l10n\/ar.js": "49e42a61ab5cd1f79846de840e9104f6cdf9f1e546a2bb5fbb7eb7a4a62186705f71c4afe19a3d8a00ede10ae21ae2d8faaab05a51d059bb46c73f683c92db7c",
        "l10n\/ar.json": "d94425347e9c69261598c1a510af091ec7440147205c67882016bb23f44337859512bd329df0fd6913bbce938ef1ca2fbcc0d57e02e625798c8954d3f970245f",
        "l10n\/ast.js": "21bc556e0e6771ab9819468e7a2c37e3d4ff8d04fbdce2a768146867f600dfc436fdb834d610817ac935e87d03299fc76254f3822080e83114fdc271e8953621",
        "l10n\/ast.json": "334ca39bcff91f76217a9f39c8386a14bd5518a2c490c030c19df30b0af14a3cf6fb9f77dea9d36d2afefab3749e449bc3846c0451df6cbc5e1e7874dc217d2b",
        "l10n\/az.js": "81093372b20dcfbe7cc860d63bab3f56e5f956c58774224505d43b78d6cc39706dca5184f795637087f5fd18c7253fa1cf1beeb914abd0be3f6d65d5c2b676c5",
        "l10n\/az.json": "5189a0f77429488e5abbf8ef899b30bb9ad89141b0ccd169a01d58cb331c6a73f9558df6445ef0c72a212009ccbad68d1ef9c07c1affc018b85d042166b8f0e3",
        "l10n\/be.js": "db5b38da4cae0c182f680ab905eabf18c2d58c83b4ee5465924bdda70ea81d78f5b5172722ba11311aeda8ab56afe5720e889fb893947613a743d6b9219c23d8",
        "l10n\/be.json": "1307cd198e55bacd9c33976a1480b8b27279b9a4da3ab7ba0ae250adefe780085d0cdcd14ce13d4e8f079141b0c1d0fe743c0e76bf3e65fd9649c057eca6094e",
        "l10n\/bg.js": "bbdc1e06f257b207cbc1e58768481e6012d2a1a9b5be162065ab41f5f0b6ff2f4f426ec1a05c29c1bec148e9d8ad086a188f09d6d5f46894e5d7e05a8842e00c",
        "l10n\/bg.json": "7b473fbb4ee5cb5e21ec51718c8c66ebd41f29266f28a59e72860b8cd93ce018e47597f949f8f191a0e0bf1a01820a60c718056f8a67d4b956f2c6d7e5e2ead4",
        "l10n\/bn_BD.js": "5f5b3229ef7047c0df3074e19856fb5b7e775a10a5bfd67cd7d1326e2797c18f0be17c6c5bbcb73537d0ec3f12c907ae8af1d4c86fae66d1462c46828f2ae492",
        "l10n\/bn_BD.json": "d725b5e485232d1582d43fbca5200094e982c00b4c1a3cfce4c49415de77d4a38c3ccf58e588682da769c381886b6d8fb61f65ee968f73ba7dc7f5e1716373b2",
        "l10n\/br.js": "d289e195f216380909a9ca516c62b114dd2b4e9c9056ac9acd6561abfcc0b1423d66a1056285f95790fe12d76fafda18e6faf52c7b8cb677b794ec5c7dd6a1ee",
        "l10n\/br.json": "a0b9c30f68941d8dfe8f7e362c698db34add54da2ec17e3e31c582ce50653ccf4203bbc0f7a18984d6ac6d05ff3b6ac3419cd44a07316fe5407776a9a4335080",
        "l10n\/ca.js": "472a44ffcebb1a4bece1314a95c8463795183aa7c97aae7ff18b2685c613cbcd4f0bc2c6216a1444b3f18af6870d10b7f231b4c772dbf142645672f66e979a83",
        "l10n\/ca.json": "e01e6a88c4f80b68275939da30ecbfc8c9fa5b49cd16743cc3c8804a341af9fa5042a1cb6f0e89fe9cdc361e450ff912ac772a0d4385cb9fe427497c7b761d23",
        "l10n\/cs.js": "930720fd0c179ca235cef4d331865aa852a04dae61a84f65ebe07ae07770d045ddbcf29bcf7811189aca6fb1bc55671d27b4a334c638072dd53de7836102f782",
        "l10n\/cs.json": "7d02308b26ae9a9700d20e78c56491e0dfe96bbac377fdfe630643e210f651e1736fb2d40035074d6c11fafaa48dcd6d6d33d252e15ef792cea9a19b8eaec78b",
        "l10n\/da.js": "ef9df3fbaf43a81b113566b67c5515f6dc92b2fa3792e53df2500d0be8be7abef4cadb1067fd26ba2acd11ca61eaa92d53ffefb9dbd692d7c99d3b4362f4c858",
        "l10n\/da.json": "938a151f2be5cf10b162c9fae447ff3b6f13945ddfa5c00e9be1e4949c96091b679b3eab2a4b40bd0aef2d01b8a4616ee2351fc51dbeddaf478bbf6929ee3b85",
        "l10n\/de.js": "8f07d010c842ced8276ecea5c5518c78e6c6133acfd0b192ec226098dc0b451e71109a7dba8841a9514a2f0bfe41b7e7b83fc541527697813582d7cac27dddd6",
        "l10n\/de.json": "354fa25875b6dfca998efe0c62b1e219bf1a1db56bbc836a88b0d75244a1be665af983b4b67f4e5a73534a93a7ea5a48267bae2eca1151e0e2b9ce1f7def82c2",
        "l10n\/de_DE.js": "e64db6935b87c51a4caad2b58c705fc05dfcdde68b51354f71d0afd303ca991b7becc05f7ceb791f9f86437e47b0fcd60917b2d72cf7134ef56a661222d52acd",
        "l10n\/de_DE.json": "83f9490dc7e68a34f9b053eaf5f06cd7cbdbd9938478dc394c2138e70fbee341976c816d5d40680f1d6f51004d24c50d0dc8a4d363d585ec67ae6f0ff92ac486",
        "l10n\/el.js": "bca3a051437a7b69bcf09d4f7e9dde50cb8eb11c095671f58fea5c2e5af873ac2e8fa6614342af0baa15074694e47e3991153960131259f94c44691dd80ef4f1",
        "l10n\/el.json": "3cb1f884098f0b80f95f9d0083fe69ec260452f190f98f8a29402c978705690cb48be977ca215871de88107dcf199ec3d4bbfa23b3dbf73ea307519a7ff7dc43",
        "l10n\/en_GB.js": "e84912657533bb0c6e9be9ffef48facbf53a3a3e3cafbffbd54fee82ec99d3f3aeea742e0d5efba69fefac1864c41065c95f1aa0d27928d7d08c4f86d5978d98",
        "l10n\/en_GB.json": "dbf2cbd19ef2681334f3dad4fc220264ebe18fa32e5f7c4a9080ace628f18310ebd3a61ddc22befddda2f7e4fd5fabcb9d7db3b3fb1a8ce03ce2ef4774a090a1",
        "l10n\/eo.js": "e5d2d0162b5cc4c8ecc8b35ddd9c1561c433c88217ae6fa2addfa8c40e9ac24bdb11c6dfc5c67a7dfc583cbb3def19d205d921a529fb4284cfb440703af5d363",
        "l10n\/eo.json": "1f7afa13f5ca661375befd404d405efa607b9a10aa8b9feabc3999ea040260fb3e65171e2e609f04c018a70482f41d3723a228cc06da1ba1b9a47a0a7c5711b4",
        "l10n\/es.js": "df733681836a6a95cbf19abf607c34982c21b246a4d5ebe6c86d97307b9f4d0690d6c7acfd3041d4a4072207c298bea4ea4513181135b12766cd2845b49947de",
        "l10n\/es.json": "1548ebead2d0466b5ba6d785578c0012a163e40595975ba6fb5cda2c69cf37b45cc93f12ad224f4929553b09f3c60ee000468a97fa2b9f74678fe9135354f102",
        "l10n\/es_419.js": "947727de4a532c3544e9da3aaf7d0271194365405b85a380dc181f352f2177a99e80388d4a4a5d2700ace4a2556f73e621909cdfee4b83c740b482a26abf9b1b",
        "l10n\/es_419.json": "d0c6a9695568e81caca78eba5a908f1ad50629d257e727efa9b4e21659aa9d3ca50a4fd3e7cf089bab8a1d578bd19695e4d3de05cfdb3bf0c71f8238b0192b9a",
        "l10n\/es_AR.js": "5fab7a76664cd0a1963f832a4377d845e2ab8b6812ab39679912f23a2a8e8e0b28e7a1b75ed96e4aa2e6899c4a266af669a3fe6bd7c8418b3818a7c2dfa8a25a",
        "l10n\/es_AR.json": "7c611335668f5099947f5af7e1653a4dfe017294f06f64bc94c52a145100d4e92486417be0d2c4ff31429520db449fe02114ccc92d55b3d89bd809705c276b1f",
        "l10n\/es_CL.js": "2e01155fa9a3e26338e1a427908a464b767b2d04498a96a765cb8e5e13b48f0b3128ba960c38aa75f6c330f3904876c6f46803d3789dac0d0a3ae42ab9ec9051",
        "l10n\/es_CL.json": "1b653eec9a6fb0adf7a08e677babc506e396cd44789de24fafd30675b5839e16b96299b6ce14b1238309d1e3c94b4403d48326dbc3263aa8d60e11454a99dd10",
        "l10n\/es_CO.js": "2e01155fa9a3e26338e1a427908a464b767b2d04498a96a765cb8e5e13b48f0b3128ba960c38aa75f6c330f3904876c6f46803d3789dac0d0a3ae42ab9ec9051",
        "l10n\/es_CO.json": "1b653eec9a6fb0adf7a08e677babc506e396cd44789de24fafd30675b5839e16b96299b6ce14b1238309d1e3c94b4403d48326dbc3263aa8d60e11454a99dd10",
        "l10n\/es_CR.js": "2e01155fa9a3e26338e1a427908a464b767b2d04498a96a765cb8e5e13b48f0b3128ba960c38aa75f6c330f3904876c6f46803d3789dac0d0a3ae42ab9ec9051",
        "l10n\/es_CR.json": "1b653eec9a6fb0adf7a08e677babc506e396cd44789de24fafd30675b5839e16b96299b6ce14b1238309d1e3c94b4403d48326dbc3263aa8d60e11454a99dd10",
        "l10n\/es_DO.js": "2e01155fa9a3e26338e1a427908a464b767b2d04498a96a765cb8e5e13b48f0b3128ba960c38aa75f6c330f3904876c6f46803d3789dac0d0a3ae42ab9ec9051",
        "l10n\/es_DO.json": "1b653eec9a6fb0adf7a08e677babc506e396cd44789de24fafd30675b5839e16b96299b6ce14b1238309d1e3c94b4403d48326dbc3263aa8d60e11454a99dd10",
        "l10n\/es_EC.js": "2e01155fa9a3e26338e1a427908a464b767b2d04498a96a765cb8e5e13b48f0b3128ba960c38aa75f6c330f3904876c6f46803d3789dac0d0a3ae42ab9ec9051",
        "l10n\/es_EC.json": "1b653eec9a6fb0adf7a08e677babc506e396cd44789de24fafd30675b5839e16b96299b6ce14b1238309d1e3c94b4403d48326dbc3263aa8d60e11454a99dd10",
        "l10n\/es_GT.js": "2e01155fa9a3e26338e1a427908a464b767b2d04498a96a765cb8e5e13b48f0b3128ba960c38aa75f6c330f3904876c6f46803d3789dac0d0a3ae42ab9ec9051",
        "l10n\/es_GT.json": "1b653eec9a6fb0adf7a08e677babc506e396cd44789de24fafd30675b5839e16b96299b6ce14b1238309d1e3c94b4403d48326dbc3263aa8d60e11454a99dd10",
        "l10n\/es_HN.js": "2e01155fa9a3e26338e1a427908a464b767b2d04498a96a765cb8e5e13b48f0b3128ba960c38aa75f6c330f3904876c6f46803d3789dac0d0a3ae42ab9ec9051",
        "l10n\/es_HN.json": "1b653eec9a6fb0adf7a08e677babc506e396cd44789de24fafd30675b5839e16b96299b6ce14b1238309d1e3c94b4403d48326dbc3263aa8d60e11454a99dd10",
        "l10n\/es_MX.js": "4c26b5825b14a5ee754530f0c8ff71291aec415bf1b41d1ccabf198f6e0660b71fcf191d24dd9e765014fccaf0205807cec314a71871fb068216fd3228bdd188",
        "l10n\/es_MX.json": "e8679ab4e2f4d5d67368c816769d5560a3f08aa476b7664750b86c0a46e605bb2f985ef13b811da6c956e67f5f1d586b1dd34d9fb9d5207df899c879cc4897f4",
        "l10n\/es_NI.js": "2e01155fa9a3e26338e1a427908a464b767b2d04498a96a765cb8e5e13b48f0b3128ba960c38aa75f6c330f3904876c6f46803d3789dac0d0a3ae42ab9ec9051",
        "l10n\/es_NI.json": "1b653eec9a6fb0adf7a08e677babc506e396cd44789de24fafd30675b5839e16b96299b6ce14b1238309d1e3c94b4403d48326dbc3263aa8d60e11454a99dd10",
        "l10n\/es_PA.js": "2e01155fa9a3e26338e1a427908a464b767b2d04498a96a765cb8e5e13b48f0b3128ba960c38aa75f6c330f3904876c6f46803d3789dac0d0a3ae42ab9ec9051",
        "l10n\/es_PA.json": "1b653eec9a6fb0adf7a08e677babc506e396cd44789de24fafd30675b5839e16b96299b6ce14b1238309d1e3c94b4403d48326dbc3263aa8d60e11454a99dd10",
        "l10n\/es_PE.js": "2e01155fa9a3e26338e1a427908a464b767b2d04498a96a765cb8e5e13b48f0b3128ba960c38aa75f6c330f3904876c6f46803d3789dac0d0a3ae42ab9ec9051",
        "l10n\/es_PE.json": "1b653eec9a6fb0adf7a08e677babc506e396cd44789de24fafd30675b5839e16b96299b6ce14b1238309d1e3c94b4403d48326dbc3263aa8d60e11454a99dd10",
        "l10n\/es_PR.js": "2e01155fa9a3e26338e1a427908a464b767b2d04498a96a765cb8e5e13b48f0b3128ba960c38aa75f6c330f3904876c6f46803d3789dac0d0a3ae42ab9ec9051",
        "l10n\/es_PR.json": "1b653eec9a6fb0adf7a08e677babc506e396cd44789de24fafd30675b5839e16b96299b6ce14b1238309d1e3c94b4403d48326dbc3263aa8d60e11454a99dd10",
        "l10n\/es_PY.js": "2e01155fa9a3e26338e1a427908a464b767b2d04498a96a765cb8e5e13b48f0b3128ba960c38aa75f6c330f3904876c6f46803d3789dac0d0a3ae42ab9ec9051",
        "l10n\/es_PY.json": "1b653eec9a6fb0adf7a08e677babc506e396cd44789de24fafd30675b5839e16b96299b6ce14b1238309d1e3c94b4403d48326dbc3263aa8d60e11454a99dd10",
        "l10n\/es_SV.js": "2e01155fa9a3e26338e1a427908a464b767b2d04498a96a765cb8e5e13b48f0b3128ba960c38aa75f6c330f3904876c6f46803d3789dac0d0a3ae42ab9ec9051",
        "l10n\/es_SV.json": "1b653eec9a6fb0adf7a08e677babc506e396cd44789de24fafd30675b5839e16b96299b6ce14b1238309d1e3c94b4403d48326dbc3263aa8d60e11454a99dd10",
        "l10n\/es_UY.js": "2e01155fa9a3e26338e1a427908a464b767b2d04498a96a765cb8e5e13b48f0b3128ba960c38aa75f6c330f3904876c6f46803d3789dac0d0a3ae42ab9ec9051",
        "l10n\/es_UY.json": "1b653eec9a6fb0adf7a08e677babc506e396cd44789de24fafd30675b5839e16b96299b6ce14b1238309d1e3c94b4403d48326dbc3263aa8d60e11454a99dd10",
        "l10n\/et_EE.js": "baf537eee7893b9e171233f4bbde2772e46de09ae7526bf86cac7519dd280ee3db3310ae161d4621cb6fe38f505dbe6197e1bd3d5a4ecedce0e59aad3e5b1600",
        "l10n\/et_EE.json": "a15b76e4abeb9dbfb7cf7ae94f67170af5ae9173e356ff021541395c8654d6ef3d9888de1b8c35228949bb1b4bf6f431f4ddd5d1d75c449acee9f470fcb41e4b",
        "l10n\/eu.js": "0e81de08764fcbf02ef249e2f72cf3294823d087d10b92ae53f1a9e008f12448fc129b634a6d16823099359c9c219e026dcf400c5352fda4f7ff2657afd02731",
        "l10n\/eu.json": "f763e214b2c7a4848613a3156726841ce8d4a6b77e4f61c2003ad0d505201e6bf0ca28648920f3b4ab185d7a4c27efc3106ee3ca1ec74b263823390ca5abaf60",
        "l10n\/fa.js": "a664c625f3c7697f2f344f3fed7430b86f0679689fd9748d8c4195b5664b38b59d362835f3a844db492e6c7bc630fedae179069c501eda68d701c5da7db97081",
        "l10n\/fa.json": "603cbd8d102a0072024fa5f142363ea440483d44f9cc6841b11ddd304149575668792e90c1b001a770f231b6a6677716cc15098ba8d35fcacf60707b5d944c57",
        "l10n\/fi.js": "66603aaf5cc1e280367f9d576692bad0461885b9b3d36f0bb958b8b252ec35985531f40f2c77fb74568d81b5d33be04e706927a5a66ebcf58aa3fcacdf49d775",
        "l10n\/fi.json": "27164b9e2160b50ae243ec06cf1fa0c919ffc6316defb2b9173938861b28e57bb14f28f9eb8ec02f5c483dc4493108c3328a4312b966dbee51ce78d5352f14e8",
        "l10n\/fr.js": "e08dd47f7b27f83aef47efe294cfb73394c2116f3657625bcf4af5d331d366bd609d7de9b3fe59c19dd210ec741beec2198fc82f002e0d2d5514c4f5c2424078",
        "l10n\/fr.json": "4b6a825c15e342193d93d09607c3046a8a01d34c24cef9522d2cf91516229ae2f27b29c23426d47ac493c6329d8384ed18fe0414c80d26eeff0370c689848881",
        "l10n\/gl.js": "39ccaafefda846067588a61ad652d5ffdfc608701dcfd681e6b614ada7d3dac0f20dd7880ffac44adb3875883cb59a80149ce0d929f005edc85423f289db6a42",
        "l10n\/gl.json": "45f19139d186fabe47dc4a158a0cfd1a63f0f8289cbb2798dc1b9ccb7f2e1a86845b1c350421501e2c882fa3888c4fad254d567ecec8a71ec77f61b6c2686412",
        "l10n\/he.js": "cdc4aa132d6d68ef93f0ac123a5e21b140e45e6269aea307e188425f6221491799455da5ff484657324b6baaa120a32e1e97979cf3cbb592a2577f13b1bdc486",
        "l10n\/he.json": "a764f56ad8ecd5f8ff3a1a4b517925a0c6b46c8b9d6814425e49ed42ea669dcb966603569a0ac1b71a35c25500345b11c6f89f263bf5978e7c5bf06aa17f55e5",
        "l10n\/hr.js": "dcf6e0afcb7f3ee4949bd8374166eabf836bde5e5a8b1036766f670a8627a10f9240ed344c6b8522f623d8f081d6852288c52b50cbd0b2e2cd41df48e902efd3",
        "l10n\/hr.json": "414a22d065c4ee75a576361d8fb8fbb5e0686d657688bc35a6f736bd83892914c4e489dd80c266dfaab7e77d9a2d1e44e68b59df76321fafb34589c36f89b127",
        "l10n\/hu.js": "b0c9e823cd0b60b7f6b5063b1848f1f937b4ed7b0a50594b13a8b34ccbf7014fcfcb2367ffb4b4560af5c2bb8f3d6950cc9d12c833a14187f4c38757b379a395",
        "l10n\/hu.json": "c3f58421b2ad0526a69a9f99a10a1e5f3c0d6ca1e8e0db8565030c52e07e4e596259c0445f6f57fa4162e40d0f8f3beab194b7cf82c00d2ddf642a18ed8de3e1",
        "l10n\/hy.js": "3a4ee94bc5473006ad8cf47c155006c7779f76fc6db2102e12dc1836c369f7b56243d16a6d96c59dcd764ab9daceac949802a8e52074d585e3fc6619a313efe4",
        "l10n\/hy.json": "e4335124da1aa28438292ea626812bac6d4af3db2a250d6419a80af1e19ce486f4dea5b97fa9482ca23edd79111845be69ad7e3210efdd30906ec0fc09686b09",
        "l10n\/ia.js": "ad8f7c653d4add384a2b05ccdd1559d8e6847f1e74597bbdea3cf4eb3211a6e9b8627c41d0f3c40e6b93b1af6f69bffc42f3aaf7438ae27d9196e90a1996fa14",
        "l10n\/ia.json": "f6423ca87a719d762267b9fc69ed5f1dcdebc2ccfdc5e42b6ac400cf3a8440885096e4dbf609e06d24fd45003d0b476c1ce02664466c71f570a82a4933fff12f",
        "l10n\/id.js": "83dc6a9fb851b09bd6c3b7026aa2a0f9b13888600e3f21286aeef252aa577299fe1d8cdb8111bca64f86e6475b0718bb02b8cd20d93a9bc1b27d99cb8f029b85",
        "l10n\/id.json": "1e84de54b6d2d1edabf7117f67556f9a1605f26a4447d81b9916569c9807ea5dbf1935d5559713a033c85f6e90165632dfe2cae9158629f914771da463de0f24",
        "l10n\/is.js": "5baf155eb4075c5bf9ba09df84267d99c1ccca831b8ed5ff93df890713946e3f8e6ce083e1c980afd2b1baced35b9174d4e98965e92d1de29f094e1a8434edb1",
        "l10n\/is.json": "ff859aae9ef1c3f984c19b72964fb3d8862ec12755fa98f32e6e9576f57b74bbb3247b1b63eaa40850be0855b1458b612a0cc8db471c7ee96313572617b9929d",
        "l10n\/it.js": "5486bd9c76c7d8d9e88c594622c853b4d5164e2aa86af8af68b8e0fbdf17ffbb62049d383a028af25116bd767f4ebd526be5689f7dc273f3a4135c1370103910",
        "l10n\/it.json": "0361835eae324798c1526b370a058ef7b2e25aa0e018e56943e2d6539e2f541e88d305217f235baeed8494457a08483861a727d52505c6d5696495866bb3f153",
        "l10n\/ja.js": "64ac171cc7a7abe14e507dca9b227cfb8d6c9d802cb3bfaf5965002367f2754789f172ab997c8e5a74f7053378dc7b5acbedf7431e9f859cfacdcbf1817951f0",
        "l10n\/ja.json": "627fbf485ef42f93ed101c7dac1f8d5ff1d997b213fba10844fbc12eacf2838b142617407fe453eb2aae977f8b80b2ff453622cc85f3b40105eaf76b3b7edc58",
        "l10n\/ka_GE.js": "30207d63d64d6232a5ceed5d5f471b1aa13a70802319a70271ec7633bee43451a0a4ee00b543989d8112903d23caad32a34f0360bff17006d6d2cc1bc2fe023e",
        "l10n\/ka_GE.json": "beff05d3294791b8cbee3ba8884efc1d2d1b91678c9460a161d161ebda7ae47acf6f7379b3b7e6f9770ce670e176b1b3bbeb0a15ca8129233646c139e62190ae",
        "l10n\/kab.js": "22a289f0174852e82f0e0f80aefe51d28e98e6c2aa324175afdfc8f1be5137755bee5e56a81c00ba2c0f3859828b0d3df48cd1142a39aae665881090e7c3b84c",
        "l10n\/kab.json": "e0682a268e036f0ebe944ea23188001db0756a755357750997829b55f1a3b3857d34a7bfd12a5fc49f3dbe2e7db5ba83a6c6d5fbfbf7107043aaa4df8e8eecc5",
        "l10n\/km.js": "cda797d3ed31e3f85a667f214dda586f03433b0d39f819492cf00c271d2e5f13fe6f39380a816ec98c0a63ca20a1e5952bfa08e9c8fe9a80f777a11f90308d6e",
        "l10n\/km.json": "468eb27648cd870e1364fd8ff85c511e5231f2a94ff1769d497a75013d1df16a41d1d0260e1e6538931e0497ff718992b432df09becc272481b103ee82e45efc",
        "l10n\/ko.js": "89ae8e74d73970516e6c8b27e0f3c11ebc81b1ba2f15176db2f130299109590b6ad5222a013f5719bae4b61ed40ebbe200c2c803be839a04a692377e5387a5e7",
        "l10n\/ko.json": "348c40dac6732ef3bd2eb7f69f80ed72bee2df220776ef660aa64d756ebe7557915c32962108a99fd263bed9b394ea19f43527b451744a66bd6b2ce2a0eb6929",
        "l10n\/lb.js": "6e18c63915b9fd25ec0d33de0d328ae933f600f0a32741399b38e9709aea5add438efc6a9560cf8b14247ff8f5e1b9f3f5a95b89ddfd5d843b12162382133d2f",
        "l10n\/lb.json": "7a3e747dfd276bfcea38aa2258dd8aa4505f1a2092bdcc2bc0b1bdb4365a29c52e010908ea8c041cecd54d191138d647583aa5ea0fb61212598e99418d077741",
        "l10n\/lt_LT.js": "0a8a8607b77e5eb6817e4bd78f2c098351fbd242ed92191565971558e8026d2683fda0b36108bfdea189185a366504a4bb4a692eac9a1e1650851df33d1e96b1",
        "l10n\/lt_LT.json": "8b5b787da514ad18838c6ebb6d0cdceb3c0b4c59b62d12fc75f94f6913de5a5a0f8653ca8fecb1e77ae3d928d8e8712f40071038ee45f1d9b04bb72967b167c6",
        "l10n\/lv.js": "2780f31e75c693f91e598101c219a7a37a834309e1ffa77f606cf0be63660438911db6ba4d4717d8a3792bfd889eee749af40efe35d0bebd301cb54ce24a4897",
        "l10n\/lv.json": "ebc5b730c08558dddeaaddfed03c0851bde7386a16f37814607f5e055a15f18e5e108b64466a181e5eb17e25eefe644502bc7ba898d08c12528139768a4989ef",
        "l10n\/mk.js": "f1b7763f5c0704cf826e0952ff7b6c6a1e95cbf85a0c626c0eba95ac13d44ac70923ff9a5ee56c9979f2a5c286f5d405020fac21349b30aa1b456f697f435dfb",
        "l10n\/mk.json": "0d84107e6214f7f270df95d7307184dce10e692d913f67d54c94e617172c8dc0c60f944f3c43a55d2288636c9061d44e9080ef63d233034103d88a73c51d2eaa",
        "l10n\/mn.js": "b695c53ef16c1efba887aaed7f6220a294d8239a13ab499056f4738ffd0812cb83a0fac65f79751b5637c8fff642bfb6b2c9f34cf2b29876658acea7036770ce",
        "l10n\/mn.json": "7cc8b76f25ca30ce6cc70cd328255403bf81416f7a0f1311f3bf83e38c087687f96645ce0995d18ced46968e50830c4d219e664399c7ba0fed9ef6ae2fbc138d",
        "l10n\/ms_MY.js": "083827ef91b4fbe977ed8be9e1d0b0bce82232fc2877354fc29b6e227e86540569acc18e454115e48060eb0e6803a4ab1845329835db89b2aa40aea677ebb7ca",
        "l10n\/ms_MY.json": "ea64ced42d7dda5a5424567e25d62cff26f4fba0c71a548d7ff35cb355b4509401482d8166e4ba117e732f6c9a8c471e49e888b4d60c69cf612fde4728596f3e",
        "l10n\/my.js": "6642511955ebbf5a8e2eae410c4f909efa223788f39d29560cb358d8c19f2366145a77f86df4029fddb8e45dff1ccd5e2a0f4d006e7d84e1cb86ad226f581df1",
        "l10n\/my.json": "e90650cfbc3a9d83a9e6aec5e93672785121076729c621c81468d4086fa9cf56c826593ac845c5839e2a6e40f26f91fd30cfb297f7379adfd0e04d1b1290ead4",
        "l10n\/nb.js": "acc124b92cbcdd1f4c329fc55188bdf34cd466cf6edeb365061ec2537deae5af1ae0fa60cf0405b64b59aa3113ab3bba553081eba250d4a9d3c02375736a5b04",
        "l10n\/nb.json": "87e95b9a10e92f0e905b616e0026f61788e20d7b8b42a313473244372d2863bf8964ac23b17e67283c88962162140598bfc8c4f00733cfdfb61af84c30a610fa",
        "l10n\/nl.js": "09fcd04204c300bd314266ac8949b4f9b0bce243a4fa0250bb3cdffefc25acf4e59d210ab8b2a2deca7f945fcf205b274f595e8cddebe0335a0aebed5ff1d1e3",
        "l10n\/nl.json": "3c3968346963c3d880546b9ff2adf0eaf5151892a66f9c68643cfb329cfc9c1057bcd6e5d3d42924088ec2e945594c7567c1275283fe2fad16e066d1d53a3fbc",
        "l10n\/nn_NO.js": "3aa8c652f94ce5b55cbbdd8cbfedf0aacf569c22c8427b151fccec406e9821f6cdf79c5834657ff1bfe7cdc7425de5a497c49437ea8a9ffd44ac1f1e2202aebb",
        "l10n\/nn_NO.json": "4edd89f4be6c7ce45ebdec02158c6e4be3f72268a4b434a1884ec3d17e76c7ecb79edc3ae47f2a848ee12f5f061f479dc90ed742d8b2a6dfe61e16258b7fef9d",
        "l10n\/oc.js": "713c90eebfb14741bfda22c58739a13eddf97677f4bcc47f06285f565870edea1c3588e99a6ab357f9e78ee927d4356c76d7ab1fdc3c875f0ab89e675c2e95b5",
        "l10n\/oc.json": "55989d15a87871d7768232dde1136cd30410b3fd59fb06e94676b258edf3574fc437d9d5e757a2942b5628545243be8f2ccc62f4e9f0422e77f8cac8f1c0b10a",
        "l10n\/pl.js": "24d6f99e373d3df3facaf594668ec4ce455fb42b0edc800fa610c5d558055c1bee92211df4b971997dc76dd57d89b17abcfea3253d69bd64b9c251b3adb29ab1",
        "l10n\/pl.json": "dc7b88813632bf962a024074c3af01c62a44de87b797ec83652bc71163a16fa32ad1788b1694d633add97146e39c06f264ae68b9bed1b50e1492b59dd3e7feaa",
        "l10n\/ps.js": "5ea27b75a55983be9b8a8eb0f2c472083085d8f280c3e432f08cf37b7fbdfc1d0aff8fa34773bacf5c081768cfaccefae966a00e65389e2545be54534f1a0b7c",
        "l10n\/ps.json": "cb6bca41672d535d635fb9f8e5e971250a1a25488c67e8a91365ee2976f2f5b0c0269caff1fb5fd4a54643278fb652892e81ed634759b8333e2d0590fc63188e",
        "l10n\/pt_BR.js": "364a386e0af4fc0c4db8721e20a44062dfc71b9e296707d6eae9fd384085a00b8488a8b25de58ffb2e6ec98229af46ffc256b302efbf954916c2350d512f9a38",
        "l10n\/pt_BR.json": "1dfdf9970cac9f92eb66ca7b03268357059e4d814c3de0c7ad21786628be1b661ceded1d5af779aabf417471e42164b30fff544b92d26b6ab20ee50a93e26e3c",
        "l10n\/pt_PT.js": "87e3680c833d69d0acf310ff26155877c50a46ae7be838fd76cf794a48769e2e2186051f38d61dfe52ba00c2ba75d490e10106e682ddbd224de02fee95dbfaf0",
        "l10n\/pt_PT.json": "3ffea177e6d5cb1a936b7f1a05475019b189d7fe8ae0cf599f17285ceb0912ce7b514a64e0c8a3c6c53538812b7ef8c87b4c7bb3dfdbaee0cc94e08c8a1c37cd",
        "l10n\/ro.js": "cbb8405dbe643c8edd0d9f5cacbfbed37ae1ac75c85b20cf8add84f7a3155d313f525c3b483888eab17c528a9bbf9f9b2c633124bfcbc2b3b7c1ce89a0da0c69",
        "l10n\/ro.json": "9fe0fb3b3c5cd12bb4ee93880bc914ade940843a27772a365b59bfd4e635b4d2697e211aef036e36427eb6ff13ea1e2f8640e41d9f67b0d7b6d18bce09b69447",
        "l10n\/ru.js": "cf5ef156de9338974da1545690ab65ddd7453fbe705146507d0c48cad94cc89d6c2ecc584f6f2e682ee4d30ce9ffea4e4da398df9968ceadf0bc486cfe874866",
        "l10n\/ru.json": "ad033bb50bfca5647475bcf3edd2831499663024b8065394fb2cf8ab75106b0c46e96219e8424ba7ba8f68b8b698cb29338bbaffbf4fcee59602a541687547d2",
        "l10n\/sc.js": "6cac4086ea2d582a70bd9eb0446bf6251c90dd7c6d18cc9a84ba4b1c9331d1a1d0812beeaf3a4b2060c03e9537d1f38e20eb069bd7449d8f8e0f4c57364a1d94",
        "l10n\/sc.json": "ab66457bb0e268329eb8eb627b9262e380d64ecd35f7ec9fa67e8f87ee4a8f6527f12186e8f4d7a9067cf629eaac2c8ea1eb4f9b04f49cc439f4eca30fde8b1a",
        "l10n\/si.js": "e8cd338285009135a73abdea0006a3e0ec109953681183d26aca6419edab3c14d214b9fb6d2b1ad430fbd083521d3577d5c09ebc430a0f0afc5cc304663a726a",
        "l10n\/si.json": "dc689d4f178878746492248df5c14fce4fe7a42a484a97b110affcdfc76a2f740849322d78a6462e495b053a6d36519b0f1a19ea5e7d266008fdbb6e2191586a",
        "l10n\/sk.js": "aa420b7caf905a6ae7822964488bba0418c1b5979ef9f30a728a76ea0d1e076eaf71e7b3c21331f29bc0dbed678f802fad449cfd1aecabe6f181762ca5609093",
        "l10n\/sk.json": "570604587566ec5b72b099949232703281ca14c4af3a0c65f5e23bcb3289b7cdac1623142a2e0457d5358c2b9d67a05ecface8e40018bcceeab689f700cf3d1b",
        "l10n\/sl.js": "40e6c3802c547e2bb8172b164b65bf3d6de1a3bb6a581a2d1a791e531e0dea0c7da66c99b1f7f354e45816a0285b3af5500dcd8e7c8781bf68f15aba152f53b0",
        "l10n\/sl.json": "ed8fb5bbc7d01dba8e99ab5717ca9e0de3280d747ca0b72565d3a5c56dd287fc0cd94b1c133247352f51f8a771f9bdb1c2da9b4d541cd08480cfd126c2901ee5",
        "l10n\/sq.js": "230ada0d68437567f32ad63f0a9331dac03693997e3407a902af0c23c08032ff8fe815cdceca2fe8f1df9a6cfa4fa42cacfcae3196aaec9982cf5d6b536ada2e",
        "l10n\/sq.json": "e9508b7e729d64cbf26935ec60ec42cb85285618968e47896b48896b7cd5c6c2d81ab92dff1323ea7dc0ff79846e66ec834eee55bfa192799fb3b15154fbda84",
        "l10n\/sr.js": "73e4b1fa00ec51253673999eaa4227ad46a598eccd7caa00ee630a0f73f0e8b2c79b2d9722b49d5712ce15ec95dc103e9f0e9dcc7e295a5d6e568b2a81573d68",
        "l10n\/sr.json": "0ab7444dbf02464b9332d99fe19ecbb936bf536ac3d76d7b9eeef0b3da02a60ff9f79dd9913d0a7ffc9a98d38fbb6675835bd3c03513072ccd43002a22359d85",
        "l10n\/sr@latin.js": "fd9e5c193a29242fe9bd061cdbf74f06dd4149ca07cdee436d8bda0d74e6b1658965cdfd0556224255d7736bed6e64f89ad8d8347ab01b15118f5b3df72559ca",
        "l10n\/sr@latin.json": "834058b1efac3821462b0e8ccc21fd318c8c8c7a25b7434bef72f89fcea49957e96603d82fc0d553855e39332ed08aed0b1bafd89aa9b731c65983ec1ff1c92d",
        "l10n\/sv.js": "c6ad32f14911c3a056ab0b9146bf6b3cace19761ca32ddba876da8ba694511b75a78eecdcd2fb4ac810e8388dca45be8bd19ca6bc6ce14d22397f96e4d9a16f2",
        "l10n\/sv.json": "2b54cbe55db8402fb11e7094c53c653d125927ecaee60920cd5f61bbb649a81d6718c4f1fde13d19311614fd1ca22f9dbfd2441aeaf0c420cf17e509ead0fb2a",
        "l10n\/th.js": "c7b1e7092ff3dc29af6b2aa5d8c6b587bf7ce2acbda5ba12f8de3ed420379a1ef33da374be9f5e175e437dc5730d266dd392d90268d78b26b25560afc2854e7b",
        "l10n\/th.json": "f4871714c8b85be60fb1503a30e424d903ce3c584ecbd79c3a9f2f7af025bef04fb6bde5e8e1acd2a516e0df6d5d241c605031c12be404c6c1bb8f95910ae4e4",
        "l10n\/tr.js": "b9fa99d18576c4965d76c2db6f0987f23a211a1797da4c5b0afa084fafbd789157b0715c7c64273ae409e9ddd9cea08c89836220b716ebdbe6466a3173a2d3cc",
        "l10n\/tr.json": "d9eff3569ef1a1aafcd97e6a36085ae7154e3c8a3ea4ad8adf160ec929eb87d8006303396e5278272eea1a7d4aa4a0d053d2b65651c5e93137ef0befc1267722",
        "l10n\/uk.js": "e89918b8569303a1dd9478988dfef4726d4ef877e28f342cf206375d5210637052bd6419d717d7c61080c8523c4d4bbcab2ffc3c65aa15c02c4ff43c01581feb",
        "l10n\/uk.json": "66b73fd5b0554aa8b21e99c89a624b93e3f98b74ca65e47903829484a750e6f31f4cf7b7d85691a96c09fc2ea1fe7127dcd1cc80c6e9eff9e96b9bfba0192eec",
        "l10n\/uz.js": "eaec319d64ebc9e2af36b994bbdaf5d80a6bcf73170855d16f89813831411da3b783b61db91e6ca3d76aa98fc3ecac4c90b1e2a3f9f21a3adde3320a198de6bd",
        "l10n\/uz.json": "7da80d884529400f16ff9931e04e04cff59f0fa3930793f7dd36bbbbf3641c23d76a0998dfd23155e7f1b9c308867b8e86f13183703d43db0ca207354e0dbd35",
        "l10n\/vi.js": "cb8f1167a3bf9acde54a795fd8415cfe27a14baa048b824e2f66f1c8869c90566621cdbc4fbb1b23fe15d3bafe1a231ff3d3972159346df5bacdf13e95c242e2",
        "l10n\/vi.json": "ab424f78c07bfa5e4977d24f1b081b53e8b45072792e097f6aca999e86a7a3ae1a26e4163a618d5b0c97a2ec779c6794572dc3ff6e3c0d940e493be56c5ff6d1",
        "l10n\/zh_CN.js": "ac35f5ea9ecb7d6a15e60ce6b58504bd925f8bf4f40bbf544da873964fc373ed355d8062cb9687ff26050c882536f0ff6172402f6f12c481c8bc32aa7299c9ae",
        "l10n\/zh_CN.json": "08ce523080f153178ec6081ea74e360c29af239832b80c1ddf2f98b657a667bf174767ca7f870527edd9cd56c9245b701460e3576f5220fd55f1e62862cb2633",
        "l10n\/zh_HK.js": "039660e2501e266e8d9ba21de0d7e459747b772c534dd7821b9bce519fd28d81ae6550433a3e1d937a109caccbf8736718d521a74084b191cb002aad5c2d24d6",
        "l10n\/zh_HK.json": "c4e1b29edac58bce8ec2d8726b9de2cd83652d4f81f856257f50a38c332f92db047613cd93147c699bc91e15537f06f6d214f45f72a20f4850af8c92344cd4a8",
        "l10n\/zh_TW.js": "49d1465577f715680a0eada7ce586f0d10f6b3aa745218eb2488f44b7dde6902758b51c06d0fd0210041e9751eb670fd118994d0b6ef596980be79c5dcbb5841",
        "l10n\/zh_TW.json": "25725d72c9a677fb4752cf5eb8cd14a908d1b14c33e8e661dfe1905c6706abb5499639f4a0201bccc2a63e0a4f40f2fb47380b9e54144a4aa5051d57cb580be7",
        "lib\/Commands\/UpdateStorageStats.php": "d89182d3beb4189f1187eaa43009e364794a98591498ac8369669a2d4e40309dd9a598e77896a43d29051143cd92e230f700566641d457ffcdc714a7f7b3b247",
        "lib\/Controller\/ApiController.php": "8a700307ef4b1bad9ce930e470ec251220644ddb0b052fbd196b390464665d12cd78543139f889a6146c6f2b844c60a862993482e1fa410719e0e279e65f831a",
        "lib\/Controller\/PageController.php": "fd371e26d78c835ec2ff27910733ea856955ca258fa26ebbc53457049f1298a1d2ac8702a2cf7b52687e3510ad170fa813e1b1591da9390045376bc154dde551",
        "lib\/DatabaseStatistics.php": "547cd288fa8e9ea6388023b108808b37e19531cfe987b7493497bb98311894f68fa42b18dc34728fb0f9f303ed75d9ba59351e7acc88c81ece4e779b2120ae8f",
        "lib\/Jobs\/UpdateStorageStats.php": "ce7b7f3e0f6355355d3a5c5b0c86576fe58e82039769144cde35895f0d07c74cacb79b398639adc638571be20e2bc2fc2a51c8b86dad6efb05e5012f881526a7",
        "lib\/OperatingSystems\/DefaultOs.php": "9ebdb6f4bf0d62bc108e3e3deecbd50ab43462d20f372b27110666935126e4a14574805392192e54866563df66cd4fda0f0541a31ef39cf6febc36b8f1043d9a",
        "lib\/OperatingSystems\/FreeBSD.php": "94bd1892760c4d3be5280cf4fb682414871d56272988c03279cf7d6b7a4e015788d8cbc530e8bc808277b7c0fac79dcad71e20ffa6649910834c4b76b618ecbf",
        "lib\/OperatingSystems\/IOperatingSystem.php": "ef6d3bfa5ee51eee16800e0b24a4d66ec9c242d75e4e78149fed9c452d9fb03dcb7c4bda513bd90905cbcf2f52e6a8473be95e293479719ddd992f4f62874899",
        "lib\/Os.php": "89d39a1d84be71a9db4d65bf5597cecfc1648a747ad9468c1f9cd6ce57de36f117e3a48fa607727272c68f6466100df87547214cd4c52e37a7e3b2da9ab825da",
        "lib\/PhpStatistics.php": "e599bfe90736cb354787be796c2fcec357b394544f529090840ba2934d66959f0fc99df7c1e9091b81211dec9ad508f3d4b0a35ba68fe7ce8210e3600e40e689",
        "lib\/Resources\/Disk.php": "a444ca357fc4b357156a0cb29e01d57d654a363bb32b55efd65ec17a767e9ef398ea353cec0bf43c000f7f686fd580464b8a0e7f54b9960efadcc4e51563acc2",
        "lib\/Resources\/Memory.php": "6aee44be734583a0a999090074570dbaa16cf33d113533b28f84650f246981e1fcaa861126ad789abd58ee893e0a5ec4a521d9b7080fa6b61d9ac41962c8d71d",
        "lib\/Resources\/NetInterface.php": "fcd3ddb92f03628c18f60191492ed610245e1eecbef967226e9df015428017e2d5ffc20847bd8e336400cd9c97c92785397ba4996d21590fbd1584a998b95f76",
        "lib\/SessionStatistics.php": "3420e67c0e25e8c8c343960beffb8c70bab57e1fbb28f5b0c92b89a14dfd53fdbde84af7057c7249770acf7dbb772eddacdd55d827af3303e02860b937f4fe51",
        "lib\/Settings\/AdminSection.php": "5bc6d91f5945baf4c90bddc0224e834eddb27ca084bb0ec3855490299982596b6082dc36ef5343bf78ae68b34f9f4b82bb458177f31b13e56acbad61eab47244",
        "lib\/Settings\/AdminSettings.php": "2f89b24a49895b3289ae77dee63e4ba25e352a05fb298f27a321133c43b7642fdb15b6ee55bb6365caab189391b50c04d517ca89a3007b67fa01ec7217defc8e",
        "lib\/ShareStatistics.php": "8f2fc5f5621b534033a2ae19fab1426897150cd92794ee70cad093b425b1878342207fc3b885a41a98c2d5da32dc9af342fc06b55b780016b08c91020f9ccdb1",
        "lib\/StorageStatistics.php": "001aae5a19c89988b979f88a2e8bbff0abe8ec3d712ea73ce1903952d141ca31bab16432dba1c80bfe6989aa2023968ce1a517d8f8c041c4cb0a608c7e5e81ad",
        "lib\/SystemStatistics.php": "bb16582be44a8b3458c84f0db3ee6698c353d33ecf4d6788cbd180d697afb3e45aa1664f3881ba1e9f5026708c7316767ba9a080211106f71d21f77569a80f40",
        "templates\/settings-admin.php": "90f6d08dbe7896a501af1717c99253a128caa119d402013c0d5b5df45b7d1ca9e5f84601f072b5ebf9dcf8753173305f51b2d768be17320182a63f4ae5f10b68"
    },
    "signature": "0Lk\/ak72LjZAFoCv5TE8V69AgL04rAvpjpp4nFqXOkDNqZzqwqwW36l\/ar+SiSvx70hi\/85K0Inywo2D0iqYfOI4DREr6PWLVoVTrSWMaK7zrwTRokMqZhPPNNO2P1GAfqKyJ1DjpJUucSd3SViWuvV5RbOLKUBBMkpbAN8ML\/x+mc23ENkC3MAgZR+0KdR9IfDMD6b7islPV9WyAY0nka+scKo\/i4cbqnnrMT9xtqnl+LOMhTryJUjcgp9QUhV7OAL3qPWPFVKdmR69QQbg8nwFIxvyc4VjXbfyr3A3JorWXmRaWcxQQUGGdvoqLotiaVPzOSFgTyrABPKf3odEqw==",
    "certificate": "-----BEGIN CERTIFICATE-----\r\nMIIEojCCA4qgAwIBAgICEAAwDQYJKoZIhvcNAQELBQAwezELMAkGA1UEBhMCREUx\r\nGzAZBgNVBAgMEkJhZGVuLVd1ZXJ0dGVtYmVyZzEXMBUGA1UECgwOTmV4dGNsb3Vk\r\nIEdtYkgxNjA0BgNVBAMMLU5leHRjbG91ZCBDb2RlIFNpZ25pbmcgSW50ZXJtZWRp\r\nYXRlIEF1dGhvcml0eTAeFw0xNjA2MTIyMTA1MDZaFw00MTA2MDYyMTA1MDZaMGYx\r\nCzAJBgNVBAYTAkRFMRswGQYDVQQIDBJCYWRlbi1XdWVydHRlbWJlcmcxEjAQBgNV\r\nBAcMCVN0dXR0Z2FydDEXMBUGA1UECgwOTmV4dGNsb3VkIEdtYkgxDTALBgNVBAMM\r\nBGNvcmUwggEiMA0GCSqGSIb3DQEBAQUAA4IBDwAwggEKAoIBAQDUxcrn2DC892IX\r\n8+dJjZVh9YeHF65n2ha886oeAizOuHBdWBfzqt+GoUYTOjqZF93HZMcwy0P+xyCf\r\nQqak5Ke9dybN06RXUuGP45k9UYBp03qzlUzCDalrkj+Jd30LqcSC1sjRTsfuhc+u\r\nvH1IBuBnf7SMUJUcoEffbmmpAPlEcLHxlUGlGnz0q1e8UFzjbEFj3JucMO4ys35F\r\nqZS4dhvCngQhRW3DaMlQLXEUL9k3kFV+BzlkPzVZEtSmk4HJujFCnZj1vMcjQBg\/\r\nBqq1HCmUB6tulnGcxUzt\/Z\/oSIgnuGyENeke077W3EyryINL7EIyD4Xp7sxLizTM\r\nFCFCjjH1AgMBAAGjggFDMIIBPzAJBgNVHRMEAjAAMBEGCWCGSAGG+EIBAQQEAwIG\r\nQDAzBglghkgBhvhCAQ0EJhYkT3BlblNTTCBHZW5lcmF0ZWQgU2VydmVyIENlcnRp\r\nZmljYXRlMB0GA1UdDgQWBBQwc1H9AL8pRlW2e5SLCfPPqtqc0DCBpQYDVR0jBIGd\r\nMIGagBRt6m6qqTcsPIktFz79Ru7DnnjtdKF+pHwwejELMAkGA1UEBhMCREUxGzAZ\r\nBgNVBAgMEkJhZGVuLVd1ZXJ0dGVtYmVyZzESMBAGA1UEBwwJU3R1dHRnYXJ0MRcw\r\nFQYDVQQKDA5OZXh0Y2xvdWQgR21iSDEhMB8GA1UEAwwYTmV4dGNsb3VkIFJvb3Qg\r\nQXV0aG9yaXR5ggIQADAOBgNVHQ8BAf8EBAMCBaAwEwYDVR0lBAwwCgYIKwYBBQUH\r\nAwEwDQYJKoZIhvcNAQELBQADggEBADZ6+HV\/+0NEH3nahTBFxO6nKyR\/VWigACH0\r\nnaV0ecTcoQwDjKDNNFr+4S1WlHdwITlnNabC7v9rZ\/6QvbkrOTuO9fOR6azp1EwW\r\n2pixWqj0Sb9\/dSIVRpSq+jpBE6JAiX44dSR7zoBxRB8DgVO2Afy0s80xEpr5JAzb\r\nNYuPS7M5UHdAv2dr16fDcDIvn+vk92KpNh1NTeZFjBbRVQ9DXrgkRGW34TK8uSLI\r\nYG6jnfJ6eJgTaO431ywWPXNg1mUMaT\/+QBOgB299QVCKQU+lcZWptQt+RdsJUm46\r\nNY\/nARy4Oi4uOe88SuWITj9KhrFmEvrUlgM8FvoXA1ldrR7KiEg=\r\n-----END CERTIFICATE-----"
}