{
    "hashes": {
        "appinfo\/info.xml": "c821e81f42ef4cd885c7a5a3e51dd0c1954cfd7d0ccb2955375e6083d0a4ef134b05af1ca81444dd8e43a113c6c05c621b37034592efb33f849ffb54b6526abe",
        "appinfo\/routes.php": "e8923546e7efa61cba7e7ae6ee9e8a9b45fce46801e2590c5309520c76bb4c0d2b522785d694e6faf17d2678b493fada81a83ec3f98c740fb51043e4b91f7eb4",
        "composer\/autoload.php": "7fd971ffd5c7edbd84d2bf62b7976f55249cd281f6ef937e66934ede37a1f37d43a50f24a1d26cb1e244d81971f7517c5020d1cb1df8145f9d98b1f6f32ba782",
        "composer\/composer.json": "9c36ace52b6a97dfc85a1f09119b73e974f8a7d8d6a67273abd488d35ab65b619c4aeb1f3dcc70d63c6abf8a0246d6aa2937ee05548d0f3f792e881f9b1c44c2",
        "composer\/composer.lock": "ff05b13233ad4e3365c2bdfd64abe5c05883d227b20303d35b50ae0f6415fb36a3f2c7d047b130bcafaeedb4a9231cdbafb81bdfc1a2f51746e008a7a68ad0b1",
        "composer\/composer\/ClassLoader.php": "a6884d84d11c4bcc2a53f86929ad8f519d5e1cda93724a3069df108b91a71345e59f2598cb0361ac0f88576fc03315a4158215b33e9609d8f07dbd3819754d61",
        "composer\/composer\/InstalledVersions.php": "733e68c171cb9e44868bb0f105850fbd0e4f225c67235bf30fb2ac5c3443c6edfb722d4b33aa91c82bb600e937cb6392eb1883694d41616e66969d7d42e23b4f",
        "composer\/composer\/LICENSE": "f3bb64009f41a425df5a9bbab53490f0eb9b74fa8d6aaa2f57efb928edc4ffff330260666edeaa04a91fed708c3663371cf01b284f3a08d6698aaef7a23f355a",
        "composer\/composer\/autoload_classmap.php": "221af48906d81e792b8ccc327d0ca27c54e4aa91d7150e68c93563cf4b96b7f34ef0ec60bd2e01db40431193955649c0e2ad5d55eab4ba7bd36d6f5b0d19b352",
        "composer\/composer\/autoload_namespaces.php": "5b2571f3b573a778d362b8c7412787b4084c7f27d3f5bba1585243f3ccbb0b9054e68522a22a1ad59ec11097b03a0e343865c0188c65b25f0a97e24e120339d1",
        "composer\/composer\/autoload_psr4.php": "79b8f970c2ee64c1925c8c8eb840a928deb0ee5d68155b61d42b5f63361a0e5775e4a1f770bfbfdca9e1ebecb68ece654725550c87b75b3a541c5266167fe124",
        "composer\/composer\/autoload_real.php": "edfc994ed23a8b75081a94ba9e927954d0bbfc5f40951a8e039f2c4d86b83b30e6fa5051df2b349ccd31d1ce7fe576e4bf0776ca795400690bd922d30ee02b1f",
        "composer\/composer\/autoload_static.php": "cd689f90eb2d43f6839d9ecc05f25720aa5028c21cfeb1930aee1845776e3fd02421ac7198252a7ae638ca4496f92ee38f2e6d2d8f9c40f45333ae14f93844d3",
        "composer\/composer\/installed.json": "0a3ed51f953eb945b970a8eb21957ca2beee4669c7d0d9be97b8259c391b60688f8abb78d4b1fae5e4e2ea5e3d8747f4d35f066a2605e9a76f5b45ec3f1da357",
        "composer\/composer\/installed.php": "e6858a3fc8f40144ee72d1ab87b5431a4f3246ac64d53bf639efeb6636392372bd10ba18a0b1cbaa483b8c05a1e35af769c457447ddb10af2cf00270767adb22",
        "css\/dashboard.css": "3fddc54beef21a1857059cdfe6eda15d62339b3e8e62afd0ef74accf1c22a4623678731fe7b88d446e357dece34c580a40f2bde4c1bc404320ae93dddefec291",
        "css\/dashboard.css.map": "2a636efaaa0cb6bc2ec4d723f3e59c4a3fc5dd8ff98c6f281f40432d1162c9ce837b95b6f5647c64b9578c72963aaf48d02b2d7555bdbeba0b401de6fe807444",
        "css\/dashboard.scss": "9d8c434cc3f6a18fbacdcba5b171c13386a04e66d8ac0688668275252c97389c7f0b4b412e55c0a5a86b8091056a16ddd89193ac7e27c6d3c0ead555644086da",
        "img\/dashboard.svg": "123c42ef74ab8ab722916525429807590fad94d08dcbddb2740dc92e1e6d7782c91ebb06dd607aa929493cbc8aa02390e316e75741b8ff23e588f243523cf99e",
        "l10n\/ar.js": "2789fb90cab2de94534e76189ce8593cb08bda0dfacdcb4ee813f452749d6bd2fb824100ae7ef032ad9f0d233d8a6af85a1094318bd743cb8563ffc5ecd12449",
        "l10n\/ar.json": "9c48c2e3ec272e0df387235dedff8cd62428e601c01e4fa91d78f93f5c4d80b54b235c7c43dbc397389ec061e2ff184e93b7b98af2916dad3a08c1c8cd0aee6c",
        "l10n\/bg.js": "8c0983b383fbe99adf19a137b64d80c837ebc73df88f6bbfa1a4db7dc2c160590bc9a428c4d48c76a1cf822501284a4cdb8025abd4b0a3484225b0258e1b7f5c",
        "l10n\/bg.json": "7935c133cc176aeb43abbf5d095cf8aa4c2bf4099b47e21853cd3e0e9b31ae65079d70d338ba34aa061dc0d6f545e1a5103c2902cfe6ed9ff41d2522487dcfb0",
        "l10n\/ca.js": "67583501479133c43537656c60c4bec0719f5481ac644b1707c498533c35368e6aa1c6c6c9fe9b33d84f005581396e8a924dfc7ba742a2ada9b5c74c679b152f",
        "l10n\/ca.json": "973a0be506268c13188846cb4181fb120838521b4b3e6eefbe01e2b19b9cb70b88d58fd16803f7d467a88b9ecac1cd932a0d8cd9bcc00edd27cff7c2fb002f1b",
        "l10n\/cs.js": "8e45bf9ecf47bd56a8da118690cb6092d94467c03221b5aa7adb570da466a7ac3be9b1a4272f7cbb7d95068e94e69590e6f231cc979136f1499639cec7061007",
        "l10n\/cs.json": "42e6d3e03baea31b44baeaebffb7159966597edfc5f059ff9d2f5d3f3f582e0b815b66265b73ad0f0ba604bb291f2f6ef27360219c17e5fe2153478039f1670d",
        "l10n\/da.js": "17a3c840bf2b02f251796700f845b25d936bab589965378fe185ff5c1a3148991545e4adcd1042d8800b560088e2b7f7c3224b0db6b7b7856ad130a86acb5c1b",
        "l10n\/da.json": "d2a4464a27a9e78925e494b9d8cbe872b6b923aa8ec54f456e3b198c4a6605d6920d98d2904e32c6a5aed0378f1c4b9e2ebc2e5aa44fa82eefe0d9f7e619f114",
        "l10n\/de.js": "aaa3d05837392037a405b725c134156af1505e16ac8fcc3fe6a451d58beb8ebda97b415d0699d6150338075046102b245e38d81e65f2dfbb3f1815f70e200a49",
        "l10n\/de.json": "b76ff9b85cd6fc9ba04aabec40007fb8c9cf461ba17443ec2d724cfc839c97569a1dd06f260c62e03b126523b83e271fffdc6003dbb9133c645e8581f84c2883",
        "l10n\/de_DE.js": "aef485a84a5e630cab5ec2eb33b34593837dfcfb2931c9607089d1a1c1a4b1a8c991f0b40bfd6efa521fe455c834b20d30da5a014fbbbc512cc6d927a5f0258b",
        "l10n\/de_DE.json": "4be806f0a0a6ce5d81b9dafe27d28f4705e0c5b32061dbad0f339fc290315e355f8b571fc0dd730ff96bff4086a7a4cb53a81a5bc79878409751ab97ac1396db",
        "l10n\/el.js": "8a8badf81fb19172df1c1ba6d87c914f21ec9e436bdfeb209915997763784d16f4b8c61c8022db847120f939317e45173e51277f40a9c0be21c64e7379c54d19",
        "l10n\/el.json": "0ff6b2c330fc81bc44a653268c12657b17a23b9a37053db136a01aad60d2f9b30d6b97ecd6f9028d58e0f0d194b5ea1c3efaf52860115cb754de1780fbdf6c3c",
        "l10n\/en_GB.js": "5331490b217e85504e2651afd89f76dea732b90e844403f866eac7747d573c302afddeaca6af7efbebe5a59e4e6d95fbf9237c9477f82e426cff6f9d27ed5f22",
        "l10n\/en_GB.json": "19e9dbf722ba36bb0f0ea21db1635e63c2e18ff9b9fc0972173e9bc9db92f2f6e391580e2530d27cad9ddc016da526d1a6742771b335b9f4b2b93cf01af397e3",
        "l10n\/es.js": "9c2791208ecce310aa97bf0d8a2e903da7db55dc9b8274defa511a3e8265130df374dcda026a9e3f77d4bf8cde38b1419c915e1364b31c91510d98a4fc032477",
        "l10n\/es.json": "bfe9443c818a7b825f37fa8c78d6900b487c4efd9255a9164868f243ef8947d7f4b13a45a8a9f2666c9dfeeadcc822cc473bfa46523f7ee46a9b289336817149",
        "l10n\/es_EC.js": "481912b1d2b35cca7c069d8ddfb6db17c20a11792680ac71108c0cdd74a40d6ca62ed2dcb992c7e4fce21d431124e91d9216d72d80d1eccea0cba4b20140921e",
        "l10n\/es_EC.json": "686d49e2400a3211d90f84e1904f15a001db39d72caa5d402c43251f7f6b48c86a37469ee1269d5a823ee306f82b0642477800855d7ad8e32e88f918bacb01c5",
        "l10n\/es_MX.js": "9c701a7249a6d0fdb11596c02549e5dbecd0d13985b738ff7b23bf5106a4604ec692228da212534e160d8a463c02d8d86f9a3b8869835bc1440459a3ed6567e1",
        "l10n\/es_MX.json": "2ee78c8aa2a509d4cd3942ccb3da085cd11dd2ad731d5ddf84ed6ee2c49a14c10cf727fffb1f135c479b6309aef24554b97f330196a2592d12da703ca23ab69d",
        "l10n\/eu.js": "3823c721f8eeb29b912cffd91ec77bdc0a6b9929f828119595f334fabf4d74b958ef8e901891ba9fc837c48298cfe465d3e7888843f2ee8fda8deeeba7f277d7",
        "l10n\/eu.json": "9c47750850899ec9088434c7f70baa831d1b7446d5837225cdfc228958f76dcd1c6bbef02dd56a28a6b35aa49a8e3bfabb33e9165ad8108c2a6425b610ffdf85",
        "l10n\/fa.js": "f59691a91c8de4554e10ea71067bf24845a5bacf0d1f1a91c47c65c8c9a798a2a72c720a8d52a1b3db7572d05063db8b86ff3f2dc090ccac9fe96e13f32eb066",
        "l10n\/fa.json": "e87651d719544ed4f5b896a0818537be8fa5fc195710b8837d9fce2203178868f40140a21768b855d10c120fa793f91f8b4f5603a9324de0b1b52c846c7fe340",
        "l10n\/fi.js": "92a89cf89fd49f64b98a31156ad4d2ddffa14fc736825c43b7af5ceeb7edc38cac3c3a7a9e35efc4da1b255cec4d4ed351d03fd9e634e0fc27819e106c0da143",
        "l10n\/fi.json": "7ed3da85cac41f336f99d38d499ef3da90f3bd791ecedd4ba6864d1817c5a46141d4d5e2305af9a86145219ee6d1c4843df61fa5b349bf200d9a677377611f5d",
        "l10n\/fr.js": "24426168c5a6d34dbac57bb7a5bed73055cda3603f21142af9ea20c4c6172397037920804bcb7b5708b81e38abeb2622dba1efd0303160d9518867a2557c83fb",
        "l10n\/fr.json": "23ab77d32cb7343ff589258e2d5655fe0638f1632ec9c16de19f3aa686b9f6a5e66e7a73e7510f2160441bee7b1f14d756aaf18322268c6e8cd7b2caeb6d4bbb",
        "l10n\/gl.js": "7c62342f4eb1e0377a802fccae8eb2b0f6c965f49d628efa06302b946b77dd8eea6c59b53e47a63a5a84df356390f1ceb2ef19e0fcabebf372e2a2133a616cd2",
        "l10n\/gl.json": "8e5cfa98e30706cef46180733df212b49893448c091ce89ad15532314134db0c518401cea92aed84cfc00fef00e9965b8c029a0103db699349af3abf49a9578b",
        "l10n\/he.js": "ba5e4ab0d33d8c7dcb1e11403357e3fed03ff39cd7716089cd250acd015d2916131ad97bcf139129a51419cc5decb29dc2e2edc3dd448da7ed85ca56b63a0c83",
        "l10n\/he.json": "ce1cae3d34d647dbc63ecf04189192acbe2ace7836b635ae0b27135de00bcdfd467fba30f37c505b319296da491fa66cb8b29c82c139c96cc0076f1717f25715",
        "l10n\/hr.js": "006be4d6e52f529ac9876faf418ad28aa2fd5b77fb06abca61652c10d3dee70a31aef06327b7358467091b5fbcc9f6d5cfd6615fea2dd772d7b1a04db6d82a14",
        "l10n\/hr.json": "a59b2eb92aa5f61948d340bc1ab64423ba3ba582761095cd6809d39d8499318c81b710f923de9689b482b9baa5594dd52493dd3f12b11d472f1eed78b7d7361c",
        "l10n\/hu.js": "cf6f7c8aca54238dd45e359add6280ce531cb18d923bf5a86055d84bca2876cc32d790c6df13d465aac39a2f4eeb55fcb03448defadce46fbe65f2d1e7700fcb",
        "l10n\/hu.json": "cd1ba5683afa7023d26d776bcaebecc76a32d4f4aa12f70bfed9ea2f390a636e08c16a27333d39924f8f64ccd97d62bce73d21766235d022d3bb8683b52527c5",
        "l10n\/id.js": "e49ce274ca32afcd949b497c486cf61f83dd97d3d0de8cac28d8288c88e10f5bf49c3bb59f7fb418a0e7589f93e91d1b0fd2e6bb86fde1390d98c0bf32586c57",
        "l10n\/id.json": "41ef4dfd7de77422da681bf486dbfc1c0322a9d1b0e3c07c90aa9d0c7b948e0dd587a0ca5c84c54c2ece5d4e9b56e4ca4a6bb1d7a80ea5c4db057baae8c22d58",
        "l10n\/it.js": "885747c3f98207d078bfde619420ecc32c9f9baa281623ba76042bd8ef48c3711efbd73b937ebdcbe7311c4d29f94575d4bc5926d5c9f2cd70f5b22759cd7db8",
        "l10n\/it.json": "ac141a1d79ee8edeaedf45369b34ef2e3bcdb8c208654e7fdec3f1989c8f4763fd3624c17a82448c58b4fd9ded30e3732dd1271af5119e7e746ff178fdb9f6a1",
        "l10n\/ja.js": "a8ddec52558b2d02654d4b31f57a1c77bc3e60f812d542de37128fff47216dabaee84f213b3979aaed6811a878806bb61d8f6b49218efefe932295b62296217b",
        "l10n\/ja.json": "5b44aae9a303999518e80ef11cfe5182140f6ef8c1878476e0cc5bb14caa13e1104b078a197f8c8d93ae6669f16f6d4b72401212ed8cf851e2e79c62524418f2",
        "l10n\/ka_GE.js": "492dd59671013c4cfdc5e625a0c7454e4107de6272950bb796d4a86211037e909c9b8971261d6bc3025ba7a54169ab78b13e0d78497215575d5018ee3cf91350",
        "l10n\/ka_GE.json": "db16adc81974965bf2f9c46c23bfae3fe9e65522a714b001ed5cfc6764aab2e7f164cffbdff3353eb27ede321526e5dbca784519219a5468da2887e0ff9546ea",
        "l10n\/ko.js": "1a76163f4dfe31c8fd9e8e51fe5145e8b3fa2a6b5427bba2808b3cf3d99e06d6a94b62a4a4ab11167575141c52057b40a9014d02c76a560cf90d753d3fd39f74",
        "l10n\/ko.json": "dbac394c131d293f2bf10f24dea919d1cb2ec1feda55641ac6345017b47b030e18f15d8f9893c6f96405fcff916988dc55bd9dd7a0643d266b432bb726bcf281",
        "l10n\/lt_LT.js": "72d85b23e34573f3fc64f8b58a8a27835dacb69ed613641f1e1e03a83f630b497eb96d226280b5137cad29738625daeb4803d433696758481317cecb848f5b66",
        "l10n\/lt_LT.json": "c667cf7d002a5fdaeac3743d3dccce1ddbf0ec43f96d100683fff1463229418ad6e59fbe2620e52e5393f09127239d798f212e49e1b5e5c77fd7e9c27145a6c0",
        "l10n\/mk.js": "5df7d9b9ac9c10630d0ef7835f5ec2eb1d5fe029b1d42374d3b485d3d21db2521c22a24c440854455fb65c398e8ccc00f50fd03c276c20f2418f869e9accf74b",
        "l10n\/mk.json": "71b97ac905193d82647e38f239d9899c816bbc0d3237d2d0309844c783f7695520d97de4f93093d87c75f1ac1254918f7a7fb005ad2774101be754fbb0b50f41",
        "l10n\/nb.js": "d9100ca4fe279f38259e39aef22e23984bc386e1775c78fbd35160fb11aecfc02d2b8c386883fc3925495a8b2a00fd53c2848d9f20801adf5dd3fb34279a0081",
        "l10n\/nb.json": "07143d6b35946d387afc52293e6971002dccca9285b51d047fa964be746fda0f64d1b3898fa52ed1ed273394d4361f2a319591ef428ab9dfc6f6113e83b5d0d5",
        "l10n\/nl.js": "0b48979cba9230f6b32817f3b85b9aa7fbce25bd6c7fbe79360a0029a33029d6730614b1add56ad9a3f8c42cdcbfd5f8c1b7f7052a83dfad9cfb9c82c8a5e00a",
        "l10n\/nl.json": "1b26f15204191a203c58accec609622bb3a33d7479472896ba95db6ee77e6f1a850f6b1aacdd7d482538824610ece6e04e61a0113ca0c5870a26f0246176e219",
        "l10n\/oc.js": "503902fd8f72e1c1899860cb883c2d239f167c4b01422590ffd79e0d5642b299a5edebe0c67125e75ab15c82d86f290df0cd9380da3997f2d556ed5324fde815",
        "l10n\/oc.json": "b957f0070be8cbf1436b10f0274f21d980e122fc93b547baebf7991ca7837becbf52a136647c574310034bc1a26efd6a51b09a4f4af78a866a26dda39ed03c0c",
        "l10n\/pl.js": "1cf2e38a47a624907ff231b9a3751836241ac2074f5a417acb8e0253816228667904bb2bcbdf295e77928d5306545748a83528e1d3da74af6518ed36320baf46",
        "l10n\/pl.json": "b409d24e7726521a3bb04bf7ac5afaf184412fd12597374ed36555788001f0c9943b626975a043574ae97312eeac382fa087bf4647074c23c6ff0680fbed68c7",
        "l10n\/pt_BR.js": "a872b0ee6b2288747e0ecde03536035dee1c21e10e6b10be024d321743b59abba2cba312f852f45e6d33566d221145c7aaf6d4b3ce35e9f68d03e6731942dc49",
        "l10n\/pt_BR.json": "0f1ffd5cf4dda243b775caa75e35a13df857879e1256663ce0b6bbf20c603bfe31088cb5f3dd8b87398df1b0e900cd75a90b5dd5d5dba8d9360cc46c1d05cb25",
        "l10n\/pt_PT.js": "e971a848142c9cad6dcfa019122ee622317d15d416dfda28d5eafa1f021fe42e1e3e2c5199e7fdbd32e0118f74f98e66970e6941ee008a6e007344fa7dfb8491",
        "l10n\/pt_PT.json": "2cdd58e49c65c9ece8156c02b236731ba4fa9be9b0aafd9280412e3df688bb14fd2abc0d8dc862dfe716aa65640f612373ca6ec3fd90b61bb7a25cc429bf6501",
        "l10n\/ro.js": "0cfe53f201d49f75883d3d7af61d71c13446f61d5d4066d78fb7b75b37daaeefbb00a6ff9abbf3f533e662c58bf996e6e8f5fbf790a4e92dd8fe10723bc551c2",
        "l10n\/ro.json": "b9eed5b33aeebbb2dbea261f40a0b5b434544e1f9d2ae4563674bda6629e0215581537992a9d0342a323c780fcd8c8fe448e4eac2a172ee83a012c2884f0edcd",
        "l10n\/ru.js": "d99a4a5e4b9113fe1ad5ca282a997ffb8a4ad9077b1d99d654b4e9791922d3dec1d50e8f894f7fc503aea3d42b488f5d4e4553035d1f093e4647f37292c279b9",
        "l10n\/ru.json": "ac4a69036a70922e3151f4d244efc11060a19e6bf8a38a7607842d93849c1b7fa4feb8682b4427571b3f6c312daee68eb5f640f5213884802492f6a4c1f348ce",
        "l10n\/sc.js": "ec5e45f75ed27632f22439c75bb187aa96aa625a5828cc8e1ef0485c33c3ce0efa2fb58e10bd2eacc3a9fd2811d9073a0fe04e611e69eacc1b5790fa34fdcc93",
        "l10n\/sc.json": "f872f8021b6f53eddc55289b73355e51e384771c34466ed598ddd3bf68d1cffe894b773729d44de44ca58098b3322fac4705755ee640add4fa5e308930a99139",
        "l10n\/sk.js": "da4de30c142a956934f7604c7aeda2e980fdd56de51dbbed4c8c6b6eaf68040f5d3320dee29abbe4b89d36f406949a99d4bc49ea62fae506ae1ad909ce537a8b",
        "l10n\/sk.json": "71f2a0cd830a0f1d3614c9d44a1a3081fffd5c07edac172d974ddc6d87e8f308cb7e57b436a994b499a306c76b9d5d8b37966e72281bd1bc55b2c8a79628bb3b",
        "l10n\/sl.js": "c14bdd46f29c20dd8576cebc5777a570aa96a6becab3f6fbca7431fe02360c0e42b2be05c2be950d231401e0b7350db93276bd6bbf2cc2e046f7fe425914c3d1",
        "l10n\/sl.json": "71ce2381a8307aa29f883a9bd968ed9e7faaca729a1c01b06ec5fc39de74dc439a0dbecf2e6eaa9f0496135797e41c8ae0869ec83123f55469cdbb2f38e68fef",
        "l10n\/sr.js": "a4b36e3e6ef6a023ef77af413c7b2d717681611e88590e3459f7327435eb136539c9196cbdbe3bbfbdde6188d937f7bb6c7e0ce9fdee082db7e6bf0ed59b9d38",
        "l10n\/sr.json": "3394931f6213206381f8610f899a89c7dfb26fae7e8a502438065e0ff1b58ad92cf8be2a2fe059da8f4210adea7ce335af4c496f6b0878bebac782524a3bff26",
        "l10n\/sv.js": "59b95e5d2c08e057ee2ed215b600e21832c33829db5e884ecf9581b2182fca24971bd94974417f4458609255d3d318f5ee3fbefad31e59ad11e14c79a3781d77",
        "l10n\/sv.json": "e43ac49f76c3d1f2d16d3f420cc4ae941f3cf4ab03da52cb204403755b776808905ef4dce666e17d21dc4bf4a43445cd6aefabc422c7b9bae6ce0f2c375e0cbd",
        "l10n\/th.js": "893aecfabc5c595db5a2a3d65e96b5a6b6273339c190851a48142aa38a405bcd898a8ea81a68e89d0cb5857a66babb423a24f07b6aaa37a2edd000a094f1524b",
        "l10n\/th.json": "6fd8c45475f7521524a3647cfc69056bf3d0a3feb50e04c43f24052a06fcbbd5c56f10d1ff9e49182c65b234352abbb73dc04a2b647553775368c0fdaeb84839",
        "l10n\/tr.js": "e6d00f47b75ccdbeecf2384aae5c88a869585fce1fe3e2242a66eaf5180eca4fd042c3fa319f958e776367a0a65130034c0185d0a07fc49e208ac30b96e770cc",
        "l10n\/tr.json": "fd389a8efe4a0beb294e01706da6393ecaaedb37be88ad7f16fee81a5fb064227fd480b5e98cf416797c81c32cf0579f0eec97d64cef56657dea8da256a31325",
        "l10n\/uk.js": "c4b1e0dfd3cde710e9edb54028c668fb2bb178b8c3b0a100d08863a848295a47f5d304e708c33f3fdd3eeae5ca4080c6c36ab072d642bc78ff4c8ead1772e855",
        "l10n\/uk.json": "7a7408d459f06bbdbdb507d2f6cb094a83bd5e714ca1e1a9c16f618df9daf5fb1cdd0093d9ef56960f9949fc0be0e718de71872b3e8bdb560814c19b7a306ef2",
        "l10n\/uz.js": "baea4d18725d43ad2b0c57040b26594d8014f796b90d4203dd80646a1c5ddf4750015bf017dc01c9805342897938f18197c3949705eb3165f2654bb2b77da698",
        "l10n\/uz.json": "9578541486a4ff37e64e5919646de5e5b26fb5e804fc31fc9435b699694f978f7743cd2170123941623db3d09bc4eb530654f297d7388eb08214960c7eeb22e5",
        "l10n\/zh_CN.js": "935ef900ef40da4ac6af4d417989affe6f5fef31d7a5c94ce9e0d0f3537f3836958008687914b2769ffab5ed7018e668271cbaaef08e1a8218de9bf2a2e234d8",
        "l10n\/zh_CN.json": "f102ab83724437df0fb9480ca8730112b129ac28465af0cd37cb49628f67156bedd67cc1eeb2c48aeb5f66ab8dd768fab4388d56202f6698e16b7a06815d284a",
        "l10n\/zh_HK.js": "9466759b78397685a4ee5b240988531ce16ce803bced7567c29da377112a5b95194529c403f0b7ef771a4962e9690010795b0b4ee0eb82cd77065e27a4c13a52",
        "l10n\/zh_HK.json": "a5f00830cb5582447ff41022afd6ce397644943089eb52b20201730208662592096090a9e79858ae03db9d8a8baae6e4b912826683fa19142b544502e7d27c49",
        "l10n\/zh_TW.js": "cb8ec8c4eb100885a7590c73684a4fbf368a25cb97af80c872b5bcab8c3f93fd8f564a7844c40933711ea63907809cfa32a860a7904f01d9e8d395b67e173d1e",
        "l10n\/zh_TW.json": "636f1be92f9bc508b1ecf3a0c5e508c30b9dcf45af0e989edabfa77209d4f89c0308d7c71c84ba85f1124ab595269be70d5e2d343e058133b0bf18c51a10e859",
        "lib\/Controller\/DashboardApiController.php": "322148cc4debea71aa58295a764e96b92ccfbf9bd8b0ef9879918b7b56f2efc0f589d9ed59d3981cb184f9596960e54864fec8fa6abca91dca578514c27b5621",
        "lib\/Controller\/DashboardController.php": "617abf616129786ef92aa831671de932b94f15da3f119455a025b4d81e9196870aa72c672317259945190571f67b669709f27c1b2aad20b2b8457cdb0014e97a",
        "lib\/Controller\/LayoutApiController.php": "5c8cf5bd348cb307cb8fd683d84ca225ab4e5ca1852958792c6ef8ddf11900d8341d67108e6a53699c7817f40942abaa79c713c84e8517facf1bdaa369910a60",
        "openapi.json": "adb0b2ea2473027094f8f68d07d279e98acf4a203cbf6428826c9364e7e2230f4115f227a6fb5d464c8ab15129cb447f716b8be3ae62e1d2f6c600934c97a990",
        "templates\/index.php": "cadd5c05805d71844a0636a5704b95174899dc856580efb260b727324a602ef763096cab4dc9b4be3ccfd2a4af974f968ca3e9ff498df68c565d53d5434bfa24"
    },
    "signature": "DKgMD9w5O8WUH+RgXH9BRlAvrdzO4YfHJFbk8\/87h5LVtO56kRhLiWLglCbXSKKA24yOkuyTLMkRwhPl3bKX9tjy9qvI01XvXK06RV1ONFzHBvzQM6U0iaB61peLcE8oFDJcj7JeqFlM5UcpzCfk0kk2ERo+Bb+ogEcaMti5VT1AuZ0IymLc+IC3qZ7oFToO04dBsIZxbSqbqYcFW9lM6Qa58mOC8NyJv1uK7BU1bKQezt+wTrnhB1s9cPMy9cWLS1LRmw6yBFpzQ4MO3z1xEchd7KmUPsoBYxWD7+8vssI5WzuLUZs2TSYsf0JSuBJLdpPvXUN39WuoOypNCeYTwA==",
    "certificate": "-----BEGIN CERTIFICATE-----\r\nMIIEojCCA4qgAwIBAgICEAAwDQYJKoZIhvcNAQELBQAwezELMAkGA1UEBhMCREUx\r\nGzAZBgNVBAgMEkJhZGVuLVd1ZXJ0dGVtYmVyZzEXMBUGA1UECgwOTmV4dGNsb3Vk\r\nIEdtYkgxNjA0BgNVBAMMLU5leHRjbG91ZCBDb2RlIFNpZ25pbmcgSW50ZXJtZWRp\r\nYXRlIEF1dGhvcml0eTAeFw0xNjA2MTIyMTA1MDZaFw00MTA2MDYyMTA1MDZaMGYx\r\nCzAJBgNVBAYTAkRFMRswGQYDVQQIDBJCYWRlbi1XdWVydHRlbWJlcmcxEjAQBgNV\r\nBAcMCVN0dXR0Z2FydDEXMBUGA1UECgwOTmV4dGNsb3VkIEdtYkgxDTALBgNVBAMM\r\nBGNvcmUwggEiMA0GCSqGSIb3DQEBAQUAA4IBDwAwggEKAoIBAQDUxcrn2DC892IX\r\n8+dJjZVh9YeHF65n2ha886oeAizOuHBdWBfzqt+GoUYTOjqZF93HZMcwy0P+xyCf\r\nQqak5Ke9dybN06RXUuGP45k9UYBp03qzlUzCDalrkj+Jd30LqcSC1sjRTsfuhc+u\r\nvH1IBuBnf7SMUJUcoEffbmmpAPlEcLHxlUGlGnz0q1e8UFzjbEFj3JucMO4ys35F\r\nqZS4dhvCngQhRW3DaMlQLXEUL9k3kFV+BzlkPzVZEtSmk4HJujFCnZj1vMcjQBg\/\r\nBqq1HCmUB6tulnGcxUzt\/Z\/oSIgnuGyENeke077W3EyryINL7EIyD4Xp7sxLizTM\r\nFCFCjjH1AgMBAAGjggFDMIIBPzAJBgNVHRMEAjAAMBEGCWCGSAGG+EIBAQQEAwIG\r\nQDAzBglghkgBhvhCAQ0EJhYkT3BlblNTTCBHZW5lcmF0ZWQgU2VydmVyIENlcnRp\r\nZmljYXRlMB0GA1UdDgQWBBQwc1H9AL8pRlW2e5SLCfPPqtqc0DCBpQYDVR0jBIGd\r\nMIGagBRt6m6qqTcsPIktFz79Ru7DnnjtdKF+pHwwejELMAkGA1UEBhMCREUxGzAZ\r\nBgNVBAgMEkJhZGVuLVd1ZXJ0dGVtYmVyZzESMBAGA1UEBwwJU3R1dHRnYXJ0MRcw\r\nFQYDVQQKDA5OZXh0Y2xvdWQgR21iSDEhMB8GA1UEAwwYTmV4dGNsb3VkIFJvb3Qg\r\nQXV0aG9yaXR5ggIQADAOBgNVHQ8BAf8EBAMCBaAwEwYDVR0lBAwwCgYIKwYBBQUH\r\nAwEwDQYJKoZIhvcNAQELBQADggEBADZ6+HV\/+0NEH3nahTBFxO6nKyR\/VWigACH0\r\nnaV0ecTcoQwDjKDNNFr+4S1WlHdwITlnNabC7v9rZ\/6QvbkrOTuO9fOR6azp1EwW\r\n2pixWqj0Sb9\/dSIVRpSq+jpBE6JAiX44dSR7zoBxRB8DgVO2Afy0s80xEpr5JAzb\r\nNYuPS7M5UHdAv2dr16fDcDIvn+vk92KpNh1NTeZFjBbRVQ9DXrgkRGW34TK8uSLI\r\nYG6jnfJ6eJgTaO431ywWPXNg1mUMaT\/+QBOgB299QVCKQU+lcZWptQt+RdsJUm46\r\nNY\/nARy4Oi4uOe88SuWITj9KhrFmEvrUlgM8FvoXA1ldrR7KiEg=\r\n-----END CERTIFICATE-----"
}