{
    "hashes": {
        ".nextcloudignore": "8dfbc5d7bfe4c69f35652170e2614e7b8e55fb7ae77c0ab2d4e68cb7877d927c7e202a73d417324e0755cc7ac701689f1bd8e7407620392534c1bc6568936fb2",
        "AUTHORS.md": "053a4400eaa49eea003ebbe20c63226df86a2676c54196f807037b2d36a59585e1756784d6f67accadb4720e4213ef75633864db8fad4fceb6fd1cbf35204a8e",
        "CHANGELOG.md": "9334060c1880407d85a0c577f9be4b17fdefa3665a5bad61b66717966f284ed7ce330f833dda7604652b965898e2028a9dfc2d0e64b84729afe56312668c98d9",
        "COPYING": "6e90d46be391aa645bcf4dfaa67f452cb15a73749f1895633789c7763b43cc0b65d391e5e95652c9a9a2063c956e0e8099a4e1ce4b70b0636629f9eac39c1080",
        "appinfo\/info.xml": "cacc0318e477ba3f6532fb6dc8d539a6ecbb88b1d8fe853d050dd0829da0eb4a63f84f5ee8c017e64df5560f50e42104a87b61d409ec438b8caf5884acc6808b",
        "appinfo\/routes.php": "8e88faddcb78b9d427f2cf344b443896b0338faefee4e02a192fd6a801298673564017acbfe86c4f28b05d775e638a7dc1c118cf1cc74be8c8ed7f92667c5357",
        "composer.json": "dbede336ef795511c39d17aa5208466b6d0af54c98ad1a27d685e50714677eab8b1889f55b8544d2e55a08bf19ce1ca03ca8d65af6948412a31dee1835a39b26",
        "composer.lock": "a9b2dff2fc696c03cb3cf2902dca46c982b2f2f52f7a225d9b3de1455788c07f32f8c3545a020232a488e40350efcbefa324ff3e8cb5ad346501d83a4807536e",
        "css\/settings.css": "be8c72400fa4d7813489ce0f226a9f29cac2aaa2f2cf0289428862bb211bbb9ac91c2b7d0560770e53412948fccefda3647adc2a8e0c3eb6274808afee377bba",
        "css\/style.css": "0a9fd787479bd8ef62f54a4fb1402d38eb29f73e94278788d4b7a58ede5f962e994e01d95b127fd8d81ddb1c3c0a5751650bcf6f95d7d5e7a0c6eb01752a1815",
        "img\/app-dark.svg": "75e14319a4d74b83ba31fa1963946eb2f45b7af3d9627195c8119c497dbcc9a36abeb635dd7676b94ff0ddc8d829aa5313a49c2ebe09e2ced02d9d8ecfcdae59",
        "img\/app.svg": "7aa2183b5a8df00fd332fd8a23d46f7760c38c28c65eed8aeb1bce280d3e7ecddd2a75b33972a921430a1f2084b63c7bfe8fdad50be29d9b4506cd8294757135",
        "js\/twofactor_totp-main-login-setup.js": "86546251edf8c2f90b3645477a3639ec5739e46d1a82e1bd49ec1ed16f2cf542133bbf0b8ebe3bba910ee07f0e4e93c301017696de5519afd2a6c6d714442ddd",
        "js\/twofactor_totp-main-login-setup.js.LICENSE.txt": "c77d23b20d289416579dfca912a7a4f5a374dc57e719351b1ba9bb3431c0cc5bf4f9b6300011ed1e6e61f50d392cb975cf981e8d38486c3ad87073b805eaee34",
        "js\/twofactor_totp-main-login-setup.js.map": "3880272b1f82ee3df17405124689063ae08724ef9e108520602c7ce0b5514bb52d716e27178cf26b203ea4b18c3fe6df46d8159e997b3dc38be9e044de88e89a",
        "js\/twofactor_totp-main-settings.js": "ddb31ab3d20582aefdc1af668dc34ff08c570b3dd918b043ca84bb9438d9cb3127d5a6dca3e3f2a58a3c82f72fa9e332e85bb902195f35b27458208052fe4ac7",
        "js\/twofactor_totp-main-settings.js.LICENSE.txt": "95cd7581f8078dcc26b096b1fded845b20eec4d8d403f6e70e48f72fc9bc3e7675a7f26bf173e8d18d3a9f2884348c2416cdd7d701d17dfaada4a4b41b9c7552",
        "js\/twofactor_totp-main-settings.js.map": "81d9767e3575a5a7c9570dff92b1aa40bf204db1704a64269ce4686b311a9fa88916fa1baa852e93fa816344d0a648dd8803cc33005e284b9cbba0de3bac6f95",
        "l10n\/af.js": "b564491e5db0baaf6b2933d64afd2292bb770c28212f71fe55ff0a78c78a53214174f4715da4a4e519eb14e6b7d673124752ad9de5506f7862e5ede7291b08d2",
        "l10n\/af.json": "f662b963fd2f5f02df5623acf6cdae61757ce24ad05b945688a753e6084b80b1d2d7f8612d07a45f38a232c6bfdae4c2d8ab8759cf16ce73d2578ff246814f7a",
        "l10n\/ar.js": "0152cea4ff4ffd83b3d1ba735a73a3bc21926af8327bc9b7f9637686e8a976109ed5df909c66b61bd5e0c089b791cb0ff31f804f89989030c3fc90e2fa12a2dc",
        "l10n\/ar.json": "0fe3167a5fe128dd4a5c1807c73223c3cdb88e2ccb7712be531c5a0e81e0becb34f23951ddd210ba87fa4a2c6ea56e605a4db7433ba0a2b113d75a6453e6c8ef",
        "l10n\/bg.js": "fab60620a6bd081d4e0b2be7985373cd429df9a47743d8c0153a55ea8963bd6f795c6262229e092a9d2ea8e0112a85e9ac3048cae46eb2511dc681b66805a582",
        "l10n\/bg.json": "6b4a8b9bdd895a45127ecc1a4182509d1444b409970593e0857d183584cb7ad613dcddf74468ebef943e73de21dae6af30d6127e24773d8d7fbf583965c082a6",
        "l10n\/br.js": "7903ca9fcd5528d68482b674e303643b6c430a43796812717d1638a24729ad4dee783b838fd3eeca64059063153f82a42c8eb4a4a67654c6cd4b65c3d7131ebb",
        "l10n\/br.json": "3fa67f42afe34b6916879c62a995cfb2804a6cc77145b566e2c692d6d69d1b19060fa1cb9e18fc0085f102a2b5858ccbb4090177983e1ecab48bbae5ccd42e62",
        "l10n\/ca.js": "b13ad88cb969f4952fb0eff8f186b677490513d576bf605e747c21385d53322bbe346dd0d536edb2d9015128f339c68e083bd37dd6d6716b1d10cd859e5e19a1",
        "l10n\/ca.json": "5f4f0271ac53cdd1837b1baa299fc11c903a015bf801f6a74fdac0d767c3434177b9ac5516d7ab47d5ddb8a6c5f65c689a30c3fec6271bfdf8838e35bbac9073",
        "l10n\/cs.js": "484e46320786e1e95251d881f241a35406f7ba1fb85e975e2c8cfea295c6e1c85b8a87b52dcfb63507693f2a7522368f959d733c2749da3bd7f4dd0301b97785",
        "l10n\/cs.json": "5841d4a96b35a2da919a0c4e807d34ada5caeb5b9b402912dd911a3d4912b08210a9290d346b3aada36168aa1a2072bfc42856ee331276c2124f49d4b47b1993",
        "l10n\/da.js": "eb577982f1cc40ccb7d1c038774ee98349251ce75c62481410c55a4d22fc01be88eede77aee5ce1b9ed879597e0dd26831aec4ff05901498593dadc8741cbd7f",
        "l10n\/da.json": "7daba021484567560622834f062cff0518863ea3787e60e0efbb1da4b35b4e01ccf5506b3fc7d557177d8f6a0014c80aec1fc33a13881d47bfb54292f261fc7b",
        "l10n\/de.js": "b2b5441fb4e9fc28386533b40faddc3528de649d4d018eaff4ec9c1d5b0a2598dc0dca435d1f4f043f57067a56d8f5da64cb6a9bece2565576597a413e029929",
        "l10n\/de.json": "a05984a879cbffb76c92012e6a669d9fb1a21e5bf736e46beb0c4ce87db46df95db57d4af730c98cbec08fd3807ba865a86ffd187ad902eab9a16d1307d56b6a",
        "l10n\/de_DE.js": "590fe490c2249acde8b78c93f00c5ae84034e725c722a8cb34882a6a01f4c4004c62cc02d7bf7beec6a63a240085f45d9aa7b6c34f6a63b47ea861d945b737c6",
        "l10n\/de_DE.json": "428cafa06f1b5d7e4f530dc57dbd74c32f7d16889dcf60b5ff8e1caf4d4cda8bedcdbd390af98f54746eda3f4b757169257ee5abf0129ad36812431b8d5a8c8f",
        "l10n\/el.js": "508a6a038fda78ab1de6d67ca525aaf6939c97d2cc70c585b58d0f45db2574b3aedec2db3dfa6dde41e693ee9a45b7212a4ce41369af9bbf7387366f34819d1c",
        "l10n\/el.json": "e96344cf0c19be5e85e747232531ff1b2270e80ebd4752c9252aff13a05c3b4cc7e2bc8ffbfdc4cba304cd5bc50c1213b1347783c4e297153b956165b0d2b559",
        "l10n\/en_GB.js": "d15cffacbcf3c78f4d2dc6c3479794a2805d056f1333cded7caec4162734545bbe8e1b1b3301ecccf5bf2a4f2534b83bcb602805cccbdf815d2684e9305ba3e2",
        "l10n\/en_GB.json": "d3c4088ffbd8fedde13868c792149991e8438192a1facc6694e674939b12a958dacac30c110e2a97a10f9355de4240a81868d1aef7a3ba701c480c1da64e29be",
        "l10n\/eo.js": "8ab98ac76e96033ab4a4cf553ad312249cf21de3b30c4bbe8aab0a6ca15861e2f83844467198c0b818a52420241a32717d0fff5e5fa1a69fbde5603bf5fc3d88",
        "l10n\/eo.json": "cd44776d1927deb72ae64fbf1d317c70cf29340914f351e5caca44af58a3932f9a0cfa679fee5341cf4c52f204d8a688dcebaf3960285fac3a5b52f4285f0e25",
        "l10n\/es.js": "496c1f3d0569079eaca41b4e256a05bc640b04416f9d99949962eac1a7ab60c3513545d15270ab14cb19d43f1a3bdf0e4f1b4d3a267eb6295a599ac4841a57e7",
        "l10n\/es.json": "dd2209006b117dccb2f37fbdc9ab73f47c093da20afcf30c31c2823f8e1e87b55a3af3d7116e87f5ce51f7ebe4908079fd980579bf50ba92eed68618a661eae6",
        "l10n\/es_419.js": "e0060a10d9b8d52741409ff29702d4e0bf8de66e4defe063244e5b5f8c421bfc7daf551bff87793f39a4a6f736781e1e6687c1c1ceb727e912f41fee17562bd2",
        "l10n\/es_419.json": "3b9d88f72a15818d15739b1ff30d73ccc88712bc502213d1c1aaa77f85353c219f165f5469d96315516638a710f8ab21c11255041e232f7301209602ce2ef0f2",
        "l10n\/es_AR.js": "3d79aed0918fbcae8580a7ef15f6394d98cd2ae4ba3988c16e017d8cdf44558da15b800d03b260d188a39721ecebd589915153012807cc073ebb19a738725654",
        "l10n\/es_AR.json": "1bf5a27a94e7f0042fc3ba8a6501d3dc73e50de0a53a2ff04f8fc3eea9d98fb9824904da2331973b9919b43aa0545605c22eeeac0994f375da43c0aa540bb184",
        "l10n\/es_CL.js": "c2dbba28b79ba851cb088be0f5bac39980268f18e5236ee2a7b943a06942f71b918efc52760d555b06ca882581ad339f2ebf75f665aad6a4f4bfbdecbb808adc",
        "l10n\/es_CL.json": "ac3f123f9ec82166fd177aa9e30e7290b0c956b65b5ed82cf1babbcad6d8ab1dcb53effa4aebfab12625898f281d6b9aa55ef20bf0c9f2856f199219867561f5",
        "l10n\/es_CO.js": "c2dbba28b79ba851cb088be0f5bac39980268f18e5236ee2a7b943a06942f71b918efc52760d555b06ca882581ad339f2ebf75f665aad6a4f4bfbdecbb808adc",
        "l10n\/es_CO.json": "ac3f123f9ec82166fd177aa9e30e7290b0c956b65b5ed82cf1babbcad6d8ab1dcb53effa4aebfab12625898f281d6b9aa55ef20bf0c9f2856f199219867561f5",
        "l10n\/es_CR.js": "c2dbba28b79ba851cb088be0f5bac39980268f18e5236ee2a7b943a06942f71b918efc52760d555b06ca882581ad339f2ebf75f665aad6a4f4bfbdecbb808adc",
        "l10n\/es_CR.json": "ac3f123f9ec82166fd177aa9e30e7290b0c956b65b5ed82cf1babbcad6d8ab1dcb53effa4aebfab12625898f281d6b9aa55ef20bf0c9f2856f199219867561f5",
        "l10n\/es_DO.js": "c2dbba28b79ba851cb088be0f5bac39980268f18e5236ee2a7b943a06942f71b918efc52760d555b06ca882581ad339f2ebf75f665aad6a4f4bfbdecbb808adc",
        "l10n\/es_DO.json": "ac3f123f9ec82166fd177aa9e30e7290b0c956b65b5ed82cf1babbcad6d8ab1dcb53effa4aebfab12625898f281d6b9aa55ef20bf0c9f2856f199219867561f5",
        "l10n\/es_EC.js": "c2dbba28b79ba851cb088be0f5bac39980268f18e5236ee2a7b943a06942f71b918efc52760d555b06ca882581ad339f2ebf75f665aad6a4f4bfbdecbb808adc",
        "l10n\/es_EC.json": "ac3f123f9ec82166fd177aa9e30e7290b0c956b65b5ed82cf1babbcad6d8ab1dcb53effa4aebfab12625898f281d6b9aa55ef20bf0c9f2856f199219867561f5",
        "l10n\/es_GT.js": "c2dbba28b79ba851cb088be0f5bac39980268f18e5236ee2a7b943a06942f71b918efc52760d555b06ca882581ad339f2ebf75f665aad6a4f4bfbdecbb808adc",
        "l10n\/es_GT.json": "ac3f123f9ec82166fd177aa9e30e7290b0c956b65b5ed82cf1babbcad6d8ab1dcb53effa4aebfab12625898f281d6b9aa55ef20bf0c9f2856f199219867561f5",
        "l10n\/es_HN.js": "e0060a10d9b8d52741409ff29702d4e0bf8de66e4defe063244e5b5f8c421bfc7daf551bff87793f39a4a6f736781e1e6687c1c1ceb727e912f41fee17562bd2",
        "l10n\/es_HN.json": "3b9d88f72a15818d15739b1ff30d73ccc88712bc502213d1c1aaa77f85353c219f165f5469d96315516638a710f8ab21c11255041e232f7301209602ce2ef0f2",
        "l10n\/es_MX.js": "21512c49b7ee113c5e80dc2199ae1c71a08b5735c5e1c693fb56d36db68f5c6cc3a2fdd1f3e970c25a91a909e3eb39ae583f1d9ab8cc1554e3cd70d1f4063f06",
        "l10n\/es_MX.json": "07fdd3d65b9a82b20704df57591af53252fc9d191d61fe3326830ad71372e262904eab4d6d37820c643cd8083de3865c06e0eb9b60df35d3c1f9a338bd923738",
        "l10n\/es_NI.js": "e0060a10d9b8d52741409ff29702d4e0bf8de66e4defe063244e5b5f8c421bfc7daf551bff87793f39a4a6f736781e1e6687c1c1ceb727e912f41fee17562bd2",
        "l10n\/es_NI.json": "3b9d88f72a15818d15739b1ff30d73ccc88712bc502213d1c1aaa77f85353c219f165f5469d96315516638a710f8ab21c11255041e232f7301209602ce2ef0f2",
        "l10n\/es_PA.js": "e0060a10d9b8d52741409ff29702d4e0bf8de66e4defe063244e5b5f8c421bfc7daf551bff87793f39a4a6f736781e1e6687c1c1ceb727e912f41fee17562bd2",
        "l10n\/es_PA.json": "3b9d88f72a15818d15739b1ff30d73ccc88712bc502213d1c1aaa77f85353c219f165f5469d96315516638a710f8ab21c11255041e232f7301209602ce2ef0f2",
        "l10n\/es_PE.js": "e0060a10d9b8d52741409ff29702d4e0bf8de66e4defe063244e5b5f8c421bfc7daf551bff87793f39a4a6f736781e1e6687c1c1ceb727e912f41fee17562bd2",
        "l10n\/es_PE.json": "3b9d88f72a15818d15739b1ff30d73ccc88712bc502213d1c1aaa77f85353c219f165f5469d96315516638a710f8ab21c11255041e232f7301209602ce2ef0f2",
        "l10n\/es_PR.js": "e0060a10d9b8d52741409ff29702d4e0bf8de66e4defe063244e5b5f8c421bfc7daf551bff87793f39a4a6f736781e1e6687c1c1ceb727e912f41fee17562bd2",
        "l10n\/es_PR.json": "3b9d88f72a15818d15739b1ff30d73ccc88712bc502213d1c1aaa77f85353c219f165f5469d96315516638a710f8ab21c11255041e232f7301209602ce2ef0f2",
        "l10n\/es_PY.js": "e0060a10d9b8d52741409ff29702d4e0bf8de66e4defe063244e5b5f8c421bfc7daf551bff87793f39a4a6f736781e1e6687c1c1ceb727e912f41fee17562bd2",
        "l10n\/es_PY.json": "3b9d88f72a15818d15739b1ff30d73ccc88712bc502213d1c1aaa77f85353c219f165f5469d96315516638a710f8ab21c11255041e232f7301209602ce2ef0f2",
        "l10n\/es_SV.js": "c2dbba28b79ba851cb088be0f5bac39980268f18e5236ee2a7b943a06942f71b918efc52760d555b06ca882581ad339f2ebf75f665aad6a4f4bfbdecbb808adc",
        "l10n\/es_SV.json": "ac3f123f9ec82166fd177aa9e30e7290b0c956b65b5ed82cf1babbcad6d8ab1dcb53effa4aebfab12625898f281d6b9aa55ef20bf0c9f2856f199219867561f5",
        "l10n\/es_UY.js": "e0060a10d9b8d52741409ff29702d4e0bf8de66e4defe063244e5b5f8c421bfc7daf551bff87793f39a4a6f736781e1e6687c1c1ceb727e912f41fee17562bd2",
        "l10n\/es_UY.json": "3b9d88f72a15818d15739b1ff30d73ccc88712bc502213d1c1aaa77f85353c219f165f5469d96315516638a710f8ab21c11255041e232f7301209602ce2ef0f2",
        "l10n\/et_EE.js": "0fbd18a2b94532f3ccddf77f4d8714e94054b6d9810bbd3ea65548c061a0f193ef103063c2f92dd16c0abe8817954d232b4f52146fa2f277c3ded0e79c389235",
        "l10n\/et_EE.json": "033de7fe4d09f23a3bcb196e313c4e4269980b0682568f3d5ac8e6d1c75117ee6b19e189b2272651d3dbfb14e203a4c81a90c7d9ea66d8c5f1c4b3f259f7d081",
        "l10n\/eu.js": "d51143fec225c72ffeb83a112b6b8966b93601b0c315dbfe3715237274fac40f56b4607a45b20c81889889267fcf0e6574e3f6fa66872cb512997e379a6f7324",
        "l10n\/eu.json": "e8781cd40ba531825dddc6a3b11589429138683935371a4e3d7100becbd9606dfc84c38ae57a30ac3f45441957c387650701b0b43e9ed9067efb53b5d877b583",
        "l10n\/fa.js": "0837e7ed472fb0039e2bc5211e5bf64bbd5c8e879e7acd5183e282f762cca3b5139e6cc25c4f74ead93ff37a028602afddaf8497161f75f2ff0dc39e4816d9ac",
        "l10n\/fa.json": "b7eec60fc099598aaa03cb6bbfe19a6a5924e165b38f3b37467805ba2ce7adb056131d2e550a90cf6fafe26ab6df0d86282b599dc580354980d2d44ab31f032e",
        "l10n\/fi.js": "543955eb04ab2787f4b86ee87e7a3b1c6e932221d0c44183c3c59f5fe7aab8e772b5c12707fb375a56f56032c64b5ff609fc20ba6702e0e0fba43ad15ae3d4c0",
        "l10n\/fi.json": "84cc4443b7d36c4a676564ee03a53485dae5311e47621769e6907c8f8fc38c7d8065f0bb48183482d8737fe990e2feaf2089a3fea28a936b47dcc6ff63ebe9a1",
        "l10n\/fi_FI.php": "a520c72992ec2a20b24b303fab4565da9ec759dc08c127928064ca61ceabaf5fcc42c52c2cd3ef2626986b6621132ce497681cec24077d027188ced92a7f1a69",
        "l10n\/fr.js": "ecf689f10d876e91ba6cf88e7e9126395f9a078ef8acc5a0bd68260c572c9c2e54cfaffbe16435182e640d8eeaf689423a9121036d8117732f28add78aa540e9",
        "l10n\/fr.json": "bf67be31d9ca7a2a449e624827ec3c08bbc9a263d2793b83d46f2ae787e8befdb77e1850e2bcd64eb588f97adbb942c09b0f717cdd6c1f4d2237017e2d5b0b9f",
        "l10n\/gl.js": "5d57e1f6d0d4a16c851ac1356075b6405248e01a4ab62fba6de5c04a7771640590e950334daf56a4750d34a9aa303b3a8d3e7b3b849d7d1e96053119e3b33b7a",
        "l10n\/gl.json": "808416566c67faf1dc16fe217f6dbe0c17af80199dc93de2bbc62ee12ac4d4fab19200d7ec777491c69240fed4a1750c977e11ea57b7ea1d87d7af9e49f13835",
        "l10n\/he.js": "6b37c867c2406cd412b5843ba5108b2570f250e850d094b38f8125dc362118a4a7b6024eaea837474633c4ed9bb91795f83a18986120db1730c205e7785e35cf",
        "l10n\/he.json": "8aa362935ccf4ea2312bd593dec2ff6837a7e7f367965fbafe6299c6b840013085b4f62dd5adda1fbfca253890b01d7d41a731fddccbf22fcc4baf796b548ebd",
        "l10n\/hr.js": "4e11266cf5febd36cee186e8295124e0805714de9d055d9b69ce7925f6df44956ed8f40eacb135c90aaddb429296527990849d62458fda8474969dba80538ea8",
        "l10n\/hr.json": "e59a47ce494d9d79ab816fbca9e3e3bb76e8ee42e888ad7a75c790a0b4e1933f26014574666f7069c234e54b270b0ca9825a09f2824091ed7d9ee6dafc2e2ecd",
        "l10n\/hu.js": "2e9d9b6ecf30c51f74cbb5eaef7fbd98ba6af9342543f006f77b952f17420e69af26f678db94df777d7b0c2aeabf9f3f8bac558e62db8c81a1529a05dd2f9f86",
        "l10n\/hu.json": "510f1e4668c93238348d4aa27aef01215554dee4ffdb4a353a87109880162af545a280b8065ad88e282eebcd923b1a6b735d99d41d4e242f025c8218e78fe787",
        "l10n\/ia.js": "1ba44dcb7d96804b23db23e1e5dfe94f7eb9a4d90966d2d68119697942f54d359e7143054862d1a9a16ad6ac5142a60ccadc9580f69e6ff5ba50df0821ce7dda",
        "l10n\/ia.json": "b02d1a81563193adec3113e289752ae981a3a08d770518774bc166b72a8f6433a5f71c6ad14e26c076dc54594e788e5480bacbc778e68933cd71a9fcd81103fc",
        "l10n\/id.js": "086c0ce28471ee3f86d0056904dd033bd13aef6e18a128b91f71c70d8fde05895dcd76c90982f78831b096367802734de586f74d0298b2cc1f2bc7fd4d478f37",
        "l10n\/id.json": "c88737e502fba1dc118bdefaa277f6c90f9a84854d439783f993fd15fa5cd84efd04ed6c53f25b2a9e726266aafe64fc9b03fde2d7f5afff00c92315ce276157",
        "l10n\/is.js": "e2e25e476422b18ed6b7f1fa0de0c60429acb8af123ded7ef752a5bc5ba97566e179d9270754a2b4a1e825c0ac6cf2bf50d60cedade0007d5c801e882e3e01b4",
        "l10n\/is.json": "9cfd248fc63beb60a86905adfd129e7b30f1ea8ca2b5fa85143142a13e7f172742506c009cef54c69759259a5f69eb02a3377e7fb1d3d0a7743d2e9a3e69e5a8",
        "l10n\/it.js": "003f81fdace8527854b2520acfbddc4cd66b9e4cc37b45e1ada6d8ef3f8e004cb5255f3a0350b29616de88c59f18b4be8e6a515490c008b773cb5ef901839c39",
        "l10n\/it.json": "bdd59921b2b64191d3555888d4b9ecf772af121bacf1f593c90ebe42270f96a304556ef4b39c87535815f09cbeefb9dc1dbf84877552047aaf30815b1a4b8da5",
        "l10n\/ja.js": "82f709f673823ad00c3111af81fb4e0ebaf5c0af2812c0680a060aa7682d9133684994d7cd16e183fb3c5929429dae8b8ad60440c950f2e733e2ea1ce0200dea",
        "l10n\/ja.json": "3c7fec80fe40c94858f2ec210adbc241c972a49a58ad88647936cfc9866ac59a60aa4215e218204830ac939883d31c37ba01764368216f575f37f7c11846cd92",
        "l10n\/ka_GE.js": "a363fcceaddc12f55fec70060991fd6b3953cbb4770fa64c06e0c3e36f4698dfe0ba7fbcb17094318f4a0cfea53a70fddc4c356dc3fcecb760b4565de6f7df23",
        "l10n\/ka_GE.json": "2eaa8161e40b0d5d878d6e2c9176548724916dc93fbf087c0f87e08c4425ff01b35d16fad2a026bf7a3463370627a63cdc6592f2c424c4c272d17f0c63eb2dfc",
        "l10n\/ko.js": "2202815ae26c03e16355ff2e942b63c93a61aa455d679c05fa47c57b20f444d7af250d74c795cffb665ff8ed94857e5ffe1d1608b35946faec84d967733533dd",
        "l10n\/ko.json": "b84befef8f86e9f3b670d56bb518babb76d46e769063b32135c21396c3e3a7f08255cb24c02f85686d28a3a34e101467dd07b79c2a5e3550bbd6a941a6d1a608",
        "l10n\/lb.js": "0a048fbd58bc5dbb19e53af1fa6919eca35012a2f32d651a9fc2b650414ac175679045373ebf45bfc986514ce0a101ad8233105f25f796ec1250751c6bb1c73f",
        "l10n\/lb.json": "9da713de2e4cac9fc72469d2ae313e01733bfa5958e1905d1656ccac0b69ca6c46aa3cf2853d431eb99a8fa808f197ada2d851e94efce8d0a4327fb41f97cfd0",
        "l10n\/lt_LT.js": "2739bfa5400f94faa4112851126438a0b1dd10894808e7484cc00877fb5d19a6221cfea81e59aff8793e9decb264b2b72c99e4449dff91ca8841e6152d0ce96e",
        "l10n\/lt_LT.json": "dcb73877ae7ccefb910839e1c9e0fe5dd44e43d964887e7890749af36e6de6c5e86266f089f54a78dd36ee9f84d9c93de2c6dc7d1d3a1f408cd9d865a77d0037",
        "l10n\/lv.js": "36e227b060df066083f4e6f057760fb45e527cff9432cd8ca57597d059308330602cdb57dbaa41df5e265ed3defd449f9ba8ebcebc6324ecae257b61c0e440d6",
        "l10n\/lv.json": "65b581ed4bd862c09c70c6145b1c3c89264be2d912433634d6d34d56d6335bba7a27acf393c639f8367f475c7031baf1351581743997883dcd620bce5f868bd7",
        "l10n\/mk.js": "7d3d11c5fc1d5093c2e1a24c8c92476cff0cee2ed5b4f6e11641cec17ddb2a80c3a516225b1a1d91f8bb9c43f33a703eca36159bd5a2f146782e1c440f523173",
        "l10n\/mk.json": "20d6cb7a183ad830b1ca0662938598019bb0162497f614f21ce4a0a18e31ca5f753ef605389115cd0da5d02651130b0a36e0a868ef32674426677e0d823ac792",
        "l10n\/mn.js": "064ed0cb3411b158aaba55879736e546871479b4510d1615e105c56d07fea5dde9a11b9b8c13841d9dbb3385f23d5f55cdc10e3c107bbcd95bd35b4a02d3dabd",
        "l10n\/mn.json": "537589f2663d58025fd1afdfc8dcd0e8efde382991d74c83d6dc3796257365973501de78755cb323f87927bb14d56df9ede0cc25dce866c61399f81c8e2b10ff",
        "l10n\/nb.js": "bf312312f7b0ac43ecef1f2494a3295fc744a0130174742df37e05f5f7266ee46cde8444f66ae13721cba5ee5a14f7a139e84e6969280195c34c321be607f5fa",
        "l10n\/nb.json": "f263e17001f12cd46f08866ade3303cb919507a2340dfa55a21eea2e052b85f4203cbc8c571c2967abf7c494fd078a54ef1effd7ee217d890e90675b7082aa44",
        "l10n\/nl.js": "8e93b60d5650f7df4a73414545c5ee6f5b4a3c6e67f79e3794fb21e077fb96b991a2d145a3044291e6d32b290ffec5a5ea9cea4740ee2ddbed3e997370119206",
        "l10n\/nl.json": "b06a46d88fe614c457e4e6f195ec7a9ae620ffccd14cd16816ae2c3dbe56cdd707c4d9012dd587c184531d1517f5324ff8f7c2bba06c11c5e32445e56496018a",
        "l10n\/nn_NO.js": "cc0b6cf5294e9f55597b0d113f0847ca01627dde4b9181ed34a8e059fa9c49f87ec51f25b50075e91dc92fce69c6c60400810500a07f39bd49cbf0fce591c7e8",
        "l10n\/nn_NO.json": "d29457bd217a1a7a82f5a077b4c5f96f79a7793bf1387cf085abd080667d4bdb7822dcb3009f437b858368b0e12bc5928cd07608232117e439d197a6a4c9b2ed",
        "l10n\/oc.js": "a7ed650ed25337ee542f404bb7d0ef7dc3c1233671b67caa4fcc012b056e797eb49f48a5b873d978885c20bceb55ab93a29b8582c74438e6f5076c3c321a8228",
        "l10n\/oc.json": "1f3890fd9331bfbfc75b83f91fc3e70cb5174f2b169f0fff35ef3a0788ab812a6e562f326b6b2405d21a0f9d623b343e13b4183308c9ea51781c9a7d5aab520d",
        "l10n\/pl.js": "d38363a8c3786ea6099feee249b7a3c894360da49103ea8b20ff4b8d589474f068ea83bf1d7b1458689e8e771c53ef4c3cfa9aaa7801c5377dc6923219e633b6",
        "l10n\/pl.json": "2ef3fc92c45c6aea51771ecb23cca40721f687baa79fb39472211c91c3b8a4332769f246bb88ef25d6401f2b0a0a6d3ad85aba7a7ed035d6c9c1808e97e6c134",
        "l10n\/pt_BR.js": "9125650faa2b6956f03ef80e4581e40fb4d3ecd9bad495a11bf16c2c82b460677138ac92380c18e5fcd359ae445ce6a86462dd61d078ddd8e93e40dc3ff1c41b",
        "l10n\/pt_BR.json": "15a6981ebc9b2583578e7b1113e028fdc7715818d6ab3ae42a738339295a86a985286de7d82f122d7095e6e8dbc050ef2a6475864cc4caf4b8d83b0ddb57b332",
        "l10n\/pt_PT.js": "3ab51a589a16877e97c143a257e07d4a6da359d0db7db2e675e1af1f71861845f406e07257527671287ccb9621e8bd702f4a5c9fc4eb6d211f9d91fd6434736e",
        "l10n\/pt_PT.json": "149033ddee4beab3338ef6ba0449e54c606c8973aa712de11b4f942d83566c8013115a8f73314da931be660c6a89776ca3f82d34f4cbb801a6e685d8febdade3",
        "l10n\/ro.js": "68dfcfe5d94b888129bd4f4790ae7364b0eaf895972c9c74480b77156370502f95d9761c6a321a724f2691598aae415c49c3d34ff00423e96a9866418e146153",
        "l10n\/ro.json": "428a4b17ff2f91c77a4fe88501045fe718624c43ad37346215fd5138829955d2866b789e4317bb71430d49378c873e944b103dd733182ff2d09ea0f4b331e238",
        "l10n\/ru.js": "6a7d57273fa72c77b903874731961352e44606d0100d0c8749108d5382e3c33c319726aee9e418a3d986c4b0bc474c35695363ef47ca4c6a70f3f27c92fbeedf",
        "l10n\/ru.json": "f7c712dbfa692fbd303d5838a947041a25cd687a9d3358f9f9c12166acd92b242966db9f24db8d356e5670bf5a4c8d0226b35ad8cf9254e7424f7bc699a1ebf7",
        "l10n\/sc.js": "e947908ccd21ffae3f3dcd23777f73e0fed6ab66843ab0f5f06c7c36ea7d9511f2f7790e4cf340d7c692ee3b32f6f43a32e7cf3d8a49b38bb33f3f04c80e3821",
        "l10n\/sc.json": "30048f5f4056f702e8720c31d5408a48d9c4cc030b8224777627c91ca0156f325d7312b8ce4f080e0cc22e6b3e420d3beb3544be8183a349ccdc93f389bc6966",
        "l10n\/sk.js": "465151e15abd424b75d7d96ae2f232b9acdde96d8d1e5764f059a2897755f9f8bb9e1081def095755c0c7e4f91a5ce70df288c5562c3f7882e832d8389afbcf4",
        "l10n\/sk.json": "7350022c7dfb0d1e8c21badf1957bfd501993700342fe136e183fd38370a0553b3641bf37d7d79e8b986942bce093bf1265924cbd8f395688d4e13d9a8e89461",
        "l10n\/sl.js": "1a22b5f0bccc7574d9f96ae8edb697c72556716a84c00c73d440d7634db3771794cc04c0a29b1729114d259ee7b66fd7bfa227e353c93ea5bd302d0337204316",
        "l10n\/sl.json": "9214145fb990acefdb8c6f347d4745d9cd59b405fb5e1525df9e3726b3a519a9b0f438c9742e17b5d7ef521784ac15d25b0ed56ac9b88b412c44d24b9239ba34",
        "l10n\/sq.js": "3b1032cb2f967d79f567e94a8f96b49b08b9593e5c62a668c97a0a54359ff9ffbe40379c82e022b19a4e505fee168f51c553de062c79463831bc431286fde208",
        "l10n\/sq.json": "816e3a66079e96a0f947349885082bc579b2baa1f88fd86521ec93e2bd39459069327258646a34c2886f819fae71e555bbd8ee7db8e793dfff808249a6fa6bb7",
        "l10n\/sr.js": "431447457dc3bf21a4bb77803f9c30cd7b06391261d78373ad96c0480d35c28797f54c28aa340497052df3818848a0fcfe12dd74c82d964feec8b7970b835cb4",
        "l10n\/sr.json": "8e7214dd32af8e5bdec7963694ec11a4e2db62d7b21dd898d4819f7f17c23597cb0d590e74fa782063217b22657fa0b9a068a539a7b81299c7e5c8ff19bc077a",
        "l10n\/sv.js": "fb20a26881af5d59f7ca713f1677ba5d3dcda412e91de6dd748915be3ec2451acae73612b2b585c7f2b12f8f6eebe85d1c7843d3e03cc0a04ec01a21bdc00153",
        "l10n\/sv.json": "378403111beb1d57e82971bcb022edeceab4b1cfcc4d389cd5cc4a3cb90497bb223326dc88311435218c27493db1c003947f8c10e48c79e7b687088da40c536f",
        "l10n\/th.js": "003584f7700918c39ad05f21909a838788525216d0a28093f170f282fceea8a4fe966f31f3203a6b3eba1a770c9f5648b85102a286596b8ceb843ab91e0bcd60",
        "l10n\/th.json": "9c1a05e6281ec7d74e3567f0615b6bc59ab6447b5918d9b709eccd13a4ec31aee29ffd980f4f0211f05062fde452d0668c321c13adc8bebad67f69a3691e02cb",
        "l10n\/th_TH.php": "2d2faa3ae902f248c72dd18c1209aa35749fe299d856de45b04934a2af3582d3cc22ff7a51e4317d8d1c01f2867206a906fc4c2dc2bf6cbd4338112ad3fa47fa",
        "l10n\/tr.js": "3610226276f358a85887567d238668523d4aec97eb1c4d4ee4d4e76598afc7ade6277d4078cfe35ac640665e5b06fc1bf829cb5d74083e6fa9ad88c691aa79af",
        "l10n\/tr.json": "b99dc4fb80a92d15fe5195f82d54e069a556710d6869359751f408dac55c2ed93805ebc36c17c584d380ff57a85d791ea31e89e427677af7b06040ae0737bc05",
        "l10n\/uk.js": "a10f906ba75a7b2fd70877abc8b696f3306d185b70fb8e3cdc9e1424b54d3cb2827987e7bb2d20393927292aaaff7782d4a96dfaa90678879d02ea183d41ce85",
        "l10n\/uk.json": "afa3293b5b6914a49f69eca99198b0000e0e81bc387c08dba23824d7a023708e33ea61a215706cea81bacbfd798e0485b876dcf1c718a1a9ec3a147f1e638ec1",
        "l10n\/uz.js": "d5227a3e5d8e359a403b8fa194c143cf685434d5adf6c43f21db78d76b604fa6b4d50a2221af29acf98838be69e66b88f0526f246e3b34525edcbf5a95c41b60",
        "l10n\/uz.json": "76b6fcff089b4cc9448a5fcf4e46da8b160c311cbb7cad2a53908401c1a32b09be13e60910d75cbca0409c7a3a3df4116c4ea07288ccfec8846e47a58a854129",
        "l10n\/vi.js": "2b32199454206a680a2ac02c79f78bedece3d24cf31c334208215e6c2cfd94d9051998fbc9667a3473b3d6dbbe0c7ec9b5b16707c51425fe558c42b840cd27f0",
        "l10n\/vi.json": "0ea9159c2d234a3da7c5445f047cf6a57b626aef201a185ffff7e755aeed1323a8751f2653e2857ae2ec2ea3c6f4cf3caba72ca7a4ff27625c7c76610f8558af",
        "l10n\/zh_CN.js": "06b215b856376fc19c22d526f10f41612247f5f484514d450ee4e8f872a003950e4ade4b247bf6566cbef0fb86c252fcb025b4cad34126c2b164572e3f3c28e2",
        "l10n\/zh_CN.json": "9ccd7bec3fe514aee1da78050434ef59dc1d5c06fb58e77f647a8112de8a320729f177c415c06915e0c791f5c95f573349db72fdfdb238895b4b8463c5211fe4",
        "l10n\/zh_HK.js": "e50d012bf2dfcf1e31e01366d8ecd155e0f1e101cc6148cf6cb963c8e59e95a114968967bf230f0b68aa4be7f4f282ee5fb6644cf1d6d8734299f1bcebdca3fc",
        "l10n\/zh_HK.json": "93927971a8b130bc41d04691c37f1c35daa2da888dc683ad79a58e103a4d03cf1612d274d2b500ac5dceae004b567f1b76f403a04cb45f336d60d86df73ae681",
        "l10n\/zh_TW.js": "c02ddf910a9a0ca8f830c08ac9cf18546021b780354bc025306d536a742028b7a5101e393ab1751bcd30a6883e66a8f19630634e50a1cf2f7ea857a9d59cef45",
        "l10n\/zh_TW.json": "5f94bfb224479f7772fe6d03ad40d44705b7aea729118e24213207e65f753ae4d330a484b6288793783e4daf58dee1392082ce6f3fe501c14732b8e91099a069",
        "lib\/Activity\/Provider.php": "52f06ea20a3e6664bfea08720a23dac9336c9599a53c459807ffc6878f6189ec68e00915557032fe40420eb39b59db09857bc4d8c280a61c7267712e90f04d3c",
        "lib\/Activity\/Setting.php": "d55bac2d0bb6b32cfb65a2daf2663e1c042dd66b1f7fd7f5ec642df39c1beac3fa863c4d46b3864176aedb53274a2edaea4986ad480f36b62a4747356d7051ec",
        "lib\/AppInfo\/Application.php": "85010a43d2e25b927d0490ff8a57569f550498e98eccfc8e43ec91bf6ec69eade97b4a88982bc3effbd1f867c758744d4c2b387ca3ecea6c1ea5ca15b264ae10",
        "lib\/Command\/CleanUp.php": "b06064416fbfbda539ac8606c89362652e02b7900cf169080d9e0b6c03cc4e49ae04fb8526ad306a7e46f61d41b4cbac3c7938bbb3d5ed5794fe14ce20649d87",
        "lib\/Controller\/SettingsController.php": "4a8fb4816129edc9624482534907c1569d0d5bcb33a70ae192e656102633e17bdad00206d6c2ee617d666ae6910933d73402874884ad30015db5f5c0e65e63bd",
        "lib\/Db\/TotpSecret.php": "e25667cc33d92273bbb94b7e00652dc2aeff01633f0d8c31d1f74d9f31405968a56720938b43fd6196b7576821bab30a9452446e23336eb7c817961259b2a2f5",
        "lib\/Db\/TotpSecretMapper.php": "5cd5dc1ea3e9887afc55fe4e834487a68574c9b1a520b1500dd41821c16276b24a09784d21bfa8f37c7e7868fac217482134a2b2124a0055878825639c2e1e55",
        "lib\/Event\/DisabledByAdmin.php": "d34fcdbc4ac6c65b9ef132b27f29a26aa9e6fe609b13487807f9b179900abe966ea824e2ea909cc4ad4e02604660a6400d1dd93e2c865a414d0e9affb35887a2",
        "lib\/Event\/StateChanged.php": "126051bb0b6041903781386175da7c5e9f604e4ec4eb39c8218bb82e472fec43b00b1a02cfe3254445cc53706b004ba4c928d8e9551f3a3b6d759b4681191fca",
        "lib\/Exception\/NoTotpSecretFoundException.php": "ae5577b9bbbbc68e7ca1188b301b5416c65be8e35811cafb9ab46b06304eb478330ca00bde802dce89123035509be88425d3aae1146b1bacd52cc1ef966eae4b",
        "lib\/Exception\/TotpSecretAlreadySet.php": "593c8f522d6368b51fe322e03cdcdba604a92c0fbb107d8cb003e2f59650823ae82d4e229fd83ef0a5f4f151d3574a9231bb28971094554790cc1f5192051adc",
        "lib\/Listener\/StateChangeActivity.php": "64004db3b905f4fdb8e8a10e0c0e3d4b40b7bfa21c4a4d122d2ee6c104a1a1d78c903deccb81f52e82e8ca5403ab175c42dc8896d9ac238de4d25862c8c8b198",
        "lib\/Listener\/StateChangeRegistryUpdater.php": "3a558498766d00265361c9901c7e1b03d11fcc65d78d8e07e01a536ac73ec8412ca1ce36dbdfe59cdb6759ee4d79f5dbbdf9b264729b91d25d093e1248f40f45",
        "lib\/Listener\/UserDeleted.php": "ced4103c3939fe733b75a2108de07912f0913e262b1c3b64ba84e7626e286e7c889c5d5a0db3f04cfbc08c4afcf8ccab7215b3288eaa3f7e7855b277181b8f41",
        "lib\/Migration\/Version010501Date20181018124436.php": "0698a898da59e65f800904939552fcc6bdb4a5b6625389c7c90482f9bc78f44dfefe6894cd5d2d6012106acfdcc041be48d40a9a67a2c26b56f1a94bd452cb31",
        "lib\/Migration\/Version020102Date20190304124405.php": "1c1856d14aece29338faf997ea1a602d54932a3032deebc77a12a62a7c2739f05ad3897dcda4b9dfbaf56a39e87ae31c1ba972e686db88f5f58e5b774718437e",
        "lib\/Migration\/Version030000Date20190305114917.php": "176b707a8db98361269337fdad01ea0217717c16313800d557b37b4b6e24098d54da4b20e812fc0cabc2dd5d99693ac31be54e25eeb12a35c01d51798a75f930",
        "lib\/Provider\/AtLoginProvider.php": "9dc156f5dfdb91b52ef7dbba5c1e4c9bdf36a1e9ff600ec1d7b7e247660a8690c373519d56ca191af4b677470dce368194f326f0c4324282073dd246c1badeb1",
        "lib\/Provider\/TotpProvider.php": "0a00a55d91f902c38659108daa2bb44f6ed6df24b5dec77f53ff35189a6cf7a68da6005e1fd9d620370fa164590dbbfb05d350a57cefbd67255b794133679148",
        "lib\/Service\/ITotp.php": "20143f26be370c83b80fc6c534ffccbe83d5865f71eaee6663f2c95dc94f18aab1f291208a6a4ccfaebd348ce468f4d8f0f1f2b496586974f5034199c56feb23",
        "lib\/Service\/Totp.php": "8c3f5812891938249aa23e1a0bc06af0f7e258e88532beb5f78389b1c5ae3f48996e705c36333f04efb7a31f32a7db57ed9a196c1ac8498057bdb6bcd20a3c37",
        "lib\/Settings\/Personal.php": "8dd193e0e8facf46f69f68be87dfc38cc69d93c9ccbc60196afc88a1de7d4e8e44015f9d86549d4f6b878deb5b9c822ba737426a3e58eb5d11be52f3b2dcc7c6",
        "screenshots\/enter_challenge.png": "a4523e8f1435aa0813873eafd0c0ccbd4cc243228cc0b1c001726736f89cf6ee0519dce03f68c84761567d807c4314187be8bda319078577b1dbcccaa8491ac6",
        "screenshots\/settings.png": "59172e2086a9c56ca3e9419cbbc3235ab3ce19f39a125888cc533928c3711fa74ce447ea4110c99be25d0e0fa39b0683ada0e8a1b50799f135c5f6567068350e",
        "templates\/challenge.php": "5c9c1e618f92f91a22999f54f7ba498d2817a099def0227bccd3c4f1bd1daa953a2ea1a9c86c91e278ab7eec712e60db6f6f467e229a29d3c28d2ee34e506a45",
        "templates\/loginsetup.php": "68edddc7ef59c38c91e6c241c97eaa485b7e4a167f60414fa1f27ea323769dd1e4f793a442691bf827963b73d815dd2a88c3323f605e67852754decf71ef49a1",
        "templates\/personal.php": "ec1bda84d487ccaf705e77181efcee6d365a765bcc0a09d8d34683803c948ff21d4a6a01dc7109e29bc3d3a6fb318670a150643697e92ccecd596e50616976f3",
        "vendor\/autoload.php": "2f035b85d8d040e7c8bf3e4dc487495c6deb765b9bb159c5b2362d6c0b208ef330433ad6ae80edca1c191e2c8603e9a25b069243fcff2d9075798ac030fb7e93",
        "vendor\/christian-riesen\/base32\/LICENSE": "3adab90c9c9fb7ae0396a982b4364dc470e18fb556913cfcbd6077b9eba59778fe5b4f76ca56663b7bc705a6f26c91d7c689bc8bc2797f18f1f56dcd3eee431b",
        "vendor\/christian-riesen\/base32\/README.md": "12b62d70a02fc85ec01797743c53bc1cb3b624ad0d1819b52e7808f2127804ce994d0c071bc29cf9ceacc08eac936086897bd382bea8656758fe780a447079c4",
        "vendor\/christian-riesen\/base32\/src\/Base32.php": "cedf38b38fdc7f33799ab45e91cfc54923486040b376a43217c49030d94cc12326583e4edbb5075acbf22718d075e17b88f421ea03344834600f5d9d1f2a6658",
        "vendor\/christian-riesen\/base32\/src\/Base32Hex.php": "9140d0ed76135e4f9a352f15c7ebdc20ed6546c39f3d334c7e662dea07300d0c6acc6e59f90569c4d98c53d6c119543358c89ce053a95e3e63e3a9626af39a14",
        "vendor\/composer\/ClassLoader.php": "9acadbf32ca0ee18c534f508f20041bcb7629cb8c7c51ef7b3b967ecd93734ecee3afac65d8fc05116c0894ed39bce85cc3eb6bc65a573955291352d84d779fd",
        "vendor\/composer\/LICENSE": "a705b3c006c074ab5e64fafe01c539053b4600d1b7649397383d17daef49554d0ebb0ac5184280fb8e6f0bdbc1a4184cfcbdf812f932816f724d6b84e4e632f6",
        "vendor\/composer\/autoload_classmap.php": "4bf894e7673f64842f2644a4612ce6d02593cea38eac33cd948302ebcc1d68d5bbcae36cf867203234a1663665c7a6fc7c227ed48ceafa90a0d08567fc249958",
        "vendor\/composer\/autoload_namespaces.php": "0ac6bde683c053d62b7024686ecced083ca1a326d5346a248b1a058ac74a5af71d515d311ce76df799a518027f734b80b9e7f6e8022a9556c0f24ce90240d822",
        "vendor\/composer\/autoload_psr4.php": "d39e56b595e758852ada06022ec4267d01ff7bd82756086d48c88be1f66d29fcdfdf087f7037e62f7786a120a4610b12d4c35824946b19b73670569927331a35",
        "vendor\/composer\/autoload_real.php": "9596548759ba9d5273c4e32d384deedfe922580a66ca179c8a659dd520a67f81b698c5663b505013d1a82251f82f851591504096baf6d549609a4f91e88d148f",
        "vendor\/composer\/autoload_static.php": "7c29250e36b2f4ce5539c960ae197af6f67c7c4ff680fa07c1f29ffa9214c12785c907ad4a31ce674448ba99ef2054d9cc4173a26cd9b98891cb831db3a80127",
        "vendor\/composer\/installed.json": "7977f376a33edb506cb1bfaed84c2a70e2363a3c164f00d0c23e7b7b430209f41c9067f876632836d1fd5fb517ea31b6e3a3e62b7e35379b0e17a915e17fcc55",
        "vendor\/rullzer\/easytotp\/.travis.yml": "8154cf16b6958e262ebc377a465d65093077f0dcc6071b71842d22d4cc1c7a3ded2f0d472f733aad201d04ff7ad45d22b5ccb612fb6abe98bfa441c641ce3532",
        "vendor\/rullzer\/easytotp\/LICENSE": "b31c0041531a281aeb6937e56526bb94ec03642402874b86bd73df84dfeeacefcc8d93c3108808a9897d740a6a1091e6aa9b6279b91a986266e3d04dadea2408",
        "vendor\/rullzer\/easytotp\/composer.json": "d0b0c7cdf2a63ddc5bf49ff27b06fe1e4de8e295e2dc541de869a4f3695a0a1285a94ffd58d40e5182354c80130e260e2dfffe9fc111cd28421e6e86c67a8e88",
        "vendor\/rullzer\/easytotp\/phpunit.xml": "585a96203f26c83d28b30c9f4498e8e915bdd2e64061abe96447c7492afd0dc5a9232db54f281e86c93f5a779eb9af33c6a49745db2ebb92144cd9591f8846aa",
        "vendor\/rullzer\/easytotp\/src\/Factory.php": "dc16226804b2bbe84d2002011306d3d6256c7ff29f42ab250e6310b2ea4876b7b034b41d18f1f493627c154193eceeac81081799194be1d7c97cd3527e6c36de",
        "vendor\/rullzer\/easytotp\/src\/TOTP.php": "9e99f95f781eb529423bcb40cff48e9c4a289e851dc330d54b6b76f90cb0ec8e4e0ad646062a7978fad60c617adeed5a45caee8ac7b5cb42aee9199156a99f01",
        "vendor\/rullzer\/easytotp\/src\/TOTPInterface.php": "e63e7ca9a737ad47cc611632ce0b062dfdc69eae3b9b8cf0e68b4ac4df0c395b61e8e0aae9419176e7f616d4c3eef9003273504a43d50f0b773f9f42da2d3dff",
        "vendor\/rullzer\/easytotp\/src\/TOTPInvalidResult.php": "9e1e73bfa59d76e24a9845683fe8d54fd5addef70522d8aa8c7d1c17fe603203d267d8d33f04add3d72073be1d46cba02d4c4fcbe4e6a568c9e1483beea1db6e",
        "vendor\/rullzer\/easytotp\/src\/TOTPInvalidResultInterface.php": "694e7416fa66124759fd0db407660de5cba67369198b845d8cb2a3bd9363dc4160015f21eef1e847f7ef8307a4fcd10fe50e3b53a8c1d5838c323a501d141729",
        "vendor\/rullzer\/easytotp\/src\/TOTPResultInterface.php": "928a27a5522ecb7d4a8b9b14dc4481d14c4057660e49be87508a6ee2de7453acec0b1c7f0923297b1ebcea8707982ce9229d05829b3e7741d5deb87cc05e7974",
        "vendor\/rullzer\/easytotp\/src\/TOTPValidResult.php": "9ee58262ec86393233765d04169bfb2d3e133d4764bcfc9c68700b6fc8c4fe9140d829317c69a864c683e47d26c8e7fd6d57e1856bf304e3a768219d8577e5fa",
        "vendor\/rullzer\/easytotp\/src\/TOTPValidResultInterface.php": "6a00c814c265ba33f5c6f9e1deb1c1bd9ce1a900a98a9d1c8d947645169a431861828cfb503147e8125ae972283676a4e23d50eae58944e90f1c04580496a76d",
        "vendor\/rullzer\/easytotp\/src\/TimeService.php": "1b211850f40b065dc669cf075ebfffeafa1f74f446a33fa5313b0b304d88d9101b689e92ee480181caf2c109035f11537fcfa836b021f5a72a8732fbd22b6aa4",
        "vendor\/rullzer\/easytotp\/tests\/TOTPTest.php": "a60ded08ea7381817828c36e36ab8dfeec4bfa565995cee6e54a5771c84433483f22b58885a38260ddbddf51d6bb9850707ce0cf4e6a1a962f78df4fe94e4559",
        "vendor\/rullzer\/easytotp\/tests\/bootstrap.php": "0fab8265c5688aea34ebd1dc3bc2bac6b5050b65245640821c5fa66e3cb26298b10e36664da7742e3b552f9c0e86e16301e513e9e51d744fe29ac7c16f7fd418",
        "webpack.config.js": "dbb28f5480284f311d69ee8aab404c8452082be6356abb12fb210cbb16fcb91e431d71ca57fd20388c632ff89adf5a1a11f706f274128a5fa35796952b35a559"
    },
    "signature": "BHa0n17XVXTJeavhDUyVbCwHv2XOf8pjP532TI1CP8btqcU3BOnaWaWwilsQL9Q3AxhL\/wYsLCh7OpfMtaBla7+oA6kcvGHkyJ4VMLVqbDAhODsvTQ76mD29\/L1ric0WDqrxs2i8Szm7BfmnhzEzen3wUxTBTr1zTZARYWJW096rx6ZzrZwdCC6QEL02nxuiNxUjUeyKgQQ61hpiIAjgbOZvERP5v7526ewPAXclxKRK0qXVZJfejbyip29S7EiU45hotQzNGX8kzA4qpNjR9qRlZjKN0eWWSFSsfGfSfaLVrwp6flLzxOZ9ArsZYxEeOKAy53kyOvwhs6Ql43vgNw==",
    "certificate": "-----BEGIN CERTIFICATE-----\r\nMIIEojCCA4qgAwIBAgICEAAwDQYJKoZIhvcNAQELBQAwezELMAkGA1UEBhMCREUx\r\nGzAZBgNVBAgMEkJhZGVuLVd1ZXJ0dGVtYmVyZzEXMBUGA1UECgwOTmV4dGNsb3Vk\r\nIEdtYkgxNjA0BgNVBAMMLU5leHRjbG91ZCBDb2RlIFNpZ25pbmcgSW50ZXJtZWRp\r\nYXRlIEF1dGhvcml0eTAeFw0xNjA2MTIyMTA1MDZaFw00MTA2MDYyMTA1MDZaMGYx\r\nCzAJBgNVBAYTAkRFMRswGQYDVQQIDBJCYWRlbi1XdWVydHRlbWJlcmcxEjAQBgNV\r\nBAcMCVN0dXR0Z2FydDEXMBUGA1UECgwOTmV4dGNsb3VkIEdtYkgxDTALBgNVBAMM\r\nBGNvcmUwggEiMA0GCSqGSIb3DQEBAQUAA4IBDwAwggEKAoIBAQDUxcrn2DC892IX\r\n8+dJjZVh9YeHF65n2ha886oeAizOuHBdWBfzqt+GoUYTOjqZF93HZMcwy0P+xyCf\r\nQqak5Ke9dybN06RXUuGP45k9UYBp03qzlUzCDalrkj+Jd30LqcSC1sjRTsfuhc+u\r\nvH1IBuBnf7SMUJUcoEffbmmpAPlEcLHxlUGlGnz0q1e8UFzjbEFj3JucMO4ys35F\r\nqZS4dhvCngQhRW3DaMlQLXEUL9k3kFV+BzlkPzVZEtSmk4HJujFCnZj1vMcjQBg\/\r\nBqq1HCmUB6tulnGcxUzt\/Z\/oSIgnuGyENeke077W3EyryINL7EIyD4Xp7sxLizTM\r\nFCFCjjH1AgMBAAGjggFDMIIBPzAJBgNVHRMEAjAAMBEGCWCGSAGG+EIBAQQEAwIG\r\nQDAzBglghkgBhvhCAQ0EJhYkT3BlblNTTCBHZW5lcmF0ZWQgU2VydmVyIENlcnRp\r\nZmljYXRlMB0GA1UdDgQWBBQwc1H9AL8pRlW2e5SLCfPPqtqc0DCBpQYDVR0jBIGd\r\nMIGagBRt6m6qqTcsPIktFz79Ru7DnnjtdKF+pHwwejELMAkGA1UEBhMCREUxGzAZ\r\nBgNVBAgMEkJhZGVuLVd1ZXJ0dGVtYmVyZzESMBAGA1UEBwwJU3R1dHRnYXJ0MRcw\r\nFQYDVQQKDA5OZXh0Y2xvdWQgR21iSDEhMB8GA1UEAwwYTmV4dGNsb3VkIFJvb3Qg\r\nQXV0aG9yaXR5ggIQADAOBgNVHQ8BAf8EBAMCBaAwEwYDVR0lBAwwCgYIKwYBBQUH\r\nAwEwDQYJKoZIhvcNAQELBQADggEBADZ6+HV\/+0NEH3nahTBFxO6nKyR\/VWigACH0\r\nnaV0ecTcoQwDjKDNNFr+4S1WlHdwITlnNabC7v9rZ\/6QvbkrOTuO9fOR6azp1EwW\r\n2pixWqj0Sb9\/dSIVRpSq+jpBE6JAiX44dSR7zoBxRB8DgVO2Afy0s80xEpr5JAzb\r\nNYuPS7M5UHdAv2dr16fDcDIvn+vk92KpNh1NTeZFjBbRVQ9DXrgkRGW34TK8uSLI\r\nYG6jnfJ6eJgTaO431ywWPXNg1mUMaT\/+QBOgB299QVCKQU+lcZWptQt+RdsJUm46\r\nNY\/nARy4Oi4uOe88SuWITj9KhrFmEvrUlgM8FvoXA1ldrR7KiEg=\r\n-----END CERTIFICATE-----"
}