{
    "hashes": {
        "CHANGELOG.md": "65101bba821b1bb5529f07811fe2818ac067049b0681b453b975572ed9b728bb835a5ecfe8231b105577cab88e06bcc557a5b9192a3a6d9cc702642cc72b8b6c",
        "COPYING": "a0a86214ea153fb07ff35ceec0848dd1703eae22de036a825efc8394e50f65e3044832f3b49cf7e45a39edc470bdf738abc36a3a78ca7df3a6e73c14eaef94a8",
        "LICENSE": "3a02a6ec14e9d076b79aea8301eab31053c6600b68dcfa6261e10edaa7296a87c8767e35f2411d234b90111fcaf6b4a55c49aa2790a1a0d015213218bb7549fc",
        "appinfo\/info.xml": "613dba84f5f25f4b54641f38a3f91bd7bec6e2473d2436428142474f8c3b0dc59d85f38d1884486877951c6cb7fce185c99e868813c2036b43d837aa2697568e",
        "css\/app.css": "996492b95e5aff26cb790f04b03ea677fd40ea32df25c99959a54eaeb1604ea62964c3e8f78208a49daac3af3a7805b3f554fdef9bbeca53a098e7158a4726b3",
        "js\/files.js": "dc533e9458f54335fff36c77dad3a5498a0087bb7ff32fb9fc600506cd23d5211b69ebec81b4c50a3ca2693f7402db56fa51e5d91237606d4ca6f4fd1c5114bc",
        "js\/script.js": "8c3c49631b4fd6ef18957f48bd8cd1d20fc042b9f08b6618263650d74f24e6474ee3bc139fa89c70fd503285d04af411d70bccb7e3dbb05c99210c5fc8356e95",
        "l10n\/af.js": "c7916382d8c1a4bf8bd2562085e692d25c1d7d9ec250e95baf61dd7589496c37137352fde053942b85417742d17a0e6d565281e735ca8a6f487b37d13a7ed1ae",
        "l10n\/af.json": "47338b6b66bc4581e5691b3625dc2a02375ddfbeafbafd9751f67de74741d45fccb62426d65f5d7790552234718256b42852c2b4e77cf56b6bf09c233bebd34c",
        "l10n\/ar.js": "ab53a52c229d0a7def2df027f9427edaa90081e42a8bdfc688cabea056e588bb107315441f484615dc415d9e135e847b64b1373735c53f123c3a465b52fac624",
        "l10n\/ar.json": "57a9619e2c45792301478f40498204b218497a51a5a759c046003115512c3ea1e7c523df1594ed69ddb209dd8e575331cc4e752fa6be12ccacdb41db8ec96b39",
        "l10n\/az.js": "918b10af8513596c15436eca2fd3363e88d33c651cc8de12ec04911ed2f4a7d36e665f482d113f5b1315483bc313d9c880b0bd30443c212b57f8f414773e2065",
        "l10n\/az.json": "7290e037a4359d984cbdf505d4098dbe97fffc178624f31047fd653550587438f90c93497f3714adde84bd37bb68ee6ba7765566aecff491fff05c20a90cd466",
        "l10n\/be.js": "d38ef2d3d80a12629f7dfa3831245cf77ad1882691f415f7c27a69963587b47dd10674b454a564f8640ae19a9f00dae330080d220414ba0a969c41d64b41bfd0",
        "l10n\/be.json": "4b5f93b8302c627664105dc9b675f736b70e1a03c472e7776b1931bf3247cf041ae0088b3c79cd429194e904558854bd9f7b987e6d003de98bbe16f63f0b5e97",
        "l10n\/bg.js": "1a6dc5ad0a73f7ea24ad563762e42be1b19238f3d15e560e55979dbff0d62ddd9e34a8c6f09e5ef5b4183a7e6b84526d202befc1b96488722068c3a8b427af46",
        "l10n\/bg.json": "3426ce83fea10ef794846ce724e7f497f0b8f0dad0f9b832899cf5e770aa2fb0aed4d166b11e1df1f9bc7efde6f1d502476215a6b05afc7b90497e0e7236e445",
        "l10n\/bn_BD.js": "1247727bb3ca089d6aed2256d584258401a53ae6028b37b0b9bc66d29b6819cb77762aa42838058b8ea1d9a3dd09942118669ead72e5bc2fb424a395dd2905b9",
        "l10n\/bn_BD.json": "9a8ddf9af99fa580fad76538e0991d582053d31154e343f36e1bfeaee3f4c66853063a1634463fe07cc88072a670de4d23ae82e64ea72bf80954fc15fee0c370",
        "l10n\/br.js": "16e03a280f47dfa02b432d1a844fb2a346a3ff9abc99954916e6d2ea4bd98b9a2c8c86cf9008b95777ec27177834003fda5586f0f872df5412880305524bd9ff",
        "l10n\/br.json": "b4459da7f6cb1f3ccaddcd1a8f7bceddb7e8e091dc944147b3a9d4ebf1bfe27a0b300fa7bebfd0aefc0c7038af11e53d0becc7aea9d54defba267b789880cfd6",
        "l10n\/bs.js": "fee4fbc4d47252b2c59d11306509b56cf3ffaa2b16e8127fe487a389a583f6e4d5fec1d431b258a1e3abb9086c957b347b068badbd82cd3deaca6f1f30c17e56",
        "l10n\/bs.json": "1f910d98707ba7d7c5c8b40834a6268881e73ea3e41aa91e3d5b85de28ab10821451cb5d3e4f746e0307243fe74853c79f5ae8994169ab895d6db8005a443065",
        "l10n\/ca.js": "9c7fc818124e8f981aa98aa23246a98211b8487d6da7bed6c0a6f8f98562dda54566dadf1c00b1f0f457a36d1f8177702759b033a08881a6292b820a17b6f8ee",
        "l10n\/ca.json": "687bcf30c577d69880d8405bf671df24bab6b97a62656e08dd2bb00737f67564476bee21ca820bce8013b04be1f231556b591f677e157dc10d026053218107ff",
        "l10n\/cs.js": "99c67d4fe33175e299a622c8dcd966039ea5b090c24bf329f238dbc8f088f17a213b502bcd21b314a73660be6a79b28a5149326ab36fd364221d1567c7116410",
        "l10n\/cs.json": "e9344c04039f638e8e31236cbdf1ae100a3f0f346678ca64c4f5547887da09f16f2f19771b80660f9368ba40126f35bda96e8cd8d4393a5ef795907260d01160",
        "l10n\/cy_GB.js": "3c7ceedf33186b9d74b15d0a3e69ed5197405d067e14883d439362273b7e55caf5513a2d19dee4019e4dd19b76ad6f423dfba92bcd59a9a87c2889a1cd5daf0a",
        "l10n\/cy_GB.json": "a449c4a570112e1c32047b882a441c958de247276e301a76e85c3c0ed918bd4e24f1338e5d8d7670521e7956603f4e754e51d607a0a7a2e015559274dd377a0c",
        "l10n\/da.js": "baa080cea921898084f6a360e1a0a7b8cc7db3078c972adfb7372a85d635a88235807dfb0ddfcfc2ce2c656e72cd458b09e7a75a1c339052840a40b912c8f1a3",
        "l10n\/da.json": "3399274c2719afa1016100cc48ddb0284b18ea84b90742cbf6c57b84267c00abefee3b949b11b32aa05e906deb4168968b8cb8d5ac5539c7e6cce54891e01d20",
        "l10n\/de.js": "12d235768aacbdbc3dca44c3c0a3ae4ed83200a69115b654817c1f480be476b5f8e681aab264f051f580df43f1793a4c245955aa8471046dde8ceef7e8be90d9",
        "l10n\/de.json": "fce57bda4101ef29f9a4fe9b0bb809d59f036a695e12f90951ccbec32161fe81070b912a2537fdf3f0dc33daa117d5c6c4a806cc3edf42a1b5566d7d2e459f83",
        "l10n\/de_DE.js": "8e9c54de612f52eec9cca1784489088a12adb85b3ce2d924c8c6f1fe4e8dd40c03a22a7bc40b9767674e9f827231daeec3cae2945796bdd25464259665ab4dd6",
        "l10n\/de_DE.json": "4c0fd4a2a383f1358552ea2d56fa9fd24c32c8e1ae9b75ae24f21b3d019b1f461f123bb18ded98c5fa6c1dc9d7c7a7434b306d477839b948173680085f4abfb6",
        "l10n\/el.js": "b41895f9d62e8383f6c5bb93fa671a4d131df2db93394ce7864d5aecad9979d5d991183de38cdacb7aff8ddb9d8d0a8798c8e16f566c64d77fd2003201741eb7",
        "l10n\/el.json": "fac1e926494f30ce5fa1e0c23756ce5349f382961cf32c56d9d2ae58c8c079a1cfd65169cb125f78a72dd3adcf13361af6c3d73d9fb4b7d28853020573903de7",
        "l10n\/en_GB.js": "c1646deb12198c740ace96412867596bbb87a5ee78159794c46beb580bb38e388b5af0078b69a797160cec592b2c2b7b5033b164c02fb48f16469e18073232d5",
        "l10n\/en_GB.json": "2018fcf8e6b9bfee388c2c9e37242e697ea9104f4f52b5379ee9f1baecd3e5608653eca11f34be59344adc2e2b73af567f5b0354a30bc74643f12c7f9fb90fd3",
        "l10n\/eo.js": "cd46dcea9afe7516fe7bee1764e20bec3cd25ab55e7f23341d4ec49c03689a3159d77298a49f3a6a631875d6cd345c242ae181960c5071b5c2b83a55f2b41f1b",
        "l10n\/eo.json": "e3351b0469c25374ec00e494733a109cd3ed6934b85bbad6038d97ad25f42466cae60ae8fc3bbb2f7402fcb44c9a0bfccb36105dabb85fbb790a3ff5cdeedfe8",
        "l10n\/es.js": "c6274493aba0f2ff86a3310e579242e5413cd5be498f18bc650f04448ec7034bc74cce41d5cd5e3601ab31d0cdd4ffb7c08bd535cc4a9042a7427845829a8731",
        "l10n\/es.json": "a55d3d2986dd4a739a6836e44473d39959c550c32eceeed12798029c963ff17bd4fda29e47b2d33ce807142a33ef6090ec0d1eb91a952189e3e1a9bbb9a52f8d",
        "l10n\/es_419.js": "00c50070c8a0f0f26e3a2182115d78de36b013bdbd8992826d8b362d6abcecfdb0d1a4dbb1b31c26207198729b27c3122bde4f2e10091ac1f76d95cf14c0e272",
        "l10n\/es_419.json": "a0b1b7bd6daa65a3ef8493a7aef9e63cda33bbd88bd48d38c69f290b5ff34845d7a45b1a326833c789b8f4c04de7d21ed22e1786d756de09f938872b8d4f4b8e",
        "l10n\/es_AR.js": "00c50070c8a0f0f26e3a2182115d78de36b013bdbd8992826d8b362d6abcecfdb0d1a4dbb1b31c26207198729b27c3122bde4f2e10091ac1f76d95cf14c0e272",
        "l10n\/es_AR.json": "a0b1b7bd6daa65a3ef8493a7aef9e63cda33bbd88bd48d38c69f290b5ff34845d7a45b1a326833c789b8f4c04de7d21ed22e1786d756de09f938872b8d4f4b8e",
        "l10n\/es_CL.js": "00c50070c8a0f0f26e3a2182115d78de36b013bdbd8992826d8b362d6abcecfdb0d1a4dbb1b31c26207198729b27c3122bde4f2e10091ac1f76d95cf14c0e272",
        "l10n\/es_CL.json": "a0b1b7bd6daa65a3ef8493a7aef9e63cda33bbd88bd48d38c69f290b5ff34845d7a45b1a326833c789b8f4c04de7d21ed22e1786d756de09f938872b8d4f4b8e",
        "l10n\/es_CO.js": "00c50070c8a0f0f26e3a2182115d78de36b013bdbd8992826d8b362d6abcecfdb0d1a4dbb1b31c26207198729b27c3122bde4f2e10091ac1f76d95cf14c0e272",
        "l10n\/es_CO.json": "a0b1b7bd6daa65a3ef8493a7aef9e63cda33bbd88bd48d38c69f290b5ff34845d7a45b1a326833c789b8f4c04de7d21ed22e1786d756de09f938872b8d4f4b8e",
        "l10n\/es_CR.js": "00c50070c8a0f0f26e3a2182115d78de36b013bdbd8992826d8b362d6abcecfdb0d1a4dbb1b31c26207198729b27c3122bde4f2e10091ac1f76d95cf14c0e272",
        "l10n\/es_CR.json": "a0b1b7bd6daa65a3ef8493a7aef9e63cda33bbd88bd48d38c69f290b5ff34845d7a45b1a326833c789b8f4c04de7d21ed22e1786d756de09f938872b8d4f4b8e",
        "l10n\/es_DO.js": "00c50070c8a0f0f26e3a2182115d78de36b013bdbd8992826d8b362d6abcecfdb0d1a4dbb1b31c26207198729b27c3122bde4f2e10091ac1f76d95cf14c0e272",
        "l10n\/es_DO.json": "a0b1b7bd6daa65a3ef8493a7aef9e63cda33bbd88bd48d38c69f290b5ff34845d7a45b1a326833c789b8f4c04de7d21ed22e1786d756de09f938872b8d4f4b8e",
        "l10n\/es_EC.js": "00c50070c8a0f0f26e3a2182115d78de36b013bdbd8992826d8b362d6abcecfdb0d1a4dbb1b31c26207198729b27c3122bde4f2e10091ac1f76d95cf14c0e272",
        "l10n\/es_EC.json": "a0b1b7bd6daa65a3ef8493a7aef9e63cda33bbd88bd48d38c69f290b5ff34845d7a45b1a326833c789b8f4c04de7d21ed22e1786d756de09f938872b8d4f4b8e",
        "l10n\/es_GT.js": "00c50070c8a0f0f26e3a2182115d78de36b013bdbd8992826d8b362d6abcecfdb0d1a4dbb1b31c26207198729b27c3122bde4f2e10091ac1f76d95cf14c0e272",
        "l10n\/es_GT.json": "a0b1b7bd6daa65a3ef8493a7aef9e63cda33bbd88bd48d38c69f290b5ff34845d7a45b1a326833c789b8f4c04de7d21ed22e1786d756de09f938872b8d4f4b8e",
        "l10n\/es_HN.js": "00c50070c8a0f0f26e3a2182115d78de36b013bdbd8992826d8b362d6abcecfdb0d1a4dbb1b31c26207198729b27c3122bde4f2e10091ac1f76d95cf14c0e272",
        "l10n\/es_HN.json": "a0b1b7bd6daa65a3ef8493a7aef9e63cda33bbd88bd48d38c69f290b5ff34845d7a45b1a326833c789b8f4c04de7d21ed22e1786d756de09f938872b8d4f4b8e",
        "l10n\/es_MX.js": "00c50070c8a0f0f26e3a2182115d78de36b013bdbd8992826d8b362d6abcecfdb0d1a4dbb1b31c26207198729b27c3122bde4f2e10091ac1f76d95cf14c0e272",
        "l10n\/es_MX.json": "a0b1b7bd6daa65a3ef8493a7aef9e63cda33bbd88bd48d38c69f290b5ff34845d7a45b1a326833c789b8f4c04de7d21ed22e1786d756de09f938872b8d4f4b8e",
        "l10n\/es_NI.js": "00c50070c8a0f0f26e3a2182115d78de36b013bdbd8992826d8b362d6abcecfdb0d1a4dbb1b31c26207198729b27c3122bde4f2e10091ac1f76d95cf14c0e272",
        "l10n\/es_NI.json": "a0b1b7bd6daa65a3ef8493a7aef9e63cda33bbd88bd48d38c69f290b5ff34845d7a45b1a326833c789b8f4c04de7d21ed22e1786d756de09f938872b8d4f4b8e",
        "l10n\/es_PA.js": "00c50070c8a0f0f26e3a2182115d78de36b013bdbd8992826d8b362d6abcecfdb0d1a4dbb1b31c26207198729b27c3122bde4f2e10091ac1f76d95cf14c0e272",
        "l10n\/es_PA.json": "a0b1b7bd6daa65a3ef8493a7aef9e63cda33bbd88bd48d38c69f290b5ff34845d7a45b1a326833c789b8f4c04de7d21ed22e1786d756de09f938872b8d4f4b8e",
        "l10n\/es_PE.js": "00c50070c8a0f0f26e3a2182115d78de36b013bdbd8992826d8b362d6abcecfdb0d1a4dbb1b31c26207198729b27c3122bde4f2e10091ac1f76d95cf14c0e272",
        "l10n\/es_PE.json": "a0b1b7bd6daa65a3ef8493a7aef9e63cda33bbd88bd48d38c69f290b5ff34845d7a45b1a326833c789b8f4c04de7d21ed22e1786d756de09f938872b8d4f4b8e",
        "l10n\/es_PR.js": "00c50070c8a0f0f26e3a2182115d78de36b013bdbd8992826d8b362d6abcecfdb0d1a4dbb1b31c26207198729b27c3122bde4f2e10091ac1f76d95cf14c0e272",
        "l10n\/es_PR.json": "a0b1b7bd6daa65a3ef8493a7aef9e63cda33bbd88bd48d38c69f290b5ff34845d7a45b1a326833c789b8f4c04de7d21ed22e1786d756de09f938872b8d4f4b8e",
        "l10n\/es_PY.js": "00c50070c8a0f0f26e3a2182115d78de36b013bdbd8992826d8b362d6abcecfdb0d1a4dbb1b31c26207198729b27c3122bde4f2e10091ac1f76d95cf14c0e272",
        "l10n\/es_PY.json": "a0b1b7bd6daa65a3ef8493a7aef9e63cda33bbd88bd48d38c69f290b5ff34845d7a45b1a326833c789b8f4c04de7d21ed22e1786d756de09f938872b8d4f4b8e",
        "l10n\/es_SV.js": "00c50070c8a0f0f26e3a2182115d78de36b013bdbd8992826d8b362d6abcecfdb0d1a4dbb1b31c26207198729b27c3122bde4f2e10091ac1f76d95cf14c0e272",
        "l10n\/es_SV.json": "a0b1b7bd6daa65a3ef8493a7aef9e63cda33bbd88bd48d38c69f290b5ff34845d7a45b1a326833c789b8f4c04de7d21ed22e1786d756de09f938872b8d4f4b8e",
        "l10n\/es_UY.js": "00c50070c8a0f0f26e3a2182115d78de36b013bdbd8992826d8b362d6abcecfdb0d1a4dbb1b31c26207198729b27c3122bde4f2e10091ac1f76d95cf14c0e272",
        "l10n\/es_UY.json": "a0b1b7bd6daa65a3ef8493a7aef9e63cda33bbd88bd48d38c69f290b5ff34845d7a45b1a326833c789b8f4c04de7d21ed22e1786d756de09f938872b8d4f4b8e",
        "l10n\/et_EE.js": "07204f874ab7f2f239b01aa122175207b21996ad1f6b9240e7fa456144946d95d22f7ba6bf0cdf92e839c3a9b791c19e293dea487868e06e3a8e540207c2db19",
        "l10n\/et_EE.json": "1d3e943ea8176dc21dc45fadcd1a0b34e4931a3515310ce03fa3bc5dcb7ac54593bf026a32f07823935b0ffeae9d4f10c1573f2cbc53d362ca5842cbfcae6566",
        "l10n\/eu.js": "d1dc057fbeb8af7905a846016dbb14e5ee6b4c928e192684a94ec5847a18079a9c149f1fae69a449adcd4087aadc72a72be1534f3889dd83a5dda7f5f8c847cc",
        "l10n\/eu.json": "9a6ed986ddf08304c37f96b0d6f6bf98cdf6d2a4dad00ad25b4884179b643e259aa2b2465be29b1ec5478090e26513a932e57a197809929f03fc0860ed087058",
        "l10n\/fa.js": "979458b86cf2a90348e2f1338fe4563699dba3c3e558090b5f1001297b252059dc04c7723d08d1acfbbeb87c0edffa88e5411a583406a98ba155ebc38dcdfc8f",
        "l10n\/fa.json": "a09e2e02ffe5069059198df633cd0344628ea0087841c1dce38efe304e0368d35b81e3984e636e562cd6fdbe103b76ba418557eb84a17f7b5be8c7f9677e318d",
        "l10n\/fi.js": "74c7b6e82f6491fefd5d0bce4d3bc46715feeec727aaafea0ac051371596c58e297b0a5960cce3a9213ade9d769e0565fd084187b52032e47450b8312485c101",
        "l10n\/fi.json": "9869b1c7d5d91fdbf9b8d951d8f7b041280b318816620ab2df3b62edf05713a92f08fb36e89f50ee3bf748965815badaef09d3ae25ad72901e1b4c83e6ff27a1",
        "l10n\/fr.js": "57f68e5eff0b500c5d1747a0c4371ddac6037fb56bdf2519a7047b2fee3fca99bdd6bb7284a0ca00ed0993711d83d4c7b9cb0c602bbc26ff405059921fb3f852",
        "l10n\/fr.json": "281438cd6f69834bb72fd66836b743f8ebc9bce752b5594ce0a8dcab3094279fbec30812a5c529801a0b9edc7d8121a8db5b726dedfbbb372b65ad0ce442851a",
        "l10n\/gl.js": "0c3aa391e554d955d42a0389e8656e3ece35786ee6e79281b7ff053e616acbf52885684fd28ac3b7ced0f22c833b153bbdf9711becabfd2ab5f9f934028a5250",
        "l10n\/gl.json": "691d41b52f127b0b450d7670a2541ff3aa7e7e75b0e6802ef4f2058d4b6d9feabb6f4f8ed15f126a6e83819d08fdd256a187ca5b6150a5497c826b6421071893",
        "l10n\/he.js": "8583256312b428c63c6dcd9324bb5a1732a15d12d6038d14bf1c5836f86f0cb7b08905485f6a6ae5a4825b1b0c5f29507203e31f086aa913a4386e72626f17b1",
        "l10n\/he.json": "96e9e778a9c3ea446a73fec46d6a2418e8a4b657eea17ab397b98eee246bdd04baf07cdc8259e564b8359cd04bc942fbdaeae89eaad0f72150d8c2dc07c2fcb2",
        "l10n\/hr.js": "8a198f96da899ea593156ea608973ea72b52086da651d5e43bef7ed948f9c076ec245352f28572d42f831e1f9cdfbf105c18dc7337b9231c2e91a9956431d61b",
        "l10n\/hr.json": "8c57239987f9e2ebfaf26996cba69878548a2922b5729e903438a88b373b55a2505e8fa6833a1582334b6f161850214de4d822b858c38d0950538beaa6442914",
        "l10n\/hu.js": "31018c356e8c2faf5b1c8f8f22b8980ca750291f69ff6df1a270673d789d9d0dc2bbae7a9de745de6137b0eea149308cd72e7de20205b347f03f537260fb21d6",
        "l10n\/hu.json": "370f84cec6ded0646a164881799ec22c2c766c1b4c40672d4df5ad73ff35880ace71763909b72b1a8485f023f77c144ad0059cd4782b260c0f60b8e3cce0e550",
        "l10n\/hy.js": "918b10af8513596c15436eca2fd3363e88d33c651cc8de12ec04911ed2f4a7d36e665f482d113f5b1315483bc313d9c880b0bd30443c212b57f8f414773e2065",
        "l10n\/hy.json": "7290e037a4359d984cbdf505d4098dbe97fffc178624f31047fd653550587438f90c93497f3714adde84bd37bb68ee6ba7765566aecff491fff05c20a90cd466",
        "l10n\/ia.js": "6bd91e000bfbbdfc00c80ff460bbaad9003d9239cddb03d3bfd6ea3a94f278df55bc4acb727081554096117369fa530961ae4478668905502ec0cce502184468",
        "l10n\/ia.json": "6358f4cd939498104fb18af7fbadeeacecc89ac7cbccb6cc9d1a44adb0f6bf9d9a36f66325efd92b798617b7bc5b29e825ee223267391fd35820a853b919e764",
        "l10n\/id.js": "91199aae30fdcd03c0fbd842421646a3802a79a701d646a9c0b8c834d41e82b19a81d52003d1625a0f4d287b555fb068da3638229adb351b636e7a425a042fe9",
        "l10n\/id.json": "886f081a0c54cd253bb79ac947c462c2823488bf100c06502681bcec15b5e8f8ff1e021a98ab7f740c3e6e19346920c8bdc0d127d4d252e94a6cd10d93f0ba6f",
        "l10n\/is.js": "980f17f4afa93157250a7ed0f6082ed3d83661af0918c96acefaf9c7942a07001c3c9dbb173a20338237c77fdf7e247bf8ebc5daed7d3a953a1639dffeb2eb39",
        "l10n\/is.json": "4c9dcd7ba5725f1815521ea369495969237ccb328429adb54f182f919003c3b90301a734db8d85a7fd7c2eb2ec375eb3a6efee00a2ac0c91b8e62dc75eaf9b1c",
        "l10n\/it.js": "689ed3d7bbab04e3a32c7a711ddc29440ec7381b4a156cd3d8b293806a608dc7b623f8cd75f11483d8ff23768697147bb07ab0f230805b4b859afe40b91c6cc0",
        "l10n\/it.json": "87806f412140e638d5a8f1069104cf48b65bd5f77bd64776bfbc23e383ef17ac001310bb20a742e44d14043e81b35d92e3adf3254b984def4c457358521a5152",
        "l10n\/ja.js": "7d20218af33bd62df9732a87c95c6fcc3ba1bdacfd636882609d428164720ea2a1ff1c6e7bc147d32345ac5b12472c38c13c36aaeb3df0d64c58b85569ea275d",
        "l10n\/ja.json": "0b850be4a6b37e67bfc2d5dbb07b23c4b1a925a00bf2d353da599ee4fa34968232e1799d21ec74f8263e69f9559b40fce12d08c7021c14a0e6ba2aa032cffdda",
        "l10n\/ka_GE.js": "47f1b46c0965c719862aa59c5e9e6a2fb23f3070cd5e2de5558ac060f4717a9bb846a8e5b03daefa8e6b1f5accd57347f243c8258f1818d4f8200037ea389a76",
        "l10n\/ka_GE.json": "561a4c3f4b68c744a8e1ecd2b4ef01afc34f82cd534cbaa1fdda98fcb25c6b996571fa2ca4162e10284b88b2b0fdb99ac58b1d2910b6b095d125a8a68f2d4541",
        "l10n\/kab.js": "117782848a15c63d6185487520a4011d0dfad022d49f7548434cbad05b6a2a87e1b8e22dffaf17dc46b99d4db64cd972155fa7119e5fa924f09418aebfd9c292",
        "l10n\/kab.json": "92466c48cf24511b4cc76fe80df241e39b734b8828b25af3466db8241b9f1017c77d1a3d74153b9bf372e9a7cc656122a4e3b8dafaf62f9644c2b6d011552bf1",
        "l10n\/km.js": "17fd420e3c994813292b0896b32b22c705852e0c3c00645f04bf4e2b80ca5970e858424c403a9a80db7a9730c8f2a0447d04caebd02beeda6cb03b1cd51cafd4",
        "l10n\/km.json": "59b848f5de5ce6f24e774b2daec69d4d06d2958a600b25e92dfe65b1775a7f7ef5b5ec6f76151a5c931f1f64f9cbc546496db26a552b597bc9828742d439e008",
        "l10n\/kn.js": "b8e55e9dfb7ac81f30975faceb7a79ea08a9be8b4fb426e59fdb38eddd1841cd5434f072242bbd2692122ab18e6c5e95d8a6a363c4fa6582f8ae59736ae29d2c",
        "l10n\/kn.json": "2e2aa5e970b869966c46d3d778de4f5b790454bb2a9d6b11aed6e1908744ae9e0499f7e95244f122a37ec71baa1180d37a1dc8a95b703f34cb3bce74c0913c80",
        "l10n\/ko.js": "11703e4ca37895ba3a0a2bb78e64cf439b965c1905c49f85836445c437f1b7b2d5c62987f56e447c0b664cc72c5d39222d244f959b6e2e147751a9fa4fb810d9",
        "l10n\/ko.json": "6cee311b14e50d5b4c0cbd0bb7ca46f3cf97143652536c4b9c7670049f84e1455eb758addcf8173e43301aa42ffa6f93f56760ef8e095e4afeb5cb671f1ab213",
        "l10n\/lb.js": "918b10af8513596c15436eca2fd3363e88d33c651cc8de12ec04911ed2f4a7d36e665f482d113f5b1315483bc313d9c880b0bd30443c212b57f8f414773e2065",
        "l10n\/lb.json": "7290e037a4359d984cbdf505d4098dbe97fffc178624f31047fd653550587438f90c93497f3714adde84bd37bb68ee6ba7765566aecff491fff05c20a90cd466",
        "l10n\/lo.js": "31138dde0cd20a490ad8ef26babdeded207aba0c8a363ca924dbf5ef04f9e6b2c21e6f2541e2253a503f3aca850b5bfbed8943e7b0e8cd5024ab0ecb76c1dc65",
        "l10n\/lo.json": "8793367912ae881076467b83c14f8232460bc0be67bf03d4d3b9aab51c97a24c8e605bcef9254713c8c90b1172d36fb2d4602d132ba2c32e8a72c0db28e64262",
        "l10n\/lt_LT.js": "90226d38a83bb2f02891839d9798af9cda263816fa44a847bb9bf5e2bb3088994184e8377b051f42eb361902f5449aa20596da95c3e6ffdf83a6209645e31df3",
        "l10n\/lt_LT.json": "cd0d64018a1daafedd58724f9fd4d96923eebf83ebdde33bd3fb2d243dd7f960d0d7574825097a42fff1edb7415c35e7a383dad16ffcdec64f0fe18c91901d81",
        "l10n\/lv.js": "ea0a0f8af907da310bc3e43764192548288d8c0c9fd3aefd7274c89ad0037a271893d67c13f5270ef053d3dd33668b058bcaa48590bd49e39d8a9c57c1c1274e",
        "l10n\/lv.json": "b7f8ab330f6ee70c571962d42bbe9ea3bca541de1bad66814200469b45e40376ddd487c256ba641e2e4eb8842bea6406b50a748424f002a844da734ebe76eb64",
        "l10n\/mk.js": "edded630c086a9ef4fd4c076dc4e5b36481760e8d9e0bcbbee1dbeac47832eb83622f7cd5040d6fe956cfcd974d6396fcb40e5b8c8adcd85eec0fb0e0ef72fec",
        "l10n\/mk.json": "b5ae0e14284dc36e99a2aafb53f21ccb19da847a213471e8951e1669e92b8ce75539ba2f15c3930f2638b3d1a8dfafcdb813f92b7ed308d3c72c36ce8246560d",
        "l10n\/mn.js": "22139c7351bebc66aba3fc39a92910ec565bc449bb04b83cc84545f0959179da9522c37e8b7642d4e4082fd5d5498e03e6dd14e14775e8662669edc2bdcfb2a9",
        "l10n\/mn.json": "ec3e320649913dcf65eb57a21d015109f1128ffea08b384ab5f1fa6ebddd90568a9b6cb72ae0ca5753a704b32e951a4cb94c28af295e6fabcbcf1425d157c267",
        "l10n\/ms_MY.js": "17fd420e3c994813292b0896b32b22c705852e0c3c00645f04bf4e2b80ca5970e858424c403a9a80db7a9730c8f2a0447d04caebd02beeda6cb03b1cd51cafd4",
        "l10n\/ms_MY.json": "59b848f5de5ce6f24e774b2daec69d4d06d2958a600b25e92dfe65b1775a7f7ef5b5ec6f76151a5c931f1f64f9cbc546496db26a552b597bc9828742d439e008",
        "l10n\/nb.js": "809b6fe253da3178ccd508211b584988d3ee99758efcfc587a6798a3d483c9e78b1fb3b3de0115fd5182d1ca77028713e1af28448804d21c2c45b5010cba399c",
        "l10n\/nb.json": "32217ed450e4af4df697a2a013ad133337d66b16e1405a46acd7a923950ed5b52cf7379690b8bc6c379d4adf66286c0c8b8c97b09efe1726e5ded496eca081d1",
        "l10n\/nl.js": "e17e005213ae59b10ae6dbed2976595beb2820644fa4e577be979169f0681b3b6f969f402f8d0d42362a55ee2937587c3ae963bbbab70ede7a63b290c2d9437f",
        "l10n\/nl.json": "de038cbc4e77da89b74292af83c083f6f3d9c540900a68de0554fdf8343102abcf7888b1845a1e42f7db4405ae62feec359d62605b95379a79e701436d2f7bda",
        "l10n\/nn_NO.js": "3993bc8c00d37c0d8e41244c2cf8743bd79e18809e162bed6f777d9a3aafc8e7e5401b84b5dd1935218b1374a8570cc43ac21a8083cb5f3b4bcb58ecf3976bc6",
        "l10n\/nn_NO.json": "5096b3c4f3a16699fb6c8b171f040747ed4afbb46cf6afbf8f0e149cb440b5795e32c2124fe227fadca9d3bf66bf32aa495a3acec38ff5ad7eb30d93d5b3a700",
        "l10n\/oc.js": "b8e55e9dfb7ac81f30975faceb7a79ea08a9be8b4fb426e59fdb38eddd1841cd5434f072242bbd2692122ab18e6c5e95d8a6a363c4fa6582f8ae59736ae29d2c",
        "l10n\/oc.json": "2e2aa5e970b869966c46d3d778de4f5b790454bb2a9d6b11aed6e1908744ae9e0499f7e95244f122a37ec71baa1180d37a1dc8a95b703f34cb3bce74c0913c80",
        "l10n\/pl.js": "e11e6b35ac3f1955b4fb176af96eca5587df8da41decfe0d391550cfed688ae6aae70b32077076cec4bb9b0d31a19b702a76e8ffcabc485e43e8c3bc8caa403c",
        "l10n\/pl.json": "1c53825b08db4759c3e2aac27100ed0ee8b78819724f4449b023bff15d6b44701ea7f734c21fe63445d678896e6a53c0a8c7c170f9115ebad629a0d445116007",
        "l10n\/ps.js": "2b826b56219f2524e0b602b3b5a4dbe8e3b5411c6a665afa402ffdebb66634ce6bb3bdce83093a3ff3bd503167ac2ee885f731176f92ff40703cb6c1610be1f9",
        "l10n\/ps.json": "59c23432588be87f18d2e42ccf40837573694b2d47e7e7b1a83801db57321ee1d8b2e9505f0034015f4642e5073f311dca47d0fe4c2a06df85ec6ccfb87d124d",
        "l10n\/pt_BR.js": "5b210d2cf3f70349d36d162ace0e5d57af36eabd1ae99d0716d96ed8fa1fc6e40f9c97506bc0efd2b90e3d7843ec0c708d09d4f9e4f7fbfbed5c99b66f93a2a2",
        "l10n\/pt_BR.json": "4079b1bccf78104b68d0cbdfd5df5a7598e85c3769bda4188016baeda3c806426c4ef954642429376f09c4a60f133d18c2427dfd108c2debe822ac325d4d7a7a",
        "l10n\/pt_PT.js": "a06d2ad6f3c5d9aa178dbf26e8894bc7119e549abc1a17b634e366aa7fad107f480cbdacde1a2ddad8f53b72d000e13e2869a03fd89fa68b3756a6f0a4141674",
        "l10n\/pt_PT.json": "2455008ed0dc2268eaec37c7a5d23e25febce248d66e62e22e01f3cbdb0ea78017700626ab3e67e54e00b4c2e12375c03ef0ef1b173b03c728d8c481b36825b3",
        "l10n\/ro.js": "0a9a95eeae4f4726c77d7d4919f8bef209eaf4ae6d0b008b691e86bc7a4f02e28f0cb7e309bb461fcbea567dd2c9a3d1bffc7e3bae7557c10a9d1b6eeb12f4d1",
        "l10n\/ro.json": "7a0e4b961ddd8a5b949a3a724f56fb87867c96fe30cdd330fac71fcde76e5518c465df6b67cec9fed93e3d05087f8834e61c9b1608c0e1a0b51aca0d7e0d498f",
        "l10n\/ru.js": "167df623ca954aad446b66e330b0a34d024b7bb92c737acddeb6fd5132a3a17e318c6f3658afa54ecda55b700ba21258ccd4642319d046b473973e8c9aeda970",
        "l10n\/ru.json": "3fe89e8f4e722db720e71ecd7cb8022f9f9585892f6b38cb917f48a9a0b8ee21f9da6d238b0fe6c820affa00f3c5080f992f9ee6e7574a79e227fb3fb3907716",
        "l10n\/sc.js": "e05d23a88d0d2c906e7437aa7fd3c95764b5da226e4fa53129119dec66807e297ecbf50421933c423404e19b32a57bf35ab5f05b5926b66d52ee2639121020e2",
        "l10n\/sc.json": "54e044cbf8c499fc3109d671c9bbcb505ff0fa91ba1502f31d28ed62373b67b07c71c1d4ff829e06e6392f4193d30e225bee80dd86e36530d08423240f20a0e2",
        "l10n\/si.js": "a4889d95643c407c2ab05021bf3e70cedd73e049aa1704f01e2d75a57221dc4de3f8b410c2dd3d999a698c4349cc24d171704cdd5b08dc45d80af66ac60e0ecc",
        "l10n\/si.json": "ca63fc978d4e77c98ebb4ba8b6c757b6d9f10219f31fafde29a5ffd235bc442e384730cdbc3c7d83db9b2d628a57f7e7347cac61dcca9d728c3a6275b4c8d243",
        "l10n\/sk.js": "d1492924b8560842245e0382d582883687f3f9dc033f42b3155f60059ca5fb258776279a333ed311e1675dee58ea39ca2106d3de2c11a1888085153cb2bed3c7",
        "l10n\/sk.json": "cd75bfe2adeb24efd3d4594acf65a16ae8580b4bf2c8851f81a84828fbeab2a15d96e338d7afef094074c69106db0747e9523d0ef7c66c2cb1f116aeba77991d",
        "l10n\/sl.js": "7151ee6cafaa9b86e12d91731954e68432e98a97252203e33b579893323dbd764286962dea166728f0c0d6467c6e8e9b24d4e363ae2fac42b0233d0c820e3afa",
        "l10n\/sl.json": "77db192d2c17b5c962bcdd55bedb1bc67e01e0506f05092a912f1bd950a966d9a4abe7f73cd260ec1201799e7b52bf210c156085427654f312b80a606f4d4469",
        "l10n\/sq.js": "312c82875f4dc11105cd87db46416058d927a6fcc04ddb52872a6b380c168f4c86232d2c6c22fa0019350ce92949e0d4621421e32c55c0e7b3e29f705d79248c",
        "l10n\/sq.json": "63e1b5a747fad57fbfc30fef4a93f07fd82625a55c0f29d4798bc9bf5f4926463be731055b218bfd9018627ff363b53a344284554af0585d431da1cf9961d288",
        "l10n\/sr.js": "d84c6231c2f28d095346852434a2fd880241c19b4172051ab3a31c2bdb4d949570065579c7930f7069d2d55abd8935e1ef236157b500fed5b59a419ffdd13d85",
        "l10n\/sr.json": "62fcede607c9a49fcc41ffad625f69104e16d9961684e461ed57ca0fe4022f236fa71e1361b0d41e85833e6846f18a322c5f21e5b37919a9dadcb8de4dd1b409",
        "l10n\/sr@latin.js": "fee4fbc4d47252b2c59d11306509b56cf3ffaa2b16e8127fe487a389a583f6e4d5fec1d431b258a1e3abb9086c957b347b068badbd82cd3deaca6f1f30c17e56",
        "l10n\/sr@latin.json": "1f910d98707ba7d7c5c8b40834a6268881e73ea3e41aa91e3d5b85de28ab10821451cb5d3e4f746e0307243fe74853c79f5ae8994169ab895d6db8005a443065",
        "l10n\/sv.js": "7fe73f016d0e7425f30e831c616e1036b6788820ccee9537f7c3f2900c2dc6bd08548bfdcf391156225495a419cb73161118ea3310e9c9516d56c7ecb996ea4c",
        "l10n\/sv.json": "a46c4b2d1bd767536221a1c2a557c4dc35a5532e599e121e97cf0e1da5c8d8e4749777b5c8411d03f8ac514b29b844e95002a21de8d12e3cd01157ad31a741ff",
        "l10n\/ta.js": "918b10af8513596c15436eca2fd3363e88d33c651cc8de12ec04911ed2f4a7d36e665f482d113f5b1315483bc313d9c880b0bd30443c212b57f8f414773e2065",
        "l10n\/ta.json": "7290e037a4359d984cbdf505d4098dbe97fffc178624f31047fd653550587438f90c93497f3714adde84bd37bb68ee6ba7765566aecff491fff05c20a90cd466",
        "l10n\/th.js": "92d1ded16599462ac76ecba7a948a44abb06e67e97109b077a85ba28a28a638f12f0705e91a5ca3d3f38d7ee2760384172c29ed142feefc36dbe8cd2f64a4299",
        "l10n\/th.json": "829b40480ede9bc76c35a04d0cf8d54e8655c332ebf910c0cee1fbb87b93bc6c4b5678a2f765d09a0acb2fd5d244a560fe573ea63c070b85f7c7ead0fbf7bc84",
        "l10n\/tr.js": "c0d4e748aa10e066e882450a062b0c3e3102980998daa2dd300cbf69f254a1657a56d8da848ed523e2bbb1f2466dc52696f2a1e55c3267b02dd2ef69a9261617",
        "l10n\/tr.json": "92e9b24ef7b5ef8a813f005444c8470d260086b235565d7f2b6eb4c626182ad501f72f450bf98cd17330962ee47eb68a0c7fcc45b7d683002774bead4a9a5f53",
        "l10n\/ug.js": "918b10af8513596c15436eca2fd3363e88d33c651cc8de12ec04911ed2f4a7d36e665f482d113f5b1315483bc313d9c880b0bd30443c212b57f8f414773e2065",
        "l10n\/ug.json": "7290e037a4359d984cbdf505d4098dbe97fffc178624f31047fd653550587438f90c93497f3714adde84bd37bb68ee6ba7765566aecff491fff05c20a90cd466",
        "l10n\/uk.js": "74f1ee4a6d72a5c4ef7fb109e7b2850824ccf51e8ad288cde8a5d7410a9d2c243e253f6233e00242c9a87d02bfca103dc368e5f920b13880fd0dff5303c028d2",
        "l10n\/uk.json": "0ad4be54f680ae6641c49c66906a180b8c27fd34197d41a8fbf8c3e2cee3146b9e37d3fc94e315820b3be57dadac4cfeb51f7ac165148f647ed652fcb3723f26",
        "l10n\/ur_PK.js": "918b10af8513596c15436eca2fd3363e88d33c651cc8de12ec04911ed2f4a7d36e665f482d113f5b1315483bc313d9c880b0bd30443c212b57f8f414773e2065",
        "l10n\/ur_PK.json": "7290e037a4359d984cbdf505d4098dbe97fffc178624f31047fd653550587438f90c93497f3714adde84bd37bb68ee6ba7765566aecff491fff05c20a90cd466",
        "l10n\/uz.js": "17fd420e3c994813292b0896b32b22c705852e0c3c00645f04bf4e2b80ca5970e858424c403a9a80db7a9730c8f2a0447d04caebd02beeda6cb03b1cd51cafd4",
        "l10n\/uz.json": "59b848f5de5ce6f24e774b2daec69d4d06d2958a600b25e92dfe65b1775a7f7ef5b5ec6f76151a5c931f1f64f9cbc546496db26a552b597bc9828742d439e008",
        "l10n\/vi.js": "d7a74355a40860de797d32be0bdebaf692f6acb46a1a7fd2b30910c5d79b04ef49a9a44c88f544ae024bf764a0e9d2c5d435005221eaa51eb751acd6ae7ad859",
        "l10n\/vi.json": "6f6bc5f680b9ffcd4fd167483b6d60bb74c97888a8861c9dd4a1fcbddc3de7b07abceb01d3573ae14cd0b0d7982078d5c8977f8529bac906b70626851e6ed04a",
        "l10n\/zh_CN.js": "9cc94d51495e94256e2989e7e2e57dab827162713da17b3fd208ddffba50e40a63d5f61707642c69394a1ad1a7561b5cf885820bdfd29dde8b57e082fe16758f",
        "l10n\/zh_CN.json": "3a163a5daf34fc1456ba127b53c9f01e7e2a8b09080f4d85aaaf5e457536917720dd201ce797f72bb35a6ee20edb51efd9905146919853ca1f4ca07b8229db40",
        "l10n\/zh_HK.js": "0ad728a914483739ef7a9daf506f58c23e9967e3a30b0351f27e6b9e55a269c1c3c18cf26afe33b821f1c92c980c3c4913a6476215dce2026ae86afd6452e21c",
        "l10n\/zh_HK.json": "29df38b8f7386b8bb1845681bea1d2fb01205d0d5d2083cf071f73cfbfd63d144cd6d31cc3045d9b0fb6912eb71a4a3c133077712da5ef359b31baaf222e202f",
        "l10n\/zh_TW.js": "39ec914dbb71f4d1796bbdd1f39d57add844f9c1c19bf8d8a720f8e90dc4700707a3f800a96b3980dc45f9ffeddc4cfc28ac886c82e88835b2898055e1d00757",
        "l10n\/zh_TW.json": "00303edc314759ebd0fbe4f807a4af91fc9267ab14d7fdf1cacd70d5b8eafd691ea52e43e040e41c7e0e9ba7192c004180da981015a815ce0b922f8c3cbd9e36",
        "lib\/AppInfo\/Application.php": "401d995b11ae757d28815d293186c50653366b942887d3de73d7ded1030e3ca1569efdf442e3ff1cd666fae706530740fb4fe3631a634226342296c8d7281ce1",
        "lib\/Listener\/BeforeLoggedInTemplateRenderedListener.php": "08e0144e46c5f87abd013737a76aadaff3aaabeb4be2ceadd2825f731fc0a60c85039356956fe0287260b5ed4298909601e5844733e6ca663f3a45b65b74abdf",
        "lib\/Listener\/BeforeTemplateRenderedListener.php": "d7f1ccd6a4c506ce2bfb04b4936624d415d9885f20f70b529bcfdfe0cc212b79a544a1e72e01ab6d34f442bb99e733beead1ba3426ad009791c2145bf24edf15",
        "screenshots\/file.png": "a5334d1853939971aa27543dc0b0d55ce01eb9674695133d6be6141383486daf961cc865d1f10317cf47edda42af6cbc0ca8975ea6778fb0d9ee7682f90da092",
        "screenshots\/folder.png": "200cc50fb067d9f589c26636d2aba1f639750012743ec5b749fae86f19628e27cb0fbb910ea795862daea0a9717be691307fd4627bccc33249525a8e562a57f2",
        "screenshots\/picture.png": "e568eb7f50fb5cf8eac8ebd8d3c7833ca75f88682de46292edc14f67fac6117e82ef392fc2e069c22ddca545f3fe938f03a162454b8e1877d98d224ba5160f8e"
    },
    "signature": "RGY0P4dg3bKw\/rdHe+ILujeXm3orLe6bc3kH3BMuHtovTvELvwp\/kAG\/gsUT95HQt7PNjxzKipiLnM9iqCzQ7kL7ZBCCoxlMSKkuKBHU3RYG9KXLB4dT7+Qp4ZzrmlYo\/hmU+r+k\/S7rL2DzijF+iSpFN\/i8Wq6s7VXUkt6ZKd42INjqoiuyvS3o\/FlG454CNHUJwAFHTbaB0i3ODVDKvjU\/ZeRK7WeImeBHtiFyPmRDWw4ImgYCNCt+QAxpz9DR++gK4NgSN5LgisNpTsJsVWdgvXIFHWYpyP5tuQKNfS4GEh4ptabfjj5cqeVaDt9MSJzv\/unpLU\/4RbEtLR1Wqw==",
    "certificate": "-----BEGIN CERTIFICATE-----\r\nMIIEojCCA4qgAwIBAgICEAAwDQYJKoZIhvcNAQELBQAwezELMAkGA1UEBhMCREUx\r\nGzAZBgNVBAgMEkJhZGVuLVd1ZXJ0dGVtYmVyZzEXMBUGA1UECgwOTmV4dGNsb3Vk\r\nIEdtYkgxNjA0BgNVBAMMLU5leHRjbG91ZCBDb2RlIFNpZ25pbmcgSW50ZXJtZWRp\r\nYXRlIEF1dGhvcml0eTAeFw0xNjA2MTIyMTA1MDZaFw00MTA2MDYyMTA1MDZaMGYx\r\nCzAJBgNVBAYTAkRFMRswGQYDVQQIDBJCYWRlbi1XdWVydHRlbWJlcmcxEjAQBgNV\r\nBAcMCVN0dXR0Z2FydDEXMBUGA1UECgwOTmV4dGNsb3VkIEdtYkgxDTALBgNVBAMM\r\nBGNvcmUwggEiMA0GCSqGSIb3DQEBAQUAA4IBDwAwggEKAoIBAQDUxcrn2DC892IX\r\n8+dJjZVh9YeHF65n2ha886oeAizOuHBdWBfzqt+GoUYTOjqZF93HZMcwy0P+xyCf\r\nQqak5Ke9dybN06RXUuGP45k9UYBp03qzlUzCDalrkj+Jd30LqcSC1sjRTsfuhc+u\r\nvH1IBuBnf7SMUJUcoEffbmmpAPlEcLHxlUGlGnz0q1e8UFzjbEFj3JucMO4ys35F\r\nqZS4dhvCngQhRW3DaMlQLXEUL9k3kFV+BzlkPzVZEtSmk4HJujFCnZj1vMcjQBg\/\r\nBqq1HCmUB6tulnGcxUzt\/Z\/oSIgnuGyENeke077W3EyryINL7EIyD4Xp7sxLizTM\r\nFCFCjjH1AgMBAAGjggFDMIIBPzAJBgNVHRMEAjAAMBEGCWCGSAGG+EIBAQQEAwIG\r\nQDAzBglghkgBhvhCAQ0EJhYkT3BlblNTTCBHZW5lcmF0ZWQgU2VydmVyIENlcnRp\r\nZmljYXRlMB0GA1UdDgQWBBQwc1H9AL8pRlW2e5SLCfPPqtqc0DCBpQYDVR0jBIGd\r\nMIGagBRt6m6qqTcsPIktFz79Ru7DnnjtdKF+pHwwejELMAkGA1UEBhMCREUxGzAZ\r\nBgNVBAgMEkJhZGVuLVd1ZXJ0dGVtYmVyZzESMBAGA1UEBwwJU3R1dHRnYXJ0MRcw\r\nFQYDVQQKDA5OZXh0Y2xvdWQgR21iSDEhMB8GA1UEAwwYTmV4dGNsb3VkIFJvb3Qg\r\nQXV0aG9yaXR5ggIQADAOBgNVHQ8BAf8EBAMCBaAwEwYDVR0lBAwwCgYIKwYBBQUH\r\nAwEwDQYJKoZIhvcNAQELBQADggEBADZ6+HV\/+0NEH3nahTBFxO6nKyR\/VWigACH0\r\nnaV0ecTcoQwDjKDNNFr+4S1WlHdwITlnNabC7v9rZ\/6QvbkrOTuO9fOR6azp1EwW\r\n2pixWqj0Sb9\/dSIVRpSq+jpBE6JAiX44dSR7zoBxRB8DgVO2Afy0s80xEpr5JAzb\r\nNYuPS7M5UHdAv2dr16fDcDIvn+vk92KpNh1NTeZFjBbRVQ9DXrgkRGW34TK8uSLI\r\nYG6jnfJ6eJgTaO431ywWPXNg1mUMaT\/+QBOgB299QVCKQU+lcZWptQt+RdsJUm46\r\nNY\/nARy4Oi4uOe88SuWITj9KhrFmEvrUlgM8FvoXA1ldrR7KiEg=\r\n-----END CERTIFICATE-----"
}