{
    "hashes": {
        "appinfo\/info.xml": "8299be87231076ec65fd980c0c0565e1705c10651a270007c0045a1ebe9d9d66a188f27358cf0e1f6b362b96379a4f97ed6eba11090ed78262a820eb0030c9a1",
        "composer\/autoload.php": "03943861db3f7fe16fbd37bc6beca4f005a19085621794fa2799fffa2b4e2f3c9f257d0c6c6e7fcbc725f005df868897dfa38b17382677bbe9c74f5f2d0a92ef",
        "composer\/composer.json": "10ccf54372c4ecd679933ecad4ec4f61e1d19f32dec40c7765a929ac745804b91ff798b05ccb4bb0b9bdfa47948eea7dc2d5d11b9dcbe92b669f69effc7cd87b",
        "composer\/composer.lock": "aba0413aa705be0d0570c496a43249c551836824e7a2b4673b51838fe0d9f425ddd07b6c4b95aa74ca549f58e90f2a7d78b51a2a3080749a5dc2e4a46d04fd1e",
        "composer\/composer\/ClassLoader.php": "a6884d84d11c4bcc2a53f86929ad8f519d5e1cda93724a3069df108b91a71345e59f2598cb0361ac0f88576fc03315a4158215b33e9609d8f07dbd3819754d61",
        "composer\/composer\/InstalledVersions.php": "733e68c171cb9e44868bb0f105850fbd0e4f225c67235bf30fb2ac5c3443c6edfb722d4b33aa91c82bb600e937cb6392eb1883694d41616e66969d7d42e23b4f",
        "composer\/composer\/LICENSE": "f3bb64009f41a425df5a9bbab53490f0eb9b74fa8d6aaa2f57efb928edc4ffff330260666edeaa04a91fed708c3663371cf01b284f3a08d6698aaef7a23f355a",
        "composer\/composer\/autoload_classmap.php": "eef09b24286c5a190cc27f884c78db46bfe7ab855561ae9fa23a37f5174a4fab6bef3a4e74500ec7fd48fc9a8ea044219b63c36eb06ba9c14404121c98d2f57b",
        "composer\/composer\/autoload_namespaces.php": "5b2571f3b573a778d362b8c7412787b4084c7f27d3f5bba1585243f3ccbb0b9054e68522a22a1ad59ec11097b03a0e343865c0188c65b25f0a97e24e120339d1",
        "composer\/composer\/autoload_psr4.php": "0fd5677d335eed6ac77afd4b72ef625e65c68f779603d0a203b091d14382e627bcb1ea21b5ba8d0ad521b9637a09f96468a37df27218f28a4bbc8932a03ce04a",
        "composer\/composer\/autoload_real.php": "174664bc204e14b09c0c28397b7f668e207f843eaf5bcce32ab1de94f72745b4d672620eb3c98061cc3ed3af2b860321049300a38e1e507fc3a03a8ac36be7bb",
        "composer\/composer\/autoload_static.php": "f044e96dff83bb6c04be9cca9f220294944d8eafff496ca3cf50aca4f448ab71dc7145f75af32c52a09c1963e9d7c85b0cff40b728b122c5591cf99de231d143",
        "composer\/composer\/installed.json": "0a3ed51f953eb945b970a8eb21957ca2beee4669c7d0d9be97b8259c391b60688f8abb78d4b1fae5e4e2ea5e3d8747f4d35f066a2605e9a76f5b45ec3f1da357",
        "composer\/composer\/installed.php": "e6858a3fc8f40144ee72d1ab87b5431a4f3246ac64d53bf639efeb6636392372bd10ba18a0b1cbaa483b8c05a1e35af769c457447ddb10af2cf00270767adb22",
        "l10n\/bg.js": "07da066f65b05eb99b1b253d319b447cb802f09dad213bf727447454560ecb449681be62e43bb33d3ef66d9188978693aa9037dbd4ffdcee928b57265a0ed310",
        "l10n\/bg.json": "9b98f9b56c62e73f2eb9909a71bc45165ef19e0bd54b0ec8eb33a7cf2dcc5082f26b4f8429c36449f37b0e90650280cb1eeb52b7119c6fce96497030b28c4625",
        "l10n\/ca.js": "09a872f8eb85b08018cedf5b0ffe591c97cd87a12e608fb663ce6cde07a34aabb5c2d5ae9cf5f7d431bb4de1b18ac08d3f31033363e7877badda820bcd5e849a",
        "l10n\/ca.json": "87b0cfaa626b3ceac9f8bc91ebd32d8520de9f64ca367a754b7d98285cfb25e6dd8e22b2925460e2aa72b95ddb6d3126830d01f9a82208954f8811ff39abfefa",
        "l10n\/cs.js": "8080485780c6de25f74b628114358ec774d3a259354ff241c5c765699111afcc7d8f3123bb6aa93a7d9002fe2e30dde930f38640369356ae0c38e53b3228a09e",
        "l10n\/cs.json": "dd0d14ae11fb7908e52484ab3b8b8cf76282e55a5030aa1d297cd43ebddfa6e512db286b0eeccade4127746aa10bf9ea3c5603223dafcf6e6e088eeae064eef1",
        "l10n\/da.js": "581010a2cd1af06c84dae774a86f32c102894cf5bd84558a561e676eebde6fa9dac8fc33700b4941973fbf306be5b327470bdbd1643d58e6b29edefd756aa00f",
        "l10n\/da.json": "59da91683d8ecec5d4f8de7cce9d00dfc06bf225d46cfa11a7f2836bb5385d368fa03e612216f178a0255cccdbc8d73481e319b6b28ab5d122b4f6d876ebea8c",
        "l10n\/de.js": "f42c1f5862a5d595477fcd407b567b05ee430a114cb4c84cb95db388b4ebf90a52f69b15ab7e4cfb2d9cf6463445819d69e6c48f1252a663f1695a14e1c35f16",
        "l10n\/de.json": "bf3af0510169474d05dc45c5d1c821777d5bfe7ec4887350e0c6221cf83bc4f9cdf21b34eb3ef98c0cc49d330462a0047de4618c681452cd04a7db27007a0668",
        "l10n\/de_DE.js": "897af5ab5ee14bcc8614836098d579e8e56a90cc3f1a98b134f720ad60c67df3b78187862d298bfa1e1852f3cba2f274ca3d6b94e43a4fcfe1ee6e91a13e38fc",
        "l10n\/de_DE.json": "1a5dcff2715083e8653b6c6d4128354709a0423b2203dfdccd9020d6529b5d8839050af749f3209d308bd377cb9505a7e318c3247c73fcd8a384e0deea90e105",
        "l10n\/el.js": "1cea59244e7cc9df11b9fbb70b655729b6e998133e93e6922a185a192c1b69b17e6b7dc9366194e3f1d20bb877d5b13d98d71d9868fd8f6695d08c0e9ccf995c",
        "l10n\/el.json": "43be35bb324d8a16dd7a54842591d48d07848686f6a3e37b010215633118135b565480375596faac6473b5858dea606869852d778c638f3cc59a2b80fee988eb",
        "l10n\/en_GB.js": "0d9ba02d823f4c8af014cb82810a2ab31104ce4484fc0bf99b2977c73e6f7dd89b0cf6a9a38aa0f6affca60e9a4036496c67a677e6ad5bb2f22d7dea33bf6ee1",
        "l10n\/en_GB.json": "769c602f26b416cadff48849fb711c366e1b0254e523bdc2650e846be75b772f0d6cc6f6a8ce0446172bfda236824f0d66585756a852ef19c978364f0d148f14",
        "l10n\/es.js": "518a7dfc0a01015c82c2e74f611a64ff738ac2d43e8efa0eec06e1efe8470d4b2b19cca1ac78175cc85e12cdc4ab9ab3670169745b42ae09e2ac2581b1053163",
        "l10n\/es.json": "53955f771deaeff657b195f9112fa9c37abdabc13c86ae0b3be0629d908d003a1cef34c6f9fcead888fd20a0a7661c33a918cfad5b9e74eb21401fe6a10dc9a1",
        "l10n\/eu.js": "4ea29d585e8ced7ad98544abfe03d942db7ed5c2d4285adfc27912b8e8300029ffc880368bb9f4ff2f49c9171337d1a0ef73a7952e8bc55b74cc8206cf59c550",
        "l10n\/eu.json": "d6a2ac09eb3f7d940e8d4d8179d88e3fe1fc4050ca1a03380bae73d44c23e3303eebb219177537accf763a7e466c22168a04b85538287685a2addb8ecdfac20e",
        "l10n\/fi.js": "dff956b084dd7e379c7a62c2b2a14e0e3a15d855d3f55174e7405ae90fb881acbb0a1e55098d12779cc737bdb519996b920f989dd84b5fbf12126882ec69df06",
        "l10n\/fi.json": "051ee6041d0427e7f0ef2c1385bd5ff2d598e9c249765d86fc86c13c743785cc98f745091fdb8ae92c17cb3bdf409305f71821ab087aa26a62997fc48adf34a8",
        "l10n\/fr.js": "5d73b9352796e91ce78e989992cf2b533110be9b60a30ce4d4e680ee913ef0052ef23218dc66937bf222d402d9a72b9dfadd6095462234887e861adb59451cde",
        "l10n\/fr.json": "778dcea90c2c913fb998ab624008bf4b8397f6194eb2628cd4886cdfc8dcb167ed51c59e177c9ebccfb60ef45eb5822faee6235e26561655271611307ed1ffdc",
        "l10n\/gl.js": "508458f6def2674f141f839c7d6a1de634522f72f3887e3c1c663cdaadd30baa0617ad2dc8ec20409fef3e8ff6c934281239c478a2bd3c439a8f8fb6b1423e1b",
        "l10n\/gl.json": "cde74c9417d623fb8b06d16e19e146f511a16096def785f08345ae19624d162a6ec4f38f6f624920eeba06c8aa8e6c138a7a01d42cb1d1d9ac51cb64573ce53b",
        "l10n\/he.js": "644599ab8b7d1d7d9291a85c1eaf181fbe92062980b7de054794c6a35f47b37455b01d1bc9b07c1b88be8e14776f19132d96346764e5484a67699d2d538da3e1",
        "l10n\/he.json": "6f6b13aa74e8db30f286be1391da47efd4358e97c84742e55422cb05fef56603af9c72378c7b5e0de846f22d6cbc07da3b0db06e454fbd89f67dbc71a4b8ebc9",
        "l10n\/hr.js": "ca9727a2b43c84612b7746fbe02e422ab76091c1b429fb1c56edbddbc6a41d2eb5955eab8155e608591c99ab97c981e6fb47d73de48e040020d5842d6ab55d7b",
        "l10n\/hr.json": "2644d74cca1d78a387fc0e3bb18c3a5927e6b8c52579d7b276c622305980c9a5b467ac390b3f2bee80a3a1be83a796c9aae548be4de017c1444328824f7394f2",
        "l10n\/hu.js": "0129e3043944c76bf77a177f8fbff91bfc08e52f8f31e4ce5a781a234e2879969de743e60aab1bc9dbd42c728c18234635753150c009de0d7ab80b658561d31f",
        "l10n\/hu.json": "fc9339ce19c04bb2a3492a9cafe52ac9a1c26df2f4e749665d77d6d59ab4156a028959777dad5e7308f148139ab81f952d1ce0c433ba99ecb92e3a6856b1fc2c",
        "l10n\/it.js": "cc10f11290f70462404d33d0c70e6d222423f22941175274562838809304ca5077d6e7c048c8e8ff93fe8e59a30fd991bcffc0d7a6b51e39f6c23f7bf5e8d246",
        "l10n\/it.json": "3fac78347f8a79add5a307a0f42e94e54873ce21da326b3651ec9ea800a53515f17ca73594c1584e976941c833de105e15966147182c37e7f9ee55882b0ee2ec",
        "l10n\/ja.js": "219faba6ca4aabdda2e217ad3e5328960d18ab724d8f360e588b85be48d140f088910cce019bf2a1cd2cfa1eaddc99cf3ab6b20c491fd9e26fa991595e5b99db",
        "l10n\/ja.json": "fe6e050a1167ffcca7f2e9ba674052b30c14ec4f1df2765f51c5b4ffebf1c9268d4a72fb7de0656c1240c6e6ac5cae701f23161df03aa6947304e1cbda240251",
        "l10n\/ko.js": "d0bb54367f6e94b9d81477ff316c175f336a2f4c428f9a154b348bb467b9bcea5dce07018f14b63af5b7d1524e82ed26f2e69acecdde560ae2a9b41e7d338b5e",
        "l10n\/ko.json": "8fe6b5dead1f992409bea8b1c63985c75febe144775195ed19676652384c3f413fd3693f2daa06976508f4e1425cd9ca2444cc444d0ca73bc7a107d6b57f1a23",
        "l10n\/lt_LT.js": "0fbad810df327ac95d6571997f2d2e0fe5d64f39f373a8ca6052d7cfc91b5b12afee940a5e574929d46f8f3983ba7a4eb40100aaa30ad2350ce1f92573dc4fb2",
        "l10n\/lt_LT.json": "218ffc2879a5d322ad99f7bd1a5163d0dc500437f20f52fd614f46c4e3da2efa8bc287c0aadb7386fa398033018f28f524e9dad7b13c5b5b94d4f46535aaa1f5",
        "l10n\/nb.js": "e87ae84d67b07f29d462ca959b2e22aecc1d6930d2ebfb71f94d36857e897d52c7295e33bcd337bb1727779b82608580a41c697dd15855038d269ca3aaa0dba5",
        "l10n\/nb.json": "15e16d00f7b3d7d30cbbf0990bcee00a49de7511f25d3a6cf75233c4e124ce825547c3e900adb12ce1fe8ac58e415af1a6a6bdca0e61ba2be58278b17ee349da",
        "l10n\/nl.js": "e7ec3d6f6a61697f4fb9b12925da39c6c3be9fc84fd592b6c211d4a4221c0573b1f0ccbf7eb0fdacd800b8a6fe788bf31b578648ef0da7d5fa9b66a3a02ac966",
        "l10n\/nl.json": "c1f0a46f3c8c9aa8d70d37e73e6acf6439dad820661153b060e9e8f1b1f01db4d23e3a5f3f800b1a945ecc3731f13b5dbd1ca1b5dd3fb681b5aac2b92bde8ddd",
        "l10n\/pl.js": "8da5e2b6da9d87197c4183e7de57195901c0c3bceed519c90b0b55e36bc66dbdc79588cfe9a3e1fc46eb3e7779c0d298536e62d5a640a43f213ee2585bb77a2a",
        "l10n\/pl.json": "224cd3cde0d3d1fa4231885afe12dc768633128d0a209c28a13cf35a7fa972ef37851d326bb6f6b8840279fdc93bdd5095cf709a37f15f315d1b4755fc6dd2a4",
        "l10n\/pt_BR.js": "2554a8464f16d4b9383954c7f755e27b67e141363acebe7c78ae0ec8142404226e10f78b2c87ba226feba39427d13595fee2f3a743a2497dbe00a095d59daf00",
        "l10n\/pt_BR.json": "48181b4938695e9c71f254aaee97f5191095449a206bee3d903f80e09f69f78cfe4b2287220d3fb59916134a7274eec08b3814b77533eb000e8a58e6ab1f6b7c",
        "l10n\/ro.js": "c85ff1de4eace08ae1019177f9ea8f086c15da7c202dd196a56cc0794bab3c28d874d81f3fd7e3b4eabc4761fe76361d7e92f30e9f4b393edd7ce9ec6156c6c6",
        "l10n\/ro.json": "927bc174f788381bb4813c2b274decca8cdc4d546b46956bc21881bc3df80312926e02547aa9106bb805ad69414f25dc488dc9e83dfaf85b867ab61799d1b5f5",
        "l10n\/ru.js": "2f35be15d85286ad0b4bc537834214d19fd78beec86b3368bf999dbade09179d103ac354c66eeaf02e1196d4583bece73dfe4bcf562d08d1a59d1818c063996d",
        "l10n\/ru.json": "2766f77d92802e6260993e7e11b255dba4a990b3403cfc8fab23394d5fc1ee84cdc7bca6ca6af8e1ebda007bcd786e77a2a9e10b91d84b547523dce8559f317e",
        "l10n\/sc.js": "74e2cb09d19315824b9da15219c515f9a9341f7ca49febe06a900f113edd8dc1034e1af0e7159c598719818a17c4911b61652d0b6c8cb622dd71a0cb04345b9f",
        "l10n\/sc.json": "9d94624acaa8a1c9f874b60319f932f39c819cb383c37400f9aed7d800c9305f010b494ef03346080b15ae826a90ce80bb4cd783139bbd54b65b33497bc8c21e",
        "l10n\/sk.js": "82b3accbdaae28daeea1898710a7b029693935248e6b9c84f562a6c51f99c937e8e70281f856a0af3dd481c880beac8cb27107c667589f71437be2c90c567b4d",
        "l10n\/sk.json": "e580bc1f0f9d0a88b9ad6ac4080dadc44efd7eba26796107094cd6d7bc9f7d3ef1c5a3b294a39988a9885d579bc23abf2a21ab7260b85c87d2d2b26fe0d5f357",
        "l10n\/sl.js": "5476ffc01dd6b7122697f9f5ead16698f7ad73431b8ea3117622e345a728c1e9eca79d4fa10f775c0af303df62ebe8530d793df95ed28f9c3c76f5890dfa36ce",
        "l10n\/sl.json": "3e9ef19ef687f47b86595d999dca98ffed35f2d09ea4ee26e4c89ef4a3249994e421833d6f06335a7521d11edfeeac7c1a4d0f39f683d87e1f9892e70059d3d0",
        "l10n\/sr.js": "c7ff36e6ba11fb5c3ef6b2defe59cb44fcf17951d2c0302e76bda8680fdbaf1db654af644ea05d9b3ec37b1ce2578800ea16141020428e65ec939e63e1f755b6",
        "l10n\/sr.json": "08757a77950ef9f9da2031c3e14cbda45bbbda7772346ff779928eba08f151c4e1d914b754f8cc94ed9f24ce0b1e511218c3cd0e8bd9871dd83b62e9d510bc1e",
        "l10n\/sv.js": "8233cb590739a29d84fd09e2dc7d5d1495baa124b0f6343a2638c1c01b8ccac2dca63cf9162dba532286c46ac37c763f898889684b3b8924648a5f2367708b3e",
        "l10n\/sv.json": "72f1c68bab2dae030de82a1be5a435f66a38addaa777fd38b4764be609a86cdafe594f610220a2ce161befcc09fcf26a59f3e5112a6d2da1970c019fbabb50b5",
        "l10n\/tr.js": "aeca5d0a0d1f969331a0b204692684e12b5c10a308c8197a00ba40473ec84fd927bd6db38ec8eecf244fd2551a1eed4b285b3e27b65b233b5438ec8f5db3432b",
        "l10n\/tr.json": "7efbee07a1820e9f7294059b28535f2abe5d8749ad4f83f4d6e738ee43900452c753d5de0ef1f31a0fa05d194ce5b4ddd0dfa7635c0ea458112cfb3d9de69c3a",
        "l10n\/uk.js": "68506d505c9af90ed8367d89f5a4fc3daf349fcb7e543641934ce71c8bb86c7a3369679b73236decc7dec0df8e9ec61cfbf25047a555def9663716528ba66855",
        "l10n\/uk.json": "c6d66e64d02ea2a359e86e3eb330fc671ee02a04605db2fe7be311ea6f191f8c5d92fbaa9ace9477fd3e189e3a92dbbe88e3242911b3102e67254774d4db74d7",
        "l10n\/zh_CN.js": "7dc12eecfaedc3e52f65e576c77c3644e508b87c4c81b0b04cbb4b9f1ccaa1abf972b6b39ba8ff22b0cbc3ca5a1f923e5299073bb1605688312ba05266466e95",
        "l10n\/zh_CN.json": "797e1930c46a536d9015a8d60bc1e75e792211b87e60ed92cde1e51eb05e6b9f49c594551ab53fef48fc0bc67b9fa0e1c4ff571a3c2c039d6823c445dcbb354c",
        "l10n\/zh_HK.js": "f957ec5029fc9aa295e1bb9e149f2d3294fda0f9c1d0030472951e02493306dd73832ac48f97286251c0627b66475278d79846f5bcac16e10b0bf18655152a00",
        "l10n\/zh_HK.json": "155e652da540df79c74b37ac4dccf8e920fad643d338a40e15d1128166f1e6e1cc76608c84185c3a2298092a7c9e3932c79971bbfec570cb3680d0ee460426d3",
        "l10n\/zh_TW.js": "d31cd2147591ea77d4464851479a9a5304d505e187ee547dfdc6e97eebd383f50f28253efd24dd5e480ce184c1c96d7e75a2665948d06517f8623f49e7e6d499",
        "l10n\/zh_TW.json": "a72c44e8413ed7b93f67a0146d7f188f8ebed380a06d03a790d46b1031e724f479cc0026d2d15c2ff98272d279dd63a9f8bc94a318208360c30035dce059005f",
        "lib\/AppInfo\/Application.php": "6bc8443a3c3e3259ef0c6d848a64c2ba55cb40b6900e4cd9b3ac5fa1ae7d66016e2c26b606dec45738795cce9a96a0a1f8668564f14380d903eb36c8cdc6551b",
        "lib\/BackgroundJobs\/RetryJob.php": "b281a5c13ce5f767c3999d5513deeef56b10d47a65a0c9edd67e711c4f51551bdae8d265abfcd3d89e98c78538d839f5f72f5d8c28de66e5106a8e9e0241230a",
        "lib\/UpdateLookupServer.php": "4fc648af04907d82376bc3c549c34a6a7ef40792d75bc7e475836be2c7d4c7bf54366de46ecd72d090f79d475b1a82fd322761722f97c578cce674ca074776e3"
    },
    "signature": "i4yMbckw7L98wiAvnAVe5xtooGtgZyM6oGBIVtr9M7AvqYlmhGXTbRR+mWcKvghljl8zB3WJDypU0k+G+6EFNKVih5MomCLJdrTbYJHaDAP7Do5xgvVqnKLjolfwCSd8Zivjx9eYbXLcdTqScT9Vd\/\/t4+RAInmYLo4Gl1S9JSxOx9s1WtfKHLVPUs3kJb3O4OIzyPDrbtXb+yzckpk+Gm6+jM1Ay7qRhSmQsAhPB5gi56xnoIEccHFFOwovWprjsKY38pcP0Ui1ONWHIr8ed3l9WkfHExmwkSmmUDkAWtPGEt1wgL7xe5akKlq4dzM0+zu4L6bITbYa5uF4E5Ah8g==",
    "certificate": "-----BEGIN CERTIFICATE-----\r\nMIIEojCCA4qgAwIBAgICEAAwDQYJKoZIhvcNAQELBQAwezELMAkGA1UEBhMCREUx\r\nGzAZBgNVBAgMEkJhZGVuLVd1ZXJ0dGVtYmVyZzEXMBUGA1UECgwOTmV4dGNsb3Vk\r\nIEdtYkgxNjA0BgNVBAMMLU5leHRjbG91ZCBDb2RlIFNpZ25pbmcgSW50ZXJtZWRp\r\nYXRlIEF1dGhvcml0eTAeFw0xNjA2MTIyMTA1MDZaFw00MTA2MDYyMTA1MDZaMGYx\r\nCzAJBgNVBAYTAkRFMRswGQYDVQQIDBJCYWRlbi1XdWVydHRlbWJlcmcxEjAQBgNV\r\nBAcMCVN0dXR0Z2FydDEXMBUGA1UECgwOTmV4dGNsb3VkIEdtYkgxDTALBgNVBAMM\r\nBGNvcmUwggEiMA0GCSqGSIb3DQEBAQUAA4IBDwAwggEKAoIBAQDUxcrn2DC892IX\r\n8+dJjZVh9YeHF65n2ha886oeAizOuHBdWBfzqt+GoUYTOjqZF93HZMcwy0P+xyCf\r\nQqak5Ke9dybN06RXUuGP45k9UYBp03qzlUzCDalrkj+Jd30LqcSC1sjRTsfuhc+u\r\nvH1IBuBnf7SMUJUcoEffbmmpAPlEcLHxlUGlGnz0q1e8UFzjbEFj3JucMO4ys35F\r\nqZS4dhvCngQhRW3DaMlQLXEUL9k3kFV+BzlkPzVZEtSmk4HJujFCnZj1vMcjQBg\/\r\nBqq1HCmUB6tulnGcxUzt\/Z\/oSIgnuGyENeke077W3EyryINL7EIyD4Xp7sxLizTM\r\nFCFCjjH1AgMBAAGjggFDMIIBPzAJBgNVHRMEAjAAMBEGCWCGSAGG+EIBAQQEAwIG\r\nQDAzBglghkgBhvhCAQ0EJhYkT3BlblNTTCBHZW5lcmF0ZWQgU2VydmVyIENlcnRp\r\nZmljYXRlMB0GA1UdDgQWBBQwc1H9AL8pRlW2e5SLCfPPqtqc0DCBpQYDVR0jBIGd\r\nMIGagBRt6m6qqTcsPIktFz79Ru7DnnjtdKF+pHwwejELMAkGA1UEBhMCREUxGzAZ\r\nBgNVBAgMEkJhZGVuLVd1ZXJ0dGVtYmVyZzESMBAGA1UEBwwJU3R1dHRnYXJ0MRcw\r\nFQYDVQQKDA5OZXh0Y2xvdWQgR21iSDEhMB8GA1UEAwwYTmV4dGNsb3VkIFJvb3Qg\r\nQXV0aG9yaXR5ggIQADAOBgNVHQ8BAf8EBAMCBaAwEwYDVR0lBAwwCgYIKwYBBQUH\r\nAwEwDQYJKoZIhvcNAQELBQADggEBADZ6+HV\/+0NEH3nahTBFxO6nKyR\/VWigACH0\r\nnaV0ecTcoQwDjKDNNFr+4S1WlHdwITlnNabC7v9rZ\/6QvbkrOTuO9fOR6azp1EwW\r\n2pixWqj0Sb9\/dSIVRpSq+jpBE6JAiX44dSR7zoBxRB8DgVO2Afy0s80xEpr5JAzb\r\nNYuPS7M5UHdAv2dr16fDcDIvn+vk92KpNh1NTeZFjBbRVQ9DXrgkRGW34TK8uSLI\r\nYG6jnfJ6eJgTaO431ywWPXNg1mUMaT\/+QBOgB299QVCKQU+lcZWptQt+RdsJUm46\r\nNY\/nARy4Oi4uOe88SuWITj9KhrFmEvrUlgM8FvoXA1ldrR7KiEg=\r\n-----END CERTIFICATE-----"
}