{
    "hashes": {
        "LICENSE": "3a02a6ec14e9d076b79aea8301eab31053c6600b68dcfa6261e10edaa7296a87c8767e35f2411d234b90111fcaf6b4a55c49aa2790a1a0d015213218bb7549fc",
        "appinfo\/info.xml": "f239db8a5c9efd2bea1a576a349cf865244bf3b22591efb884bb6a469b76475b703f40ea9b088c7a191700d2d41785555e7a9550e867a7c3223ec4df72f08003",
        "appinfo\/routes.php": "b572afb6b7632be3bc7dde7c1a02bc65c29a84392a53f1dfe735f4a0c5b45a7c70330fba9c5e1d54b3104132fbfe00a73a93b05203464752c7e1905368e29a3e",
        "composer\/autoload.php": "54e1ef9f3220c16bab895a1b79d79b90ac4a4efbb1f17b57446013f2e9f8b731baa9eda039fb475d998f7e563fccd1d49a252a22f84f56445ccd321e22c3e1a6",
        "composer\/composer.json": "4fcc794fbe2f25c3a29092dd9369d8342b0822a924aa20dc7a79aab310b41f25acde0cc5dba1ffb25b19ca7af07fa16225c41c67711b6fe89b9122fcc187a7b3",
        "composer\/composer.lock": "aba0413aa705be0d0570c496a43249c551836824e7a2b4673b51838fe0d9f425ddd07b6c4b95aa74ca549f58e90f2a7d78b51a2a3080749a5dc2e4a46d04fd1e",
        "composer\/composer\/ClassLoader.php": "a6884d84d11c4bcc2a53f86929ad8f519d5e1cda93724a3069df108b91a71345e59f2598cb0361ac0f88576fc03315a4158215b33e9609d8f07dbd3819754d61",
        "composer\/composer\/InstalledVersions.php": "733e68c171cb9e44868bb0f105850fbd0e4f225c67235bf30fb2ac5c3443c6edfb722d4b33aa91c82bb600e937cb6392eb1883694d41616e66969d7d42e23b4f",
        "composer\/composer\/LICENSE": "f3bb64009f41a425df5a9bbab53490f0eb9b74fa8d6aaa2f57efb928edc4ffff330260666edeaa04a91fed708c3663371cf01b284f3a08d6698aaef7a23f355a",
        "composer\/composer\/autoload_classmap.php": "be35e83c52ec3dd0e1680a5c9db63d8bd4a33bf35acec95d7f5247d7b299461831e474d2723e434b13bd306f39c8856e8e6c167472d9728b616d85fa77e87377",
        "composer\/composer\/autoload_namespaces.php": "5b2571f3b573a778d362b8c7412787b4084c7f27d3f5bba1585243f3ccbb0b9054e68522a22a1ad59ec11097b03a0e343865c0188c65b25f0a97e24e120339d1",
        "composer\/composer\/autoload_psr4.php": "822f4fb4e8a3b01ed3f8fb1b56625e887634ccbd12da19e7a6563a57533a26f9649d88884069319ce65715ad800ef45bb407e6f21e2cb086caf50cb69870e377",
        "composer\/composer\/autoload_real.php": "b122f8f3ac3b49bebf9fbcaddfc73f8dd6a664942e229ae6f81453338d4818772452933b2edd24ab7b601bc4e9cd3719b4a87563cd5c9751a7e1771b2c55acfc",
        "composer\/composer\/autoload_static.php": "6d27d89ff8275d2ac8dd4ee39de34a30ccc4fee2240ef47b9a0781fff5d0e4178783abe80ab42d8c43bc87cb7f6db89259fceb5d602617f2b99c361606968e18",
        "composer\/composer\/installed.json": "0a3ed51f953eb945b970a8eb21957ca2beee4669c7d0d9be97b8259c391b60688f8abb78d4b1fae5e4e2ea5e3d8747f4d35f066a2605e9a76f5b45ec3f1da357",
        "composer\/composer\/installed.php": "e6858a3fc8f40144ee72d1ab87b5431a4f3246ac64d53bf639efeb6636392372bd10ba18a0b1cbaa483b8c05a1e35af769c457447ddb10af2cf00270767adb22",
        "l10n\/bg.js": "db2152a0558009df113f1782be8348de2318d48b4681f149adcbfed7df68b401fea5f38847f1898b06cb92c0c4a9e45af85abbd4ba892f225fc865db12372a5d",
        "l10n\/bg.json": "b98f39ccb1606c0919dc8848927377c1d57d2c50c0966518e24f29d45872ef41dc02deaefa01972bd40d8231dae015d750271158637c11b5484bd94e1349cbd8",
        "l10n\/ca.js": "a3ec738430b69b3f3b84099512c1cc3fd195e2f0d8f8197247169d59779688706485b47982980eb41d7b0a0113d97a15bd977dc6d95b4e824887a115c5bdd31f",
        "l10n\/ca.json": "7d0eb8ef7bc2c9a2f3dba7dd77552c24e4c3196acc334f1ce6e49d6785956db22340845dd9e139a6e7774b276c01d211d84d181d0cf18d91de271e018123d504",
        "l10n\/cs.js": "3999741bda7f896c7a543fb988a0fae35df01bfc325a2a63eb8935453d8b0d497fd828fba501d4aeeed0ec222a98bb1a57423edc78c6a1a24cbd99c0e75371c8",
        "l10n\/cs.json": "be84afaf687dafbb35f99dd84f033002d4fe043e83953245d6d174550e445f1e068800097ae6cdb427fbe4e4a9146ebb617ffa1ceab021021d6b5d1b9d7d01ca",
        "l10n\/da.js": "3ad4a3253d23c86b683112ac42582619fcc06d7a945ef5f29db8918a6dc12f96b2d3f9b59f1c09a230ca8fdf6274ce6ae200285cd7b337d3a4042f4145bafe26",
        "l10n\/da.json": "6e277b10ade414d9dd3ffc9f40da7a8e2376f33a6806942227e672ad2763c1674e62d81d277a77c7b3d8edfb8ad22012c0a24c97c72fd82e01fa687c736b2892",
        "l10n\/de.js": "8400c4c75005fd66794221244713de60c0a3ead6f432efdb7e7c937cb0a57f90362286483a69d82e95c2e471da7a04fccfe19da7944e85f3d9e44c77aa8bb0a9",
        "l10n\/de.json": "1f74decc0cbc776e1025a1ad9da324523c2bd3962dbe2ee8cfa59d0f0787ee271f517e6ff96644904ff6188f695b6d1b8592d6e46ed00f8bb0b7fef258774706",
        "l10n\/de_DE.js": "b5dcb6188413a0104afd29af56df999092b3b263586fab69a2ef9a9cc660186853326af716ffacff1badfcfbe425a27d34cbaaad050c4484e2b0e365a76093fd",
        "l10n\/de_DE.json": "f19ee8c38707895abfcebc88aeaa26c24a290100b83b512cdad0037c7da3065a436327376f7df8e09da857d5a087f352bea10c8a4ac4c8072e6622bb5ea17781",
        "l10n\/el.js": "351bc3374acb500e60b8f01d1a0ad966eba69387281f8edc44a27074c6e161746f9d3535da011601bb9bc1c0ef79322bfb929578486326c67248765a344707af",
        "l10n\/el.json": "0e7a3dbacff89754de472c8893ce3276fff42f40876a5ff186d51817de5fb301c6b458c0d9e212c95de1fda14175799c24c14488bf6aeeea49166ee8dcd10af8",
        "l10n\/en_GB.js": "878d226643fa7fe677debb7c7df8124e3c44c5cd79762850ac2245ebfd7d1b2e318d551d026807b66160ae74ae718879167ce4771fa73aee66dd850617d876b5",
        "l10n\/en_GB.json": "b519eeb60c4599a964bde05958b2cc6b491ecccd49f177bcd24602d9ec2c0110a184f446165c96a2a3e2b3276137079640a24ce2a0a9a4444555acc4b7915b2f",
        "l10n\/eo.js": "13d65cbdfba7205ef8ebfc86b5bb09d4fad93d3f66bf0142a5412db4eb3b28457e63e1b7670c1075ffd39e5672d4df46f8de1aca44c558c9836c3d64124a98be",
        "l10n\/eo.json": "4fd64679cde932cdf6ab91cafd4acaeadff3b42d7d748e50d91f073790d33c862d349ebb840b9e8a7f6d32af1199c6f2bbcf59c78f9279e568fa10c45eab1d81",
        "l10n\/es.js": "640b1618a4406e3f2ecb0b0ec10279b1f60c65f1f83e90d09cf2c49c57b4b2e875b203693421271f36e1b4935b11e4ef423cf0a9ab53bc39df17b2ea61cf9ef6",
        "l10n\/es.json": "859ed6fdb25211807103a8428a1d9a60fba11597ab135501a925e5c31cecd44ac0cff099dee6be6dc495c0e4970286a9dfca36a81466fe5aa3d6b7f0765f79b1",
        "l10n\/eu.js": "de35716e671d9385913cf24ceadc1cd07d1c707e08d28218c7140fbecb8e0db495bf14fe5b7b4b6ce4ad285151d0867949d090848240ee3f3a57d2e4c68d5483",
        "l10n\/eu.json": "a0fc91f826350a6c5df51414adec3ba7929d2c8a38ae5394e9e2f7dde8df592a600f702f5afa3336c26b893e30e5b682a7aea1f01115e541ee2edeb8bc24d81a",
        "l10n\/fi.js": "6382d9264c56521f8e9c5b3e7bda49a72995c14553864d07af58ecee780b7f458bef026a7d0184a102ac8ca3d72e8f6eb702bb2509adb2db799bd2d281810cef",
        "l10n\/fi.json": "6f328b67ffd61197b66b0584b3a76962ccb1b11d1684c2b13d77bbf31523f133a0af5129afa8977d41e2b363f81b881ce9f981ce0126dd4cce307db836f7156f",
        "l10n\/fr.js": "b2404c4069fcd1ea2db758871d3455105999d11accb9f31123c1cc6321f23e3c21350ac29c78e089de9e2b606aadb94f8f92ecb583910ecb66da3ee99d0e4ea0",
        "l10n\/fr.json": "f906c61a8a7e14038368c45fec7125624ec6de7b9789ae343ddcc5d19fe21fa726bc458f0167fa3b6b9b743e8a2996e55150761dc006ef6c31413636385f76a5",
        "l10n\/gl.js": "69713df6c458a9f57ed89f58e38744f71d1ba839edc4efbfc30993a0813967626e25e39e05ef8732571402ed3f03fd179efc29b40d1c4a16f4662a0c5e1e2149",
        "l10n\/gl.json": "721ca2dc28ffc2089152383580f3f045ae379f20a9526d76634830617f1667aeae136acae19777d7fb741d2d23e565b8dd2b7fb33b8a1f87ab8fc2d0cc09e885",
        "l10n\/hr.js": "a9e007d72b8bb83ae6fc74d0442fd887730e06f7bbbbbff5248df79d0c402a0b3d8a93d905c618c2bc6bbfd0d4105af1deaf6d74dd8415001be8d5ae38fe67e8",
        "l10n\/hr.json": "bbb5f4a977fcc1c153be4d7a985796390becbdd819c7cbeb27fe9cc3c875d129a3bec71240491caaea06374d672228380b93e643e2d334ce69ec2af3f291ba5b",
        "l10n\/hu.js": "c64e04ef44eef8939952ef33fa9f62122cb86b7d06f3b2ab5c70b39d9a9aa35b86194c08682a60b6bfa28f8253905a5c427015549570e8bd3a9704bdcf8d9809",
        "l10n\/hu.json": "112c6dc24437b512cd47ee97d22646000b225495acf1c73e371c801b8b9df46115b1c7d53df4e1daf0fe77b0ac840d495f1ce4202fa65e616de9ab0fd35a4f81",
        "l10n\/is.js": "efadaa4f3399ccaffa6c6e1434a5d3c8a3efdfe09d826f710d4df1b434c4998a3126d2af5aa14b1e860a225d30b49fca68174e560546af772c9d782c5fe00980",
        "l10n\/is.json": "009d02be45984f2a730f11721b1ac17010cadbad03b6be25ea15d38f49b55d13cb4d8e863b766de7ff2993b20fa11d47d1475813284fe29b87ed9e2fc61a0896",
        "l10n\/it.js": "9f388f7e322e44fc4e0c6501a5b7e8f3b0e4aec3dea9b2112be272ffc17aae474e726dc7ae3ec5a9e706911891b0312000cb950bc5a9247733dbc627a2313365",
        "l10n\/it.json": "f201920f730c9e43d4d7ae1b64d4c33ddbe759d78918884a91491ffb88041f08f8e3ca488d97ac7af9668ff95b2c2f88bd00237d798625b35b32d3e1ae04634e",
        "l10n\/ja.js": "39c3342202ab4f4856833586a49aa0a2f6006c941b22bfe1471365dc35dfacaf83e4b2afa2c3a576531c85529bac0cbd77f5dc32b986cd1e3bed046ef26e302d",
        "l10n\/ja.json": "9a0e74393d502fbcf09192cc7fe3aa865d980d840b54637350cc94297e265ce87bf7a6b772c220aea66bfd0471fdf39fd1d299bace20fef7287e5aa6de39f9bd",
        "l10n\/lt_LT.js": "7814346f075f96b35369fc14a31dbc914351c1b61393ad20e00ee0e0d1ec815fd2ce1c949e053fafc9d7faf97358b9ec0f111df9a333898d8030b5f143da8b73",
        "l10n\/lt_LT.json": "e3fb7a4798373c430698bdf16e888119e01a9dda27a1bc83c9aa4603ccb471dd2e3982e0317a7454c70ee8939d0eaba793e0a4eef544aa24fdb785a69e1021d7",
        "l10n\/mk.js": "ce7d85d45e9a3f891fcf3f93fac0d4286ab87a56d9eb105a89eb97d16ea84efb609a67b0239fcf3c07132738f1c99557214a9cb230a77019017c148f1e73e092",
        "l10n\/mk.json": "d870862cd7c48e4bfd1070361e93fa0ef237f3042bc2ea435324974d4bb2c800d4f398c5f9fd6e0379369bc1cbeabd5880d1293df2363a5f0aeea40b9174fa86",
        "l10n\/my.js": "febc9d32905b0ed7684dbbd053a5f3d9f6aafc2d819a5ab15f0037d351cf31668259dbc453d6efb9d661fdb23b7202553df863c09730387ba1ea756d51ea3017",
        "l10n\/my.json": "92a479cdb9597ead21fadaed7a2d9993b65e7bfcce2f953ca024ef1b8793c3ffd15622ea66c4621a3f4ca23fb334516aeab8973f1eba67b72952bf6c5cd51c5f",
        "l10n\/nb.js": "37f45322b343d49349c7cc85511a8d9a45cd6652f6df92c41844fac7171a80788bf536c3503c8bf4f7e0ee5fa0120f89c3fdbff54af7301bd53bfc0e6b8deed5",
        "l10n\/nb.json": "6fa89ef713ab064a4c93f6f1850137d48fe006f560e9bd503b8f25529ae1da0bd2eb6c56d1646c38dbac28564801aae163f74073a4664a1202bdf5d25969cd4c",
        "l10n\/nl.js": "da648e6feb25eb85fd101cbfb71a79dd7b93678e1072462cfd4e6f116a968f09aef8888cbf989eeb8215625f2da0c6ee5959b6dad3ba11765608025488fe2df8",
        "l10n\/nl.json": "a2a89d50dd0d632cfe266989d414608e95e6b1f3055cff6773740b65bb703ee43e3c341d4c363438ac9e21bcd481fb153528a07a94c9e33c9898c0d1174bc74d",
        "l10n\/pl.js": "604b1e6e0c3abefc017b7fa02e156513c2cd9645195d12d4d1934a8f1330f27a3f249b20d68d599c522e409dd98e3c86c3c25944cc79e2805c5caaa47558b39f",
        "l10n\/pl.json": "28b9ac205981b3290ea64a504ba73b2cf8164bbe6d6bc729abba8ada158df75581fd04794d22684a7b38ccc14b42691dd9c92d889c69a6df4e394c69d7a66bb7",
        "l10n\/pt_BR.js": "6b1b7922f33c7327726f16d47a6b5dad431ba0101cb401361b1589ed428bc160458e8daa2c2ce551bab8b936d6b239183949c3f9639097a68fb1bcf805e356a7",
        "l10n\/pt_BR.json": "41e55f89eb7debc4ea6f0f360e9b45bca83f90ffb5df4c64eabadea056f136e02468ce2c0bfd5035a95612a8c257cd6d6e40876d4ce7870a413201c1b64e2c6b",
        "l10n\/ro.js": "5f9a5913a5aad7f90f206aa90e71e98d87fc8009c94e6c2374def93c1f3b1d77ca281c2ff79abd87d3ce0feda59b24068809919ddd44b9e18d613ad2b8242736",
        "l10n\/ro.json": "aa431734c1c1275574255e6f95fa4ef97e41c0a746d2301bdc085a51ce8ca37870915a8e321edfcd324619057300e8eb4f063c4f735ad42a2fe6c129428034df",
        "l10n\/ru.js": "6148a980c692c72909d07eb3d7d505719a500f24bde8a46008efccde72b1e0f6ee110808504fd9ed6413433d4c5612ba89373e0869ffac378d58baeb2fb76c54",
        "l10n\/ru.json": "90b765328fb80f1ae918393f2ac864ecadda27e9bd39a838ef3605eab21defe347fcdcf12a664a4db1b9ccbe0e5b3a7e8a8d6bb54b0bb0562fc25845bfa38c71",
        "l10n\/sc.js": "658698071bc506e87bec162c1961aeb4597b901429a1bf7592b9efe494aff275c5def45373e5178ae57fac8a058a590e6defb752756701181d492495cd8ac2f6",
        "l10n\/sc.json": "f2d884364bf73a4b0bf3062bd9f2d3603e596d73ccd6eed0c66e0e90d6fe773bf6bb433c578c55397746da0d11e434b5263e115d0343bedfa2de8264ec3be7b1",
        "l10n\/sk.js": "592e00e1eb0322247cb8e3004386d066e8e2c8a3b8994a00ede3884375e91e8b4b61a8d8f5a799fadead5a6e2a8bb60c9c26bd88d84c92fa5936445ce125f1dd",
        "l10n\/sk.json": "7115fd62869494017f679e60d70495bbcc00f9e21195baeb49f33bec7d9b626b9651fcdf1f51fd6b6823351b176ee539804f1986cce41cf160bc480f87d92c42",
        "l10n\/sl.js": "05f4d3a32bbb05eabf857739d32b863c01eb98fc78fc28cb02bca8e3e7126e15a2110ad002959568c3e56e6b810cd8a819a6bb304612b9c17683697a961bee77",
        "l10n\/sl.json": "3546bbf34749de7de2dba5030ec4e714b84716d7282aded02d3e1e547b42beabade6ded1d0fb58c7f6ff3ad542a05a2510ef3ffeda48209cb995748ced268836",
        "l10n\/sr.js": "e346a2a8f75029f892584d6cf29395c20ee0fa9f93e3915098b549fff7decaa2292b5608b39a6a8c0a333e346fc88779c963bf0dfcee36c3c99c111012b1e30f",
        "l10n\/sr.json": "1be7dae57a0e793ffebe1409d8dfd662c6f028d1827d79ab6e186d0992c9ce3140b4f56226199542621a8f950e360b728f38958615397ec1acfdb6590c02de4d",
        "l10n\/sv.js": "12002c199b11639c7b7fb85f085f6a12dc4b1ee31f843c96e1ae717ea3ca723944cfd36e05828b8f4adb84c3aa454d89c21970a6786199ddb5ddd696ddc5240b",
        "l10n\/sv.json": "d584a4f3c2148fb7d23e477b73aa980a75ac61fecfad7fa8a4903d7a931098d3ee1dca76cb0416e163de8415634a5244177e690c3990942de4d5aca9948879ab",
        "l10n\/tr.js": "0db5036abfff4dd42bf276aa65d75aca7c07ad22beec902385fe448f388010aecf3ad11d0b681a72c84993e9f635ee910b70195c800628dae70b6414637cbeb7",
        "l10n\/tr.json": "dd09f187849048c0ab424083d4ad86e54c911abd54c2c2911c6238b2c5ccc0bc32e8f951a6e80f8d1e26d0e5a9211d5472dd1965af07508c016e6bb9c1311bc4",
        "l10n\/uk.js": "4479db46e3c7b3eea6a06d8d5a529547ff9b0c52643ec5d2639a9e2aa4853cbd0fdf5ecc868fea98c8ef55d8b4d5d62763cb7178d5bc3b51e6ef61e610d890eb",
        "l10n\/uk.json": "3c53949a993b89dc9d089b1236f00734a2f5575e95ff503e559b7c8ddb9c5bf9d581269019dc6463de6185b73c31fab6a4109521d941574238ac057dcccd0a86",
        "l10n\/zh_CN.js": "ffeb15d380daad092dc8602387cf8a83c60904ba7f604fb18ec26f526955ff9741f60d4407a507057faca9fc384a1e3a9af45e70fb45dfbfc9ae3ec3dc6658c8",
        "l10n\/zh_CN.json": "bfcb21d0b47cea7fdf5248eca610f4807567b32f26dd6bb3b4e1d021d7a0dd999f2051eee1ac740b6f643608e5f05a2de740a73cf172446676aece78c4753319",
        "l10n\/zh_HK.js": "16f00ab44e657b39051e7eb9f1e5e8a35264af6c5a9a3072c00a7325d7e8fd5df6bcd9d06c92f24b88bca75c64a11273593171d7719c7ff7308f76930361ae79",
        "l10n\/zh_HK.json": "f575f2dd180db348a828123a517086e1bb3d8ecb43c3cb374d02289e165e6c899e81cf8a8bc65aa713c78e3ed2b358a9c2656f23a28a93f4b538fea6d113d25c",
        "l10n\/zh_TW.js": "16f00ab44e657b39051e7eb9f1e5e8a35264af6c5a9a3072c00a7325d7e8fd5df6bcd9d06c92f24b88bca75c64a11273593171d7719c7ff7308f76930361ae79",
        "l10n\/zh_TW.json": "f575f2dd180db348a828123a517086e1bb3d8ecb43c3cb374d02289e165e6c899e81cf8a8bc65aa713c78e3ed2b358a9c2656f23a28a93f4b538fea6d113d25c",
        "lib\/AppInfo\/Application.php": "2e3869bcb5532b0978ed0809fa1dd5a21bdd28ef25e144ed1525c3c431bcfbef028ba0010df0b242ca9585dadf3bc719384083c76a19d212e3444864ca5ee358",
        "lib\/Capabilities.php": "fcdbfcf17e0d459e1f015cd776eb2079c69771ba7dd92220ff9e14914b08f2f638e5e914e79768dcee5fc142b58bf31460c8244660a48346f2c4431cb4f55627",
        "lib\/Config.php": "d6c3128e8ca693d66c76da2d3b340ef2097ebe4d83862de77f4d146d390287f3327c7f01c027bf9dbcdbd6831ef1ccfa48f50516cf2b752b0d88ed234770e9b4",
        "lib\/Controller\/RequestHandlerController.php": "79b50e41d31b2a6fc1c9fd7c985f81d8ad9084a4f92d124a87519f313c923281ad62e72885a8e30d9ac1312b04cabb60bcfa853a933bc97c24e237a84a811b13",
        "openapi.json": "850d0fec1b3b11f418de47a272f3612d698f85f80fcb97caba43603463106f29e77d4387fac8b3ed70ae9b62a0dbcc0dd973ed167c3a3cd0c15c64f870a1c62e"
    },
    "signature": "g6dbLp7+E3Eby0jaBe8+a2p0+Ra7lfVbfPSynHWCXAMtvLzrkQ7bGxg7I3qjvjllL1QTgQUzPdMzGhjnm057VJYws2X\/r2JV4\/j1ZcaVoDBJdArThuHm28CX53wpZxtrfQTr\/kl0hm3j4GIc50+rcsj0D\/Pna3KxIE3cvA6Dnehmem7svhFbQ8GOOMAsZD0AWaD0JTZRNi7KNiB13xHlAf+y9vkxL4m80rC4H8jDTJsFbXF7S7vCyHzaRY2+pYODB+AyqLAjrYr\/9Gh17COk8g2g0wi+zmtnzdIUgBAw+lBY6knOi9bg7O8hmNne6EZXVv4+wacBhUZSUV\/C4x16Mw==",
    "certificate": "-----BEGIN CERTIFICATE-----\r\nMIIEojCCA4qgAwIBAgICEAAwDQYJKoZIhvcNAQELBQAwezELMAkGA1UEBhMCREUx\r\nGzAZBgNVBAgMEkJhZGVuLVd1ZXJ0dGVtYmVyZzEXMBUGA1UECgwOTmV4dGNsb3Vk\r\nIEdtYkgxNjA0BgNVBAMMLU5leHRjbG91ZCBDb2RlIFNpZ25pbmcgSW50ZXJtZWRp\r\nYXRlIEF1dGhvcml0eTAeFw0xNjA2MTIyMTA1MDZaFw00MTA2MDYyMTA1MDZaMGYx\r\nCzAJBgNVBAYTAkRFMRswGQYDVQQIDBJCYWRlbi1XdWVydHRlbWJlcmcxEjAQBgNV\r\nBAcMCVN0dXR0Z2FydDEXMBUGA1UECgwOTmV4dGNsb3VkIEdtYkgxDTALBgNVBAMM\r\nBGNvcmUwggEiMA0GCSqGSIb3DQEBAQUAA4IBDwAwggEKAoIBAQDUxcrn2DC892IX\r\n8+dJjZVh9YeHF65n2ha886oeAizOuHBdWBfzqt+GoUYTOjqZF93HZMcwy0P+xyCf\r\nQqak5Ke9dybN06RXUuGP45k9UYBp03qzlUzCDalrkj+Jd30LqcSC1sjRTsfuhc+u\r\nvH1IBuBnf7SMUJUcoEffbmmpAPlEcLHxlUGlGnz0q1e8UFzjbEFj3JucMO4ys35F\r\nqZS4dhvCngQhRW3DaMlQLXEUL9k3kFV+BzlkPzVZEtSmk4HJujFCnZj1vMcjQBg\/\r\nBqq1HCmUB6tulnGcxUzt\/Z\/oSIgnuGyENeke077W3EyryINL7EIyD4Xp7sxLizTM\r\nFCFCjjH1AgMBAAGjggFDMIIBPzAJBgNVHRMEAjAAMBEGCWCGSAGG+EIBAQQEAwIG\r\nQDAzBglghkgBhvhCAQ0EJhYkT3BlblNTTCBHZW5lcmF0ZWQgU2VydmVyIENlcnRp\r\nZmljYXRlMB0GA1UdDgQWBBQwc1H9AL8pRlW2e5SLCfPPqtqc0DCBpQYDVR0jBIGd\r\nMIGagBRt6m6qqTcsPIktFz79Ru7DnnjtdKF+pHwwejELMAkGA1UEBhMCREUxGzAZ\r\nBgNVBAgMEkJhZGVuLVd1ZXJ0dGVtYmVyZzESMBAGA1UEBwwJU3R1dHRnYXJ0MRcw\r\nFQYDVQQKDA5OZXh0Y2xvdWQgR21iSDEhMB8GA1UEAwwYTmV4dGNsb3VkIFJvb3Qg\r\nQXV0aG9yaXR5ggIQADAOBgNVHQ8BAf8EBAMCBaAwEwYDVR0lBAwwCgYIKwYBBQUH\r\nAwEwDQYJKoZIhvcNAQELBQADggEBADZ6+HV\/+0NEH3nahTBFxO6nKyR\/VWigACH0\r\nnaV0ecTcoQwDjKDNNFr+4S1WlHdwITlnNabC7v9rZ\/6QvbkrOTuO9fOR6azp1EwW\r\n2pixWqj0Sb9\/dSIVRpSq+jpBE6JAiX44dSR7zoBxRB8DgVO2Afy0s80xEpr5JAzb\r\nNYuPS7M5UHdAv2dr16fDcDIvn+vk92KpNh1NTeZFjBbRVQ9DXrgkRGW34TK8uSLI\r\nYG6jnfJ6eJgTaO431ywWPXNg1mUMaT\/+QBOgB299QVCKQU+lcZWptQt+RdsJUm46\r\nNY\/nARy4Oi4uOe88SuWITj9KhrFmEvrUlgM8FvoXA1ldrR7KiEg=\r\n-----END CERTIFICATE-----"
}