{
    "hashes": {
        "appinfo\/info.xml": "8fabf4d006c71b1b254043f58922f32b4f49e07ad73d6da0c2cdbee03fd94e3e3c0e5ac245664897ac651b2caa923e55858527a358672208bc441b6cdb6c1d80",
        "composer\/autoload.php": "8fbbb8c9cb5818340a7da1d7e02c312ce8d972672b39db7b0a3deff62cd5b6aa28e1b15604c821f0e105f636fef2ddee799bed5fe6743f79ce732fa5fc80ff90",
        "composer\/composer.json": "16844b716bb9c120ada37ea89d23bbba40d6b661edf8365d3998b5f120609f522e53b4d0aad334e0329ddd93904273bd71a9581302d47b02a6da9c2a91d39148",
        "composer\/composer.lock": "aba0413aa705be0d0570c496a43249c551836824e7a2b4673b51838fe0d9f425ddd07b6c4b95aa74ca549f58e90f2a7d78b51a2a3080749a5dc2e4a46d04fd1e",
        "composer\/composer\/ClassLoader.php": "a6884d84d11c4bcc2a53f86929ad8f519d5e1cda93724a3069df108b91a71345e59f2598cb0361ac0f88576fc03315a4158215b33e9609d8f07dbd3819754d61",
        "composer\/composer\/InstalledVersions.php": "733e68c171cb9e44868bb0f105850fbd0e4f225c67235bf30fb2ac5c3443c6edfb722d4b33aa91c82bb600e937cb6392eb1883694d41616e66969d7d42e23b4f",
        "composer\/composer\/LICENSE": "f3bb64009f41a425df5a9bbab53490f0eb9b74fa8d6aaa2f57efb928edc4ffff330260666edeaa04a91fed708c3663371cf01b284f3a08d6698aaef7a23f355a",
        "composer\/composer\/autoload_classmap.php": "eb1daec12bb1329d8396038edd3c255b7aae2967d24360add13b6caeff00a0c61e1a35c269fef25c3b2bd78682cd1dba8f6fd7d0d8be69ec3207f3c00cc908a9",
        "composer\/composer\/autoload_namespaces.php": "5b2571f3b573a778d362b8c7412787b4084c7f27d3f5bba1585243f3ccbb0b9054e68522a22a1ad59ec11097b03a0e343865c0188c65b25f0a97e24e120339d1",
        "composer\/composer\/autoload_psr4.php": "c934e9e5b23961da1354a97b4b7be006fc193519bb0205e8e66f7390b767ce8c6aea9b471d444964bdda6cc265c0c0700a4ed1bba5409c1f8ef25247b980d4e0",
        "composer\/composer\/autoload_real.php": "574aaa5839b42566203e1b69acbaac27c51c65bbce41a941207c756e7207a33b0a8538d5305681bb73f30088e1a4d22155e28c5179ee531bf5376bd0228c0ba3",
        "composer\/composer\/autoload_static.php": "75214791bb574fdba2fc1445cf573e995772b362b6a0a95a8fccce0314afab53f386daf40f35bad34ac104fc61a0637f88680ab823713553be937162e9251553",
        "composer\/composer\/installed.json": "0a3ed51f953eb945b970a8eb21957ca2beee4669c7d0d9be97b8259c391b60688f8abb78d4b1fae5e4e2ea5e3d8747f4d35f066a2605e9a76f5b45ec3f1da357",
        "composer\/composer\/installed.php": "e6858a3fc8f40144ee72d1ab87b5431a4f3246ac64d53bf639efeb6636392372bd10ba18a0b1cbaa483b8c05a1e35af769c457447ddb10af2cf00270767adb22",
        "img\/app.svg": "7cf212fe8951ce985198b94b94db9898818369fa5fee6145372162d215c22d6b0470fe8056d760b7f91838d8803ca0b399614fe4b97a3e587da2ef6decd0cde1",
        "l10n\/ast.js": "83fe38dea5f2ef177729d75f3368034e1a3c05f78b6cd1e4dd4d6da547d8e2c6efa7213f6dcd4c478e573370094c5b8573322402df36d272b1bd86eeb0054613",
        "l10n\/ast.json": "a01c5b9cbe73c6af7e3c253a424e8b831640e389187f0ff5a82cf5704b85adc8faa33394ad512e57ca7b0f5ce04f8dedb24fc9c964f30149accf1b5985110336",
        "l10n\/bg.js": "230b1ea06dd82643108d1c0786632059bd717bde299f3d03866c1c55ae45ac086092c123a5266964c3b5051e40441cb773adad1bfed4d56ca0a27c0b2f1d9d96",
        "l10n\/bg.json": "5bfda234da4d2dad2d29ecf5a2c3e47d4aadde591e4c98d3e8d5849b53c9a6bb6577c07b95461ee555aee4c758969285048b2bd345db3badeff47614ea7809b9",
        "l10n\/ca.js": "db81b5254380f7de2a1c90f9c67a8dbc0c57754a3d21f084b6b8a352c0c0e79d840925e50103bc906c305845bd0f03aec84d0231e845e9e34605d30703169398",
        "l10n\/ca.json": "b9a8254f34f39b4d411744aaed3349322928ef9e3885e8d820570ece041232e6c2c4bfb8851ee21a541fd0247afd63ad4877294a4ae7fe0915f95507cbdaff48",
        "l10n\/cs.js": "99cbffedcb5bd53cd8b817b8808a2310317f23f4dbf6602a90949133394eaef4f8ef1158864e7686e2f90f5fda76c0d4aba93e0047e0fc7c864e50d918d288c4",
        "l10n\/cs.json": "a0b8122f4e39bfd33f8e66b1c4490dcca6cff69d8f0a25f2eecdf64f17fbaf34acd66624f01b43dca3b61eb3efe6008b1a995be233badd688b709fd859ea4bf3",
        "l10n\/da.js": "ee76d5fbf33f665eb67689d5938bfc484e02485eea5192c34bbf052eafd5907d0676b4aa48f1d59d610afb2645a265309cc77dba8bbe6c3ed20cb50d904d1c00",
        "l10n\/da.json": "42a21b311764b5e698d74bc5243e5fe3c7378dfaaf33d679dcb3ef6d933d340326e4525fa0d6d5e2e81c4db778564b7a675ef902b6a3de32d996b3d53da2a892",
        "l10n\/de.js": "9c9034c332ba0208790415b0a86ecbc340691ca43f55cd9392d33727d4ad1d73d846270a436b212c0bd3a5f659121b30baf89572403ac4e4cedb4667f6415c27",
        "l10n\/de.json": "60f6b6e6f7b99d9b3cd88f335fd7d889480608c61753dfb5cc4e0db1ec0c1a5fcee4e90b2ad311b61cf1c26edf6621b376599f58fa687142415b0be9c69bb82f",
        "l10n\/de_DE.js": "ea66d27ec7aed38bdc50734e1ddd6fa553717448d9f65b166e1c88f235ec4ae38900b238328a06d64e7d5c0eec1ab55796ad2fb79bc53d6726091a43bf640d85",
        "l10n\/de_DE.json": "11f01eefab30c2a2454da6f11c3d551b6451418ef26f49a0c9540703d915fe8bc701ddd8488a7babb4dd180ff8a36db34400510854dd1a0e23a10abfb6a2b5ae",
        "l10n\/el.js": "fffb992e665b2caee3c10727ac245dddc411130fb1177f44525b6cd620a7d6a09e5160f6d6fae618ba037863052c3bc5369560de6fd9bcd3232ebd04cdb6f206",
        "l10n\/el.json": "5b7e1017c3b2294cf674f229cb274bb699700b594a1bfb28fa5b7f63f6881aa35b72b600fe0596f23d32f1a808efff495e0752530203980dc4155f040d050204",
        "l10n\/en_GB.js": "ac5425d0ea9780f35280a2142003db0609d47e6ea9fd35f0193c431426f2f0168805a00860e3ec2b87e88a89e937b8d731765b1f6453f3e2c7953e0db5f87aed",
        "l10n\/en_GB.json": "82f81f8b1bc339559bf13fb2e93ffbb963adb0c4686f5044fe9637c1daf48f092ae57282028458d4e8943e01e9e5aba24a381c7f98c6d5550bebd9432bfd126c",
        "l10n\/es.js": "022a255325f5f1e9babd1080d8f7d55232cffd466d6f97028935155e52c09ca9f4690ada967e03c2cf87eb16e95ea8b503ababa257ab22c07d9bdac4586f6264",
        "l10n\/es.json": "4e68a1a787bd4ce2579dcd2b831fe949caa04684875d18ac6e0f7aeb250f3d51bcca299e6fe0b070b6d1e58eea56dca693f95a6ea11882ff9502d17eda96c91c",
        "l10n\/es_419.js": "c95f677680d1fc76db1d38ff06060933507f689a8099379da7a0bde8ac1137ac7bf14ff93fd5e2f29217472936568fa7342bd1cd79d04c1ee4a622f988380c4f",
        "l10n\/es_419.json": "bf0b3d086e757804fd0e63a0b96cfe6ab5625b102514c30301a1056bdae9ca29225c6d063921c7af79a2ffede8efd3d2838f33402ff800d51656b6d939020dca",
        "l10n\/es_AR.js": "dc2f62705095f7d62640170fe3754f4c8f4b517a1311d9d9de8165e3ec79c82c00b8cb0c33ecf06e7ad94c994a67306afa378a96881fa68a91adff4ae90c7d37",
        "l10n\/es_AR.json": "497ab9e890e5be68d1f6d6b12b4fd04c8eeaf7601b0122f0c5906f78b7cb4a8c2772f198a31a15909452d940bfd1044e9147adf443b526e7a559374bf931c6d0",
        "l10n\/es_CL.js": "c95f677680d1fc76db1d38ff06060933507f689a8099379da7a0bde8ac1137ac7bf14ff93fd5e2f29217472936568fa7342bd1cd79d04c1ee4a622f988380c4f",
        "l10n\/es_CL.json": "bf0b3d086e757804fd0e63a0b96cfe6ab5625b102514c30301a1056bdae9ca29225c6d063921c7af79a2ffede8efd3d2838f33402ff800d51656b6d939020dca",
        "l10n\/es_CO.js": "c95f677680d1fc76db1d38ff06060933507f689a8099379da7a0bde8ac1137ac7bf14ff93fd5e2f29217472936568fa7342bd1cd79d04c1ee4a622f988380c4f",
        "l10n\/es_CO.json": "bf0b3d086e757804fd0e63a0b96cfe6ab5625b102514c30301a1056bdae9ca29225c6d063921c7af79a2ffede8efd3d2838f33402ff800d51656b6d939020dca",
        "l10n\/es_CR.js": "c95f677680d1fc76db1d38ff06060933507f689a8099379da7a0bde8ac1137ac7bf14ff93fd5e2f29217472936568fa7342bd1cd79d04c1ee4a622f988380c4f",
        "l10n\/es_CR.json": "bf0b3d086e757804fd0e63a0b96cfe6ab5625b102514c30301a1056bdae9ca29225c6d063921c7af79a2ffede8efd3d2838f33402ff800d51656b6d939020dca",
        "l10n\/es_DO.js": "c95f677680d1fc76db1d38ff06060933507f689a8099379da7a0bde8ac1137ac7bf14ff93fd5e2f29217472936568fa7342bd1cd79d04c1ee4a622f988380c4f",
        "l10n\/es_DO.json": "bf0b3d086e757804fd0e63a0b96cfe6ab5625b102514c30301a1056bdae9ca29225c6d063921c7af79a2ffede8efd3d2838f33402ff800d51656b6d939020dca",
        "l10n\/es_EC.js": "c95f677680d1fc76db1d38ff06060933507f689a8099379da7a0bde8ac1137ac7bf14ff93fd5e2f29217472936568fa7342bd1cd79d04c1ee4a622f988380c4f",
        "l10n\/es_EC.json": "bf0b3d086e757804fd0e63a0b96cfe6ab5625b102514c30301a1056bdae9ca29225c6d063921c7af79a2ffede8efd3d2838f33402ff800d51656b6d939020dca",
        "l10n\/es_GT.js": "c95f677680d1fc76db1d38ff06060933507f689a8099379da7a0bde8ac1137ac7bf14ff93fd5e2f29217472936568fa7342bd1cd79d04c1ee4a622f988380c4f",
        "l10n\/es_GT.json": "bf0b3d086e757804fd0e63a0b96cfe6ab5625b102514c30301a1056bdae9ca29225c6d063921c7af79a2ffede8efd3d2838f33402ff800d51656b6d939020dca",
        "l10n\/es_HN.js": "c95f677680d1fc76db1d38ff06060933507f689a8099379da7a0bde8ac1137ac7bf14ff93fd5e2f29217472936568fa7342bd1cd79d04c1ee4a622f988380c4f",
        "l10n\/es_HN.json": "bf0b3d086e757804fd0e63a0b96cfe6ab5625b102514c30301a1056bdae9ca29225c6d063921c7af79a2ffede8efd3d2838f33402ff800d51656b6d939020dca",
        "l10n\/es_MX.js": "4ac91b29eab24140416d4b8c4d312b5c85f6a9eedf7352ca63fdcdd66a16eef85ab939f536b2bb1e1b00a272f7d126ed6e3a831288792f36967e6a09da1f6a5c",
        "l10n\/es_MX.json": "06e03b811f3d054aca0d2d152dd94d5e241f71b4861ea23745865ada052b7e5422602723494a5c9551c4776baaa4435acdc0f20ad7a64baf4d512bef12586f9c",
        "l10n\/es_NI.js": "c95f677680d1fc76db1d38ff06060933507f689a8099379da7a0bde8ac1137ac7bf14ff93fd5e2f29217472936568fa7342bd1cd79d04c1ee4a622f988380c4f",
        "l10n\/es_NI.json": "bf0b3d086e757804fd0e63a0b96cfe6ab5625b102514c30301a1056bdae9ca29225c6d063921c7af79a2ffede8efd3d2838f33402ff800d51656b6d939020dca",
        "l10n\/es_PA.js": "c95f677680d1fc76db1d38ff06060933507f689a8099379da7a0bde8ac1137ac7bf14ff93fd5e2f29217472936568fa7342bd1cd79d04c1ee4a622f988380c4f",
        "l10n\/es_PA.json": "bf0b3d086e757804fd0e63a0b96cfe6ab5625b102514c30301a1056bdae9ca29225c6d063921c7af79a2ffede8efd3d2838f33402ff800d51656b6d939020dca",
        "l10n\/es_PE.js": "c95f677680d1fc76db1d38ff06060933507f689a8099379da7a0bde8ac1137ac7bf14ff93fd5e2f29217472936568fa7342bd1cd79d04c1ee4a622f988380c4f",
        "l10n\/es_PE.json": "bf0b3d086e757804fd0e63a0b96cfe6ab5625b102514c30301a1056bdae9ca29225c6d063921c7af79a2ffede8efd3d2838f33402ff800d51656b6d939020dca",
        "l10n\/es_PR.js": "c95f677680d1fc76db1d38ff06060933507f689a8099379da7a0bde8ac1137ac7bf14ff93fd5e2f29217472936568fa7342bd1cd79d04c1ee4a622f988380c4f",
        "l10n\/es_PR.json": "bf0b3d086e757804fd0e63a0b96cfe6ab5625b102514c30301a1056bdae9ca29225c6d063921c7af79a2ffede8efd3d2838f33402ff800d51656b6d939020dca",
        "l10n\/es_PY.js": "c95f677680d1fc76db1d38ff06060933507f689a8099379da7a0bde8ac1137ac7bf14ff93fd5e2f29217472936568fa7342bd1cd79d04c1ee4a622f988380c4f",
        "l10n\/es_PY.json": "bf0b3d086e757804fd0e63a0b96cfe6ab5625b102514c30301a1056bdae9ca29225c6d063921c7af79a2ffede8efd3d2838f33402ff800d51656b6d939020dca",
        "l10n\/es_SV.js": "c95f677680d1fc76db1d38ff06060933507f689a8099379da7a0bde8ac1137ac7bf14ff93fd5e2f29217472936568fa7342bd1cd79d04c1ee4a622f988380c4f",
        "l10n\/es_SV.json": "bf0b3d086e757804fd0e63a0b96cfe6ab5625b102514c30301a1056bdae9ca29225c6d063921c7af79a2ffede8efd3d2838f33402ff800d51656b6d939020dca",
        "l10n\/es_UY.js": "c95f677680d1fc76db1d38ff06060933507f689a8099379da7a0bde8ac1137ac7bf14ff93fd5e2f29217472936568fa7342bd1cd79d04c1ee4a622f988380c4f",
        "l10n\/es_UY.json": "bf0b3d086e757804fd0e63a0b96cfe6ab5625b102514c30301a1056bdae9ca29225c6d063921c7af79a2ffede8efd3d2838f33402ff800d51656b6d939020dca",
        "l10n\/et_EE.js": "b8bc56b803aba86e986e0c4b10f0d524994c33b3f6a05019b62902a846f3f2dc4fa93e013599091ff30ab3638c043a926237b75898e9d3b303bfdc1e85f9426e",
        "l10n\/et_EE.json": "f24f5927e7c4fc559e9f0945fb6a011080660eda5140972e937d3e12ea52386ad89e9737be46a1222ecbd9d8b3bae115eaef0674a94b2db841b4c6b6da2621d4",
        "l10n\/eu.js": "2bcff25df815dba2ea23de5763247c97108ceb955f7a589cf54c1f4bcd168fc97b12d074db0306c6154b0f85ccf59a5248355cd819dd9e3fe51cf09a67088667",
        "l10n\/eu.json": "4fb5cb63e597615cf99d1878ef30b109ee593f8d4a0b424e1c9f547326b38b7c6d6ff7bf87a2462c73c4ec8643afe5da7ddd5760796a259fad4a4cf1c98382df",
        "l10n\/fa.js": "ef08ca6cbd86e7459374545c8fec74eb94ef900f7b335f67822c40dc6acdeaea2f9e0015602426febf3cb1381c42e710a126db3baed4dbba7663619e07c5f995",
        "l10n\/fa.json": "d17d69e7a9e46429dff7ad5b5caaa75c28f24d3cd5284a4c21d4a23d445ecf9c028337fe9b3b6ab116460e0715f1cb9829b47da645dd2a02352fc39b5473a88b",
        "l10n\/fi.js": "78e1db4be4612d8f890f8d6ced629d92b2874340918e811c1604d4d1efcd5ae3edd3ea7ceabee52c64ad50152a0cc5a33c5c256ffc1ab4c5f2349705ae2b0185",
        "l10n\/fi.json": "62e35ccd4baa483463d99719c80f0d443a8b457be85220b5942511663d06b761e8df2da2570be2597c525563b50dc2abc379651cb1d0184c6cd11b4ed18aa938",
        "l10n\/fr.js": "969acbb726052edbcde079c8fc832832f28fb74743a87dc2bc35929ba78bde168e992762ae466601d6440409cc1bc224390f35072d18189db287b3d72d6f9575",
        "l10n\/fr.json": "71c97b63720b36ec28ede614dbf3211f6a7b0fc9fb36c95eeef25ba745c0558dedb8268a44844595fa76bb2e21c7e597a4427e08660314c9f15cb608e85d0b83",
        "l10n\/gl.js": "ea6a51dd46aa576a8c714cf4db05f98edadf1e8d10840cfae716912d80ae589d3748fb639a6ed915f4c15b0e89b9a3a38db0219c83e7817c232e669278cdd7de",
        "l10n\/gl.json": "5768cd49189f6cba4f222f81b6ff3f1dc0b862d275fd53d0997d674908d100da98a2b10c48ee084c1aef1ea0f7eaffaf7f50b78bc48780ad659268c84110e729",
        "l10n\/he.js": "291c5788f8ce489e8d87ee09cd4b4f54e2d4300c5a4127a1d14e32c7636c7172cbc47bbdc65f56fbaa0e5e0656727905b75f9368e067f997152d0091847e4b70",
        "l10n\/he.json": "b106a27e735db3ca90f425b914b56e4f9ea69a05b5d6ed8d9f0d3e433259c370f674dbd31db9071dcb9327899e229f8645970223d2fa7dbbefdef3e7fe12107d",
        "l10n\/hr.js": "16b3e7a5ea9d6401b2b694166fc66ad0ad9fc676d964fc0e2c158a184532d011b4c01c1f4d7c142b33b369887f87ee95906b6943169b0e5c263100567bacd939",
        "l10n\/hr.json": "0abbfbbf7082a33cf34946a16287c840616e8583fc25a5df7a199b4327d7690873dd5108aff6af6f67e9de6b04fe7b4269c0c8d9a3d8490811560c1493fb8fa9",
        "l10n\/hu.js": "ed8f656ce80edd93f465fdb46de1182144487243b1411573f19d5d9ca51e8318c169caf8675af51b8a9128eebae6873124eb35893de2685e19881d5e429e478e",
        "l10n\/hu.json": "81ea98505ec832fe437d2f3ddee8a0d25015d855b04fefe869e99894e49a92a98560efb3e70a0bf6a93f6d617212893421c98e78c70e41978294ebdafe8d474a",
        "l10n\/ia.js": "17f2bc82731e092f7b48304e9dfc7e90534f2ac06d025f385c52d96c5a0d2aea7de023725b1d15a53abaed65340c4d7e868c8e93b6008c6a4766d4be7f732ca7",
        "l10n\/ia.json": "78dc298088d017bde39fdf8c945eb6a756185d7cd0026fae499c67b365101f393aae3f8460df39aa9ffc4ed770c8c5395de818b4eab3294c4394f490c8d881a1",
        "l10n\/id.js": "7c7327dfd0499b4090b05ea375b51f43428dcc27f266f64b915788a8ae3f964c2a9da06b4338c768c197cc2b9b3bca19b666b0d78bc6c15007641a16b3c3ba47",
        "l10n\/id.json": "3ec09e1d01b67baf1a7b42e0fb7304fac49e018609854356e826a89aabffcdd1d6810bfe115d5e741cb58b47129a4e227eca2fef91715d9c058d81879ca542bd",
        "l10n\/is.js": "6021f76130ebfcc114d8b17aa9e965733ec9d06a83512f3f0c82d248a45343f43fdf6a88ca1bd8015d0d00fbeae8da32f1627590e4a427ff856747c59ed16926",
        "l10n\/is.json": "d012c933f7e27b54264780ab578573329e491aafc25f401b55389e18110541f0788c676de14f5290f4db34859515fd00982ca9384278ca81a63589560a8b6729",
        "l10n\/it.js": "a98dac1629ce161de4db51897b203e0aba68c173054a8c6cea9a34227c0d44389505514c024692d89f43c223e5f34a3f40ac8c89f9d37e8c84e017c55f950e6f",
        "l10n\/it.json": "f5616d6415e54ef159bcba75fea58e7d1bc911b11a0bd89f982f3e244bcebdd667701a871cbe8ae6934d890a5c25f6f589a988b55b364c03c5dc71d6cfee1bb8",
        "l10n\/ja.js": "1e6bd2981eb8914186b56d3f09620523832efcd39faa2bb17b645522837838e55fbdec318816cf412f6ee00db8912bbca3cfd4c6f733ae60b6c8e3b4bd15e0d7",
        "l10n\/ja.json": "86684d2f79ec9df1fc02f92cc5be79f6c65df9087d2f5555412bc1e3925fbc5902a973355cdf51af61c6134a5846851eccfb58f534d218e181280a0d16203571",
        "l10n\/ka_GE.js": "4a7c031901e1d3c738880be08335b0e26b09ec847cfa340235bbd18ef4473a2e285bb944a4e04143270f16a438f7a2a09cd0d64e6952f916977909047e343eeb",
        "l10n\/ka_GE.json": "a21eb016b254bbb301dbe4b46d6c7fd7bd126deaef555153104f759bdcb3e442227b16feecf13e8373549095409307307d5858ecd7ebab60d468620b96595c29",
        "l10n\/ko.js": "f3bf5c00a9447c27da08e77ab4a874709f487dc37d0d13c1f7d27f12fbb9fe36f3342f894f57b45927b69978ef423a4dd8588c5520fe67a31dc50ee98df6cabe",
        "l10n\/ko.json": "3c0b2524621432cc84dbc3be203997d34721a1b3b5b1e868850bb3609f6c9fd78dabb3c5df883dcc6b874178956473a40e275ed8b2323c90dfd1f76ffa30039b",
        "l10n\/lt_LT.js": "6e0e97812c106043a326c41a37700e03e91790afaa501328c4c128bc851b37e1c32507e80a01b51cbaee637d61f57442f7aa5a6df924e87ae64c3d85a8cf374e",
        "l10n\/lt_LT.json": "5839680ea4db95a80f414b92c86b3e813e0fc6f59b2688785c11a1ef2c26b617056cddbed0c75222d850198e6779caa95a6ed8346a9e83f00a39365060f71bc5",
        "l10n\/mk.js": "fcacdb0f7507ba7008f6a24a4e8d6d08ab3313498a4f7583dd789cd0a8096643e0c93af6a429ff3dd2adf20ac988c1ab8ce48e558160d4855ff8780622f8bcc6",
        "l10n\/mk.json": "b558aaf998bd6bcc0ca8e753f62368b69c0d46bd4246646b33b1c97afa80daa26eb7c9793c2bffbe2f578c5666ab6680b37821cc078684fda862683594f870bc",
        "l10n\/nb.js": "cc489f5a78e1cea3d881d60a39a021a39fca1b0be7d89398e499689ade456e274f047314f38c56d108e37c7d9b8dbb197650b659793a59285dd42db362e9c537",
        "l10n\/nb.json": "fd0fd22442f0d753be11f36848da70c8bc4d540c69d8f6c13de98b63a00d46524659cc4976d1930428a77069ed50f486bf9e6a59aeba831edc7be9f33f802e60",
        "l10n\/nl.js": "16be47ac97e8d67ff71afa1ec0ae57c95199a264faf35dac5773748c6ca096aa7adc5d019c295a8c7c8d35886765918a13a01d965c925ac08d6435ee15389611",
        "l10n\/nl.json": "fbf953dfef81c4d1cd4bfa38433de272d250041b088f6f90e3ea753b1facc5cfae0c4a58ccda92df156008bcaeb904dae23445cf3c0dbef797cb90fe2b48155f",
        "l10n\/pl.js": "ac628c94b25441c5235aca95476a7b6e44a5211f6b6d159844875c74e4178c7b8c86277d366c40425c373e55eaf84d6076e9fed2107fce0542bd2893cc47859e",
        "l10n\/pl.json": "180b08ad567098c7817ed03b5ecb65e2aada5700b473f390042679fcc605566a974a20d0160d7eca214269be4d4dca0811a55c1417a4004f362d1c3df573f767",
        "l10n\/pt_BR.js": "108e2041ee79845aec3ff12170433aecd88b9a48af12d5bf48acc881e7ae4b9aea35427a56549207866597e899ddec80d5aa3efee6972304f5153007215dfa7f",
        "l10n\/pt_BR.json": "8f51828a338dd3814eec8684d3db2c1624e1ba66110b8379505a17c8fc48ed99ed71f66df948dae5ba8f7931026ecc3f768a24dbe7c3838880411764e4b45e5e",
        "l10n\/pt_PT.js": "2fa272a0782cfd66494d0176bef3a24bfdcb1b22a89e46db43b4bf3b16ab39af8218e0cd8e0726237082b5ff1d19b7fd9c52da35b9ff8b4014c171b63a999f68",
        "l10n\/pt_PT.json": "b243769102200dadd17816a935d6e11f1d7a37dbaddf865826e5927adc4e150a3283904316283879df161aaa6401795a54a1630bedb477db8b9812e4f07ff79c",
        "l10n\/ru.js": "d527c8dce20c9d66932a9b0827ffaf67bb5f24277da18c90b9120df1102a1dbbc42d32aa97b810427ac17c623cde840d8efedd2fc09872fa9c1585660f4b44aa",
        "l10n\/ru.json": "1650c9fe40d005714903a814073832247206e9544d9ee24f56b953ea4c5e12b9315ba08385fc519de5d7ed774e74f43bda9f719b2806f4fa84f621953f3294df",
        "l10n\/sc.js": "08fc7180e46d1d2333d2384486a592ac88cafee0b432c8013af64cebac1ebbad1a590f2680d1253ef1aff5eb60d9535e3aa31ffe9d53f5ba1194fb8b20c770de",
        "l10n\/sc.json": "cb731ba3c4db71f84c464c5becfdc5be743ba3cc5f57f966b9e0f32930b54c24b38d0152e28187014aee59366b5c693b243f0a39f661638e8ae25ddb59a95182",
        "l10n\/sk.js": "9e8b7fd1811fa3a093111790fc4e506a5f7cdec101ece0d0d24bf4f6137f248a948633b13318e3513e7650876acdf2ec8773cfce10bd288afbdb07a532772460",
        "l10n\/sk.json": "5eb769897057593316a33d200eba05a6af065ee128f5f7c284cb5fc9baedeaf25f9e741ed6e055d8faaaddf3c1ba63a95603116ac93c23a53121095fef7c70ba",
        "l10n\/sl.js": "9cb1a98fcaed0ba20383df1ac703f06642e95e3ff7e3da575d4dffc50c6f68642bff97bd2460514616799737d8ba9b671fa1312f9e00c852cbb9b751a2ba93b8",
        "l10n\/sl.json": "5bafb78dce5e25b51beb364ab6732b76d3212b9087a06ebad8f31778b677676a04c22a71c5676f403c6da09f3d415225d8a80ddc4a28f5b3d95aec21a95ca6b1",
        "l10n\/sq.js": "1a646d76e36bd8e347836cd5ea3db0ae8b007a523dbed200920afbead55a16a3d762be2710343cc05265b5f181c4b4a941f0b6a099c5bf49eaf37a97e43dd7a1",
        "l10n\/sq.json": "1d2188d3de2e38687b95e2e3cb5dbb09faef30b7bfbb99166baa5171acb347f53fa9cec50cc4a16f7b8585503e874ed4c99b8dafb42bfd4d013c45420bf1fa7f",
        "l10n\/sr.js": "b38ea76a455acc0caad87cbd93f5b686d73f6ba04448361fa8be7a52a6aff73b418064e23a11f3dcdf79a364a28cd4e5310c2747b5445df7784acc01234ad4ca",
        "l10n\/sr.json": "67235302384f20fe7df2c4689a646f86639ce10073da4497cbd2f4b9b8dd50fff06828be4f76502334a90e51566102c5c7cbffca49224f11489a55e00e39e56e",
        "l10n\/sv.js": "513c41d6064dc2055daa61d2dff3841a0ffc99123bc8021debf61cb209593e31cdfd242c6a345767d369bba6b35da75b73186fe188364854c4b8cc4e705d757e",
        "l10n\/sv.json": "53fafaa399ef58fb77c9c03c74a95f694e60a33d11ffb3cca3f948fe209920aa93843e2a37418a9df47cc56520075469205778bb1e74637f74cac1709a7a5c6c",
        "l10n\/tr.js": "db4175a0e0998057b6cbee5fcddf86754d7eac6336a3b538a5ff63e2ce56259e3a8fb8669823d54bc1af5224bd5c66d0751366be5ea58bbde337ed67eb6e0986",
        "l10n\/tr.json": "893ce34e6cb06080f479be4d52a4cd38a92eeea39d26d2040588189c6c86a456a6f034f8c7914aae519d27ca982f7743ef1bddc20d67f0a03fa59528bd687c92",
        "l10n\/uk.js": "5e0deba4e347818cfaf5ac380810bdae23a7fbf7bb7d1a0261e02d5bf9f6de7cb1882f3d36e7eb5254edfab53925e3e09253a11c4e65bac41210c34b4f7bc6b8",
        "l10n\/uk.json": "9c8c74cdee7b41bbf0267a91fd6909db7979f521ebc1d8fb7aa0ca148afb530b0946e59ef0030195e5a5cebde79afb5b941014368eead6f9721ef19e35d0a961",
        "l10n\/zh_CN.js": "7edc27f6af7c59e960ba6f1d35ea601acc69c576282ac705c2d851f7afcd3c95252103bf166423fe08c58d792f2c935bdfa3caf700f03dfa3fc834e165ed9da3",
        "l10n\/zh_CN.json": "dff96b00b1c63d83b319308e1f2c1c324e7d0db495b52d693054a8abe3efb276c16e4213cbe123d4e5df9842162c62a4069e826c1f6fedf83a5b79ea8a94ab76",
        "l10n\/zh_HK.js": "35a764d11d23d4b98c028aa4f80150d921d0bc567a5d17d54e0169424d4710496dc1092d29bef2af0334fbc867d7b9154d35679c00af441cfa5b7d15f39b88c9",
        "l10n\/zh_HK.json": "dbb335459acb190f51ba7c5bd5135c6fc8964e80e6f5bc1d6ef669678d9f8211c2ae8ec64793d3377307167a67dff44f7acc8487d31e04c7c2fd56283fadc736",
        "l10n\/zh_TW.js": "88ae4e4dd235a5d25615d1d907d155df9e4c4a20ced8b824eca636f46dd416a6745b622e06ac491483915430ac1019241e9a62f53e176ab48e29374e2d1300ba",
        "l10n\/zh_TW.json": "a28615c9c94ab80414bdd64e1f2c2456ebffa6d3d9d7b9bff99c7880c7ae8f5019094c2b95e97b4a6b34b707426a0a492fef0cb81d36e7e63c44289e52a07740",
        "lib\/Activity.php": "3a20c9364ffb4ee0ffa21443010d692e9c8d0e8b56130ca16a39b8c852ca101f2c4e739cdf587aaea3997e4f627328985b5b179d8820c5139d985178c50848c2",
        "lib\/AppInfo\/Application.php": "cba3287e14fd08d9e5eee3058b9ca57530e0818a9a27f8e9e88483d21c752e596b04562fda58de2609d8445b6e2cd3a0f3570ccd6283449769886bb19eae0f78",
        "lib\/Capabilities.php": "6a9418afd5a0944f26879e23d994ed5236889a6bfda5d2830d0ef6af20cb786c3733069f1fdacbc7052e9e02dc9da4155f304cd56c9aa87fa97ec01a80d984af",
        "lib\/Settings\/Admin.php": "59dae0fff69c7eede67fd83d19e1f3a6529e378cadb2b673696aed273a6c260ccaacdd073dc04eb42a0c000cc1a630b8f1f39a07ba437bcf8b83a5151f313d40",
        "lib\/Settings\/SettingsManager.php": "9a566ffe9b049c01df532cc30e7c2059a78d0af9a5c0144c350653ec89834ec7a46038f2770f718723f78ffbd78949e5853816748508dbe4e41608175723e488",
        "lib\/ShareByMailProvider.php": "9d09d0f149daf7ea34f53bf8fda50711dfab788202c1347f9ed3028b9203b6260d1964c656a6ba40070a991535cb4fb214292d8a912fdacdf1cc423dc11bae82",
        "templates\/settings-admin.php": "a165fdd6c030b8bb9655b43469452260c4dcd6fe31fd5b9fef3cbb7357211dbb9b6535129ae130fb9190477301a5c38183660e702bffc351a8c51e8d31a0a6c8"
    },
    "signature": "P3slqA2wDN9XBbiirVn6A9KiBuOXqELdjtx+wnIhmXKT9EOzUfCpwv1qwQqttU3lNgHFM6+Aym5HuJeqwwb6mimCFMOINV8Cf6A3zYBddsEN3JG2O8HMinqkckl7xajao7BrzurJuPakE1GXFXm0yVrH7gUTWOrNliO+8bQ4iOZNn4OGHr5iQpx5Tzp8nMHEiGbLIbAISjeMZBw5Lel8xMxRoyr8z6f9vpLLDp8prMZvtNdQKPKbJTTwigTfrSbICkVN3tl4pH9jzviV9+oJy7caIiuyfRXTXOoZL\/XGGejnDmQe3UrbsC6tolxdrpj+UMO8rkC2RzxfXbex1Yb77g==",
    "certificate": "-----BEGIN CERTIFICATE-----\r\nMIIEojCCA4qgAwIBAgICEAAwDQYJKoZIhvcNAQELBQAwezELMAkGA1UEBhMCREUx\r\nGzAZBgNVBAgMEkJhZGVuLVd1ZXJ0dGVtYmVyZzEXMBUGA1UECgwOTmV4dGNsb3Vk\r\nIEdtYkgxNjA0BgNVBAMMLU5leHRjbG91ZCBDb2RlIFNpZ25pbmcgSW50ZXJtZWRp\r\nYXRlIEF1dGhvcml0eTAeFw0xNjA2MTIyMTA1MDZaFw00MTA2MDYyMTA1MDZaMGYx\r\nCzAJBgNVBAYTAkRFMRswGQYDVQQIDBJCYWRlbi1XdWVydHRlbWJlcmcxEjAQBgNV\r\nBAcMCVN0dXR0Z2FydDEXMBUGA1UECgwOTmV4dGNsb3VkIEdtYkgxDTALBgNVBAMM\r\nBGNvcmUwggEiMA0GCSqGSIb3DQEBAQUAA4IBDwAwggEKAoIBAQDUxcrn2DC892IX\r\n8+dJjZVh9YeHF65n2ha886oeAizOuHBdWBfzqt+GoUYTOjqZF93HZMcwy0P+xyCf\r\nQqak5Ke9dybN06RXUuGP45k9UYBp03qzlUzCDalrkj+Jd30LqcSC1sjRTsfuhc+u\r\nvH1IBuBnf7SMUJUcoEffbmmpAPlEcLHxlUGlGnz0q1e8UFzjbEFj3JucMO4ys35F\r\nqZS4dhvCngQhRW3DaMlQLXEUL9k3kFV+BzlkPzVZEtSmk4HJujFCnZj1vMcjQBg\/\r\nBqq1HCmUB6tulnGcxUzt\/Z\/oSIgnuGyENeke077W3EyryINL7EIyD4Xp7sxLizTM\r\nFCFCjjH1AgMBAAGjggFDMIIBPzAJBgNVHRMEAjAAMBEGCWCGSAGG+EIBAQQEAwIG\r\nQDAzBglghkgBhvhCAQ0EJhYkT3BlblNTTCBHZW5lcmF0ZWQgU2VydmVyIENlcnRp\r\nZmljYXRlMB0GA1UdDgQWBBQwc1H9AL8pRlW2e5SLCfPPqtqc0DCBpQYDVR0jBIGd\r\nMIGagBRt6m6qqTcsPIktFz79Ru7DnnjtdKF+pHwwejELMAkGA1UEBhMCREUxGzAZ\r\nBgNVBAgMEkJhZGVuLVd1ZXJ0dGVtYmVyZzESMBAGA1UEBwwJU3R1dHRnYXJ0MRcw\r\nFQYDVQQKDA5OZXh0Y2xvdWQgR21iSDEhMB8GA1UEAwwYTmV4dGNsb3VkIFJvb3Qg\r\nQXV0aG9yaXR5ggIQADAOBgNVHQ8BAf8EBAMCBaAwEwYDVR0lBAwwCgYIKwYBBQUH\r\nAwEwDQYJKoZIhvcNAQELBQADggEBADZ6+HV\/+0NEH3nahTBFxO6nKyR\/VWigACH0\r\nnaV0ecTcoQwDjKDNNFr+4S1WlHdwITlnNabC7v9rZ\/6QvbkrOTuO9fOR6azp1EwW\r\n2pixWqj0Sb9\/dSIVRpSq+jpBE6JAiX44dSR7zoBxRB8DgVO2Afy0s80xEpr5JAzb\r\nNYuPS7M5UHdAv2dr16fDcDIvn+vk92KpNh1NTeZFjBbRVQ9DXrgkRGW34TK8uSLI\r\nYG6jnfJ6eJgTaO431ywWPXNg1mUMaT\/+QBOgB299QVCKQU+lcZWptQt+RdsJUm46\r\nNY\/nARy4Oi4uOe88SuWITj9KhrFmEvrUlgM8FvoXA1ldrR7KiEg=\r\n-----END CERTIFICATE-----"
}